EESchema Schematic File Version 2
LIBS:stamp_mini_4_layers-rescue
LIBS:con-jack
LIBS:adm3101e
LIBS:microsd
LIBS:transistor-npn
LIBS:ipc-7351-transistor
LIBS:switch-misc
LIBS:power
LIBS:device
LIBS:transistors
LIBS:conn
LIBS:linear
LIBS:regul
LIBS:74xx
LIBS:cmos4000
LIBS:adc-dac
LIBS:memory
LIBS:xilinx
LIBS:microcontrollers
LIBS:dsp
LIBS:microchip
LIBS:analog_switches
LIBS:motorola
LIBS:texas
LIBS:intel
LIBS:audio
LIBS:interface
LIBS:digital-audio
LIBS:philips
LIBS:display
LIBS:cypress
LIBS:siliconi
LIBS:opto
LIBS:atmel
LIBS:contrib
LIBS:valves
LIBS:micron_ddr_512Mb
LIBS:iMX23
LIBS:sdmmc
LIBS:usbconn
LIBS:fsusb20
LIBS:r_pack2
LIBS:pasives-connectors
LIBS:EEPROM
LIBS:PWR
LIBS:m25p32
LIBS:PROpendous-cache
LIBS:w_analog
LIBS:gl850g
LIBS:srf2012
LIBS:rclamp0502b
LIBS:mcp130
LIBS:ABM8G
LIBS:usb_a
LIBS:Reset
LIBS:stm32f100vxx
LIBS:lt1117cst
LIBS:zxmhc3f381n8
LIBS:fsusb43
LIBS:usb-mini
LIBS:atsam3n0aa-au
LIBS:drv8835
LIBS:ftdichip
LIBS:stm32f4_lqfp100
LIBS:cstcr6m00g53z
LIBS:ESP8266
LIBS:LM2623
LIBS:lm3478
LIBS:stamp_mini_4_layers-cache
EELAYER 25 0
EELAYER END
$Descr A4 11693 8268
encoding utf-8
Sheet 4 4
Title "noname.sch"
Date "22 aug 2012"
Rev ""
Comp ""
Comment1 ""
Comment2 ""
Comment3 ""
Comment4 ""
$EndDescr
$Comp
L CP1 Cin1
U 1 1 4F95A856
P 2950 3650
F 0 "Cin1" V 2700 3600 50  0000 L CNN
F 1 "10uF/12.5V" V 2800 3450 50  0000 L CNN
F 2 "Capacitors_Tantalum_SMD:TantalC_SizeB_EIA-3528_Reflow" H 2950 3650 60  0001 C CNN
F 3 "" H 2950 3650 60  0001 C CNN
	1    2950 3650
	1    0    0    -1  
$EndComp
Text Label 6700 4550 1    60   ~ 0
ISENR
$Comp
L LM3478 Ua14
U 1 1 4E5DACA8
P 5150 3900
F 0 "Ua14" H 5050 4050 60  0000 C CNN
F 1 "LM3478" H 5150 3900 60  0000 C CNN
F 2 "fuente:MUA08A" H 5150 3900 60  0001 C CNN
F 3 "" H 5150 3900 60  0001 C CNN
	1    5150 3900
	1    0    0    -1  
$EndComp
$Comp
L INDUCTOR Lin1
U 1 1 4E5DAA1E
P 5100 2600
F 0 "Lin1" V 5050 2600 40  0000 C CNN
F 1 "3.8uH/DCR=13mOhm" V 5200 2600 40  0000 C CNN
F 2 "Inductors_NEOSID:Neosid_Inductor_SM-NE127" H 5100 2600 60  0001 C CNN
F 3 "" H 5100 2600 60  0001 C CNN
	1    5100 2600
	0    1    1    0   
$EndComp
$Comp
L C Cse1
U 1 1 4E5DAA0B
P 6900 2600
F 0 "Cse1" H 6950 2700 50  0000 L CNN
F 1 "2.2uF" H 6950 2500 50  0000 L CNN
F 2 "Capacitors_SMD:C_0805" H 6900 2600 60  0001 C CNN
F 3 "" H 6900 2600 60  0001 C CNN
	1    6900 2600
	0    1    1    0   
$EndComp
$Comp
L CP1 Cout1
U 1 1 4E5DA954
P 8150 3700
F 0 "Cout1" H 8200 3800 50  0000 L CNN
F 1 "120u/10V" H 8200 3600 50  0000 L CNN
F 2 "Capacitors_SMD:c_elec_6.3x7.7" H 8150 3700 60  0001 C CNN
F 3 "" H 8150 3700 60  0001 C CNN
	1    8150 3700
	1    0    0    -1  
$EndComp
$Comp
L C Cra1
U 1 1 4E5DA886
P 6150 4750
F 0 "Cra1" H 6200 4850 50  0000 L CNN
F 1 "820pF/50V" H 6200 4650 50  0000 L CNN
F 2 "SM0603" H 6150 4750 60  0001 C CNN
F 3 "" H 6150 4750 60  0001 C CNN
	1    6150 4750
	1    0    0    -1  
$EndComp
$Comp
L R Rra1
U 1 1 4E5DA855
P 6450 4150
F 0 "Rra1" V 6530 4150 50  0000 C CNN
F 1 "100" V 6450 4150 50  0000 C CNN
F 2 "SM0603" H 6450 4150 60  0001 C CNN
F 3 "" H 6450 4150 60  0001 C CNN
	1    6450 4150
	0    -1   -1   0   
$EndComp
$Comp
L C Cbp1
U 1 1 4E5D6380
P 3350 4450
F 0 "Cbp1" H 3400 4550 50  0000 L CNN
F 1 "100nF" H 3400 4350 50  0000 L CNN
F 2 "SM0603" H 3350 4450 60  0001 C CNN
F 3 "" H 3350 4450 60  0001 C CNN
	1    3350 4450
	1    0    0    -1  
$EndComp
$Comp
L R Rfa1
U 1 1 4E5D0DB8
P 5500 4900
F 0 "Rfa1" V 5580 4900 50  0000 C CNN
F 1 "41.2k" V 5500 4900 50  0000 C CNN
F 2 "SM0603" H 5500 4900 60  0001 C CNN
F 3 "" H 5500 4900 60  0001 C CNN
	1    5500 4900
	1    0    0    -1  
$EndComp
$Comp
L C Cco1
U 1 1 4E5D0DB1
P 4200 4800
F 0 "Cco1" H 4250 4900 50  0000 L CNN
F 1 "150nF/10V" H 4250 4700 50  0000 L CNN
F 2 "SM0603" H 4200 4800 60  0001 C CNN
F 3 "" H 4200 4800 60  0001 C CNN
	1    4200 4800
	1    0    0    -1  
$EndComp
$Comp
L C Cco2
U 1 1 4E5D0C1C
P 3750 4350
F 0 "Cco2" H 3800 4450 50  0000 L CNN
F 1 "2.7nF" H 3800 4250 50  0000 L CNN
F 2 "SM0603" H 3750 4350 60  0001 C CNN
F 3 "" H 3750 4350 60  0001 C CNN
	1    3750 4350
	1    0    0    -1  
$EndComp
$Comp
L R Rfb1
U 1 1 4E5D0B99
P 7600 4300
F 0 "Rfb1" V 7680 4300 50  0000 C CNN
F 1 "10k" V 7600 4300 50  0000 C CNN
F 2 "SM0603" H 7600 4300 60  0001 C CNN
F 3 "" H 7600 4300 60  0001 C CNN
	1    7600 4300
	-1   0    0    1   
$EndComp
$Comp
L R Rco1
U 1 1 4E5D0B8F
P 4200 4350
F 0 "Rco1" V 4280 4350 50  0000 C CNN
F 1 "976" V 4200 4350 50  0000 C CNN
F 2 "SM0603" H 4200 4350 60  0001 C CNN
F 3 "" H 4200 4350 60  0001 C CNN
	1    4200 4350
	1    0    0    -1  
$EndComp
$Comp
L R Rse1
U 1 1 4E5D0AD0
P 6700 4850
F 0 "Rse1" V 6780 4850 50  0000 C CNN
F 1 "11m/1W" V 6850 4850 50  0000 C CNN
F 2 "SM1206" H 6700 4850 60  0001 C CNN
F 3 "" H 6700 4850 60  0001 C CNN
	1    6700 4850
	1    0    0    -1  
$EndComp
$Comp
L R Rfb2
U 1 1 4E5D0AA6
P 7600 2900
F 0 "Rfb2" V 7680 2900 50  0000 C CNN
F 1 "29.4k" V 7600 2900 50  0000 C CNN
F 2 "SM0603" H 7600 2900 60  0001 C CNN
F 3 "" H 7600 2900 60  0001 C CNN
	1    7600 2900
	1    0    0    -1  
$EndComp
$Comp
L R Rbp1
U 1 1 4E5D0A69
P 3350 3350
F 0 "Rbp1" V 3430 3350 50  0000 C CNN
F 1 "20" V 3350 3350 50  0000 C CNN
F 2 "SM0603" H 3350 3350 60  0001 C CNN
F 3 "" H 3350 3350 60  0001 C CNN
	1    3350 3350
	1    0    0    -1  
$EndComp
$Comp
L INDUCTOR Lo1
U 1 1 4E5D09C4
P 6300 2200
F 0 "Lo1" V 6250 2200 40  0000 C CNN
F 1 "22uH/DCR=66mOhm" V 6200 2250 40  0000 C CNN
F 2 "Inductors_NEOSID:Neosid_Inductor_SM-NE127" H 6300 2200 60  0001 C CNN
F 3 "" H 6300 2200 60  0001 C CNN
	1    6300 2200
	0    1    1    0   
$EndComp
$Comp
L GND-RESCUE-stamp_mini_4_layers #PWR050
U 1 1 5618C4EF
P 6150 5400
F 0 "#PWR050" H 6150 5150 50  0001 C CNN
F 1 "GND" H 6150 5250 50  0000 C CNN
F 2 "" H 6150 5400 60  0000 C CNN
F 3 "" H 6150 5400 60  0000 C CNN
	1    6150 5400
	1    0    0    -1  
$EndComp
$Comp
L GND-RESCUE-stamp_mini_4_layers #PWR051
U 1 1 5618C5EE
P 5900 2250
F 0 "#PWR051" H 5900 2000 50  0001 C CNN
F 1 "GND" H 5900 2100 50  0000 C CNN
F 2 "" H 5900 2250 60  0000 C CNN
F 3 "" H 5900 2250 60  0000 C CNN
	1    5900 2250
	1    0    0    -1  
$EndComp
$Comp
L SCHDPAK-RESCUE-stamp_mini_4_layers Ddc1
U 1 1 5618CB30
P 7350 2600
AR Path="/5618CB30" Ref="Ddc1"  Part="1" 
AR Path="/56189EDE/5618CB30" Ref="Ddc1"  Part="1" 
F 0 "Ddc1" H 7350 2700 50  0000 C CNN
F 1 "SCHDPAK" H 7350 2500 50  0000 C CNN
F 2 "Diodes_SMD:D-Pak_TO252AA" H 7350 2600 60  0001 C CNN
F 3 "" H 7350 2600 60  0000 C CNN
	1    7350 2600
	-1   0    0    1   
$EndComp
$Comp
L IRF7606PBF QDC1
U 1 1 561913CF
P 6650 3650
F 0 "QDC1" H 6450 3950 50  0000 L CNN
F 1 "BSZ058N03LS" H 6400 3400 50  0000 L CNN
F 2 "fuente:PG-TSDSON-8" H 6650 3850 50  0001 C CIN
F 3 "" V 6650 3650 50  0000 L CNN
	1    6650 3650
	0    1    -1   0   
$EndComp
Wire Wire Line
	2400 5250 8700 5250
Wire Wire Line
	2950 2600 2950 3500
Connection ~ 6700 2600
Wire Wire Line
	6700 3300 6700 2600
Wire Wire Line
	6600 2200 7100 2200
Wire Wire Line
	5150 3200 7600 3200
Wire Wire Line
	6200 3650 6100 3650
Connection ~ 8150 2600
Connection ~ 7600 5250
Wire Wire Line
	8150 5250 8150 3850
Connection ~ 3350 2600
Wire Wire Line
	3350 2600 3350 3200
Connection ~ 7600 2600
Wire Wire Line
	7600 3050 7600 4150
Connection ~ 3350 3650
Wire Wire Line
	3350 3500 3350 4300
Connection ~ 6150 5250
Connection ~ 6150 4150
Connection ~ 3350 5250
Wire Wire Line
	4750 4600 4750 5250
Connection ~ 4750 5250
Connection ~ 3750 5250
Wire Wire Line
	3750 4500 3750 5250
Connection ~ 4200 3950
Wire Wire Line
	3750 3950 4250 3950
Wire Wire Line
	4200 3950 4200 4200
Wire Wire Line
	3350 3650 4250 3650
Connection ~ 4200 5250
Connection ~ 5150 5250
Wire Wire Line
	5150 4600 5150 5250
Wire Wire Line
	5500 4600 5500 4750
Wire Wire Line
	4200 4950 4200 5250
Wire Wire Line
	6100 4150 6300 4150
Wire Wire Line
	6700 5000 6700 5250
Connection ~ 7600 3200
Wire Wire Line
	7600 4450 7600 5250
Connection ~ 6700 5250
Wire Wire Line
	7600 2600 7600 2750
Wire Wire Line
	6000 2200 5900 2200
Wire Wire Line
	5900 2200 5900 2250
Wire Wire Line
	8150 2600 8150 3550
Wire Wire Line
	5500 5050 5500 5250
Connection ~ 5500 5250
Wire Wire Line
	6150 4150 6150 4600
Wire Wire Line
	6700 4000 6700 4700
Connection ~ 6700 4150
Wire Wire Line
	7550 2600 9400 2600
Wire Wire Line
	2400 2600 4800 2600
Connection ~ 2950 2600
Wire Wire Line
	2950 5250 2950 3800
Wire Wire Line
	4200 4650 4200 4500
Wire Wire Line
	3750 4200 3750 3950
Wire Wire Line
	3350 4600 3350 5250
Wire Wire Line
	6600 4150 6700 4150
Wire Wire Line
	6150 4900 6150 5400
Wire Wire Line
	5400 2600 6750 2600
Wire Wire Line
	7100 2200 7100 2650
Wire Wire Line
	7100 2600 7050 2600
Wire Wire Line
	7100 2650 7150 2650
Connection ~ 7100 2600
Wire Wire Line
	7150 2550 7100 2550
Wire Wire Line
	7100 2550 7100 2600
Wire Wire Line
	6200 3650 6200 4000
Wire Wire Line
	6200 4000 6500 4000
Wire Wire Line
	6500 4000 6500 3950
Wire Wire Line
	6650 3950 6650 4000
Wire Wire Line
	6650 4000 6850 4000
Wire Wire Line
	6750 4000 6750 3950
Connection ~ 6700 4000
Wire Wire Line
	6850 4000 6850 3950
Connection ~ 6750 4000
Wire Wire Line
	6550 3350 6550 3300
Wire Wire Line
	6550 3300 6850 3300
Wire Wire Line
	6650 3300 6650 3350
Wire Wire Line
	6750 3300 6750 3350
Connection ~ 6700 3300
Wire Wire Line
	6850 3300 6850 3350
Connection ~ 6750 3300
Connection ~ 6650 3300
Text HLabel 9400 2600 2    60   Input ~ 0
VM
$Comp
L DCJ0202 PWR1
U 1 1 56195821
P 1950 3850
F 0 "PWR1" H 1850 4000 50  0000 L BNN
F 1 "VIN" H 1850 3600 50  0000 L BNN
F 2 "Connect:JACK_ALIM" H 1950 4000 50  0001 C CNN
F 3 "" H 1950 3850 60  0000 C CNN
	1    1950 3850
	1    0    0    -1  
$EndComp
Wire Wire Line
	2250 3750 2400 3750
Wire Wire Line
	2400 3750 2400 2600
Wire Wire Line
	2250 3850 2400 3850
Wire Wire Line
	2400 3850 2400 5250
Connection ~ 2950 5250
$Comp
L LT1117CST U11
U 1 1 561967DB
P 9450 4200
F 0 "U11" H 9300 4500 60  0000 C CNN
F 1 "LT1117CST" H 9450 4200 40  0000 C CNN
F 2 "TO_SOT_Packages_SMD:SOT-223" H 9450 4200 60  0001 C CNN
F 3 "" H 9450 4200 60  0000 C CNN
	1    9450 4200
	1    0    0    -1  
$EndComp
$Comp
L GND-RESCUE-stamp_mini_4_layers #PWR052
U 1 1 561969F7
P 9000 4250
F 0 "#PWR052" H 9000 4000 50  0001 C CNN
F 1 "GND" H 9000 4100 50  0000 C CNN
F 2 "" H 9000 4250 60  0000 C CNN
F 3 "" H 9000 4250 60  0000 C CNN
	1    9000 4250
	1    0    0    -1  
$EndComp
Wire Wire Line
	9000 4250 9000 4100
Wire Wire Line
	9000 4100 9100 4100
$Comp
L C C76
U 1 1 56196B90
P 10450 4250
F 0 "C76" H 10500 4350 50  0000 L CNN
F 1 "2.7nF" H 10500 4150 50  0000 L CNN
F 2 "SM0603" H 10450 4250 60  0001 C CNN
F 3 "" H 10450 4250 60  0001 C CNN
	1    10450 4250
	1    0    0    -1  
$EndComp
$Comp
L C-RESCUE-stamp_mini_4_layers C75
U 1 1 56197527
P 10050 4250
F 0 "C75" H 10100 4350 50  0000 L CNN
F 1 "4.7uF" H 10100 4150 50  0000 L CNN
F 2 "SM1206" H 10050 4250 60  0001 C CNN
F 3 "" H 10050 4250 60  0001 C CNN
	1    10050 4250
	1    0    0    -1  
$EndComp
$Comp
L C-RESCUE-stamp_mini_4_layers C74
U 1 1 56197581
P 8700 4100
F 0 "C74" H 8750 4200 50  0000 L CNN
F 1 "4.7uF" H 8750 4000 50  0000 L CNN
F 2 "SM1206" H 8700 4100 60  0001 C CNN
F 3 "" H 8700 4100 60  0001 C CNN
	1    8700 4100
	1    0    0    -1  
$EndComp
Wire Wire Line
	8700 3900 8700 2600
Connection ~ 8700 2600
Wire Wire Line
	8700 5250 8700 4300
Connection ~ 8150 5250
Wire Wire Line
	9100 4000 9050 4000
Wire Wire Line
	9050 4000 9050 2600
Connection ~ 9050 2600
Wire Wire Line
	9750 4000 10450 4000
Wire Wire Line
	10450 3850 10450 4100
Wire Wire Line
	10050 4050 10050 4000
Connection ~ 10050 4000
Wire Wire Line
	9750 4100 9850 4100
Wire Wire Line
	9850 4100 9850 4000
Connection ~ 9850 4000
Wire Wire Line
	10050 4450 10050 4550
Wire Wire Line
	10050 4550 10450 4550
Wire Wire Line
	10450 4550 10450 4400
$Comp
L GND-RESCUE-stamp_mini_4_layers #PWR053
U 1 1 56198026
P 10250 4650
F 0 "#PWR053" H 10250 4400 50  0001 C CNN
F 1 "GND" H 10250 4500 50  0000 C CNN
F 2 "" H 10250 4650 60  0000 C CNN
F 3 "" H 10250 4650 60  0000 C CNN
	1    10250 4650
	1    0    0    -1  
$EndComp
Wire Wire Line
	10250 4650 10250 4550
Connection ~ 10250 4550
$Comp
L +3.3VP #PWR054
U 1 1 56199F1B
P 10450 3850
F 0 "#PWR054" H 10500 3880 20  0001 C CNN
F 1 "+3.3VP" H 10450 3940 30  0000 C CNN
F 2 "" H 10450 3850 60  0001 C CNN
F 3 "" H 10450 3850 60  0001 C CNN
	1    10450 3850
	1    0    0    -1  
$EndComp
$Comp
L 3V3 #PWR055
U 1 1 56199F21
P 10300 3850
F 0 "#PWR055" H 10300 3950 30  0001 C CNN
F 1 "3V3" H 10300 3960 30  0000 C CNN
F 2 "" H 10300 3850 60  0001 C CNN
F 3 "" H 10300 3850 60  0001 C CNN
	1    10300 3850
	1    0    0    -1  
$EndComp
Connection ~ 10450 4000
Wire Wire Line
	10300 3850 10300 4000
Connection ~ 10300 4000
Text Label 2700 2600 0    60   ~ 0
VIN
Text Label 5950 2600 0    60   ~ 0
VLC
Text Label 6900 2200 0    60   ~ 0
VDCL
$EndSCHEMATC
