EESchema Schematic File Version 2
LIBS:stamp_mini_4_layers-rescue
LIBS:con-jack
LIBS:adm3101e
LIBS:microsd
LIBS:transistor-npn
LIBS:ipc-7351-transistor
LIBS:switch-misc
LIBS:power
LIBS:device
LIBS:transistors
LIBS:conn
LIBS:linear
LIBS:regul
LIBS:74xx
LIBS:cmos4000
LIBS:adc-dac
LIBS:memory
LIBS:xilinx
LIBS:microcontrollers
LIBS:dsp
LIBS:microchip
LIBS:analog_switches
LIBS:motorola
LIBS:texas
LIBS:intel
LIBS:audio
LIBS:interface
LIBS:digital-audio
LIBS:philips
LIBS:display
LIBS:cypress
LIBS:siliconi
LIBS:opto
LIBS:atmel
LIBS:contrib
LIBS:valves
LIBS:micron_ddr_512Mb
LIBS:iMX23
LIBS:sdmmc
LIBS:usbconn
LIBS:fsusb20
LIBS:r_pack2
LIBS:pasives-connectors
LIBS:EEPROM
LIBS:PWR
LIBS:m25p32
LIBS:PROpendous-cache
LIBS:w_analog
LIBS:gl850g
LIBS:srf2012
LIBS:rclamp0502b
LIBS:mcp130
LIBS:ABM8G
LIBS:usb_a
LIBS:Reset
LIBS:stm32f100vxx
LIBS:lt1117cst
LIBS:zxmhc3f381n8
LIBS:fsusb43
LIBS:usb-mini
LIBS:atsam3n0aa-au
LIBS:drv8835
LIBS:ftdichip
LIBS:stm32f4_lqfp100
LIBS:cstcr6m00g53z
LIBS:ESP8266
LIBS:LM2623
LIBS:lm3478
LIBS:stamp_mini_4_layers-cache
EELAYER 25 0
EELAYER END
$Descr A3 16535 11693
encoding utf-8
Sheet 2 4
Title ""
Date "9 aug 2012"
Rev ""
Comp ""
Comment1 ""
Comment2 ""
Comment3 ""
Comment4 ""
$EndDescr
Wire Wire Line
	4900 4250 4900 4300
Wire Wire Line
	4750 3850 5000 3850
Wire Wire Line
	5700 4300 5700 4350
Wire Wire Line
	5700 3850 5700 3900
Connection ~ 5700 3850
$Comp
L GND-RESCUE-stamp_mini_4_layers #PWR02
U 1 1 4FC6C2CD
P 5700 4350
F 0 "#PWR02" H 5700 4350 30  0001 C CNN
F 1 "GND" H 5700 4280 30  0001 C CNN
F 2 "" H 5700 4350 60  0001 C CNN
F 3 "" H 5700 4350 60  0001 C CNN
	1    5700 4350
	1    0    0    -1  
$EndComp
$Comp
L INDUCTOR L11
U 1 1 4FC6C26A
P 5300 3850
F 0 "L11" V 5250 3850 40  0000 C CNN
F 1 "HZ0805D152R-10" V 5400 3850 40  0000 C CNN
F 2 "opendous:SM0805" H 5300 3850 60  0001 C CNN
F 3 "" H 5300 3850 60  0001 C CNN
	1    5300 3850
	0    -1   -1   0   
$EndComp
$Comp
L C-RESCUE-stamp_mini_4_layers C37
U 1 1 4FC6C1A7
P 5700 4100
F 0 "C37" H 5750 4200 50  0000 L CNN
F 1 "10uF" H 5750 4000 50  0000 L CNN
F 2 "opendous:SM1210_Opendous" H 5700 4100 60  0001 C CNN
F 3 "" H 5700 4100 60  0001 C CNN
	1    5700 4100
	1    0    0    -1  
$EndComp
$Comp
L GND-RESCUE-stamp_mini_4_layers #PWR03
U 1 1 4FC6C11B
P 4900 4300
F 0 "#PWR03" H 4900 4300 30  0001 C CNN
F 1 "GND" H 4900 4230 30  0001 C CNN
F 2 "" H 4900 4300 60  0001 C CNN
F 3 "" H 4900 4300 60  0001 C CNN
	1    4900 4300
	1    0    0    -1  
$EndComp
$Comp
L C-RESCUE-stamp_mini_4_layers C35
U 1 1 4FC6BCE9
P 4900 4050
F 0 "C35" H 4950 4150 50  0000 L CNN
F 1 "10nF" H 4950 3950 50  0000 L CNN
F 2 "opendous:SM0603_Opendous" H 4900 4050 60  0001 C CNN
F 3 "" H 4900 4050 60  0001 C CNN
	1    4900 4050
	1    0    0    -1  
$EndComp
Connection ~ 4900 3850
$Comp
L ESP-07v2 ESP1
U 1 1 55D151A8
P 7300 4750
F 0 "ESP1" H 7300 4650 50  0000 C CNN
F 1 "ESP-07v2" H 7300 4850 50  0000 C CNN
F 2 "esp826:ESP-07v2" H 7300 4750 50  0001 C CNN
F 3 "" H 7300 4750 50  0001 C CNN
	1    7300 4750
	1    0    0    -1  
$EndComp
Text HLabel 9350 4550 2    60   Input ~ 0
RX
Text HLabel 9350 4450 2    60   Input ~ 0
TX
Text HLabel 6250 4850 0    60   Input ~ 0
TDI
Text HLabel 6250 4950 0    60   Input ~ 0
TDO
Text HLabel 6250 5050 0    60   Input ~ 0
TMS
Text HLabel 6250 4750 0    60   Input ~ 0
TCK
Text HLabel 8300 4650 2    60   Input ~ 0
nTRST
Wire Wire Line
	8750 4450 8200 4450
Wire Wire Line
	8750 4550 8200 4550
Wire Wire Line
	5600 3850 7300 3850
$Comp
L GND-RESCUE-stamp_mini_4_layers #PWR04
U 1 1 55D16530
P 7300 5700
F 0 "#PWR04" H 7300 5700 30  0001 C CNN
F 1 "GND" H 7300 5630 30  0001 C CNN
F 2 "" H 7300 5700 60  0001 C CNN
F 3 "" H 7300 5700 60  0001 C CNN
	1    7300 5700
	1    0    0    -1  
$EndComp
Wire Wire Line
	7300 5650 7300 5700
$Comp
L 3V3 #PWR05
U 1 1 55D1702D
P 4750 3850
F 0 "#PWR05" H 4750 3950 30  0001 C CNN
F 1 "3V3" H 4750 3960 30  0000 C CNN
F 2 "" H 4750 3850 60  0001 C CNN
F 3 "" H 4750 3850 60  0001 C CNN
	1    4750 3850
	1    0    0    -1  
$EndComp
Wire Wire Line
	6400 4750 6250 4750
Wire Wire Line
	6250 4850 6400 4850
Wire Wire Line
	6250 4950 6400 4950
Wire Wire Line
	6250 5050 6400 5050
Wire Wire Line
	8300 4650 8200 4650
Text HLabel 8300 4750 2    60   Input ~ 0
nSRST
Wire Wire Line
	8300 4750 8200 4750
$Comp
L SW_PUSH SWESP1
U 1 1 55D17453
P 4050 5750
F 0 "SWESP1" H 4200 5860 50  0000 C CNN
F 1 "SW_PUSH" H 4050 5670 50  0000 C CNN
F 2 "Socket_Strips:Socket_Strip_Straight_2x01" H 4050 5750 60  0001 C CNN
F 3 "" H 4050 5750 60  0000 C CNN
	1    4050 5750
	1    0    0    -1  
$EndComp
$Comp
L R-RESCUE-stamp_mini_4_layers RESP2
U 1 1 55D1746F
P 4850 5100
F 0 "RESP2" V 4930 5100 40  0000 C CNN
F 1 "470K" V 4857 5101 40  0000 C CNN
F 2 "opendous:SM0603_Opendous" V 4780 5100 30  0001 C CNN
F 3 "" H 4850 5100 30  0000 C CNN
	1    4850 5100
	1    0    0    -1  
$EndComp
$Comp
L C-RESCUE-stamp_mini_4_layers CESP2
U 1 1 55D17476
P 5400 5750
F 0 "CESP2" H 5400 5850 40  0000 L CNN
F 1 "2u2" H 5406 5665 40  0000 L CNN
F 2 "opendous:SM0805_Opendous" H 5438 5600 30  0001 C CNN
F 3 "" H 5400 5750 60  0000 C CNN
	1    5400 5750
	1    0    0    -1  
$EndComp
$Comp
L R-RESCUE-stamp_mini_4_layers RESP3
U 1 1 55D1747D
P 5150 5450
F 0 "RESP3" V 5230 5450 40  0000 C CNN
F 1 "100K" V 5157 5451 40  0000 C CNN
F 2 "opendous:SM0603_Opendous" V 5080 5450 30  0001 C CNN
F 3 "" H 5150 5450 30  0000 C CNN
	1    5150 5450
	0    1    1    0   
$EndComp
$Comp
L GND-RESCUE-stamp_mini_4_layers #PWR06
U 1 1 55D174A5
P 5800 5950
F 0 "#PWR06" H 5800 5700 60  0001 C CNN
F 1 "GND" H 5800 5800 60  0001 C CNN
F 2 "" H 5800 5950 60  0000 C CNN
F 3 "" H 5800 5950 60  0000 C CNN
	1    5800 5950
	1    0    0    -1  
$EndComp
$Comp
L GND-RESCUE-stamp_mini_4_layers #PWR07
U 1 1 55D174AB
P 5400 6000
F 0 "#PWR07" H 5400 5750 60  0001 C CNN
F 1 "GND" H 5400 5850 60  0001 C CNN
F 2 "" H 5400 6000 60  0000 C CNN
F 3 "" H 5400 6000 60  0000 C CNN
	1    5400 6000
	1    0    0    -1  
$EndComp
$Comp
L GND-RESCUE-stamp_mini_4_layers #PWR08
U 1 1 55D174B1
P 4850 5950
F 0 "#PWR08" H 4850 5700 60  0001 C CNN
F 1 "GND" H 4850 5800 60  0001 C CNN
F 2 "" H 4850 5950 60  0000 C CNN
F 3 "" H 4850 5950 60  0000 C CNN
	1    4850 5950
	1    0    0    -1  
$EndComp
$Comp
L GND-RESCUE-stamp_mini_4_layers #PWR09
U 1 1 55D174B7
P 3750 6200
F 0 "#PWR09" H 3750 5950 60  0001 C CNN
F 1 "GND" H 3750 6050 60  0001 C CNN
F 2 "" H 3750 6200 60  0000 C CNN
F 3 "" H 3750 6200 60  0000 C CNN
	1    3750 6200
	1    0    0    -1  
$EndComp
$Comp
L R-RESCUE-stamp_mini_4_layers RESP1
U 1 1 55D174EF
P 8350 5350
F 0 "RESP1" V 8430 5350 40  0000 C CNN
F 1 "10K" V 8357 5351 40  0000 C CNN
F 2 "opendous:SM0603_Opendous" V 8280 5350 30  0001 C CNN
F 3 "" H 8350 5350 30  0000 C CNN
	1    8350 5350
	-1   0    0    1   
$EndComp
$Comp
L R-RESCUE-stamp_mini_4_layers RESP4
U 1 1 55D174FC
P 6050 4250
F 0 "RESP4" V 6130 4250 40  0000 C CNN
F 1 "47K" V 6057 4251 40  0000 C CNN
F 2 "opendous:SM0603_Opendous" V 5980 4250 30  0001 C CNN
F 3 "" H 6050 4250 30  0000 C CNN
	1    6050 4250
	1    0    0    -1  
$EndComp
Wire Wire Line
	4350 5750 4550 5750
Wire Wire Line
	4850 5900 4850 5950
Connection ~ 4850 5450
Wire Wire Line
	5400 5450 5500 5450
Wire Wire Line
	5400 5550 5400 5450
Connection ~ 5400 5450
Wire Wire Line
	5800 5600 5800 5950
Wire Wire Line
	3750 5750 3750 6200
Wire Wire Line
	5400 6000 5400 5950
Connection ~ 4400 5750
Wire Wire Line
	4400 5750 4400 6200
$Comp
L C-RESCUE-stamp_mini_4_layers CESP1
U 1 1 55D17568
P 4050 6000
F 0 "CESP1" H 4050 6100 40  0000 L CNN
F 1 "0.1u" H 4056 5915 40  0000 L CNN
F 2 "opendous:SM0603_Opendous" H 4088 5850 30  0001 C CNN
F 3 "" H 4050 6000 60  0000 C CNN
	1    4050 6000
	0    1    1    0   
$EndComp
Wire Wire Line
	4250 6000 4400 6000
Connection ~ 4400 6000
Wire Wire Line
	3850 6000 3750 6000
Connection ~ 3750 6000
Wire Wire Line
	4850 4850 4850 4800
Wire Wire Line
	8200 4850 8450 4850
Text Label 8250 4850 0    39   ~ 0
GPIO0
Wire Wire Line
	5800 5200 6050 5200
Text Label 5850 5200 0    39   ~ 0
GPIO0
Wire Wire Line
	6150 4450 6400 4450
Text Label 6200 4450 0    39   ~ 0
RESET
Wire Wire Line
	4400 6200 4650 6200
Text Label 4450 6200 0    39   ~ 0
RESET
Wire Wire Line
	8200 5050 8350 5050
Wire Wire Line
	8350 5050 8350 5100
$Comp
L GND-RESCUE-stamp_mini_4_layers #PWR010
U 1 1 55D1A893
P 8350 5650
F 0 "#PWR010" H 8350 5650 30  0001 C CNN
F 1 "GND" H 8350 5580 30  0001 C CNN
F 2 "" H 8350 5650 60  0001 C CNN
F 3 "" H 8350 5650 60  0001 C CNN
	1    8350 5650
	1    0    0    -1  
$EndComp
Wire Wire Line
	8350 5600 8350 5650
Wire Wire Line
	6050 4000 6050 3850
Connection ~ 6050 3850
Wire Wire Line
	6400 4650 6050 4650
Wire Wire Line
	6050 4650 6050 4500
$Comp
L BSS138 QESP2
U 1 1 55D202B0
P 5700 5400
F 0 "QESP2" H 5700 5251 40  0000 R CNN
F 1 "BSS138" H 5700 5550 40  0000 R CNN
F 2 "SOT-23" H 5570 5502 29  0001 C CNN
F 3 "" H 5700 5400 60  0000 C CNN
	1    5700 5400
	1    0    0    -1  
$EndComp
$Comp
L BSS138 QESP1
U 1 1 55D2080A
P 4750 5700
F 0 "QESP1" H 4750 5551 40  0000 R CNN
F 1 "BSS138" H 4750 5850 40  0000 R CNN
F 2 "SOT-23" H 4620 5802 29  0001 C CNN
F 3 "" H 4750 5700 60  0000 C CNN
	1    4750 5700
	1    0    0    -1  
$EndComp
Wire Wire Line
	4850 5450 4900 5450
Wire Wire Line
	4850 5350 4850 5500
$Comp
L R-RESCUE-stamp_mini_4_layers RESP5
U 1 1 55D26B4B
P 8850 5350
F 0 "RESP5" V 8930 5350 50  0000 C CNN
F 1 "1k" V 8850 5350 50  0000 C CNN
F 2 "SM0603" H 8850 5350 60  0001 C CNN
F 3 "" H 8850 5350 60  0001 C CNN
	1    8850 5350
	-1   0    0    1   
$EndComp
$Comp
L LED-RESCUE-stamp_mini_4_layers DESP1
U 1 1 55D26B52
P 8650 4950
F 0 "DESP1" H 8650 5050 50  0000 C CNN
F 1 "LED" H 8650 4850 50  0000 C CNN
F 2 "SM0603" H 8650 4950 60  0001 C CNN
F 3 "" H 8650 4950 60  0001 C CNN
	1    8650 4950
	1    0    0    -1  
$EndComp
$Comp
L GND-RESCUE-stamp_mini_4_layers #PWR011
U 1 1 55D26B59
P 8850 5650
F 0 "#PWR011" H 8850 5650 30  0001 C CNN
F 1 "GND" H 8850 5580 30  0001 C CNN
F 2 "" H 8850 5650 60  0001 C CNN
F 3 "" H 8850 5650 60  0001 C CNN
	1    8850 5650
	-1   0    0    -1  
$EndComp
Wire Wire Line
	8450 4950 8200 4950
Wire Wire Line
	8850 4950 8850 5100
Wire Wire Line
	8850 5600 8850 5650
Wire Wire Line
	9350 4450 9250 4450
Wire Wire Line
	9350 4550 9250 4550
$Comp
L GND-RESCUE-stamp_mini_4_layers #PWR012
U 1 1 55D2949A
P 9350 4700
F 0 "#PWR012" H 9350 4700 30  0001 C CNN
F 1 "GND" H 9350 4630 30  0001 C CNN
F 2 "" H 9350 4700 60  0001 C CNN
F 3 "" H 9350 4700 60  0001 C CNN
	1    9350 4700
	-1   0    0    -1  
$EndComp
Wire Wire Line
	9350 4650 9350 4700
$Comp
L GND-RESCUE-stamp_mini_4_layers #PWR013
U 1 1 55D294B2
P 8700 4700
F 0 "#PWR013" H 8700 4700 30  0001 C CNN
F 1 "GND" H 8700 4630 30  0001 C CNN
F 2 "" H 8700 4700 60  0001 C CNN
F 3 "" H 8700 4700 60  0001 C CNN
	1    8700 4700
	-1   0    0    -1  
$EndComp
Wire Wire Line
	8700 4650 8700 4700
Wire Wire Line
	9250 4650 9350 4650
Wire Wire Line
	8750 4650 8700 4650
$Comp
L CONN_02X03 SSE1
U 1 1 55D298F5
P 9000 4550
F 0 "SSE1" H 9000 4750 50  0000 C CNN
F 1 "SSE1" H 9000 4350 50  0000 C CNN
F 2 "Socket_Strips:Socket_Strip_Straight_2x03" H 9000 3350 60  0000 C CNN
F 3 "" H 9000 3350 60  0000 C CNN
	1    9000 4550
	1    0    0    -1  
$EndComp
Text Label 6350 3850 0    60   ~ 0
3V3_ESP
Wire Wire Line
	4850 4800 5250 4800
Text Label 4850 4800 0    60   ~ 0
3V3_ESP
Text HLabel 4650 6200 2    60   Input ~ 0
RST_ESP
$EndSCHEMATC
