G04 (created by PCBNEW (2013-mar-13)-testing) date jue 11 sep 2014 18:38:42 COT*
%MOIN*%
G04 Gerber Fmt 3.4, Leading zero omitted, Abs format*
%FSLAX34Y34*%
G01*
G70*
G90*
G04 APERTURE LIST*
%ADD10C,0.005906*%
%ADD11C,0.015000*%
G04 APERTURE END LIST*
G54D10*
G54D11*
X41200Y-22300D02*
X41200Y-54900D01*
X81300Y-22300D02*
X41200Y-22300D01*
X81300Y-54900D02*
X81300Y-22300D01*
X41200Y-54900D02*
X81300Y-54900D01*
M02*
