EESchema Schematic File Version 2
LIBS:con-jack
LIBS:adm3101e
LIBS:microsd
LIBS:transistor-npn
LIBS:ipc-7351-transistor
LIBS:switch-misc
LIBS:power
LIBS:device
LIBS:transistors
LIBS:conn
LIBS:linear
LIBS:regul
LIBS:74xx
LIBS:cmos4000
LIBS:adc-dac
LIBS:memory
LIBS:xilinx
LIBS:special
LIBS:microcontrollers
LIBS:dsp
LIBS:microchip
LIBS:analog_switches
LIBS:motorola
LIBS:texas
LIBS:intel
LIBS:audio
LIBS:interface
LIBS:digital-audio
LIBS:philips
LIBS:display
LIBS:cypress
LIBS:siliconi
LIBS:opto
LIBS:atmel
LIBS:contrib
LIBS:valves
LIBS:micron_ddr_512Mb
LIBS:iMX23
LIBS:sdmmc
LIBS:usbconn
LIBS:fsusb20
LIBS:r_pack2
LIBS:pasives-connectors
LIBS:EEPROM
LIBS:PWR
LIBS:m25p32
LIBS:PROpendous-cache
LIBS:w_analog
LIBS:gl850g
LIBS:srf2012
LIBS:rclamp0502b
LIBS:mcp130
LIBS:ABM8G
LIBS:usb_a
LIBS:Reset
LIBS:stm32f100vxx
LIBS:lt1117cst
LIBS:zxmhc3f381n8
LIBS:fsusb43
LIBS:usb-mini
LIBS:atsam3n0aa-au
LIBS:xbeepro
LIBS:ba50dd0whfp
LIBS:mic29301
LIBS:sp481
LIBS:lm35
LIBS:enc28j60
LIBS:m-pad-2.1
LIBS:ds3231
LIBS:5v600ma
LIBS:isl1203
LIBS:ac220s05dc-3w
LIBS:stamp_mini_4_layers-cache
EELAYER 25 0
EELAYER END
$Descr A4 11693 8268
encoding utf-8
Sheet 5 5
Title ""
Date "11 sep 2014"
Rev ""
Comp ""
Comment1 ""
Comment2 ""
Comment3 ""
Comment4 ""
$EndDescr
$Comp
L VDDM_2V5 #PWR01
U 1 1 4D7E6BF9
P 6000 3900
F 0 "#PWR01" H 6000 4000 30  0001 C CNN
F 1 "VDDM_2V5" H 5950 3950 30  0000 C CNN
F 2 "" H 6000 3900 60  0001 C CNN
F 3 "" H 6000 3900 60  0001 C CNN
	1    6000 3900
	1    0    0    -1  
$EndComp
$Comp
L R R7
U 1 1 4D7E6AED
P 6250 3900
F 0 "R7" V 6330 3900 50  0000 C CNN
F 1 "47k" V 6250 3900 50  0000 C CNN
F 2 "" H 6250 3900 60  0001 C CNN
F 3 "" H 6250 3900 60  0001 C CNN
	1    6250 3900
	0    1    1    0   
$EndComp
Text Notes 5850 750  0    60   ~ 0
DDR RAM
Text Label 5950 3700 0    60   ~ 0
DDR_CLKN
Text Label 5950 3200 0    60   ~ 0
DDR_CLK
$Comp
L R R22
U 1 1 4D41DFB8
P 5950 3450
F 0 "R22" V 6030 3450 50  0000 C CNN
F 1 "110" V 5950 3450 50  0000 C CNN
F 2 "" H 5950 3450 60  0001 C CNN
F 3 "" H 5950 3450 60  0001 C CNN
	1    5950 3450
	1    0    0    -1  
$EndComp
Text Label 2200 5600 0    60   ~ 0
DDR_RASN
Text Label 2200 5700 0    60   ~ 0
DDR_WEN
Text Label 9550 2000 0    60   ~ 0
DDR_WEN
Text Label 9550 2400 0    60   ~ 0
DDR_RASN
Text Label 2200 5500 0    60   ~ 0
DDR_DQS1
Text Label 9550 2200 0    60   ~ 0
DDR_DQS1
Text Label 9550 3200 0    60   ~ 0
DDR_DQS0
Text Label 2200 5400 0    60   ~ 0
DDR_DQS0
Text Label 9550 3300 0    60   ~ 0
DDR_DQM0
Text Label 2200 5300 0    60   ~ 0
DDR_DQM1
Text Label 9550 2300 0    60   ~ 0
DDR_DQM1
Text Label 2200 5200 0    60   ~ 0
DDR_DQM0
Text Label 2200 4850 0    60   ~ 0
DDR_CKE
Text Label 2250 4550 0    60   ~ 0
DDR_CASN
Text Label 2200 4950 0    60   ~ 0
DDR_CLK
Text Label 2200 5050 0    60   ~ 0
DDR_CLKN
Text Label 2200 4650 0    60   ~ 0
DDR_CE0
Text Label 2200 4450 0    60   ~ 0
DDR_BA1
Text Label 2200 4350 0    60   ~ 0
DDR_BA0
Text Label 6700 3300 0    60   ~ 0
DDR_BA0
Text Label 6700 3400 0    60   ~ 0
DDR_BA1
Text Label 6750 3900 0    60   ~ 0
DDR_CE0
Text Label 6700 3700 0    60   ~ 0
DDR_CLKN
Text Label 6700 3600 0    60   ~ 0
DDR_CLK
Text Label 6700 3500 0    60   ~ 0
DDR_CASN
$Comp
L R R23
U 1 1 4D418363
P 5850 4050
F 0 "R23" V 5930 4050 50  0000 C CNN
F 1 "47K" V 5850 4050 50  0000 C CNN
F 2 "" H 5850 4050 60  0001 C CNN
F 3 "" H 5850 4050 60  0001 C CNN
	1    5850 4050
	1    0    0    -1  
$EndComp
$Comp
L GND #PWR02
U 1 1 4D418353
P 5850 4500
F 0 "#PWR02" H 5850 4500 30  0001 C CNN
F 1 "GND" H 5850 4430 30  0001 C CNN
F 2 "" H 5850 4500 60  0001 C CNN
F 3 "" H 5850 4500 60  0001 C CNN
	1    5850 4500
	1    0    0    -1  
$EndComp
NoConn ~ 9450 3100
NoConn ~ 9450 3000
NoConn ~ 9450 2900
NoConn ~ 9450 2800
NoConn ~ 9450 2700
NoConn ~ 9450 2600
NoConn ~ 9450 2500
Text Label 6750 3800 0    60   ~ 0
DDR_CKE
$Comp
L GND #PWR03
U 1 1 4D417AF1
P 10800 2750
F 0 "#PWR03" H 10800 2750 30  0001 C CNN
F 1 "GND" H 10800 2680 30  0001 C CNN
F 2 "" H 10800 2750 60  0001 C CNN
F 3 "" H 10800 2750 60  0001 C CNN
	1    10800 2750
	1    0    0    -1  
$EndComp
$Comp
L VDDM_2V5 #PWR04
U 1 1 4D417ACD
P 10800 1450
F 0 "#PWR04" H 10800 1550 30  0001 C CNN
F 1 "VDDM_2V5" H 10800 1550 30  0000 C CNN
F 2 "" H 10800 1450 60  0001 C CNN
F 3 "" H 10800 1450 60  0001 C CNN
	1    10800 1450
	1    0    0    -1  
$EndComp
$Comp
L R R25
U 1 1 4D417AA2
P 11000 2450
F 0 "R25" V 11080 2450 50  0000 C CNN
F 1 "1K 1%" V 11000 2450 50  0000 C CNN
F 2 "" H 11000 2450 60  0001 C CNN
F 3 "" H 11000 2450 60  0001 C CNN
	1    11000 2450
	1    0    0    -1  
$EndComp
$Comp
L R R24
U 1 1 4D417A9C
P 11000 1750
F 0 "R24" V 11080 1750 50  0000 C CNN
F 1 "1K 1%" V 11000 1750 50  0000 C CNN
F 2 "" H 11000 1750 60  0001 C CNN
F 3 "" H 11000 1750 60  0001 C CNN
	1    11000 1750
	1    0    0    -1  
$EndComp
$Comp
L C C71
U 1 1 4D417A94
P 10600 2400
F 0 "C71" H 10650 2500 50  0000 L CNN
F 1 "0.1uF" H 10650 2300 50  0000 L CNN
F 2 "" H 10600 2400 60  0001 C CNN
F 3 "" H 10600 2400 60  0001 C CNN
	1    10600 2400
	1    0    0    -1  
$EndComp
$Comp
L C C70
U 1 1 4D417A8B
P 10600 1800
F 0 "C70" H 10650 1900 50  0000 L CNN
F 1 "0.1uF" H 10650 1700 50  0000 L CNN
F 2 "" H 10600 1800 60  0001 C CNN
F 3 "" H 10600 1800 60  0001 C CNN
	1    10600 1800
	1    0    0    -1  
$EndComp
$Comp
L VDDM_2V5 #PWR05
U 1 1 4D4179A4
P 7250 800
F 0 "#PWR05" H 7250 900 30  0001 C CNN
F 1 "VDDM_2V5" H 7250 900 30  0000 C CNN
F 2 "" H 7250 800 60  0001 C CNN
F 3 "" H 7250 800 60  0001 C CNN
	1    7250 800 
	1    0    0    -1  
$EndComp
$Comp
L VDDM_2V5 #PWR06
U 1 1 4D417999
P 10200 800
F 0 "#PWR06" H 10200 900 30  0001 C CNN
F 1 "VDDM_2V5" H 10200 900 30  0000 C CNN
F 2 "" H 10200 800 60  0001 C CNN
F 3 "" H 10200 800 60  0001 C CNN
	1    10200 800 
	1    0    0    -1  
$EndComp
$Comp
L GND #PWR07
U 1 1 4D41792B
P 7550 1500
F 0 "#PWR07" H 7550 1500 30  0001 C CNN
F 1 "GND" H 7550 1430 30  0001 C CNN
F 2 "" H 7550 1500 60  0001 C CNN
F 3 "" H 7550 1500 60  0001 C CNN
	1    7550 1500
	1    0    0    -1  
$EndComp
$Comp
L C C61
U 1 1 4D417911
P 7250 1150
F 0 "C61" H 7300 1250 50  0000 L CNN
F 1 "0.1uF" H 7300 1050 50  0000 L CNN
F 2 "" H 7250 1150 60  0001 C CNN
F 3 "" H 7250 1150 60  0001 C CNN
	1    7250 1150
	1    0    0    -1  
$EndComp
$Comp
L C C62
U 1 1 4D41790C
P 7550 1150
F 0 "C62" H 7600 1250 50  0000 L CNN
F 1 "0.1uF" H 7600 1050 50  0000 L CNN
F 2 "" H 7550 1150 60  0001 C CNN
F 3 "" H 7550 1150 60  0001 C CNN
	1    7550 1150
	1    0    0    -1  
$EndComp
$Comp
L C C63
U 1 1 4D417905
P 7850 1150
F 0 "C63" H 7900 1250 50  0000 L CNN
F 1 "0.1uF" H 7900 1050 50  0000 L CNN
F 2 "" H 7850 1150 60  0001 C CNN
F 3 "" H 7850 1150 60  0001 C CNN
	1    7850 1150
	1    0    0    -1  
$EndComp
$Comp
L GND #PWR08
U 1 1 4D417882
P 9600 1500
F 0 "#PWR08" H 9600 1500 30  0001 C CNN
F 1 "GND" H 9600 1430 30  0001 C CNN
F 2 "" H 9600 1500 60  0001 C CNN
F 3 "" H 9600 1500 60  0001 C CNN
	1    9600 1500
	1    0    0    -1  
$EndComp
$Comp
L C C69
U 1 1 4D417845
P 10200 1150
F 0 "C69" H 10250 1250 50  0000 L CNN
F 1 "1uF" H 10250 1050 50  0000 L CNN
F 2 "" H 10200 1150 60  0001 C CNN
F 3 "" H 10200 1150 60  0001 C CNN
	1    10200 1150
	1    0    0    -1  
$EndComp
$Comp
L C C67
U 1 1 4D41783A
P 9900 1150
F 0 "C67" H 9950 1250 50  0000 L CNN
F 1 "0.1uF" H 9950 1050 50  0000 L CNN
F 2 "" H 9900 1150 60  0001 C CNN
F 3 "" H 9900 1150 60  0001 C CNN
	1    9900 1150
	1    0    0    -1  
$EndComp
$Comp
L C C66
U 1 1 4D417834
P 9600 1150
F 0 "C66" H 9650 1250 50  0000 L CNN
F 1 "0.1uF" H 9650 1050 50  0000 L CNN
F 2 "" H 9600 1150 60  0001 C CNN
F 3 "" H 9600 1150 60  0001 C CNN
	1    9600 1150
	1    0    0    -1  
$EndComp
$Comp
L C C65
U 1 1 4D41782F
P 9300 1150
F 0 "C65" H 9350 1250 50  0000 L CNN
F 1 "0.1uF" H 9350 1050 50  0000 L CNN
F 2 "" H 9300 1150 60  0001 C CNN
F 3 "" H 9300 1150 60  0001 C CNN
	1    9300 1150
	1    0    0    -1  
$EndComp
$Comp
L C C64
U 1 1 4D417828
P 9000 1150
F 0 "C64" H 9050 1250 50  0000 L CNN
F 1 "0.1uF" H 9050 1050 50  0000 L CNN
F 2 "" H 9000 1150 60  0001 C CNN
F 3 "" H 9000 1150 60  0001 C CNN
	1    9000 1150
	1    0    0    -1  
$EndComp
Text HLabel 2200 4350 0    60   Input ~ 0
DDR_BA0
Text HLabel 2200 4450 0    60   Input ~ 0
DDR_BA1
Text HLabel 2200 4650 0    60   Input ~ 0
DDR_CE0
Text HLabel 2200 4550 0    60   Input ~ 0
DDR_CASN
Text HLabel 2200 4850 0    60   Input ~ 0
DDR_CKE
Text HLabel 2200 5050 0    60   Input ~ 0
DDR_CLKN
Text HLabel 2200 4950 0    60   Input ~ 0
DDR_CLK
Text HLabel 2200 5200 0    60   Input ~ 0
DDR_DQM0
Text HLabel 2200 5300 0    60   Input ~ 0
DDR_DQM1
Text HLabel 2200 5400 0    60   Input ~ 0
DDR_DQS0
Text HLabel 2200 5500 0    60   Input ~ 0
DDR_DQS1
Text HLabel 2200 5600 0    60   Input ~ 0
DDR_RASN
Text HLabel 2200 5700 0    60   Input ~ 0
DDR_WEN
$Comp
L GND #PWR09
U 1 1 4D319D50
P 8300 5050
F 0 "#PWR09" H 8300 5050 30  0001 C CNN
F 1 "GND" H 8300 4980 30  0001 C CNN
F 2 "" H 8300 5050 60  0001 C CNN
F 3 "" H 8300 5050 60  0001 C CNN
	1    8300 5050
	1    0    0    -1  
$EndComp
Text Label 6750 4000 0    60   ~ 0
DDR_DQ0
Text Label 6750 4100 0    60   ~ 0
DDR_DQ1
Text Label 6750 4300 0    60   ~ 0
DDR_DQ3
Text Label 6750 4200 0    60   ~ 0
DDR_DQ2
Text Label 9550 4300 0    60   ~ 0
DDR_DQ6
Text Label 9550 4200 0    60   ~ 0
DDR_DQ7
Text Label 9550 4400 0    60   ~ 0
DDR_DQ5
Text Label 6750 4400 0    60   ~ 0
DDR_DQ4
Text Label 9550 3700 0    60   ~ 0
DDR_DQ12
Text Label 9550 3600 0    60   ~ 0
DDR_DQ13
Text Label 9550 3400 0    60   ~ 0
DDR_DQ15
Text Label 9550 3500 0    60   ~ 0
DDR_DQ14
Text Label 9550 3900 0    60   ~ 0
DDR_DQ10
Text Label 9550 3800 0    60   ~ 0
DDR_DQ11
Text Label 9550 4000 0    60   ~ 0
DDR_DQ9
Text Label 9550 4100 0    60   ~ 0
DDR_DQ8
Entry Wire Line
	1650 3950 1750 4050
Entry Wire Line
	1650 3850 1750 3950
Entry Wire Line
	1650 3750 1750 3850
Text Label 1850 3350 0    60   ~ 0
DDR_DQ8
Text Label 1850 3450 0    60   ~ 0
DDR_DQ9
Text Label 1850 3650 0    60   ~ 0
DDR_DQ11
Text Label 1850 3550 0    60   ~ 0
DDR_DQ10
Text Label 1850 3950 0    60   ~ 0
DDR_DQ14
Text Label 1850 4050 0    60   ~ 0
DDR_DQ15
Text Label 1850 3850 0    60   ~ 0
DDR_DQ13
Text Label 1850 3750 0    60   ~ 0
DDR_DQ12
Text Label 1850 2950 0    60   ~ 0
DDR_DQ4
Text Label 1850 3050 0    60   ~ 0
DDR_DQ5
Text Label 1850 3250 0    60   ~ 0
DDR_DQ7
Text Label 1850 3150 0    60   ~ 0
DDR_DQ6
Text Label 1850 2750 0    60   ~ 0
DDR_DQ2
Text Label 1850 2850 0    60   ~ 0
DDR_DQ3
Text Label 1850 2650 0    60   ~ 0
DDR_DQ1
Text Label 1850 2550 0    60   ~ 0
DDR_DQ0
Entry Wire Line
	1650 2450 1750 2550
Entry Wire Line
	1650 2550 1750 2650
Entry Wire Line
	1650 2750 1750 2850
Entry Wire Line
	1650 2650 1750 2750
Entry Wire Line
	1650 3050 1750 3150
Entry Wire Line
	1650 3150 1750 3250
Entry Wire Line
	1650 2950 1750 3050
Entry Wire Line
	1650 2850 1750 2950
Entry Wire Line
	1650 3350 1750 3450
Entry Wire Line
	1650 3450 1750 3550
Entry Wire Line
	1650 3250 1750 3350
Entry Wire Line
	1650 3550 1750 3650
Entry Wire Line
	1650 3650 1750 3750
Text HLabel 1450 2300 0    60   BiDi ~ 0
DDR_DQ[0..15]
Text HLabel 1500 600  0    60   Input ~ 0
DDR_A[0..12]
Text Label 6700 2000 0    60   ~ 0
DDR_A0
Text Label 6700 2100 0    60   ~ 0
DDR_A1
Text Label 6700 2300 0    60   ~ 0
DDR_A3
Text Label 6700 2200 0    60   ~ 0
DDR_A2
Text Label 6700 2600 0    60   ~ 0
DDR_A6
Text Label 6700 2700 0    60   ~ 0
DDR_A7
Text Label 6700 2500 0    60   ~ 0
DDR_A5
Text Label 6700 2400 0    60   ~ 0
DDR_A4
Text Label 6700 2900 0    60   ~ 0
DDR_A9
Text Label 6700 3000 0    60   ~ 0
DDR_A10
Text Label 6700 2800 0    60   ~ 0
DDR_A8
Text Label 6700 3100 0    60   ~ 0
DDR_A11
Text Label 6700 3200 0    60   ~ 0
DDR_A12
Text Label 1900 2050 0    60   ~ 0
DDR_A12
Entry Wire Line
	1700 1950 1800 2050
Entry Wire Line
	1700 1850 1800 1950
Text Label 1900 1950 0    60   ~ 0
DDR_A11
Text Label 1900 1650 0    60   ~ 0
DDR_A8
Entry Wire Line
	1700 1550 1800 1650
Entry Wire Line
	1700 1750 1800 1850
Text Label 1900 1850 0    60   ~ 0
DDR_A10
Text Label 1900 1750 0    60   ~ 0
DDR_A9
Entry Wire Line
	1700 1650 1800 1750
Entry Wire Line
	1700 1150 1800 1250
Text Label 1900 1250 0    60   ~ 0
DDR_A4
Text Label 1900 1350 0    60   ~ 0
DDR_A5
Entry Wire Line
	1700 1250 1800 1350
Entry Wire Line
	1700 1450 1800 1550
Text Label 1900 1550 0    60   ~ 0
DDR_A7
Text Label 1900 1450 0    60   ~ 0
DDR_A6
Entry Wire Line
	1700 1350 1800 1450
Entry Wire Line
	1700 950  1800 1050
Text Label 1900 1050 0    60   ~ 0
DDR_A2
Text Label 1900 1150 0    60   ~ 0
DDR_A3
Entry Wire Line
	1700 1050 1800 1150
Entry Wire Line
	1700 850  1800 950 
Text Label 1900 950  0    60   ~ 0
DDR_A1
Text Label 1900 850  0    60   ~ 0
DDR_A0
Entry Wire Line
	1700 750  1800 850 
$Comp
L MT46V32M16TG U2
U 1 1 4D30BA6E
P 8350 3200
F 0 "U2" H 8350 3300 70  0000 C CNN
F 1 "MT46V32M16TG" H 8350 3100 70  0000 C CNN
F 2 "TSOP66_JEDEC_DDR_SDRAM" H 8350 3200 60  0001 C CNN
F 3 "" H 8350 3200 60  0001 C CNN
	1    8350 3200
	1    0    0    -1  
$EndComp
Wire Wire Line
	8650 4950 7950 4950
Wire Wire Line
	5850 4500 5850 4300
Wire Wire Line
	6500 3900 7250 3900
Wire Notes Line
	5750 5300 11150 5300
Wire Notes Line
	5750 5300 5750 550 
Wire Notes Line
	5750 550  11150 550 
Wire Notes Line
	11150 550  11150 5300
Wire Wire Line
	2200 5600 2600 5600
Wire Wire Line
	2200 5300 2600 5300
Wire Wire Line
	2200 5400 2600 5400
Wire Wire Line
	2200 5200 2600 5200
Wire Wire Line
	2200 4950 2600 4950
Wire Wire Line
	2200 4850 2600 4850
Wire Wire Line
	2200 4650 2600 4650
Wire Wire Line
	2200 4550 2600 4550
Wire Wire Line
	2200 4450 2600 4450
Wire Wire Line
	2200 5050 2600 5050
Wire Wire Line
	9450 2000 10000 2000
Wire Wire Line
	9450 3200 10000 3200
Wire Wire Line
	9450 3300 10000 3300
Wire Wire Line
	6700 3700 7250 3700
Wire Wire Line
	6700 3500 7250 3500
Wire Wire Line
	6700 3300 7250 3300
Connection ~ 10800 1500
Wire Wire Line
	10800 1450 10800 1500
Wire Wire Line
	10600 2600 10600 2700
Wire Wire Line
	10600 2700 11000 2700
Connection ~ 10600 2100
Wire Wire Line
	11000 2100 9450 2100
Wire Wire Line
	8150 1600 8150 950 
Wire Wire Line
	7250 800  7250 950 
Wire Wire Line
	7550 1500 7550 1350
Connection ~ 7850 950 
Wire Wire Line
	8150 1500 7950 1500
Wire Wire Line
	8650 1500 8250 1500
Wire Wire Line
	9600 1350 9600 1500
Connection ~ 9600 1350
Connection ~ 9000 950 
Wire Wire Line
	8550 1600 8550 950 
Wire Wire Line
	8550 950  10200 950 
Connection ~ 9600 950 
Connection ~ 9900 950 
Connection ~ 8550 1500
Connection ~ 8350 1500
Wire Wire Line
	8350 1600 8350 1500
Connection ~ 8150 1500
Connection ~ 8050 1500
Connection ~ 8550 4950
Wire Wire Line
	8550 4800 8550 4950
Connection ~ 8350 4950
Wire Wire Line
	8350 4950 8350 4800
Wire Wire Line
	8150 4950 8150 4800
Connection ~ 8050 4950
Wire Wire Line
	8050 4950 8050 4800
Wire Wire Line
	8650 4950 8650 4800
Wire Wire Line
	7950 4950 7950 4800
Wire Bus Line
	1450 2300 1650 2300
Wire Wire Line
	7250 2200 6700 2200
Wire Wire Line
	7250 2000 6700 2000
Wire Wire Line
	7250 2500 6700 2500
Wire Wire Line
	7250 2700 6700 2700
Wire Wire Line
	7250 3000 6700 3000
Wire Wire Line
	7250 2800 6700 2800
Wire Wire Line
	7250 3100 6700 3100
Wire Wire Line
	7250 2900 6700 2900
Wire Wire Line
	7250 2600 6700 2600
Wire Wire Line
	7250 2400 6700 2400
Wire Wire Line
	7250 2100 6700 2100
Wire Wire Line
	7250 2300 6700 2300
Wire Wire Line
	7250 3200 6700 3200
Wire Bus Line
	1700 1950 1700 600 
Wire Wire Line
	2300 2050 1800 2050
Wire Wire Line
	2300 1150 1800 1150
Wire Wire Line
	2300 950  1800 950 
Wire Wire Line
	2300 1250 1800 1250
Wire Wire Line
	2300 1450 1800 1450
Wire Wire Line
	2300 1750 1800 1750
Wire Wire Line
	2300 1950 1800 1950
Wire Bus Line
	1700 600  1500 600 
Wire Wire Line
	2300 1650 1800 1650
Wire Wire Line
	2300 1850 1800 1850
Wire Wire Line
	2300 1550 1800 1550
Wire Wire Line
	2300 1350 1800 1350
Wire Wire Line
	2300 850  1800 850 
Wire Wire Line
	2300 1050 1800 1050
Wire Wire Line
	2300 2550 1750 2550
Wire Wire Line
	2300 2650 1750 2650
Wire Wire Line
	2300 2850 1750 2850
Wire Wire Line
	2300 2750 1750 2750
Wire Wire Line
	2300 3150 1750 3150
Wire Wire Line
	2300 3250 1750 3250
Wire Wire Line
	2300 3050 1750 3050
Wire Wire Line
	2300 2950 1750 2950
Wire Wire Line
	2300 3750 1750 3750
Wire Wire Line
	2300 3850 1750 3850
Wire Wire Line
	2300 4050 1750 4050
Wire Wire Line
	2300 3950 1750 3950
Wire Wire Line
	2300 3550 1750 3550
Wire Wire Line
	2300 3650 1750 3650
Wire Wire Line
	2300 3450 1750 3450
Wire Wire Line
	2300 3350 1750 3350
Wire Bus Line
	1650 2300 1650 3950
Wire Wire Line
	10000 4100 9450 4100
Wire Wire Line
	10000 4000 9450 4000
Wire Wire Line
	10000 3800 9450 3800
Wire Wire Line
	10000 3900 9450 3900
Wire Wire Line
	10000 3500 9450 3500
Wire Wire Line
	10000 2300 9450 2300
Wire Wire Line
	10000 3600 9450 3600
Wire Wire Line
	10000 3700 9450 3700
Wire Wire Line
	7250 4400 6750 4400
Wire Wire Line
	10000 4400 9450 4400
Wire Wire Line
	10000 4200 9450 4200
Wire Wire Line
	10000 4300 9450 4300
Wire Wire Line
	7250 4200 6750 4200
Wire Wire Line
	7250 4300 6750 4300
Wire Wire Line
	7250 4100 6750 4100
Wire Wire Line
	7250 4000 6750 4000
Wire Wire Line
	8300 4950 8300 5050
Connection ~ 8300 4950
Connection ~ 8150 4950
Wire Wire Line
	8250 4800 8250 4950
Connection ~ 8250 4950
Wire Wire Line
	8450 4950 8450 4800
Connection ~ 8450 4950
Wire Wire Line
	7950 1500 7950 1600
Wire Wire Line
	8650 1500 8650 1600
Wire Wire Line
	8050 1600 8050 1500
Wire Wire Line
	8250 1500 8250 1600
Connection ~ 8250 1500
Wire Wire Line
	8450 1500 8450 1600
Connection ~ 8450 1500
Connection ~ 9300 950 
Connection ~ 9900 1350
Wire Wire Line
	9000 1350 10200 1350
Connection ~ 9300 1350
Wire Wire Line
	7250 950  8150 950 
Connection ~ 7550 950 
Wire Wire Line
	7850 1350 7250 1350
Connection ~ 7550 1350
Wire Wire Line
	10200 950  10200 800 
Wire Wire Line
	10600 1600 10600 1500
Wire Wire Line
	10600 1500 11000 1500
Wire Wire Line
	11000 2200 11000 2000
Connection ~ 11000 2100
Wire Wire Line
	10600 2200 10600 2000
Wire Wire Line
	10800 2750 10800 2700
Connection ~ 10800 2700
Wire Wire Line
	6700 3400 7250 3400
Wire Wire Line
	6700 3600 7250 3600
Wire Wire Line
	9450 3400 10000 3400
Wire Wire Line
	9450 2200 10000 2200
Wire Wire Line
	9450 2400 10000 2400
Wire Wire Line
	2200 4350 2650 4350
Wire Wire Line
	2200 5500 2600 5500
Wire Wire Line
	2200 5700 2600 5700
Wire Wire Line
	5850 3800 7250 3800
Wire Wire Line
	5950 3200 6350 3200
Wire Wire Line
	5950 3700 6400 3700
$EndSCHEMATC
