EESchema Schematic File Version 2
LIBS:con-jack
LIBS:adm3101e
LIBS:microsd
LIBS:transistor-npn
LIBS:ipc-7351-transistor
LIBS:switch-misc
LIBS:power
LIBS:device
LIBS:transistors
LIBS:conn
LIBS:linear
LIBS:regul
LIBS:74xx
LIBS:cmos4000
LIBS:adc-dac
LIBS:memory
LIBS:xilinx
LIBS:special
LIBS:microcontrollers
LIBS:dsp
LIBS:microchip
LIBS:analog_switches
LIBS:motorola
LIBS:texas
LIBS:intel
LIBS:audio
LIBS:interface
LIBS:digital-audio
LIBS:philips
LIBS:display
LIBS:cypress
LIBS:siliconi
LIBS:opto
LIBS:atmel
LIBS:contrib
LIBS:valves
LIBS:micron_ddr_512Mb
LIBS:iMX23
LIBS:sdmmc
LIBS:usbconn
LIBS:fsusb20
LIBS:r_pack2
LIBS:pasives-connectors
LIBS:EEPROM
LIBS:PWR
LIBS:m25p32
LIBS:PROpendous-cache
LIBS:w_analog
LIBS:gl850g
LIBS:srf2012
LIBS:rclamp0502b
LIBS:mcp130
LIBS:ABM8G
LIBS:usb_a
LIBS:Reset
LIBS:stm32f100vxx
LIBS:lt1117cst
LIBS:zxmhc3f381n8
LIBS:fsusb43
LIBS:usb-mini
LIBS:atsam3n0aa-au
LIBS:xbeepro
LIBS:ba50dd0whfp
LIBS:mic29301
LIBS:sp481
LIBS:lm35
LIBS:enc28j60
LIBS:m-pad-2.1
LIBS:ds3231
LIBS:5v600ma
LIBS:isl1203
LIBS:ac220s05dc-3w
LIBS:stamp_mini_4_layers-cache
EELAYER 25 0
EELAYER END
$Descr A3 16535 11693
encoding utf-8
Sheet 5 5
Title ""
Date "11 sep 2014"
Rev ""
Comp ""
Comment1 ""
Comment2 ""
Comment3 ""
Comment4 ""
$EndDescr
Text Label 15150 3700 2    60   ~ 0
SSPI_DETECT
Text Label 13000 4100 0    60   ~ 0
PWM2
Text Label 13000 3700 0    60   ~ 0
GPMI_CE0N
Text Label 1900 6500 0    60   ~ 0
PWM2
Text Label 10150 6600 2    60   ~ 0
D03
Text Label 9950 6800 0    60   ~ 0
GPMI_D02
Text Label 9950 7000 0    60   ~ 0
GPMI_D00
$Comp
L R R52
U 1 1 50512E74
P 9700 6800
F 0 "R52" V 9780 6800 50  0000 C CNN
F 1 "10k" V 9700 6800 50  0000 C CNN
F 2 "" H 9700 6800 60  0001 C CNN
F 3 "" H 9700 6800 60  0001 C CNN
	1    9700 6800
	0    -1   -1   0   
$EndComp
$Comp
L R R51
U 1 1 50512E6B
P 9700 7000
F 0 "R51" V 9780 7000 50  0000 C CNN
F 1 "10k" V 9700 7000 50  0000 C CNN
F 2 "" H 9700 7000 60  0001 C CNN
F 3 "" H 9700 7000 60  0001 C CNN
	1    9700 7000
	0    -1   -1   0   
$EndComp
Text Label 1950 5900 0    60   ~ 0
GPMI_RDY1
Text Label 2000 6100 0    60   ~ 0
GPMI_WRN
Text Label 2000 5100 0    60   ~ 0
GPMI_D02
Text Label 2000 5000 0    60   ~ 0
GPMI_D01
Text Label 2000 4900 0    60   ~ 0
GPMI_D00
Text Label 2000 5300 0    60   ~ 0
GPMI_D04
$Comp
L R R8
U 1 1 4F3FC789
P 9700 6600
F 0 "R8" V 9780 6600 50  0000 C CNN
F 1 "10k" V 9700 6600 50  0000 C CNN
F 2 "" H 9700 6600 60  0001 C CNN
F 3 "" H 9700 6600 60  0001 C CNN
	1    9700 6600
	0    -1   -1   0   
$EndComp
Text Label 9100 2200 0    60   ~ 0
RESET_PB
Text HLabel 1950 6800 0    60   BiDi ~ 0
AUART_TX
Text HLabel 1950 6700 0    60   BiDi ~ 0
AUART_RX
Text Label 13050 4000 0    60   ~ 0
GND
$Comp
L CONN_1 P10
U 1 1 4E85FA6B
P 14450 7750
F 0 "P10" H 14530 7750 40  0000 L CNN
F 1 "CONN_1" H 14450 7805 30  0001 C CNN
F 2 "MHOLE" H 14450 7750 60  0001 C CNN
F 3 "" H 14450 7750 60  0001 C CNN
	1    14450 7750
	1    0    0    -1  
$EndComp
Text Label 12785 5500 0    60   ~ 0
GPMI_D07
Text Label 2105 5200 0    60   ~ 0
D03
Text HLabel 1950 3800 0    60   BiDi ~ 0
I2C_SCL
Text HLabel 1950 3900 0    60   BiDi ~ 0
I2C_SDA
$Comp
L GND #PWR032
U 1 1 4E4D03B1
P 13350 7550
F 0 "#PWR032" H 13350 7550 30  0001 C CNN
F 1 "GND" H 13350 7480 30  0001 C CNN
F 2 "" H 13350 7550 60  0001 C CNN
F 3 "" H 13350 7550 60  0001 C CNN
	1    13350 7550
	0    1    1    0   
$EndComp
$Comp
L INDUCTOR L13
U 1 1 4E4D033C
P 13900 8250
F 0 "L13" V 13850 8250 40  0000 C CNN
F 1 "HZ0805D152R-10 (1500 ohm)" V 13750 8400 40  0000 C CNN
F 2 "SM0805" H 13900 8250 60  0001 C CNN
F 3 "" H 13900 8250 60  0001 C CNN
	1    13900 8250
	0    1    -1   0   
$EndComp
$Comp
L INDUCTOR L12
U 1 1 4E4D0338
P 13900 8050
F 0 "L12" V 13850 8050 40  0000 C CNN
F 1 "HZ0805D152R-10 (1500 ohm)" V 13750 8200 40  0000 C CNN
F 2 "SM0805" H 13900 8050 60  0001 C CNN
F 3 "" H 13900 8050 60  0001 C CNN
	1    13900 8050
	0    1    -1   0   
$EndComp
$Comp
L INDUCTOR L11
U 1 1 4E4D0325
P 13900 7850
F 0 "L11" V 13850 7850 40  0000 C CNN
F 1 "HZ0805D152R-10 (1500 ohm)" V 13750 8000 40  0000 C CNN
F 2 "SM0805" H 13900 7850 60  0001 C CNN
F 3 "" H 13900 7850 60  0001 C CNN
	1    13900 7850
	0    1    -1   0   
$EndComp
Text GLabel 14250 7500 0    60   Input ~ 0
GND_CASE
$Comp
L CONN_1 P7
U 1 1 4E4BC769
P 14450 7650
F 0 "P7" H 14530 7650 40  0000 L CNN
F 1 "CONN_1" H 14450 7705 30  0001 C CNN
F 2 "MHOLE" H 14450 7650 60  0001 C CNN
F 3 "" H 14450 7650 60  0001 C CNN
	1    14450 7650
	1    0    0    -1  
$EndComp
Text Label 14250 7450 0    60   ~ 0
GND_CASE
$Comp
L CONN_1 P5
U 1 1 4E434391
P 14450 7500
F 0 "P5" H 14530 7500 40  0000 L CNN
F 1 "CONN_1" H 14450 7555 30  0001 C CNN
F 2 "MHOLE" H 14450 7500 60  0001 C CNN
F 3 "" H 14450 7500 60  0001 C CNN
	1    14450 7500
	1    0    0    -1  
$EndComp
$Comp
L CONN_1 P3
U 1 1 4E4341F9
P 14450 7300
F 0 "P3" H 14530 7300 40  0000 L CNN
F 1 "CONN_1" H 14450 7355 30  0001 C CNN
F 2 "MHOLE" H 14450 7300 60  0001 C CNN
F 3 "" H 14450 7300 60  0001 C CNN
	1    14450 7300
	1    0    0    -1  
$EndComp
$Comp
L ABM8G X1
U 1 1 4E431143
P 1600 1800
F 0 "X1" H 1600 1950 60  0000 C CNN
F 1 "24MHz" H 1600 1650 60  0000 C CNN
F 2 "ABM8G" H 1600 1800 60  0001 C CNN
F 3 "" H 1600 1800 60  0001 C CNN
	1    1600 1800
	0    1    1    0   
$EndComp
$Comp
L INDUCTOR L8
U 1 1 4E40541F
P 6950 8100
F 0 "L8" V 6900 8100 40  0000 C CNN
F 1 "HZ0805D152R-10 (1500 ohm)" V 7050 8350 40  0000 C CNN
F 2 "" H 6950 8100 60  0001 C CNN
F 3 "" H 6950 8100 60  0001 C CNN
	1    6950 8100
	0    1    -1   0   
$EndComp
Text Label 5650 8150 0    60   ~ 0
HP_VGND
Text Label 15000 4100 2    60   ~ 0
PSWITCH
$Comp
L GND #PWR033
U 1 1 4E4054A0
P 7250 8200
F 0 "#PWR033" H 7250 8200 30  0001 C CNN
F 1 "GND" H 7250 8130 30  0001 C CNN
F 2 "" H 7250 8200 60  0001 C CNN
F 3 "" H 7250 8200 60  0001 C CNN
	1    7250 8200
	1    0    0    -1  
$EndComp
$Comp
L C C17
U 1 1 4E405384
P 6600 7850
F 0 "C17" H 6650 7950 50  0000 L CNN
F 1 "1uF" H 6650 7750 50  0000 L CNN
F 2 "" H 6600 7850 60  0001 C CNN
F 3 "" H 6600 7850 60  0001 C CNN
	1    6600 7850
	1    0    0    -1  
$EndComp
Text Label 6250 6450 0    60   ~ 0
MIC
Text Label 14600 4000 0    60   ~ 0
VDAC1
Text Label 6250 7350 0    60   ~ 0
VDAC1
Text Label 6250 7100 0    60   ~ 0
HPR
Text Label 6250 7200 0    60   ~ 0
HPL
$Comp
L R R18
U 1 1 4DAF6E3B
P 14750 1700
F 0 "R18" V 14700 1500 50  0000 C CNN
F 1 "11k" V 14750 1700 50  0000 C CNN
F 2 "" H 14750 1700 60  0001 C CNN
F 3 "" H 14750 1700 60  0001 C CNN
	1    14750 1700
	0    -1   -1   0   
$EndComp
$Comp
L R R19
U 1 1 4DAF62EC
P 14750 2050
F 0 "R19" V 14700 1850 50  0000 C CNN
F 1 "11k" V 14750 2050 50  0000 C CNN
F 2 "" H 14750 2050 60  0001 C CNN
F 3 "" H 14750 2050 60  0001 C CNN
	1    14750 2050
	0    -1   -1   0   
$EndComp
$Comp
L VDDIO_3V3 #PWR034
U 1 1 4DAF62EA
P 15200 2050
F 0 "#PWR034" H 15200 2150 30  0001 C CNN
F 1 "VDDIO_3V3" H 15200 2150 30  0000 C CNN
F 2 "" H 15200 2050 60  0001 C CNN
F 3 "" H 15200 2050 60  0001 C CNN
	1    15200 2050
	1    0    0    -1  
$EndComp
$Comp
L GND #PWR035
U 1 1 4DAF62DA
P 15200 1350
F 0 "#PWR035" H 15200 1350 30  0001 C CNN
F 1 "GND" H 15200 1280 30  0001 C CNN
F 2 "" H 15200 1350 60  0001 C CNN
F 3 "" H 15200 1350 60  0001 C CNN
	1    15200 1350
	1    0    0    -1  
$EndComp
$Comp
L R R17
U 1 1 4DAF62D7
P 14750 1350
F 0 "R17" V 14650 1200 50  0000 C CNN
F 1 "11k" V 14750 1350 50  0000 C CNN
F 2 "" H 14750 1350 60  0001 C CNN
F 3 "" H 14750 1350 60  0001 C CNN
	1    14750 1350
	0    -1   -1   0   
$EndComp
$Comp
L R R15
U 1 1 4DAF627D
P 13500 1850
F 0 "R15" V 13450 1650 50  0000 C CNN
F 1 "11k" V 13500 1850 50  0000 C CNN
F 2 "" H 13500 1850 60  0001 C CNN
F 3 "" H 13500 1850 60  0001 C CNN
	1    13500 1850
	0    -1   -1   0   
$EndComp
Text Label 12800 1650 0    60   ~ 0
LCD_D5
$Comp
L VDDIO_3V3 #PWR036
U 1 1 4DAF615F
P 15200 1700
F 0 "#PWR036" H 15200 1800 30  0001 C CNN
F 1 "VDDIO_3V3" H 15200 1800 30  0000 C CNN
F 2 "" H 15200 1700 60  0001 C CNN
F 3 "" H 15200 1700 60  0001 C CNN
	1    15200 1700
	1    0    0    -1  
$EndComp
$Comp
L R R32
U 1 1 4DA85DCD
P 13500 1650
F 0 "R32" V 13450 1450 50  0000 C CNN
F 1 "47k" V 13500 1650 50  0000 C CNN
F 2 "" H 13500 1650 60  0001 C CNN
F 3 "" H 13500 1650 60  0001 C CNN
	1    13500 1650
	0    -1   -1   0   
$EndComp
$Comp
L GND #PWR037
U 1 1 4DA85DCC
P 14000 1650
F 0 "#PWR037" H 14000 1650 30  0001 C CNN
F 1 "GND" H 14000 1580 30  0001 C CNN
F 2 "" H 14000 1650 60  0001 C CNN
F 3 "" H 14000 1650 60  0001 C CNN
	1    14000 1650
	1    0    0    -1  
$EndComp
$Comp
L INDUCTOR L2
U 1 1 4DA85BBA
P 5250 8150
F 0 "L2" V 5200 8150 40  0000 C CNN
F 1 "HZ0805D152R-10 (1500 ohm)" V 5100 8300 40  0000 C CNN
F 2 "" H 5250 8150 60  0001 C CNN
F 3 "" H 5250 8150 60  0001 C CNN
	1    5250 8150
	0    1    -1   0   
$EndComp
$Comp
L LED D5
U 1 1 4D7E9EF6
P 12800 6100
F 0 "D5" H 12800 6200 50  0000 C CNN
F 1 "LED" H 12800 6000 50  0000 C CNN
F 2 "" H 12800 6100 60  0001 C CNN
F 3 "" H 12800 6100 60  0001 C CNN
	1    12800 6100
	1    0    0    -1  
$EndComp
$Comp
L R R31
U 1 1 4D7E9EED
P 13300 6100
F 0 "R31" V 13380 6100 50  0000 C CNN
F 1 "1k" V 13300 6100 50  0000 C CNN
F 2 "" H 13300 6100 60  0001 C CNN
F 3 "" H 13300 6100 60  0001 C CNN
	1    13300 6100
	0    -1   -1   0   
$EndComp
$Comp
L GND #PWR038
U 1 1 4D7E9E07
P 14500 5500
F 0 "#PWR038" H 14500 5500 30  0001 C CNN
F 1 "GND" H 14500 5430 30  0001 C CNN
F 2 "" H 14500 5500 60  0001 C CNN
F 3 "" H 14500 5500 60  0001 C CNN
	1    14500 5500
	0    -1   -1   0   
$EndComp
$Comp
L R R28
U 1 1 4D7E9E03
P 14100 5500
F 0 "R28" V 14180 5500 50  0000 C CNN
F 1 "1k" V 14100 5500 50  0000 C CNN
F 2 "" H 14100 5500 60  0001 C CNN
F 3 "" H 14100 5500 60  0001 C CNN
	1    14100 5500
	0    -1   -1   0   
$EndComp
$Comp
L LED D3
U 1 1 4D7E9DFD
P 13450 5500
F 0 "D3" H 13450 5600 50  0000 C CNN
F 1 "LED" H 13450 5400 50  0000 C CNN
F 2 "" H 13450 5500 60  0001 C CNN
F 3 "" H 13450 5500 60  0001 C CNN
	1    13450 5500
	1    0    0    1   
$EndComp
$Comp
L R R9
U 1 1 4D7E9D93
P 6350 1500
F 0 "R9" V 6430 1500 50  0000 C CNN
F 1 "1k" V 6350 1500 50  0000 C CNN
F 2 "" H 6350 1500 60  0001 C CNN
F 3 "" H 6350 1500 60  0001 C CNN
	1    6350 1500
	0    1    1    0   
$EndComp
$Comp
L LED D2
U 1 1 4D7E9D8D
P 5800 1500
F 0 "D2" H 5800 1600 50  0000 C CNN
F 1 "LED" H 5800 1400 50  0000 C CNN
F 2 "" H 5800 1500 60  0001 C CNN
F 3 "" H 5800 1500 60  0001 C CNN
	1    5800 1500
	1    0    0    -1  
$EndComp
$Comp
L GND #PWR039
U 1 1 4D7E9D70
P 6750 1650
F 0 "#PWR039" H 6750 1650 30  0001 C CNN
F 1 "GND" H 6750 1580 30  0001 C CNN
F 2 "" H 6750 1650 60  0001 C CNN
F 3 "" H 6750 1650 60  0001 C CNN
	1    6750 1650
	1    0    0    -1  
$EndComp
$Comp
L GND #PWR040
U 1 1 4D7E9CCE
P 11600 4200
F 0 "#PWR040" H 11600 4200 30  0001 C CNN
F 1 "GND" H 11600 4130 30  0001 C CNN
F 2 "" H 11600 4200 60  0001 C CNN
F 3 "" H 11600 4200 60  0001 C CNN
	1    11600 4200
	1    0    0    -1  
$EndComp
$Comp
L R R30
U 1 1 4D7E9CC8
P 11350 4200
F 0 "R30" V 11430 4200 50  0000 C CNN
F 1 "1k" V 11350 4200 50  0000 C CNN
F 2 "" H 11350 4200 60  0001 C CNN
F 3 "" H 11350 4200 60  0001 C CNN
	1    11350 4200
	0    1    1    0   
$EndComp
$Comp
L LED D4
U 1 1 4D7E9C51
P 10750 4200
F 0 "D4" H 10750 4300 50  0000 C CNN
F 1 "LED" H 10750 4100 50  0000 C CNN
F 2 "" H 10750 4200 60  0001 C CNN
F 3 "" H 10750 4200 60  0001 C CNN
	1    10750 4200
	1    0    0    -1  
$EndComp
Text Label 14100 6100 2    60   ~ 0
TX
Text Label 14050 6000 0    60   ~ 0
RX
Text Label 13700 6100 0    60   ~ 0
PWM1
Text Label 13700 6000 0    60   ~ 0
PWM0
$Comp
L VDDIO_3V3 #PWR041
U 1 1 4D7E765F
P 9700 6000
F 0 "#PWR041" H 9700 6100 30  0001 C CNN
F 1 "VDDIO_3V3" H 9700 6100 30  0000 C CNN
F 2 "" H 9700 6000 60  0001 C CNN
F 3 "" H 9700 6000 60  0001 C CNN
	1    9700 6000
	1    0    0    -1  
$EndComp
$Comp
L R R29
U 1 1 4D7E7656
P 10100 6000
F 0 "R29" V 10180 6000 50  0000 C CNN
F 1 "47k" V 10100 6000 50  0000 C CNN
F 2 "" H 10100 6000 60  0001 C CNN
F 3 "" H 10100 6000 60  0001 C CNN
	1    10100 6000
	0    1    1    0   
$EndComp
Text Label 10500 6300 1    30   Italic 0
GPMI_RDY0
$Comp
L VDD5V #PWR042
U 1 1 4D4AB9B5
P 10050 4150
F 0 "#PWR042" H 10050 4250 30  0001 C CNN
F 1 "VDD5V" H 10050 4250 30  0000 C CNN
F 2 "" H 10050 4150 60  0001 C CNN
F 3 "" H 10050 4150 60  0001 C CNN
	1    10050 4150
	1    0    0    -1  
$EndComp
Text Label 15000 3900 2    60   ~ 0
SSPI_SCK
Text Label 15100 3800 2    60   ~ 0
SSPI_DATA0
Text Label 13550 3900 2    60   ~ 0
SSPI_DATA3
Text Label 13450 3800 2    60   ~ 0
SSPI_CMD
Text Label 2350 7000 2    60   ~ 0
SSPI_CMD
Text Label 2450 7100 2    60   ~ 0
SSPI_DATA0
Text Label 2300 7600 2    60   ~ 0
SSPI_SCK
Text Label 2450 7400 2    60   ~ 0
SSPI_DATA3
Text Label 1950 6000 0    60   ~ 0
GPMI_WPN
Text Label 1950 5800 0    60   ~ 0
GPMI_RDY0
Text Label 1950 5700 0    60   ~ 0
GPMI_RDN
$Comp
L iMX233 IC1
U 1 1 4D42FBDD
P 4300 4900
F 0 "IC1" H 2800 1850 60  0000 C CNN
F 1 "iMX233" H 2875 7950 60  0000 C CNN
F 2 "" H 4300 4900 60  0001 C CNN
F 3 "" H 4300 4900 60  0001 C CNN
	1    4300 4900
	1    0    0    -1  
$EndComp
$Comp
L PWR_FLAG #FLG043
U 1 1 4D42EB33
P 11500 3750
F 0 "#FLG043" H 11500 4020 30  0001 C CNN
F 1 "PWR_FLAG" H 11500 3980 30  0000 C CNN
F 2 "" H 11500 3750 60  0001 C CNN
F 3 "" H 11500 3750 60  0001 C CNN
	1    11500 3750
	-1   0    0    1   
$EndComp
$Comp
L VDDA #PWR044
U 1 1 4D42EB32
P 11500 3700
F 0 "#PWR044" H 11500 3800 30  0001 C CNN
F 1 "VDDA" H 11500 3800 30  0000 C CNN
F 2 "" H 11500 3700 60  0001 C CNN
F 3 "" H 11500 3700 60  0001 C CNN
	1    11500 3700
	1    0    0    -1  
$EndComp
$Comp
L VDDD #PWR045
U 1 1 4D42EAA2
P 11250 3700
F 0 "#PWR045" H 11250 3800 30  0001 C CNN
F 1 "VDDD" H 11250 3800 30  0000 C CNN
F 2 "" H 11250 3700 60  0001 C CNN
F 3 "" H 11250 3700 60  0001 C CNN
	1    11250 3700
	1    0    0    -1  
$EndComp
$Comp
L PWR_FLAG #FLG046
U 1 1 4D42EAA1
P 11250 3750
F 0 "#FLG046" H 11250 4020 30  0001 C CNN
F 1 "PWR_FLAG" H 11250 3980 30  0000 C CNN
F 2 "" H 11250 3750 60  0001 C CNN
F 3 "" H 11250 3750 60  0001 C CNN
	1    11250 3750
	-1   0    0    1   
$EndComp
$Comp
L VBUS_HOST #PWR047
U 1 1 4D42E9D1
P 9250 3700
F 0 "#PWR047" H 9250 3800 30  0001 C CNN
F 1 "VBUS_HOST" H 9250 3800 30  0000 C CNN
F 2 "" H 9250 3700 60  0001 C CNN
F 3 "" H 9250 3700 60  0001 C CNN
	1    9250 3700
	1    0    0    -1  
$EndComp
$Comp
L PWR_FLAG #FLG048
U 1 1 4D42E9D0
P 9250 3700
F 0 "#FLG048" H 9250 3970 30  0001 C CNN
F 1 "PWR_FLAG" H 9250 3930 30  0000 C CNN
F 2 "" H 9250 3700 60  0001 C CNN
F 3 "" H 9250 3700 60  0001 C CNN
	1    9250 3700
	-1   0    0    1   
$EndComp
$Comp
L PWR_FLAG #FLG049
U 1 1 4D42E9A9
P 9500 3750
F 0 "#FLG049" H 9500 4020 30  0001 C CNN
F 1 "PWR_FLAG" H 9500 3980 30  0000 C CNN
F 2 "" H 9500 3750 60  0001 C CNN
F 3 "" H 9500 3750 60  0001 C CNN
	1    9500 3750
	-1   0    0    1   
$EndComp
$Comp
L VDDM_2V5 #PWR050
U 1 1 4D42E9A8
P 9500 3700
F 0 "#PWR050" H 9500 3800 30  0001 C CNN
F 1 "VDDM_2V5" H 9500 3800 30  0000 C CNN
F 2 "" H 9500 3700 60  0001 C CNN
F 3 "" H 9500 3700 60  0001 C CNN
	1    9500 3700
	1    0    0    -1  
$EndComp
$Comp
L PWR_FLAG #FLG051
U 1 1 4D42E923
P 10750 3700
F 0 "#FLG051" H 10750 3970 30  0001 C CNN
F 1 "PWR_FLAG" H 10750 3930 30  0000 C CNN
F 2 "" H 10750 3700 60  0001 C CNN
F 3 "" H 10750 3700 60  0001 C CNN
	1    10750 3700
	-1   0    0    1   
$EndComp
$Comp
L VDD4P2 #PWR052
U 1 1 4D42E922
P 10750 3700
F 0 "#PWR052" H 10750 3800 30  0001 C CNN
F 1 "VDD4P2" H 10750 3800 30  0000 C CNN
F 2 "" H 10750 3700 60  0001 C CNN
F 3 "" H 10750 3700 60  0001 C CNN
	1    10750 3700
	1    0    0    -1  
$EndComp
$Comp
L VDD_BATT #PWR053
U 1 1 4D42E913
P 10500 3700
F 0 "#PWR053" H 10500 3800 30  0001 C CNN
F 1 "VDD_BATT" H 10500 3800 30  0000 C CNN
F 2 "" H 10500 3700 60  0001 C CNN
F 3 "" H 10500 3700 60  0001 C CNN
	1    10500 3700
	1    0    0    -1  
$EndComp
$Comp
L VDD_XTAL #PWR054
U 1 1 4D42E910
P 10250 3700
F 0 "#PWR054" H 10250 3800 30  0001 C CNN
F 1 "VDD_XTAL" H 10250 3800 30  0000 C CNN
F 2 "" H 10250 3700 60  0001 C CNN
F 3 "" H 10250 3700 60  0001 C CNN
	1    10250 3700
	1    0    0    -1  
$EndComp
$Comp
L VBUS #PWR055
U 1 1 4D42E90C
P 10000 3700
F 0 "#PWR055" H 10000 3800 30  0001 C CNN
F 1 "VBUS" H 10000 3800 30  0000 C CNN
F 2 "" H 10000 3700 60  0001 C CNN
F 3 "" H 10000 3700 60  0001 C CNN
	1    10000 3700
	1    0    0    -1  
$EndComp
$Comp
L VDD5V #PWR056
U 1 1 4D42E904
P 9750 3700
F 0 "#PWR056" H 9750 3800 30  0001 C CNN
F 1 "VDD5V" H 9750 3800 30  0000 C CNN
F 2 "" H 9750 3700 60  0001 C CNN
F 3 "" H 9750 3700 60  0001 C CNN
	1    9750 3700
	1    0    0    -1  
$EndComp
$Comp
L PWR_FLAG #FLG057
U 1 1 4D42E8AE
P 10500 3700
F 0 "#FLG057" H 10500 3970 30  0001 C CNN
F 1 "PWR_FLAG" H 10500 3930 30  0000 C CNN
F 2 "" H 10500 3700 60  0001 C CNN
F 3 "" H 10500 3700 60  0001 C CNN
	1    10500 3700
	-1   0    0    1   
$EndComp
$Comp
L PWR_FLAG #FLG058
U 1 1 4D42E8AA
P 10250 3700
F 0 "#FLG058" H 10250 3970 30  0001 C CNN
F 1 "PWR_FLAG" H 10250 3930 30  0000 C CNN
F 2 "" H 10250 3700 60  0001 C CNN
F 3 "" H 10250 3700 60  0001 C CNN
	1    10250 3700
	-1   0    0    1   
$EndComp
$Comp
L PWR_FLAG #FLG059
U 1 1 4D42E8A3
P 10000 3700
F 0 "#FLG059" H 10000 3970 30  0001 C CNN
F 1 "PWR_FLAG" H 10000 3930 30  0000 C CNN
F 2 "" H 10000 3700 60  0001 C CNN
F 3 "" H 10000 3700 60  0001 C CNN
	1    10000 3700
	-1   0    0    1   
$EndComp
$Comp
L PWR_FLAG #FLG060
U 1 1 4D42E8A0
P 9750 3700
F 0 "#FLG060" H 9750 3970 30  0001 C CNN
F 1 "PWR_FLAG" H 9750 3930 30  0000 C CNN
F 2 "" H 9750 3700 60  0001 C CNN
F 3 "" H 9750 3700 60  0001 C CNN
	1    9750 3700
	-1   0    0    1   
$EndComp
Text Notes 13800 2200 0    60   ~ 0
BOOT MODES
Text Notes 9350 1850 0    60   ~ 0
RESET CIRCUIT
$Comp
L VDD_XTAL #PWR061
U 1 1 4D42D64F
P 750 9150
F 0 "#PWR061" H 750 9250 30  0001 C CNN
F 1 "VDD_XTAL" H 750 9250 30  0000 C CNN
F 2 "" H 750 9150 60  0001 C CNN
F 3 "" H 750 9150 60  0001 C CNN
	1    750  9150
	1    0    0    -1  
$EndComp
$Comp
L C C23
U 1 1 4D42D64E
P 750 9450
F 0 "C23" H 800 9550 50  0000 L CNN
F 1 "0.1uF" H 800 9350 50  0000 L CNN
F 2 "" H 750 9450 60  0001 C CNN
F 3 "" H 750 9450 60  0001 C CNN
	1    750  9450
	1    0    0    -1  
$EndComp
$Comp
L GND #PWR062
U 1 1 4D42D64D
P 750 9800
F 0 "#PWR062" H 750 9800 30  0001 C CNN
F 1 "GND" H 750 9730 30  0001 C CNN
F 2 "" H 750 9800 60  0001 C CNN
F 3 "" H 750 9800 60  0001 C CNN
	1    750  9800
	1    0    0    -1  
$EndComp
$Comp
L C C29
U 1 1 4D42D64A
P 1900 9450
F 0 "C29" H 1950 9550 50  0000 L CNN
F 1 "1uF" H 1950 9350 50  0000 L CNN
F 2 "" H 1900 9450 60  0001 C CNN
F 3 "" H 1900 9450 60  0001 C CNN
	1    1900 9450
	1    0    0    -1  
$EndComp
$Comp
L VDD5V #PWR063
U 1 1 4D42D648
P 3000 9150
F 0 "#PWR063" H 3000 9250 30  0001 C CNN
F 1 "VDD5V" H 3000 9250 30  0000 C CNN
F 2 "" H 3000 9150 60  0001 C CNN
F 3 "" H 3000 9150 60  0001 C CNN
	1    3000 9150
	1    0    0    -1  
$EndComp
$Comp
L C C32
U 1 1 4D42D647
P 2650 9450
F 0 "C32" H 2700 9550 50  0000 L CNN
F 1 "0.1uF" H 2700 9350 50  0000 L CNN
F 2 "" H 2650 9450 60  0001 C CNN
F 3 "" H 2650 9450 60  0001 C CNN
	1    2650 9450
	1    0    0    -1  
$EndComp
$Comp
L C C34
U 1 1 4D42D646
P 3000 9800
F 0 "C34" H 3050 9900 50  0000 L CNN
F 1 "4.7uF" H 3050 9700 50  0000 L CNN
F 2 "" H 3000 9800 60  0001 C CNN
F 3 "" H 3000 9800 60  0001 C CNN
	1    3000 9800
	0    1    1    0   
$EndComp
$Comp
L R R1
U 1 1 4D42D645
P 3350 9500
F 0 "R1" V 3430 9500 50  0000 C CNN
F 1 "1" V 3350 9500 50  0000 C CNN
F 2 "" H 3350 9500 60  0001 C CNN
F 3 "" H 3350 9500 60  0001 C CNN
	1    3350 9500
	1    0    0    -1  
$EndComp
$Comp
L GND #PWR064
U 1 1 4D42D644
P 2650 9950
F 0 "#PWR064" H 2650 9950 30  0001 C CNN
F 1 "GND" H 2650 9880 30  0001 C CNN
F 2 "" H 2650 9950 60  0001 C CNN
F 3 "" H 2650 9950 60  0001 C CNN
	1    2650 9950
	1    0    0    -1  
$EndComp
$Comp
L VDD_BATT #PWR065
U 1 1 4D42D642
P 4050 8850
F 0 "#PWR065" H 4050 8950 30  0001 C CNN
F 1 "VDD_BATT" H 4050 8950 30  0000 C CNN
F 2 "" H 4050 8850 60  0001 C CNN
F 3 "" H 4050 8850 60  0001 C CNN
	1    4050 8850
	1    0    0    -1  
$EndComp
$Comp
L R R2
U 1 1 4D42D641
P 4500 9250
F 0 "R2" V 4580 9250 50  0000 C CNN
F 1 "0.1" V 4500 9250 50  0000 C CNN
F 2 "" H 4500 9250 60  0001 C CNN
F 3 "" H 4500 9250 60  0001 C CNN
	1    4500 9250
	1    0    0    -1  
$EndComp
$Comp
L CP1 C40
U 1 1 4D42D640
P 4500 9850
F 0 "C40" H 4550 9950 50  0000 L CNN
F 1 "33uF Ceramic" H 3900 9850 50  0000 L CNN
F 2 "" H 4500 9850 60  0001 C CNN
F 3 "" H 4500 9850 60  0001 C CNN
	1    4500 9850
	1    0    0    -1  
$EndComp
$Comp
L GND #PWR066
U 1 1 4D42D63F
P 4150 10150
F 0 "#PWR066" H 4150 10150 30  0001 C CNN
F 1 "GND" H 4150 10080 30  0001 C CNN
F 2 "" H 4150 10150 60  0001 C CNN
F 3 "" H 4150 10150 60  0001 C CNN
	1    4150 10150
	1    0    0    -1  
$EndComp
$Comp
L C C41
U 1 1 4D42D63E
P 4850 9500
F 0 "C41" H 4900 9600 50  0000 L CNN
F 1 "0.1uF" H 4900 9400 50  0000 L CNN
F 2 "" H 4850 9500 60  0001 C CNN
F 3 "" H 4850 9500 60  0001 C CNN
	1    4850 9500
	1    0    0    -1  
$EndComp
$Comp
L C C43
U 1 1 4D42D63D
P 5200 9500
F 0 "C43" H 5250 9600 50  0000 L CNN
F 1 "1uF" H 5250 9400 50  0000 L CNN
F 2 "" H 5200 9500 60  0001 C CNN
F 3 "" H 5200 9500 60  0001 C CNN
	1    5200 9500
	1    0    0    -1  
$EndComp
$Comp
L C C45
U 1 1 4D42D63C
P 5550 9500
F 0 "C45" H 5600 9600 50  0000 L CNN
F 1 "0.01uF" H 5600 9400 50  0000 L CNN
F 2 "" H 5550 9500 60  0001 C CNN
F 3 "" H 5550 9500 60  0001 C CNN
	1    5550 9500
	1    0    0    -1  
$EndComp
$Comp
L VDD_BATT #PWR067
U 1 1 4D42D63B
P 5750 8800
F 0 "#PWR067" H 5750 8900 30  0001 C CNN
F 1 "VDD_BATT" H 5750 8900 30  0000 C CNN
F 2 "" H 5750 8800 60  0001 C CNN
F 3 "" H 5750 8800 60  0001 C CNN
	1    5750 8800
	1    0    0    -1  
$EndComp
$Comp
L DIODESCH D1
U 1 1 4D42D63A
P 6100 8950
F 0 "D1" H 6100 9050 40  0000 C CNN
F 1 "10BQ015" H 6100 8850 40  0000 C CNN
F 2 "SOD123" H 6100 8950 60  0001 C CNN
F 3 "" H 6100 8950 60  0001 C CNN
	1    6100 8950
	1    0    0    -1  
$EndComp
$Comp
L R R3
U 1 1 4D42D639
P 6600 9300
F 0 "R3" V 6680 9300 50  0000 C CNN
F 1 "0.1" V 6600 9300 50  0000 C CNN
F 2 "" H 6600 9300 60  0001 C CNN
F 3 "" H 6600 9300 60  0001 C CNN
	1    6600 9300
	1    0    0    -1  
$EndComp
$Comp
L CP1 C48
U 1 1 4D42D638
P 6600 9900
F 0 "C48" H 6650 10000 50  0000 L CNN
F 1 "33uF Ceramic" H 6000 9900 50  0000 L CNN
F 2 "" H 6600 9900 60  0001 C CNN
F 3 "" H 6600 9900 60  0001 C CNN
	1    6600 9900
	1    0    0    -1  
$EndComp
$Comp
L C C50
U 1 1 4D42D637
P 7100 9550
F 0 "C50" H 7150 9650 50  0000 L CNN
F 1 "1uF" H 7150 9450 50  0000 L CNN
F 2 "" H 7100 9550 60  0001 C CNN
F 3 "" H 7100 9550 60  0001 C CNN
	1    7100 9550
	1    0    0    -1  
$EndComp
$Comp
L GND #PWR068
U 1 1 4D42D635
P 7100 10250
F 0 "#PWR068" H 7100 10250 30  0001 C CNN
F 1 "GND" H 7100 10180 30  0001 C CNN
F 2 "" H 7100 10250 60  0001 C CNN
F 3 "" H 7100 10250 60  0001 C CNN
	1    7100 10250
	1    0    0    -1  
$EndComp
$Comp
L VDD4P2 #PWR069
U 1 1 4D42D634
P 6800 8800
F 0 "#PWR069" H 6800 8900 30  0001 C CNN
F 1 "VDD4P2" H 6800 8900 30  0000 C CNN
F 2 "" H 6800 8800 60  0001 C CNN
F 3 "" H 6800 8800 60  0001 C CNN
	1    6800 8800
	1    0    0    -1  
$EndComp
$Comp
L VDDIO_3V3 #PWR070
U 1 1 4D42D633
P 1250 10400
F 0 "#PWR070" H 1250 10500 30  0001 C CNN
F 1 "VDDIO_3V3" H 1250 10500 30  0000 C CNN
F 2 "" H 1250 10400 60  0001 C CNN
F 3 "" H 1250 10400 60  0001 C CNN
	1    1250 10400
	1    0    0    -1  
$EndComp
$Comp
L C C22
U 1 1 4D42D632
P 700 10750
F 0 "C22" H 750 10850 50  0000 L CNN
F 1 "0.01uF" H 750 10650 50  0000 L CNN
F 2 "" H 700 10750 60  0001 C CNN
F 3 "" H 700 10750 60  0001 C CNN
	1    700  10750
	1    0    0    -1  
$EndComp
$Comp
L C C24
U 1 1 4D42D631
P 1050 10750
F 0 "C24" H 1100 10850 50  0000 L CNN
F 1 "0.1uF" H 1100 10650 50  0000 L CNN
F 2 "" H 1050 10750 60  0001 C CNN
F 3 "" H 1050 10750 60  0001 C CNN
	1    1050 10750
	1    0    0    -1  
$EndComp
$Comp
L C C25
U 1 1 4D42D630
P 1400 10750
F 0 "C25" H 1450 10850 50  0000 L CNN
F 1 "1uF" H 1450 10650 50  0000 L CNN
F 2 "" H 1400 10750 60  0001 C CNN
F 3 "" H 1400 10750 60  0001 C CNN
	1    1400 10750
	1    0    0    -1  
$EndComp
$Comp
L C C27
U 1 1 4D42D62F
P 1750 10750
F 0 "C27" H 1800 10850 50  0000 L CNN
F 1 "33uF" H 1800 10650 50  0000 L CNN
F 2 "" H 1750 10750 60  0001 C CNN
F 3 "" H 1750 10750 60  0001 C CNN
	1    1750 10750
	1    0    0    -1  
$EndComp
$Comp
L GND #PWR071
U 1 1 4D42D62E
P 1250 11050
F 0 "#PWR071" H 1250 11050 30  0001 C CNN
F 1 "GND" H 1250 10980 30  0001 C CNN
F 2 "" H 1250 11050 60  0001 C CNN
F 3 "" H 1250 11050 60  0001 C CNN
	1    1250 11050
	1    0    0    -1  
$EndComp
$Comp
L GND #PWR072
U 1 1 4D42D62D
P 1750 9750
F 0 "#PWR072" H 1750 9750 30  0001 C CNN
F 1 "GND" H 1750 9680 30  0001 C CNN
F 2 "" H 1750 9750 60  0001 C CNN
F 3 "" H 1750 9750 60  0001 C CNN
	1    1750 9750
	1    0    0    -1  
$EndComp
$Comp
L C C35
U 1 1 4D42D62C
P 2250 9450
F 0 "C35" H 2300 9550 50  0000 L CNN
F 1 "33uF" H 2300 9350 50  0000 L CNN
F 2 "" H 2250 9450 60  0001 C CNN
F 3 "" H 2250 9450 60  0001 C CNN
	1    2250 9450
	1    0    0    -1  
$EndComp
$Comp
L C C31
U 1 1 4D42D62A
P 1550 9450
F 0 "C31" H 1600 9550 50  0000 L CNN
F 1 "0.1uF" H 1600 9350 50  0000 L CNN
F 2 "" H 1550 9450 60  0001 C CNN
F 3 "" H 1550 9450 60  0001 C CNN
	1    1550 9450
	1    0    0    -1  
$EndComp
$Comp
L C C30
U 1 1 4D42D629
P 1200 9450
F 0 "C30" H 1250 9550 50  0000 L CNN
F 1 "0.01uF" H 1250 9350 50  0000 L CNN
F 2 "" H 1200 9450 60  0001 C CNN
F 3 "" H 1200 9450 60  0001 C CNN
	1    1200 9450
	1    0    0    -1  
$EndComp
$Comp
L VDDA #PWR073
U 1 1 4D42D628
P 1750 9100
F 0 "#PWR073" H 1750 9200 30  0001 C CNN
F 1 "VDDA" H 1750 9200 30  0000 C CNN
F 2 "" H 1750 9100 60  0001 C CNN
F 3 "" H 1750 9100 60  0001 C CNN
	1    1750 9100
	1    0    0    -1  
$EndComp
$Comp
L VDDD #PWR074
U 1 1 4D42D627
P 3100 10400
F 0 "#PWR074" H 3100 10500 30  0001 C CNN
F 1 "VDDD" H 3100 10500 30  0000 C CNN
F 2 "" H 3100 10400 60  0001 C CNN
F 3 "" H 3100 10400 60  0001 C CNN
	1    3100 10400
	1    0    0    -1  
$EndComp
$Comp
L C C36
U 1 1 4D42D626
P 2550 10750
F 0 "C36" H 2600 10850 50  0000 L CNN
F 1 "0.01uF" H 2600 10650 50  0000 L CNN
F 2 "" H 2550 10750 60  0001 C CNN
F 3 "" H 2550 10750 60  0001 C CNN
	1    2550 10750
	1    0    0    -1  
$EndComp
$Comp
L C C37
U 1 1 4D42D625
P 2900 10750
F 0 "C37" H 2950 10850 50  0000 L CNN
F 1 "0.1uF" H 2950 10650 50  0000 L CNN
F 2 "" H 2900 10750 60  0001 C CNN
F 3 "" H 2900 10750 60  0001 C CNN
	1    2900 10750
	1    0    0    -1  
$EndComp
$Comp
L C C38
U 1 1 4D42D624
P 3250 10750
F 0 "C38" H 3300 10850 50  0000 L CNN
F 1 "1uF" H 3300 10650 50  0000 L CNN
F 2 "" H 3250 10750 60  0001 C CNN
F 3 "" H 3250 10750 60  0001 C CNN
	1    3250 10750
	1    0    0    -1  
$EndComp
$Comp
L C C39
U 1 1 4D42D623
P 3600 10750
F 0 "C39" H 3650 10850 50  0000 L CNN
F 1 "33uF" H 3650 10650 50  0000 L CNN
F 2 "" H 3600 10750 60  0001 C CNN
F 3 "" H 3600 10750 60  0001 C CNN
	1    3600 10750
	1    0    0    -1  
$EndComp
$Comp
L GND #PWR075
U 1 1 4D42D622
P 3100 11050
F 0 "#PWR075" H 3100 11050 30  0001 C CNN
F 1 "GND" H 3100 10980 30  0001 C CNN
F 2 "" H 3100 11050 60  0001 C CNN
F 3 "" H 3100 11050 60  0001 C CNN
	1    3100 11050
	1    0    0    -1  
$EndComp
$Comp
L VDDM_2V5 #PWR076
U 1 1 4D42D621
P 4400 10400
F 0 "#PWR076" H 4400 10500 30  0001 C CNN
F 1 "VDDM_2V5" H 4400 10500 30  0000 C CNN
F 2 "" H 4400 10400 60  0001 C CNN
F 3 "" H 4400 10400 60  0001 C CNN
	1    4400 10400
	1    0    0    -1  
$EndComp
$Comp
L C C44
U 1 1 4D42D620
P 4400 10750
F 0 "C44" H 4450 10850 50  0000 L CNN
F 1 "0.1uF" H 4450 10650 50  0000 L CNN
F 2 "" H 4400 10750 60  0001 C CNN
F 3 "" H 4400 10750 60  0001 C CNN
	1    4400 10750
	1    0    0    -1  
$EndComp
$Comp
L C C46
U 1 1 4D42D61F
P 4750 10750
F 0 "C46" H 4800 10850 50  0000 L CNN
F 1 "0.1uF" H 4800 10650 50  0000 L CNN
F 2 "" H 4750 10750 60  0001 C CNN
F 3 "" H 4750 10750 60  0001 C CNN
	1    4750 10750
	1    0    0    -1  
$EndComp
$Comp
L GND #PWR077
U 1 1 4D42D61E
P 4600 11050
F 0 "#PWR077" H 4600 11050 30  0001 C CNN
F 1 "GND" H 4600 10980 30  0001 C CNN
F 2 "" H 4600 11050 60  0001 C CNN
F 3 "" H 4600 11050 60  0001 C CNN
	1    4600 11050
	1    0    0    -1  
$EndComp
$Comp
L GND #PWR078
U 1 1 4D42D61D
P 5450 11050
F 0 "#PWR078" H 5450 11050 30  0001 C CNN
F 1 "GND" H 5450 10980 30  0001 C CNN
F 2 "" H 5450 11050 60  0001 C CNN
F 3 "" H 5450 11050 60  0001 C CNN
	1    5450 11050
	1    0    0    -1  
$EndComp
$Comp
L C C49
U 1 1 4D42D61C
P 5600 10750
F 0 "C49" H 5650 10850 50  0000 L CNN
F 1 "0.1uF" H 5650 10650 50  0000 L CNN
F 2 "" H 5600 10750 60  0001 C CNN
F 3 "" H 5600 10750 60  0001 C CNN
	1    5600 10750
	1    0    0    -1  
$EndComp
$Comp
L C C47
U 1 1 4D42D61B
P 5250 10750
F 0 "C47" H 5300 10850 50  0000 L CNN
F 1 "0.1uF" H 5300 10650 50  0000 L CNN
F 2 "" H 5250 10750 60  0001 C CNN
F 3 "" H 5250 10750 60  0001 C CNN
	1    5250 10750
	1    0    0    -1  
$EndComp
$Comp
L VDDIO_3V3 #PWR079
U 1 1 4D42D61A
P 5250 10400
F 0 "#PWR079" H 5250 10500 30  0001 C CNN
F 1 "VDDIO_3V3" H 5250 10500 30  0000 C CNN
F 2 "" H 5250 10400 60  0001 C CNN
F 3 "" H 5250 10400 60  0001 C CNN
	1    5250 10400
	1    0    0    -1  
$EndComp
$Comp
L C C42
U 1 1 4D42D619
P 4050 10750
F 0 "C42" H 4100 10850 50  0000 L CNN
F 1 "1uF" H 4100 10650 50  0000 L CNN
F 2 "" H 4050 10750 60  0001 C CNN
F 3 "" H 4050 10750 60  0001 C CNN
	1    4050 10750
	1    0    0    -1  
$EndComp
$Comp
L VDDD #PWR080
U 1 1 4D42D618
P 2250 10400
F 0 "#PWR080" H 2250 10500 30  0001 C CNN
F 1 "VDDD" H 2250 10500 30  0000 C CNN
F 2 "" H 2250 10400 60  0001 C CNN
F 3 "" H 2250 10400 60  0001 C CNN
	1    2250 10400
	1    0    0    -1  
$EndComp
$Comp
L C C51
U 1 1 4D42D617
P 2250 10750
F 0 "C51" H 2300 10850 50  0000 L CNN
F 1 "0.1uF" H 2300 10650 50  0000 L CNN
F 2 "" H 2250 10750 60  0001 C CNN
F 3 "" H 2250 10750 60  0001 C CNN
	1    2250 10750
	1    0    0    -1  
$EndComp
$Comp
L GND #PWR081
U 1 1 4D42D615
P 2400 11050
F 0 "#PWR081" H 2400 11050 30  0001 C CNN
F 1 "GND" H 2400 10980 30  0001 C CNN
F 2 "" H 2400 11050 60  0001 C CNN
F 3 "" H 2400 11050 60  0001 C CNN
	1    2400 11050
	1    0    0    -1  
$EndComp
Text Label 12800 1450 0    60   ~ 0
LCD_RS
Text Label 15250 1900 0    60   ~ 0
LCD_D3
Text Label 12800 1850 0    60   ~ 0
LCD_D2
Text Label 15250 1550 0    60   ~ 0
LCD_D1
Text Label 15250 1200 0    60   ~ 0
LCD_D0
$Comp
L GND #PWR082
U 1 1 4D41D7C9
P 14000 1900
F 0 "#PWR082" H 14000 1900 30  0001 C CNN
F 1 "GND" H 14000 1830 30  0001 C CNN
F 2 "" H 14000 1900 60  0001 C CNN
F 3 "" H 14000 1900 60  0001 C CNN
	1    14000 1900
	1    0    0    -1  
$EndComp
$Comp
L R R10
U 1 1 4D41D6E1
P 13500 1450
F 0 "R10" V 13580 1450 50  0000 C CNN
F 1 "47K" V 13500 1450 50  0000 C CNN
F 2 "" H 13500 1450 60  0001 C CNN
F 3 "" H 13500 1450 60  0001 C CNN
	1    13500 1450
	0    1    1    0   
$EndComp
$Comp
L VDDIO_3V3 #PWR083
U 1 1 4D41D6C0
P 13750 1400
F 0 "#PWR083" H 13750 1500 30  0001 C CNN
F 1 "VDDIO_3V3" H 13750 1500 30  0000 C CNN
F 2 "" H 13750 1400 60  0001 C CNN
F 3 "" H 13750 1400 60  0001 C CNN
	1    13750 1400
	1    0    0    -1  
$EndComp
Text Label 2500 7500 2    60   ~ 0
SSPI_DETECT
Text Label 1900 7800 0    50   ~ 0
SERIAL_JTAG
$Comp
L INDUCTOR L1
U 1 1 4D41A28D
P 3750 1400
F 0 "L1" V 3700 1400 40  0000 C CNN
F 1 "15uH" V 3850 1400 40  0000 C CNN
F 2 "" H 3750 1400 60  0001 C CNN
F 3 "" H 3750 1400 60  0001 C CNN
	1    3750 1400
	-1   0    0    -1  
$EndComp
Text Label 2300 3800 2    60   ~ 0
I2C_SCL
Text Label 2300 3900 2    60   ~ 0
I2C_SDA
Text Label 6250 6950 0    60   ~ 0
LINE1_INL
Text Label 6250 6850 0    60   ~ 0
LINE1_INR
Text Label 6250 6700 0    60   ~ 0
LRADC0
Text Label 6250 6600 0    60   ~ 0
LRADC1
$Comp
L GND #PWR084
U 1 1 4D40878D
P 11100 2850
F 0 "#PWR084" H 11100 2850 30  0001 C CNN
F 1 "GND" H 11100 2780 30  0001 C CNN
F 2 "" H 11100 2850 60  0001 C CNN
F 3 "" H 11100 2850 60  0001 C CNN
	1    11100 2850
	1    0    0    -1  
$EndComp
$Comp
L R R13
U 1 1 4D408680
P 9800 2200
F 0 "R13" V 9880 2200 50  0000 C CNN
F 1 "1k" V 9800 2200 50  0000 C CNN
F 2 "" H 9800 2200 60  0001 C CNN
F 3 "" H 9800 2200 60  0001 C CNN
	1    9800 2200
	0    1    1    0   
$EndComp
$Comp
L R R16
U 1 1 4D40866C
P 10300 2500
F 0 "R16" V 10380 2500 50  0000 C CNN
F 1 "1k" V 10300 2500 50  0000 C CNN
F 2 "" H 10300 2500 60  0001 C CNN
F 3 "" H 10300 2500 60  0001 C CNN
	1    10300 2500
	1    0    0    -1  
$EndComp
$Comp
L C C60
U 1 1 4D40865C
P 10650 2500
F 0 "C60" H 10700 2600 50  0000 L CNN
F 1 "0.1uF" H 10700 2400 50  0000 L CNN
F 2 "" H 10650 2500 60  0001 C CNN
F 3 "" H 10650 2500 60  0001 C CNN
	1    10650 2500
	1    0    0    -1  
$EndComp
Text Label 11500 1300 0    60   ~ 0
XTAL0
Text Label 11200 1300 2    60   ~ 0
XTALI
Text Label 2150 2000 0    60   ~ 0
XTAL0
Text Label 2168 2100 0    60   ~ 0
XTALI
$Comp
L MMDT3904 Q1
U 1 1 4D408387
P 11350 2200
F 0 "Q1" H 10750 2600 50  0000 L BNN
F 1 "MMDT3904" H 11600 2600 50  0000 L BNN
F 2 "SOT363_PHILIPS" H 11350 2200 60  0001 C CNN
F 3 "" H 11350 2200 60  0001 C CNN
	1    11350 2200
	1    0    0    -1  
$EndComp
$Comp
L C C57
U 1 1 4D40783C
P 7900 10300
F 0 "C57" H 7950 10400 50  0000 L CNN
F 1 "0.1uF" H 7950 10200 50  0000 L CNN
F 2 "" H 7900 10300 60  0001 C CNN
F 3 "" H 7900 10300 60  0001 C CNN
	1    7900 10300
	1    0    0    -1  
$EndComp
$Comp
L R R6
U 1 1 4D407830
P 8400 10250
F 0 "R6" V 8480 10250 50  0000 C CNN
F 1 "100K" V 8400 10250 50  0000 C CNN
F 2 "" H 8400 10250 60  0001 C CNN
F 3 "" H 8400 10250 60  0001 C CNN
	1    8400 10250
	1    0    0    -1  
$EndComp
$Comp
L R R4
U 1 1 4D407823
P 8150 9550
F 0 "R4" V 8230 9550 50  0000 C CNN
F 1 "1K" V 8150 9550 50  0000 C CNN
F 2 "" H 8150 9550 60  0001 C CNN
F 3 "" H 8150 9550 60  0001 C CNN
	1    8150 9550
	0    1    1    0   
$EndComp
Text Label 7450 9550 0    60   ~ 0
PSWITCH
$Comp
L GND #PWR085
U 1 1 4D405EB6
P 8150 10950
F 0 "#PWR085" H 8150 10950 30  0001 C CNN
F 1 "GND" H 8150 10880 30  0001 C CNN
F 2 "" H 8150 10950 60  0001 C CNN
F 3 "" H 8150 10950 60  0001 C CNN
	1    8150 10950
	1    0    0    -1  
$EndComp
Text Label 1900 2300 0    60   ~ 0
PSWITCH
Text Label 1900 6300 0    60   ~ 0
PWM0
Text Label 1900 6400 0    60   ~ 0
PWM1
Text Label 6250 7500 0    60   ~ 0
VAG
$Comp
L GND #PWR086
U 1 1 4D4050B1
P 900 1850
F 0 "#PWR086" H 900 1850 30  0001 C CNN
F 1 "GND" H 900 1780 30  0001 C CNN
F 2 "" H 900 1850 60  0001 C CNN
F 3 "" H 900 1850 60  0001 C CNN
	1    900  1850
	-1   0    0    -1  
$EndComp
$Comp
L VDD_XTAL #PWR087
U 1 1 4D404845
P 4800 1450
F 0 "#PWR087" H 4800 1550 30  0001 C CNN
F 1 "VDD_XTAL" V 4800 1650 30  0000 C CNN
F 2 "" H 4800 1450 60  0001 C CNN
F 3 "" H 4800 1450 60  0001 C CNN
	1    4800 1450
	1    0    0    -1  
$EndComp
$Comp
L VDD_BATT #PWR088
U 1 1 4D404817
P 3150 1450
F 0 "#PWR088" H 3150 1550 30  0001 C CNN
F 1 "VDD_BATT" V 3150 1650 30  0000 C CNN
F 2 "" H 3150 1450 60  0001 C CNN
F 3 "" H 3150 1450 60  0001 C CNN
	1    3150 1450
	1    0    0    -1  
$EndComp
$Comp
L VDDIO_3V3 #PWR089
U 1 1 4D40473A
P 5400 1450
F 0 "#PWR089" H 5400 1550 30  0001 C CNN
F 1 "VDDIO_3V3" V 5400 1650 30  0000 C CNN
F 2 "" H 5400 1450 60  0001 C CNN
F 3 "" H 5400 1450 60  0001 C CNN
	1    5400 1450
	1    0    0    -1  
$EndComp
$Comp
L VDDM_2V5 #PWR090
U 1 1 4D40410F
P 4950 1450
F 0 "#PWR090" H 4950 1550 30  0001 C CNN
F 1 "VDDM_2V5" V 4950 1650 30  0000 C CNN
F 2 "" H 4950 1450 60  0001 C CNN
F 3 "" H 4950 1450 60  0001 C CNN
	1    4950 1450
	1    0    0    -1  
$EndComp
$Comp
L VDD5V #PWR091
U 1 1 4D403BF5
P 4650 1450
F 0 "#PWR091" H 4650 1550 30  0001 C CNN
F 1 "VDD5V" V 4650 1600 30  0000 C CNN
F 2 "" H 4650 1450 60  0001 C CNN
F 3 "" H 4650 1450 60  0001 C CNN
	1    4650 1450
	1    0    0    -1  
$EndComp
$Comp
L VDD4P2 #PWR092
U 1 1 4D403BD0
P 3400 1450
F 0 "#PWR092" H 3400 1550 30  0001 C CNN
F 1 "VDD4P2" V 3400 1650 30  0000 C CNN
F 2 "" H 3400 1450 60  0001 C CNN
F 3 "" H 3400 1450 60  0001 C CNN
	1    3400 1450
	1    0    0    -1  
$EndComp
$Comp
L VDDIO_3V3 #PWR093
U 1 1 4D403B8A
P 3900 1450
F 0 "#PWR093" H 3900 1550 30  0001 C CNN
F 1 "VDDIO_3V3" V 3900 1650 30  0000 C CNN
F 2 "" H 3900 1450 60  0001 C CNN
F 3 "" H 3900 1450 60  0001 C CNN
	1    3900 1450
	1    0    0    -1  
$EndComp
$Comp
L VDDD #PWR094
U 1 1 4D403A55
P 4050 1450
F 0 "#PWR094" H 4050 1550 30  0001 C CNN
F 1 "VDDD" V 4050 1600 30  0000 C CNN
F 2 "" H 4050 1450 60  0001 C CNN
F 3 "" H 4050 1450 60  0001 C CNN
	1    4050 1450
	1    0    0    -1  
$EndComp
$Comp
L VDDA #PWR095
U 1 1 4D4039D7
P 4400 1450
F 0 "#PWR095" H 4400 1550 30  0001 C CNN
F 1 "VDDA" V 4400 1600 30  0000 C CNN
F 2 "" H 4400 1450 60  0001 C CNN
F 3 "" H 4400 1450 60  0001 C CNN
	1    4400 1450
	1    0    0    -1  
$EndComp
Text HLabel 6650 3850 2    60   Output ~ 0
DDR_WEN
Text HLabel 6650 3650 2    60   Output ~ 0
DDR_RASN
Text HLabel 6650 4600 2    60   Output ~ 0
DDR_DQS1
Text HLabel 6650 4500 2    60   Output ~ 0
DDR_DQS0
Text HLabel 6650 4400 2    60   Output ~ 0
DDR_DQM1
Text HLabel 6650 4300 2    60   Output ~ 0
DDR_DQM0
Text HLabel 6650 4100 2    60   Output ~ 0
DDR_CLK
Text HLabel 6650 4200 2    60   Output ~ 0
DDR_CLKN
Text HLabel 6650 3950 2    60   Output ~ 0
DDR_CKE
Text HLabel 6650 3550 2    60   Output ~ 0
DDR_CASN
Text HLabel 6650 3750 2    60   Output ~ 0
DDR_CE0
Text HLabel 6650 3400 2    60   Output ~ 0
DDR_BA1
Text HLabel 6650 3300 2    60   Output ~ 0
DDR_BA0
Text Label 1950 4500 0    60   ~ 0
GPMI_ALE
Text Label 1950 4700 0    60   ~ 0
GPMI_CE0N
Text Label 1950 4800 0    60   ~ 0
GPMI_CE1N
Text Label 1950 4200 0    60   ~ 0
LCD_VSYNC
Text Label 1950 4300 0    60   ~ 0
LCD_WR
Text Label 1950 4100 0    60   ~ 0
LCD_RS
Text Label 1950 4000 0    60   ~ 0
LCD_RESET
Text Label 1950 3700 0    50   ~ 0
LCD_DOTCK
Text Label 2150 2800 0    60   ~ 0
LCD_CS
Text Label 1950 3200 0    60   ~ 0
LCD_D3
Text Label 1950 3100 0    60   ~ 0
LCD_D2
Text Label 1950 2900 0    60   ~ 0
LCD_D0
Text Label 1950 3000 0    60   ~ 0
LCD_D1
Text Label 1950 3400 0    60   ~ 0
LCD_D5
Text Label 1950 3300 0    60   ~ 0
LCD_D4
Text Label 1950 3500 0    60   ~ 0
LCD_D6
Text Label 1950 3600 0    60   ~ 0
LCD_D7
Text Label 2150 2600 0    60   ~ 0
USB_DM
Text Label 2150 2500 0    60   ~ 0
USB_DP
$Comp
L GND #PWR096
U 1 1 4D3356ED
P 4300 8300
F 0 "#PWR096" H 4300 8300 30  0001 C CNN
F 1 "GND" H 4300 8230 30  0001 C CNN
F 2 "" H 4300 8300 60  0001 C CNN
F 3 "" H 4300 8300 60  0001 C CNN
	1    4300 8300
	1    0    0    -1  
$EndComp
Text Label 1950 5400 0    60   ~ 0
GPMI_D05
Text Label 1950 5600 0    60   ~ 0
GPMI_D07
Text Label 1950 5500 0    60   ~ 0
GPMI_D06
Text Label 6244 4750 0    60   ~ 0
DDR_DQ0
Text Label 6244 4850 0    60   ~ 0
DDR_DQ1
Text Label 6244 4950 0    60   ~ 0
DDR_DQ2
Text Label 6244 5050 0    60   ~ 0
DDR_DQ3
Text Label 6244 5150 0    60   ~ 0
DDR_DQ4
Text Label 6244 5650 0    60   ~ 0
DDR_DQ9
Text Label 6244 5550 0    60   ~ 0
DDR_DQ8
Text Label 6244 5450 0    60   ~ 0
DDR_DQ7
Text Label 6244 5350 0    60   ~ 0
DDR_DQ6
Text Label 6244 5250 0    60   ~ 0
DDR_DQ5
Text Label 6188 5850 0    60   ~ 0
DDR_DQ11
Text Label 6188 5950 0    60   ~ 0
DDR_DQ12
Text Label 6188 6050 0    60   ~ 0
DDR_DQ13
Text Label 6188 6150 0    60   ~ 0
DDR_DQ14
Text Label 6188 6250 0    60   ~ 0
DDR_DQ15
Text Label 6188 5750 0    60   ~ 0
DDR_DQ10
Entry Wire Line
	7350 6150 7250 6250
Entry Wire Line
	7350 6050 7250 6150
Entry Wire Line
	7350 5950 7250 6050
Entry Wire Line
	7350 4650 7250 4750
Entry Wire Line
	7350 4750 7250 4850
Entry Wire Line
	7350 4950 7250 5050
Entry Wire Line
	7350 4850 7250 4950
Entry Wire Line
	7350 5250 7250 5350
Entry Wire Line
	7350 5350 7250 5450
Entry Wire Line
	7350 5150 7250 5250
Entry Wire Line
	7350 5050 7250 5150
Entry Wire Line
	7350 5450 7250 5550
Entry Wire Line
	7350 5550 7250 5650
Entry Wire Line
	7350 5750 7250 5850
Entry Wire Line
	7350 5650 7250 5750
Entry Wire Line
	7350 5850 7250 5950
Text HLabel 7500 4450 2    60   BiDi ~ 0
DDR_DQ[0..15]
Text Label 6316 2000 0    60   ~ 0
DDR_A0
Text Label 6316 2100 0    60   ~ 0
DDR_A1
Text Label 6316 2300 0    60   ~ 0
DDR_A3
Text Label 6316 2200 0    60   ~ 0
DDR_A2
Text Label 6316 2600 0    60   ~ 0
DDR_A6
Text Label 6316 2700 0    60   ~ 0
DDR_A7
Text Label 6316 2500 0    60   ~ 0
DDR_A5
Text Label 6316 2400 0    60   ~ 0
DDR_A4
Text Label 6316 2800 0    60   ~ 0
DDR_A8
Text Label 6316 2900 0    60   ~ 0
DDR_A9
Text Label 6260 3100 0    60   ~ 0
DDR_A11
Text Label 6260 3000 0    60   ~ 0
DDR_A10
Text Label 6260 3200 0    60   ~ 0
DDR_A12
Text HLabel 7500 1700 2    60   Output ~ 0
DDR_A[0..12]
Entry Wire Line
	7350 3100 7250 3200
Entry Wire Line
	7350 2900 7250 3000
Entry Wire Line
	7350 3000 7250 3100
Entry Wire Line
	7350 2800 7250 2900
Entry Wire Line
	7350 2700 7250 2800
Entry Wire Line
	7350 2300 7250 2400
Entry Wire Line
	7350 2400 7250 2500
Entry Wire Line
	7350 2600 7250 2700
Entry Wire Line
	7350 2500 7250 2600
Entry Wire Line
	7350 2100 7250 2200
Entry Wire Line
	7350 2200 7250 2300
Entry Wire Line
	7350 2000 7250 2100
Entry Wire Line
	7350 1900 7250 2000
Text HLabel 2150 2600 0    60   BiDi ~ 0
USB_DM
Text HLabel 2150 2500 0    60   BiDi ~ 0
USB_DP
Text HLabel 14250 6000 2    60   BiDi ~ 0
RX_CON
Text HLabel 14250 6100 2    60   BiDi ~ 0
TX_CON
$Comp
L +3.3VP #PWR097
U 1 1 52EBC4D6
P 12550 6100
F 0 "#PWR097" H 12600 6130 20  0001 C CNN
F 1 "+3.3VP" H 12550 6250 30  0000 C CNN
F 2 "" H 12550 6100 60  0001 C CNN
F 3 "" H 12550 6100 60  0001 C CNN
	1    12550 6100
	0    -1   -1   0   
$EndComp
$Comp
L +3.3VP #PWR098
U 1 1 52EBCECF
P 9400 6600
F 0 "#PWR098" H 9450 6630 20  0001 C CNN
F 1 "+3.3VP" H 9400 6690 30  0000 C CNN
F 2 "" H 9400 6600 60  0001 C CNN
F 3 "" H 9400 6600 60  0001 C CNN
	1    9400 6600
	0    -1   -1   0   
$EndComp
$Comp
L +3.3VP #PWR099
U 1 1 52EBD8C3
P 9450 6800
F 0 "#PWR099" H 9500 6830 20  0001 C CNN
F 1 "+3.3VP" H 9450 6890 30  0000 C CNN
F 2 "" H 9450 6800 60  0001 C CNN
F 3 "" H 9450 6800 60  0001 C CNN
	1    9450 6800
	0    -1   -1   0   
$EndComp
$Comp
L +3.3VP #PWR0100
U 1 1 52EBE9CE
P 9400 7000
F 0 "#PWR0100" H 9450 7030 20  0001 C CNN
F 1 "+3.3VP" H 9400 7090 30  0000 C CNN
F 2 "" H 9400 7000 60  0001 C CNN
F 3 "" H 9400 7000 60  0001 C CNN
	1    9400 7000
	0    -1   -1   0   
$EndComp
Text HLabel 1800 7100 0    60   Input ~ 0
SSP_DATA0
Text HLabel 1800 7000 0    60   Input ~ 0
SSP_CMD
Text HLabel 1800 7600 0    60   Input ~ 0
SSP_SCK
Text HLabel 1800 7400 0    60   Input ~ 0
SSP_DATA3
Text HLabel 1800 7500 0    60   Input ~ 0
SSP_DETECT
Text HLabel 1800 7200 0    60   Input ~ 0
SSP_DATA1
$Comp
L GND #PWR0101
U 1 1 4D59B301
P 11550 6050
F 0 "#PWR0101" H 11550 6050 30  0001 C CNN
F 1 "GND" H 11550 5980 30  0001 C CNN
F 2 "" H 11550 6050 60  0001 C CNN
F 3 "" H 11550 6050 60  0001 C CNN
	1    11550 6050
	1    0    0    -1  
$EndComp
$Comp
L GND #PWR0102
U 1 1 4D4719BC
P 9050 5550
F 0 "#PWR0102" H 9050 5550 30  0001 C CNN
F 1 "GND" H 9050 5480 30  0001 C CNN
F 2 "" H 9050 5550 60  0001 C CNN
F 3 "" H 9050 5550 60  0001 C CNN
	1    9050 5550
	1    0    0    -1  
$EndComp
$Comp
L VDDIO_3V3 #PWR0103
U 1 1 4D4719C5
P 9300 5250
F 0 "#PWR0103" H 9300 5350 30  0001 C CNN
F 1 "VDDIO_3V3" H 9300 5350 30  0000 C CNN
F 2 "" H 9300 5250 60  0001 C CNN
F 3 "" H 9300 5250 60  0001 C CNN
	1    9300 5250
	1    0    0    -1  
$EndComp
Text Notes 10150 5200 0    60   ~ 0
MICRO_SD
$Comp
L MICROSD J1
U 1 1 4D59B1E9
P 9600 5950
F 0 "J1" H 10050 6600 60  0000 C CNN
F 1 "MICROSD" H 10000 6050 60  0000 C CNN
F 2 "" H 9600 5950 60  0001 C CNN
F 3 "" H 9600 5950 60  0001 C CNN
	1    9600 5950
	1    0    0    -1  
$EndComp
Text Label 9500 5700 0    35   ~ 0
D03
$Comp
L C C52
U 1 1 54BF8F92
P 1350 1500
F 0 "C52" H 1150 1600 50  0000 L CNN
F 1 "20pF" H 1100 1400 50  0000 L CNN
F 2 "" H 1350 1500 60  0001 C CNN
F 3 "" H 1350 1500 60  0001 C CNN
	1    1350 1500
	0    -1   -1   0   
$EndComp
$Comp
L C C53
U 1 1 54BF9B83
P 1350 2100
F 0 "C53" H 1400 2200 50  0000 L CNN
F 1 "20pF" H 1400 2000 50  0000 L CNN
F 2 "" H 1350 2100 60  0001 C CNN
F 3 "" H 1350 2100 60  0001 C CNN
	1    1350 2100
	0    -1   -1   0   
$EndComp
Text Label 9500 5400 0    35   ~ 0
GPMI_D01
Text Label 9500 5450 0    35   ~ 0
GPMI_D00
Text Label 9500 5550 0    35   ~ 0
GPMI_WRN
Text Label 9550 5650 0    35   ~ 0
GPMI_RDY1
Text Label 9550 5750 0    35   ~ 0
GPMI_D02
Text HLabel 1950 3300 0    59   Input ~ 0
LCD_D4
Text HLabel 1950 5700 0    60   Input ~ 0
GPMI_RDN
$Comp
L CONN_02X03 PEX1
U 1 1 54D70EA6
P 14200 6650
F 0 "PEX1" H 14200 6850 50  0000 C CNN
F 1 "CONN_02X03" H 14200 6450 50  0000 C CNN
F 2 "Socket_Strips:Socket_Strip_Straight_2x03" H 14200 5450 60  0001 C CNN
F 3 "" H 14200 5450 60  0000 C CNN
	1    14200 6650
	1    0    0    -1  
$EndComp
Text Label 14600 6550 0    60   ~ 0
RX
Wire Wire Line
	14400 3700 15150 3700
Wire Wire Line
	13600 3700 12850 3700
Wire Wire Line
	2550 4600 1950 4600
Wire Wire Line
	9950 6800 10100 6800
Wire Wire Line
	7450 9550 7900 9550
Wire Wire Line
	13250 5500 12725 5500
Connection ~ 14250 7650
Wire Wire Line
	14250 7650 14300 7650
Connection ~ 13550 8050
Wire Wire Line
	13550 7850 13600 7850
Connection ~ 14250 8050
Wire Wire Line
	14250 7300 14250 8250
Wire Wire Line
	14250 8250 14200 8250
Connection ~ 14250 7500
Connection ~ 2400 10950
Connection ~ 2550 10950
Wire Wire Line
	2250 10950 3600 10950
Connection ~ 1900 9650
Connection ~ 1900 9250
Connection ~ 1100 1800
Connection ~ 1150 1800
Wire Wire Line
	6650 8100 6600 8100
Wire Wire Line
	6600 8100 6600 8050
Wire Wire Line
	6200 8150 5550 8150
Wire Wire Line
	1800 7600 2550 7600
Wire Wire Line
	1800 7400 2550 7400
Wire Wire Line
	1800 7200 2550 7200
Wire Wire Line
	1800 7000 2550 7000
Wire Wire Line
	6850 7200 6050 7200
Wire Wire Line
	6850 6950 6050 6950
Wire Wire Line
	6850 6700 6050 6700
Wire Wire Line
	6850 6450 6050 6450
Wire Wire Line
	2550 3900 1950 3900
Wire Wire Line
	15150 3900 14400 3900
Wire Wire Line
	12850 4000 13600 4000
Wire Wire Line
	2550 4200 1950 4200
Wire Wire Line
	7250 8100 7250 8200
Wire Wire Line
	14000 1900 14000 1850
Wire Wire Line
	14000 1850 13750 1850
Wire Wire Line
	15250 1900 14450 1900
Wire Wire Line
	14450 1900 14450 2050
Wire Wire Line
	13750 1650 14000 1650
Wire Wire Line
	4950 8150 4900 8150
Wire Wire Line
	10050 4150 10050 4200
Wire Wire Line
	4300 8250 4300 8300
Connection ~ 13550 6100
Wire Wire Line
	13050 6100 13000 6100
Wire Wire Line
	13650 5500 13850 5500
Wire Wire Line
	5600 1500 5400 1500
Wire Wire Line
	6600 1500 6750 1500
Wire Wire Line
	6750 1500 6750 1650
Wire Wire Line
	10350 6000 10500 6000
Wire Wire Line
	10500 6000 10500 6300
Wire Wire Line
	4600 8250 4600 8050
Wire Wire Line
	4150 8050 4150 8250
Wire Wire Line
	1200 9250 2250 9250
Wire Wire Line
	6300 8950 7100 8950
Connection ~ 4050 1600
Wire Wire Line
	4150 1750 4150 1600
Wire Wire Line
	11250 3750 11250 3700
Wire Wire Line
	9500 3750 9500 3700
Wire Wire Line
	1900 6500 2550 6500
Wire Wire Line
	1900 6300 2550 6300
Wire Wire Line
	1950 6100 2550 6100
Wire Wire Line
	1950 5900 2550 5900
Wire Wire Line
	1950 5700 2550 5700
Wire Wire Line
	4400 1600 4500 1600
Wire Wire Line
	4500 1600 4500 1750
Wire Wire Line
	3750 1750 3750 1700
Connection ~ 4500 8250
Wire Wire Line
	4500 8250 4500 8050
Connection ~ 4250 8250
Wire Wire Line
	4250 8250 4250 8050
Wire Wire Line
	4000 8050 4000 8250
Wire Wire Line
	2550 6800 1950 6800
Connection ~ 10300 2200
Wire Wire Line
	10050 2200 10650 2200
Connection ~ 10650 2750
Wire Wire Line
	10300 2750 12050 2750
Connection ~ 11500 2750
Wire Wire Line
	12050 2750 12050 2200
Wire Wire Line
	11200 1550 11200 1300
Wire Wire Line
	8400 10850 8400 10500
Wire Wire Line
	7900 9550 7900 10100
Wire Wire Line
	7900 10850 8400 10850
Wire Wire Line
	1150 1500 1100 1500
Wire Wire Line
	1100 1500 1100 2100
Wire Wire Line
	1100 2100 1150 2100
Wire Wire Line
	4800 1450 4800 1750
Wire Wire Line
	3150 1450 3150 1750
Wire Wire Line
	5400 1450 5400 1750
Connection ~ 4950 1600
Wire Wire Line
	5050 1600 5050 1750
Wire Wire Line
	4650 1450 4650 1750
Wire Wire Line
	3900 1450 3900 1750
Connection ~ 4400 1600
Wire Wire Line
	7250 2300 6050 2300
Wire Wire Line
	7250 2100 6050 2100
Wire Wire Line
	7250 2000 6050 2000
Wire Wire Line
	7250 2600 6050 2600
Wire Wire Line
	7250 2800 6050 2800
Wire Wire Line
	7250 3000 6050 3000
Wire Bus Line
	7350 1700 7350 3100
Wire Wire Line
	7250 6150 6050 6150
Wire Wire Line
	7250 5950 6050 5950
Wire Wire Line
	7250 5750 6050 5750
Wire Wire Line
	7250 5550 6050 5550
Wire Wire Line
	7250 5350 6050 5350
Wire Wire Line
	7250 5150 6050 5150
Wire Wire Line
	7250 4950 6050 4950
Wire Wire Line
	7250 4750 6050 4750
Wire Wire Line
	2150 2500 2550 2500
Wire Wire Line
	2550 5300 1950 5300
Wire Wire Line
	2550 5400 1950 5400
Wire Wire Line
	2550 5600 1950 5600
Wire Wire Line
	2550 5500 1950 5500
Wire Wire Line
	2550 5100 1950 5100
Wire Wire Line
	2550 5200 1950 5200
Wire Wire Line
	2550 5000 1950 5000
Wire Wire Line
	2550 4900 1950 4900
Wire Bus Line
	7350 4450 7350 6150
Wire Bus Line
	7350 1700 7500 1700
Wire Bus Line
	7350 4450 7500 4450
Wire Wire Line
	2150 2600 2550 2600
Wire Wire Line
	1950 3700 2550 3700
Wire Wire Line
	1950 4000 2550 4000
Wire Wire Line
	1950 4300 2550 4300
Wire Wire Line
	1950 4100 2550 4100
Wire Wire Line
	6050 3300 6650 3300
Wire Wire Line
	6050 3400 6650 3400
Wire Wire Line
	6050 3550 6650 3550
Wire Wire Line
	6050 4100 6650 4100
Wire Wire Line
	6050 4200 6650 4200
Wire Wire Line
	6050 3950 6650 3950
Wire Wire Line
	6050 4600 6650 4600
Wire Wire Line
	6050 4400 6650 4400
Wire Wire Line
	6050 4300 6650 4300
Wire Wire Line
	6050 4500 6650 4500
Wire Wire Line
	6050 3650 6650 3650
Wire Wire Line
	6050 3850 6650 3850
Wire Wire Line
	2550 4500 1950 4500
Wire Wire Line
	2550 4700 1950 4700
Wire Wire Line
	2550 4800 1950 4800
Wire Wire Line
	6050 3750 6650 3750
Wire Wire Line
	7250 4850 6050 4850
Wire Wire Line
	7250 5050 6050 5050
Wire Wire Line
	7250 5250 6050 5250
Wire Wire Line
	7250 5450 6050 5450
Wire Wire Line
	7250 5650 6050 5650
Wire Wire Line
	7250 5850 6050 5850
Wire Wire Line
	7250 6050 6050 6050
Wire Wire Line
	7250 6250 6050 6250
Wire Wire Line
	7250 3200 6050 3200
Wire Wire Line
	7250 3100 6050 3100
Wire Wire Line
	7250 2900 6050 2900
Wire Wire Line
	7250 2700 6050 2700
Wire Wire Line
	7250 2500 6050 2500
Wire Wire Line
	7250 2200 6050 2200
Wire Wire Line
	7250 2400 6050 2400
Wire Wire Line
	3400 1450 3400 1750
Wire Wire Line
	4950 1450 4950 1750
Wire Wire Line
	5150 1600 5150 1750
Connection ~ 5050 1600
Wire Wire Line
	5500 1750 5500 1600
Wire Wire Line
	5500 1600 5400 1600
Connection ~ 5400 1600
Wire Wire Line
	2550 2000 2150 2000
Wire Wire Line
	2150 2000 2150 1500
Wire Wire Line
	1550 2100 2550 2100
Connection ~ 1600 2100
Wire Wire Line
	2150 1500 1550 1500
Connection ~ 1600 1500
Wire Wire Line
	1900 2300 2550 2300
Connection ~ 7900 9550
Wire Wire Line
	8150 10950 8150 10850
Connection ~ 8150 10850
Wire Wire Line
	7900 10850 7900 10500
Wire Wire Line
	11500 1550 11500 1300
Wire Wire Line
	10650 2750 10650 2700
Connection ~ 11200 2750
Wire Wire Line
	10300 2250 10300 2200
Wire Wire Line
	10650 2200 10650 2300
Wire Wire Line
	11100 2750 11100 2850
Connection ~ 11100 2750
Wire Wire Line
	2550 6700 1950 6700
Wire Wire Line
	2550 7800 1900 7800
Wire Wire Line
	2400 11050 2400 10950
Connection ~ 4400 10550
Wire Wire Line
	4050 10550 4750 10550
Connection ~ 5450 10950
Wire Wire Line
	5450 11050 5450 10950
Wire Wire Line
	5600 10550 5250 10550
Wire Wire Line
	5250 10950 5600 10950
Wire Wire Line
	5250 10550 5250 10400
Wire Wire Line
	4400 10400 4400 10550
Connection ~ 3100 10950
Wire Wire Line
	3100 10950 3100 11050
Connection ~ 3250 10550
Connection ~ 3250 10950
Connection ~ 2900 10950
Connection ~ 2900 10550
Wire Wire Line
	3100 10550 3100 10400
Connection ~ 3100 10550
Connection ~ 1750 9250
Wire Wire Line
	1750 9250 1750 9100
Connection ~ 1550 9250
Connection ~ 1550 9650
Wire Wire Line
	1750 9650 1750 9750
Connection ~ 1750 9650
Connection ~ 1250 10950
Wire Wire Line
	1250 10950 1250 11050
Connection ~ 1400 10550
Wire Wire Line
	700  10550 1750 10550
Connection ~ 1400 10950
Connection ~ 6800 8950
Wire Wire Line
	6800 8800 6800 8950
Connection ~ 7100 8950
Connection ~ 7100 10100
Wire Wire Line
	5750 8800 5750 8950
Wire Wire Line
	5750 8950 5900 8950
Wire Wire Line
	6600 9700 6600 9550
Connection ~ 4850 8950
Wire Wire Line
	5200 8950 5200 9300
Connection ~ 5200 10050
Wire Wire Line
	5550 10050 5550 9700
Wire Wire Line
	4850 10050 4850 9700
Wire Wire Line
	4050 8950 4050 8850
Wire Wire Line
	3750 9600 3750 10050
Connection ~ 4050 8950
Wire Wire Line
	3750 9000 3750 8950
Connection ~ 2650 9800
Wire Wire Line
	2650 9650 2650 9950
Wire Wire Line
	3200 9800 3350 9800
Wire Wire Line
	3350 9800 3350 9750
Wire Wire Line
	750  9800 750  9650
Wire Wire Line
	750  9250 750  9150
Wire Wire Line
	2650 9250 3350 9250
Wire Wire Line
	2800 9800 2650 9800
Wire Wire Line
	3000 9150 3000 9250
Connection ~ 3000 9250
Wire Wire Line
	4500 8950 4500 9000
Wire Wire Line
	4500 9500 4500 9650
Wire Wire Line
	4150 10150 4150 10050
Connection ~ 4150 10050
Connection ~ 4500 10050
Wire Wire Line
	5200 10050 5200 9700
Connection ~ 4850 10050
Wire Wire Line
	4850 8950 4850 9300
Connection ~ 4500 8950
Wire Wire Line
	5550 8950 5550 9300
Wire Wire Line
	3750 8950 5550 8950
Connection ~ 5200 8950
Wire Wire Line
	3750 10050 5550 10050
Wire Wire Line
	6600 8950 6600 9050
Wire Wire Line
	7100 8950 7100 9350
Connection ~ 6600 8950
Wire Wire Line
	7100 9750 7100 10250
Wire Wire Line
	700  10950 1750 10950
Connection ~ 1050 10950
Connection ~ 1050 10550
Wire Wire Line
	1250 10550 1250 10400
Connection ~ 1250 10550
Wire Wire Line
	4600 10950 4600 11050
Connection ~ 4600 10950
Wire Wire Line
	4050 10950 4750 10950
Connection ~ 4400 10950
Wire Wire Line
	2250 10400 2250 10550
Wire Wire Line
	4400 1450 4400 1750
Connection ~ 4150 8250
Wire Wire Line
	4350 8250 4350 8050
Connection ~ 4350 8250
Connection ~ 4300 8250
Wire Wire Line
	3750 1100 3550 1100
Wire Wire Line
	3550 1100 3550 1750
Wire Wire Line
	5250 1600 5250 1750
Wire Wire Line
	4950 1600 5250 1600
Connection ~ 5150 1600
Wire Wire Line
	1950 5800 2550 5800
Wire Wire Line
	1950 6000 2550 6000
Wire Wire Line
	3250 1750 3250 1650
Wire Wire Line
	3250 1650 3150 1650
Connection ~ 3150 1650
Wire Wire Line
	1900 6400 2550 6400
Wire Wire Line
	11500 3750 11500 3700
Wire Wire Line
	4050 1450 4050 1750
Wire Wire Line
	4250 1600 4250 1750
Wire Wire Line
	4050 1600 4250 1600
Connection ~ 4150 1600
Wire Wire Line
	6600 10100 7100 10100
Wire Wire Line
	1200 9650 2250 9650
Wire Wire Line
	9700 6000 9850 6000
Wire Wire Line
	14250 6000 13700 6000
Wire Wire Line
	13550 6100 14250 6100
Wire Wire Line
	11100 4200 10950 4200
Connection ~ 5400 1500
Wire Wire Line
	6100 1500 6000 1500
Wire Wire Line
	14500 5500 14350 5500
Wire Wire Line
	2150 2800 2550 2800
Wire Wire Line
	13250 1450 12800 1450
Wire Wire Line
	13750 1400 13750 1450
Wire Wire Line
	13250 1650 12800 1650
Wire Wire Line
	14500 1350 14450 1350
Wire Wire Line
	15000 1350 15200 1350
Wire Wire Line
	15000 2050 15200 2050
Wire Wire Line
	14450 2050 14500 2050
Wire Wire Line
	14450 1350 14450 1200
Wire Wire Line
	14450 1200 15250 1200
Wire Wire Line
	12800 1850 13250 1850
Wire Wire Line
	15250 1550 14450 1550
Wire Wire Line
	14450 1550 14450 1700
Wire Wire Line
	15000 1700 15200 1700
Wire Wire Line
	14450 1700 14500 1700
Wire Wire Line
	14400 4100 15000 4100
Wire Wire Line
	8400 10000 8400 9550
Wire Wire Line
	6600 7650 6600 7500
Wire Wire Line
	6600 7500 6050 7500
Wire Wire Line
	1950 2900 2550 2900
Wire Wire Line
	1950 3000 2550 3000
Wire Wire Line
	1950 3200 2550 3200
Wire Wire Line
	1950 3100 2550 3100
Wire Wire Line
	1950 3500 2550 3500
Wire Wire Line
	1950 3600 2550 3600
Wire Wire Line
	1950 3400 2550 3400
Wire Wire Line
	1950 3300 2550 3300
Wire Wire Line
	12850 3800 13600 3800
Wire Wire Line
	12850 3900 13600 3900
Wire Wire Line
	12850 4100 13600 4100
Wire Wire Line
	15150 3800 14400 3800
Wire Wire Line
	15150 4000 14400 4000
Wire Wire Line
	1950 3800 2550 3800
Wire Wire Line
	6850 6600 6050 6600
Wire Wire Line
	6850 6850 6050 6850
Wire Wire Line
	6850 7100 6050 7100
Wire Wire Line
	6850 7350 6050 7350
Wire Wire Line
	1800 7100 2550 7100
Wire Wire Line
	1800 7500 2550 7500
Wire Wire Line
	4900 8150 4900 8050
Wire Wire Line
	4000 8250 4600 8250
Wire Wire Line
	1150 1850 1200 1850
Wire Wire Line
	1150 1750 1150 1850
Wire Wire Line
	1150 1750 1200 1750
Wire Wire Line
	900  1800 1150 1800
Wire Wire Line
	900  1800 900  1850
Wire Wire Line
	14250 7300 14300 7300
Wire Wire Line
	14250 7500 14300 7500
Wire Wire Line
	2250 10550 3600 10550
Connection ~ 2550 10550
Wire Wire Line
	14250 7850 14200 7850
Wire Wire Line
	14200 8050 14250 8050
Connection ~ 14250 7850
Wire Wire Line
	13550 8250 13600 8250
Wire Wire Line
	13550 8050 13600 8050
Wire Wire Line
	13550 7550 13550 8250
Wire Wire Line
	13550 7550 13350 7550
Connection ~ 13550 7850
Wire Wire Line
	14250 7750 14300 7750
Connection ~ 14250 7750
Wire Wire Line
	10050 4200 10550 4200
Wire Wire Line
	9000 2200 9550 2200
Wire Wire Line
	9950 6600 10300 6600
Wire Wire Line
	10150 7000 9950 7000
Wire Wire Line
	12600 6100 12550 6100
Wire Wire Line
	9450 6600 9400 6600
Wire Wire Line
	9450 7000 9400 7000
Connection ~ 10600 6000
Connection ~ 11550 6000
Wire Wire Line
	11550 6000 10600 6000
Connection ~ 11550 5650
Wire Wire Line
	11550 5650 10950 5650
Wire Wire Line
	11550 5550 11550 6050
Wire Wire Line
	10950 5550 11550 5550
Wire Wire Line
	9050 5500 9050 5550
Wire Wire Line
	9850 5400 9500 5400
Wire Wire Line
	9850 5500 9050 5500
Wire Wire Line
	9500 5700 9850 5700
Wire Wire Line
	9500 5650 9850 5650
Wire Wire Line
	9500 5550 9850 5550
Wire Wire Line
	9500 5450 9850 5450
Wire Wire Line
	9300 5600 9850 5600
Wire Wire Line
	9300 5250 9300 5600
Wire Wire Line
	9850 5750 9500 5750
Wire Wire Line
	10950 5600 11550 5600
Connection ~ 11550 5600
Wire Wire Line
	13550 6550 13950 6550
Wire Wire Line
	14450 6550 14850 6550
Text Label 13750 6550 2    60   ~ 0
TX
Text Label 13900 6650 2    60   ~ 0
I2C_SCL
Text Label 14850 6650 2    60   ~ 0
I2C_SDA
Wire Wire Line
	14450 6650 14850 6650
Wire Wire Line
	13550 6650 13950 6650
$Comp
L GND #PWR0104
U 1 1 54D7527D
P 14650 6750
F 0 "#PWR0104" H 14650 6750 30  0001 C CNN
F 1 "GND" H 14650 6680 30  0001 C CNN
F 2 "" H 14650 6750 60  0001 C CNN
F 3 "" H 14650 6750 60  0001 C CNN
	1    14650 6750
	0    -1   -1   0   
$EndComp
Wire Wire Line
	14450 6750 14650 6750
$Comp
L VDD5V #PWR0105
U 1 1 54D77CA3
P 13700 6750
F 0 "#PWR0105" H 13700 6850 30  0001 C CNN
F 1 "VDD5V" H 13700 6850 30  0000 C CNN
F 2 "" H 13700 6750 60  0001 C CNN
F 3 "" H 13700 6750 60  0001 C CNN
	1    13700 6750
	0    -1   -1   0   
$EndComp
Wire Wire Line
	13950 6750 13700 6750
$EndSCHEMATC
