EESchema Schematic File Version 2
LIBS:con-jack
LIBS:adm3101e
LIBS:microsd
LIBS:transistor-npn
LIBS:ipc-7351-transistor
LIBS:switch-misc
LIBS:power
LIBS:device
LIBS:transistors
LIBS:conn
LIBS:linear
LIBS:regul
LIBS:74xx
LIBS:cmos4000
LIBS:adc-dac
LIBS:memory
LIBS:xilinx
LIBS:special
LIBS:microcontrollers
LIBS:dsp
LIBS:microchip
LIBS:analog_switches
LIBS:motorola
LIBS:texas
LIBS:intel
LIBS:audio
LIBS:interface
LIBS:digital-audio
LIBS:philips
LIBS:display
LIBS:cypress
LIBS:siliconi
LIBS:opto
LIBS:atmel
LIBS:contrib
LIBS:valves
LIBS:micron_ddr_512Mb
LIBS:iMX23
LIBS:sdmmc
LIBS:usbconn
LIBS:fsusb20
LIBS:r_pack2
LIBS:pasives-connectors
LIBS:EEPROM
LIBS:PWR
LIBS:m25p32
LIBS:PROpendous-cache
LIBS:w_analog
LIBS:gl850g
LIBS:srf2012
LIBS:rclamp0502b
LIBS:mcp130
LIBS:ABM8G
LIBS:usb_a
LIBS:Reset
LIBS:stm32f100vxx
LIBS:lt1117cst
LIBS:zxmhc3f381n8
LIBS:fsusb43
LIBS:usb-mini
LIBS:atsam3n0aa-au
LIBS:xbeepro
LIBS:ba50dd0whfp
LIBS:mic29301
LIBS:sp481
LIBS:lm35
LIBS:enc28j60
LIBS:m-pad-2.1
LIBS:ds3231
LIBS:5v600ma
LIBS:isl1203
LIBS:ac220s05dc-3w
LIBS:stamp_mini_4_layers-cache
EELAYER 25 0
EELAYER END
$Descr User 12000 10000
encoding utf-8
Sheet 4 5
Title ""
Date "11 sep 2014"
Rev ""
Comp ""
Comment1 ""
Comment2 ""
Comment3 ""
Comment4 ""
$EndDescr
Text Label 6400 4800 0    60   ~ 0
485_B
Text Label 6400 4950 0    60   ~ 0
485_A
$Comp
L SP481 US485
U 1 1 52DFF1F2
P 6250 4750
F 0 "US485" H 5500 5300 60  0000 C CNN
F 1 "SP481" H 5850 5300 60  0000 C CNN
F 2 "-SOIC8" H 6250 4750 60  0001 C CNN
F 3 "" H 6250 4750 60  0000 C CNN
	1    6250 4750
	1    0    0    1   
$EndComp
$Comp
L GND #PWR015
U 1 1 52E02B15
P 6700 4600
F 0 "#PWR015" H 6700 4600 30  0001 C CNN
F 1 "GND" H 6700 4530 30  0001 C CNN
F 2 "" H 6700 4600 60  0001 C CNN
F 3 "" H 6700 4600 60  0001 C CNN
	1    6700 4600
	0    -1   1    0   
$EndComp
$Comp
L VDD5V #PWR016
U 1 1 52E02FAC
P 6700 5150
F 0 "#PWR016" H 6700 5250 30  0001 C CNN
F 1 "VDD5V" H 6700 5250 30  0000 C CNN
F 2 "" H 6700 5150 60  0001 C CNN
F 3 "" H 6700 5150 60  0001 C CNN
	1    6700 5150
	1    0    0    -1  
$EndComp
$Comp
L R RS1
U 1 1 52E0475D
P 4700 4900
F 0 "RS1" V 4650 5150 50  0000 C CNN
F 1 "680R" V 4750 5150 50  0000 C CNN
F 2 "SM0603" H 4700 4900 60  0001 C CNN
F 3 "" H 4700 4900 60  0001 C CNN
	1    4700 4900
	0    1    1    0   
$EndComp
Text HLabel 5000 2350 0    60   BiDi ~ 0
I2C_SCL
Text HLabel 5000 2250 0    60   BiDi ~ 0
I2C_SDA
$Comp
L GND #PWR017
U 1 1 5411CB25
P 6100 2750
F 0 "#PWR017" H 6100 2750 30  0001 C CNN
F 1 "GND" H 6100 2680 30  0001 C CNN
F 2 "" H 6100 2750 60  0001 C CNN
F 3 "" H 6100 2750 60  0001 C CNN
	1    6100 2750
	1    0    0    -1  
$EndComp
$Comp
L R RRTC2
U 1 1 5411E712
P 5450 1400
F 0 "RRTC2" V 5600 1450 50  0000 C CNN
F 1 "4.7k" V 5450 1400 50  0000 C CNN
F 2 "SM0603" H 5450 1400 60  0001 C CNN
F 3 "" H 5450 1400 60  0001 C CNN
	1    5450 1400
	1    0    0    -1  
$EndComp
$Comp
L R RRTC1
U 1 1 5411E718
P 5250 1400
F 0 "RRTC1" V 5150 1400 50  0000 C CNN
F 1 "4.7k" V 5250 1400 50  0000 C CNN
F 2 "SM0603" H 5250 1400 60  0001 C CNN
F 3 "" H 5250 1400 60  0001 C CNN
	1    5250 1400
	1    0    0    -1  
$EndComp
$Comp
L +3.3VP #PWR018
U 1 1 5411EE0B
P 5350 1000
F 0 "#PWR018" H 5400 1030 20  0001 C CNN
F 1 "+3.3VP" H 5350 1090 30  0000 C CNN
F 2 "" H 5350 1000 60  0001 C CNN
F 3 "" H 5350 1000 60  0001 C CNN
	1    5350 1000
	1    0    0    -1  
$EndComp
$Comp
L BATTERY BAT1
U 1 1 54120DCB
P 8700 2650
F 0 "BAT1" H 8700 2850 50  0000 C CNN
F 1 "1059K-ND" H 8700 2460 50  0000 C CNN
F 2 "1059" H 8700 2650 60  0001 C CNN
F 3 "~" H 8700 2650 60  0000 C CNN
	1    8700 2650
	0    1    1    0   
$EndComp
Wire Wire Line
	4250 4700 5250 4700
Wire Wire Line
	4250 4800 5000 4800
Wire Wire Line
	6400 4800 6800 4800
Wire Wire Line
	6400 4950 6800 4950
Wire Wire Line
	5000 4800 5000 4600
Wire Wire Line
	5000 4600 5250 4600
Wire Wire Line
	5150 4700 5150 5000
Wire Wire Line
	5150 5000 5250 5000
Connection ~ 5150 4700
Wire Wire Line
	5000 4900 5000 5100
Wire Wire Line
	5000 5100 5250 5100
Wire Wire Line
	6400 4600 6700 4600
Wire Wire Line
	6400 5150 6700 5150
Wire Wire Line
	4250 4900 4450 4900
Wire Wire Line
	4950 4900 5000 4900
Wire Wire Line
	6100 2500 6100 2750
Wire Wire Line
	5450 2350 5450 1650
Wire Wire Line
	5250 2250 5250 1650
Wire Wire Line
	5250 1150 5250 1050
Wire Wire Line
	5450 1050 4650 1050
Wire Wire Line
	5450 1050 5450 1150
Wire Wire Line
	5350 1000 5350 1050
Connection ~ 5350 1050
Wire Wire Line
	8150 2100 8700 2100
Wire Wire Line
	8700 2100 8700 2350
Wire Wire Line
	8700 3150 8700 2950
Wire Wire Line
	5000 2250 5250 2250
Wire Wire Line
	5000 2350 5450 2350
$Comp
L VDD5V #PWR019
U 1 1 54CB317E
P 3250 1700
F 0 "#PWR019" H 3250 1800 30  0001 C CNN
F 1 "VDD5V" H 3250 1800 30  0000 C CNN
F 2 "" H 3250 1700 60  0001 C CNN
F 3 "" H 3250 1700 60  0001 C CNN
	1    3250 1700
	1    0    0    -1  
$EndComp
Wire Wire Line
	2800 1700 3550 1700
$Comp
L C CRE21
U 1 1 54CB3185
P 3550 1950
F 0 "CRE21" H 3600 2050 50  0000 L CNN
F 1 "22uF" H 3550 1850 50  0000 L CNN
F 2 "SM1206" H 3550 1950 60  0001 C CNN
F 3 "" H 3550 1950 60  0001 C CNN
	1    3550 1950
	1    0    0    -1  
$EndComp
$Comp
L GND #PWR020
U 1 1 54CB318C
P 2900 2200
F 0 "#PWR020" H 2900 2200 30  0001 C CNN
F 1 "GND" H 2900 2130 30  0001 C CNN
F 2 "" H 2900 2200 60  0001 C CNN
F 3 "" H 2900 2200 60  0001 C CNN
	1    2900 2200
	1    0    0    -1  
$EndComp
Connection ~ 3150 1700
$Comp
L C CRE2
U 1 1 54CB3193
P 3150 1900
F 0 "CRE2" H 3200 2000 50  0000 L CNN
F 1 "0.1uF" H 3200 1800 50  0000 L CNN
F 2 "SM0603" H 3150 1900 60  0001 C CNN
F 3 "" H 3150 1900 60  0001 C CNN
	1    3150 1900
	1    0    0    -1  
$EndComp
$Comp
L GND #PWR021
U 1 1 54CB319A
P 3150 2200
F 0 "#PWR021" H 3150 2200 30  0001 C CNN
F 1 "GND" H 3150 2130 30  0001 C CNN
F 2 "" H 3150 2200 60  0001 C CNN
F 3 "" H 3150 2200 60  0001 C CNN
	1    3150 2200
	1    0    0    -1  
$EndComp
Wire Wire Line
	3150 2100 3150 2200
$Comp
L 5v600ma PWS1
U 1 1 54CB31A1
P 2150 1900
F 0 "PWS1" H 2250 2050 60  0000 C CNN
F 1 "5v600ma" H 2250 1850 60  0000 C CNN
F 2 "ac_dc:5v600ma" H 2150 1900 60  0001 C CNN
F 3 "" H 2150 1900 60  0000 C CNN
	1    2150 1900
	1    0    0    -1  
$EndComp
Wire Wire Line
	2800 2100 2900 2100
Wire Wire Line
	2900 2100 2900 2200
Wire Wire Line
	3550 1700 3550 1750
Connection ~ 3250 1700
$Comp
L GND #PWR022
U 1 1 54CB31AC
P 3550 2200
F 0 "#PWR022" H 3550 2200 30  0001 C CNN
F 1 "GND" H 3550 2130 30  0001 C CNN
F 2 "" H 3550 2200 60  0001 C CNN
F 3 "" H 3550 2200 60  0001 C CNN
	1    3550 2200
	1    0    0    -1  
$EndComp
Wire Wire Line
	3550 2150 3550 2200
Wire Wire Line
	1300 1700 1650 1700
Wire Wire Line
	1300 2100 1650 2100
Text Label 1350 1700 0    60   ~ 0
AC_N
Text Label 1350 2100 0    60   ~ 0
AC_F
Text HLabel 4250 4900 0    60   Input ~ 0
485_TX
Text HLabel 4250 4800 0    60   Input ~ 0
485_RX
Text HLabel 4250 4700 0    60   Input ~ 0
485_EN
$Comp
L CONN_01X06 PCH1
U 1 1 54D7D3F4
P 8350 4850
F 0 "PCH1" H 8350 5200 50  0000 C CNN
F 1 "OSTTE060104" V 8450 4850 50  0000 C CNN
F 2 "ac_dc:ENG_CD_10" H 8350 4850 60  0001 C CNN
F 3 "" H 8350 4850 60  0000 C CNN
	1    8350 4850
	1    0    0    -1  
$EndComp
Text Label 7750 4700 0    60   ~ 0
485_B
Text Label 7750 4800 0    60   ~ 0
485_A
Wire Wire Line
	7750 4700 8150 4700
Wire Wire Line
	7750 4800 8150 4800
Wire Wire Line
	7800 5100 8150 5100
Wire Wire Line
	7800 5000 8150 5000
Text Label 7850 5100 0    60   ~ 0
AC_F
Text Label 7850 5000 0    60   ~ 0
AC_N
$Comp
L GND #PWR023
U 1 1 54D7D6F9
P 7650 4600
F 0 "#PWR023" H 7650 4600 30  0001 C CNN
F 1 "GND" H 7650 4530 30  0001 C CNN
F 2 "" H 7650 4600 60  0001 C CNN
F 3 "" H 7650 4600 60  0001 C CNN
	1    7650 4600
	0    1    -1   0   
$EndComp
Wire Wire Line
	8150 4600 7650 4600
Text Notes 8600 4700 0    39   ~ 0
ED2744-ND\nOSTTE060104
Wire Wire Line
	6100 2500 6350 2500
Connection ~ 5250 1050
$Comp
L C CRTC1
U 1 1 54D6ED45
P 4650 1250
F 0 "CRTC1" H 4700 1350 50  0000 L CNN
F 1 "0.1uF" H 4700 1150 50  0000 L CNN
F 2 "SM0603" H 4650 1250 60  0001 C CNN
F 3 "" H 4650 1250 60  0001 C CNN
	1    4650 1250
	-1   0    0    -1  
$EndComp
Connection ~ 5000 1050
$Comp
L GND #PWR024
U 1 1 54D6EE99
P 4650 1500
F 0 "#PWR024" H 4650 1500 30  0001 C CNN
F 1 "GND" H 4650 1430 30  0001 C CNN
F 2 "" H 4650 1500 60  0001 C CNN
F 3 "" H 4650 1500 60  0001 C CNN
	1    4650 1500
	-1   0    0    -1  
$EndComp
Wire Wire Line
	4650 1450 4650 1500
$Comp
L GND #PWR025
U 1 1 54D73CB3
P 8700 3150
F 0 "#PWR025" H 8700 3150 30  0001 C CNN
F 1 "GND" H 8700 3080 30  0001 C CNN
F 2 "" H 8700 3150 60  0001 C CNN
F 3 "" H 8700 3150 60  0001 C CNN
	1    8700 3150
	-1   0    0    -1  
$EndComp
$Comp
L DS3231 RT1
U 1 1 54D97B41
P 7250 2150
F 0 "RT1" H 7250 1900 60  0000 C CNN
F 1 "DS3231" H 7250 2150 60  0000 C CNN
F 2 "SOIC16_Wide_RW16" H 7250 2150 60  0001 C CNN
F 3 "" H 7250 2150 60  0000 C CNN
	1    7250 2150
	1    0    0    -1  
$EndComp
$Comp
L +3.3VP #PWR026
U 1 1 54D97CE8
P 7250 1350
F 0 "#PWR026" H 7300 1380 20  0001 C CNN
F 1 "+3.3VP" H 7250 1440 30  0000 C CNN
F 2 "" H 7250 1350 60  0001 C CNN
F 3 "" H 7250 1350 60  0001 C CNN
	1    7250 1350
	-1   0    0    -1  
$EndComp
Wire Wire Line
	7250 1350 7250 1450
Wire Wire Line
	6250 2300 6250 2600
Wire Wire Line
	6250 2300 6350 2300
Wire Wire Line
	6350 2400 6250 2400
Connection ~ 6250 2400
Connection ~ 6250 2500
Wire Wire Line
	6250 2600 6350 2600
Wire Wire Line
	8150 2300 8250 2300
Wire Wire Line
	8250 2300 8250 2850
Wire Wire Line
	8250 2400 8150 2400
Wire Wire Line
	8250 2500 8150 2500
Connection ~ 8250 2400
Wire Wire Line
	8250 2600 8150 2600
Connection ~ 8250 2500
$Comp
L GND #PWR027
U 1 1 54D98FD7
P 7250 3300
F 0 "#PWR027" H 7250 3300 30  0001 C CNN
F 1 "GND" H 7250 3230 30  0001 C CNN
F 2 "" H 7250 3300 60  0001 C CNN
F 3 "" H 7250 3300 60  0001 C CNN
	1    7250 3300
	1    0    0    -1  
$EndComp
Wire Wire Line
	7250 3050 7250 3300
$Comp
L GND #PWR028
U 1 1 54D98FF4
P 8250 2850
F 0 "#PWR028" H 8250 2850 30  0001 C CNN
F 1 "GND" H 8250 2780 30  0001 C CNN
F 2 "" H 8250 2850 60  0001 C CNN
F 3 "" H 8250 2850 60  0001 C CNN
	1    8250 2850
	1    0    0    -1  
$EndComp
Connection ~ 8250 2600
Wire Wire Line
	6350 1900 5450 1900
Connection ~ 5450 1900
Wire Wire Line
	6350 2000 5250 2000
Connection ~ 5250 2000
$Comp
L R RRTC4
U 1 1 54D99B1C
P 8650 1450
F 0 "RRTC4" V 8800 1500 50  0000 C CNN
F 1 "4.7k" V 8650 1450 50  0000 C CNN
F 2 "SM0603" H 8650 1450 60  0001 C CNN
F 3 "" H 8650 1450 60  0001 C CNN
	1    8650 1450
	1    0    0    -1  
$EndComp
$Comp
L R RRTC3
U 1 1 54D99B22
P 8450 1450
F 0 "RRTC3" V 8350 1450 50  0000 C CNN
F 1 "4.7k" V 8450 1450 50  0000 C CNN
F 2 "SM0603" H 8450 1450 60  0001 C CNN
F 3 "" H 8450 1450 60  0001 C CNN
	1    8450 1450
	1    0    0    -1  
$EndComp
$Comp
L +3.3VP #PWR029
U 1 1 54D99B28
P 8550 1050
F 0 "#PWR029" H 8600 1080 20  0001 C CNN
F 1 "+3.3VP" H 8550 1140 30  0000 C CNN
F 2 "" H 8550 1050 60  0001 C CNN
F 3 "" H 8550 1050 60  0001 C CNN
	1    8550 1050
	1    0    0    -1  
$EndComp
Wire Wire Line
	8450 1200 8450 1100
Wire Wire Line
	8650 1100 8650 1200
Wire Wire Line
	8550 1050 8550 1100
Connection ~ 8550 1100
Connection ~ 8450 1100
Wire Wire Line
	8450 1100 8650 1100
Wire Wire Line
	8150 1900 8450 1900
Wire Wire Line
	8450 1900 8450 1700
Wire Wire Line
	8150 2000 8650 2000
Wire Wire Line
	8650 2000 8650 1700
$Comp
L VDDIO_3V3 #PWR030
U 1 1 54DA617C
P 5000 1000
F 0 "#PWR030" H 5000 1100 30  0001 C CNN
F 1 "VDDIO_3V3" H 5000 1100 30  0000 C CNN
F 2 "" H 5000 1000 60  0001 C CNN
F 3 "" H 5000 1000 60  0001 C CNN
	1    5000 1000
	1    0    0    -1  
$EndComp
Wire Wire Line
	5000 1050 5000 1000
$Comp
L AC220S05DC-3W PSW11
U 1 1 558AF29C
P 2250 2800
F 0 "PSW11" H 2200 3100 60  0000 C CNN
F 1 "AC220S05DC-3W" H 2250 2650 60  0000 C CNN
F 2 "ac_dc:AC220S05DC-3W" H 2250 2800 60  0001 C CNN
F 3 "" H 2250 2800 60  0000 C CNN
	1    2250 2800
	1    0    0    -1  
$EndComp
Wire Wire Line
	1400 2850 1750 2850
Wire Wire Line
	1400 2600 1750 2600
Text Label 1450 2850 0    60   ~ 0
AC_N
Text Label 1450 2600 0    60   ~ 0
AC_F
$Comp
L GND #PWR031
U 1 1 558B2AB7
P 2850 2950
F 0 "#PWR031" H 2850 2950 30  0001 C CNN
F 1 "GND" H 2850 2880 30  0001 C CNN
F 2 "" H 2850 2950 60  0001 C CNN
F 3 "" H 2850 2950 60  0001 C CNN
	1    2850 2950
	1    0    0    -1  
$EndComp
Wire Wire Line
	2850 2850 2850 2950
Wire Wire Line
	2800 2850 2850 2850
Wire Wire Line
	2800 2600 3000 2600
Connection ~ 3000 1700
Wire Wire Line
	3000 2600 3000 1700
$EndSCHEMATC
