EESchema Schematic File Version 2
LIBS:con-jack
LIBS:adm3101e
LIBS:microsd
LIBS:transistor-npn
LIBS:ipc-7351-transistor
LIBS:switch-misc
LIBS:power
LIBS:device
LIBS:transistors
LIBS:conn
LIBS:linear
LIBS:regul
LIBS:74xx
LIBS:cmos4000
LIBS:adc-dac
LIBS:memory
LIBS:xilinx
LIBS:special
LIBS:microcontrollers
LIBS:dsp
LIBS:microchip
LIBS:analog_switches
LIBS:motorola
LIBS:texas
LIBS:intel
LIBS:audio
LIBS:interface
LIBS:digital-audio
LIBS:philips
LIBS:display
LIBS:cypress
LIBS:siliconi
LIBS:opto
LIBS:atmel
LIBS:contrib
LIBS:valves
LIBS:micron_ddr_512Mb
LIBS:iMX23
LIBS:sdmmc
LIBS:usbconn
LIBS:fsusb20
LIBS:r_pack2
LIBS:pasives-connectors
LIBS:EEPROM
LIBS:PWR
LIBS:m25p32
LIBS:PROpendous-cache
LIBS:w_analog
LIBS:gl850g
LIBS:srf2012
LIBS:rclamp0502b
LIBS:mcp130
LIBS:ABM8G
LIBS:usb_a
LIBS:Reset
LIBS:stm32f100vxx
LIBS:lt1117cst
LIBS:zxmhc3f381n8
LIBS:fsusb43
LIBS:usb-mini
LIBS:atsam3n0aa-au
LIBS:xbeepro
LIBS:ba50dd0whfp
LIBS:mic29301
LIBS:sp481
LIBS:lm35
LIBS:enc28j60
LIBS:m-pad-2.1
LIBS:ds3231
LIBS:5v600ma
LIBS:isl1203
LIBS:ac220s05dc-3w
LIBS:stamp_mini_4_layers-cache
EELAYER 25 0
EELAYER END
$Descr A4 11693 8268
encoding utf-8
Sheet 1 5
Title ""
Date "11 sep 2014"
Rev ""
Comp ""
Comment1 ""
Comment2 ""
Comment3 ""
Comment4 ""
$EndDescr
Wire Bus Line
	8050 1900 7550 1900
Wire Wire Line
	7550 2950 8050 2950
Wire Wire Line
	8050 2700 7550 2700
Wire Wire Line
	7550 2450 8050 2450
Wire Wire Line
	7550 3550 8050 3550
Wire Wire Line
	7550 3300 8050 3300
Wire Wire Line
	7550 3100 8050 3100
Wire Wire Line
	7550 2350 8050 2350
Wire Wire Line
	7550 2250 8050 2250
Wire Wire Line
	7550 2150 8050 2150
Wire Wire Line
	7550 3200 8050 3200
Wire Wire Line
	7550 3450 8050 3450
Wire Wire Line
	7550 2600 8050 2600
Wire Wire Line
	8050 2850 7550 2850
Wire Bus Line
	7550 2000 8050 2000
Wire Wire Line
	5600 3100 5950 3100
$Sheet
S 8050 1100 1150 2500
U 4D30B991
F0 "DDR" 60
F1 "DDR1.sch" 60
F2 "DDR_A[0..12]" I L 8050 1900 60 
F3 "DDR_DQ[0..15]" B L 8050 2000 60 
F4 "DDR_BA0" I L 8050 3450 60 
F5 "DDR_BA1" I L 8050 3550 60 
F6 "DDR_CE0" I L 8050 2150 60 
F7 "DDR_CASN" I L 8050 2350 60 
F8 "DDR_CKE" I L 8050 3300 60 
F9 "DDR_CLKN" I L 8050 3200 60 
F10 "DDR_CLK" I L 8050 3100 60 
F11 "DDR_DQM0" I L 8050 2850 60 
F12 "DDR_DQM1" I L 8050 2950 60 
F13 "DDR_DQS0" I L 8050 2600 60 
F14 "DDR_DQS1" I L 8050 2700 60 
F15 "DDR_RASN" I L 8050 2450 60 
F16 "DDR_WEN" I L 8050 2250 60 
$EndSheet
Wire Wire Line
	5600 3000 5950 3000
$Sheet
S 4350 2700 1250 850 
U 52DA0C17
F0 "USB" 50
F1 "usb.sch" 50
F2 "USB_DP0" T R 5600 3000 60 
F3 "USB_DM0" T R 5600 3100 60 
$EndSheet
Wire Wire Line
	5950 2250 5700 2250
Wire Wire Line
	5950 2350 5700 2350
$Sheet
S 4350 1250 1350 1250
U 4E78AF25
F0 "SAM3M" 60
F1 "SAM3N.sch" 60
F2 "I2C_SCL" B R 5700 2250 60 
F3 "I2C_SDA" B R 5700 2350 60 
F4 "485_TX" I R 5700 1450 60 
F5 "485_RX" I R 5700 1350 60 
F6 "485_EN" I R 5700 1550 60 
$EndSheet
$Sheet
S 5950 1100 1600 4000
U 4D30AC69
F0 "i.MX233" 60
F1 "i.MX233.sch" 60
F2 "DDR_A[0..12]" O R 7550 1900 60 
F3 "DDR_DQ[0..15]" B R 7550 2000 60 
F4 "DDR_WEN" O R 7550 2250 60 
F5 "DDR_RASN" O R 7550 2450 60 
F6 "DDR_DQS1" O R 7550 2700 60 
F7 "DDR_DQS0" O R 7550 2600 60 
F8 "DDR_DQM1" O R 7550 2950 60 
F9 "DDR_DQM0" O R 7550 2850 60 
F10 "DDR_CLK" O R 7550 3100 60 
F11 "DDR_CLKN" O R 7550 3200 60 
F12 "DDR_CKE" O R 7550 3300 60 
F13 "DDR_CASN" O R 7550 2350 60 
F14 "DDR_CE0" O R 7550 2150 60 
F15 "DDR_BA1" O R 7550 3550 60 
F16 "DDR_BA0" O R 7550 3450 60 
F17 "I2C_SCL" B L 5950 2250 60 
F18 "I2C_SDA" B L 5950 2350 60 
F19 "AUART_TX" B L 5950 1350 60 
F20 "AUART_RX" B L 5950 1450 60 
F21 "USB_DM" B L 5950 3100 60 
F22 "USB_DP" B L 5950 3000 60 
F23 "SSP_DATA0" I R 7550 4350 60 
F24 "SSP_CMD" I R 7550 4450 60 
F25 "SSP_SCK" I R 7550 4550 60 
F26 "SSP_DATA3" I R 7550 4650 60 
F27 "SSP_DETECT" I R 7550 4750 60 
F28 "SSP_DATA1" I R 7550 4250 60 
F29 "LCD_D4" I L 5950 1550 60 
$EndSheet
Wire Wire Line
	5700 1550 5950 1550
Wire Wire Line
	5700 1350 5950 1350
Wire Wire Line
	5700 1450 5950 1450
$EndSCHEMATC
