EESchema Schematic File Version 2
LIBS:con-jack
LIBS:adm3101e
LIBS:microsd
LIBS:transistor-npn
LIBS:ipc-7351-transistor
LIBS:switch-misc
LIBS:power
LIBS:device
LIBS:transistors
LIBS:conn
LIBS:linear
LIBS:regul
LIBS:74xx
LIBS:cmos4000
LIBS:adc-dac
LIBS:memory
LIBS:xilinx
LIBS:special
LIBS:microcontrollers
LIBS:dsp
LIBS:microchip
LIBS:analog_switches
LIBS:motorola
LIBS:texas
LIBS:intel
LIBS:audio
LIBS:interface
LIBS:digital-audio
LIBS:philips
LIBS:display
LIBS:cypress
LIBS:siliconi
LIBS:opto
LIBS:atmel
LIBS:contrib
LIBS:valves
LIBS:micron_ddr_512Mb
LIBS:iMX23
LIBS:sdmmc
LIBS:usbconn
LIBS:fsusb20
LIBS:r_pack2
LIBS:pasives-connectors
LIBS:EEPROM
LIBS:PWR
LIBS:m25p32
LIBS:PROpendous-cache
LIBS:w_analog
LIBS:gl850g
LIBS:srf2012
LIBS:rclamp0502b
LIBS:mcp130
LIBS:ABM8G
LIBS:usb_a
LIBS:Reset
LIBS:stm32f100vxx
LIBS:lt1117cst
LIBS:zxmhc3f381n8
LIBS:fsusb43
LIBS:usb-mini
LIBS:atsam3n0aa-au
LIBS:xbeepro
LIBS:ba50dd0whfp
LIBS:mic29301
LIBS:sp481
LIBS:lm35
LIBS:enc28j60
LIBS:m-pad-2.1
LIBS:ds3231
LIBS:5v600ma
LIBS:isl1203
LIBS:ac220s05dc-3w
LIBS:stamp_mini_4_layers-cache
EELAYER 25 0
EELAYER END
$Descr A4 11693 8268
encoding utf-8
Sheet 3 5
Title ""
Date "11 sep 2014"
Rev ""
Comp ""
Comment1 ""
Comment2 ""
Comment3 ""
Comment4 ""
$EndDescr
Connection ~ 8500 5100
Connection ~ 8500 4950
Connection ~ 8150 5100
Connection ~ 8300 4950
Wire Wire Line
	8300 4650 8300 4950
Wire Wire Line
	8300 4450 8150 4450
Wire Wire Line
	8150 4450 8150 5100
Wire Wire Line
	9450 4550 9550 4550
Wire Wire Line
	9550 4550 9550 4700
Wire Wire Line
	7950 5100 8500 5100
Wire Wire Line
	9900 4950 9400 4950
Wire Wire Line
	9900 5100 9400 5100
Wire Wire Line
	7850 4950 8500 4950
$Comp
L RCLAMP0502B U501
U 1 1 4E4157EA
P 9300 4250
AR Path="/52DA0C17/4E4157EA" Ref="U501"  Part="1" 
AR Path="/52DAC516/51B8E16A/4E4157EA" Ref="U501"  Part="1" 
F 0 "U501" V 9300 5150 60  0000 C CNN
F 1 "RCLAMP0502B" V 9300 4650 60  0000 C CNN
F 2 "SOT-523" H 9300 4250 60  0001 C CNN
F 3 "" H 9300 4250 60  0001 C CNN
	1    9300 4250
	0    -1   -1   0   
$EndComp
$Comp
L GND #PWR010
U 1 1 4E4157E9
P 9550 4700
AR Path="/52DA0C17/4E4157E9" Ref="#PWR010"  Part="1" 
AR Path="/52DAC516/51B8E16A/4E4157E9" Ref="#PWR507"  Part="1" 
F 0 "#PWR010" H 9550 4700 30  0001 C CNN
F 1 "GND" H 9550 4630 30  0001 C CNN
F 2 "" H 9550 4700 60  0001 C CNN
F 3 "" H 9550 4700 60  0001 C CNN
	1    9550 4700
	1    0    0    -1  
$EndComp
Text Notes 7550 7550 0    60   ~ 0
andres.calderon@emqbit.com\n
$Comp
L SRF2012 L504
U 1 1 4E3C1750
P 8950 5000
AR Path="/52DA0C17/4E3C1750" Ref="L504"  Part="1" 
AR Path="/52DAC516/51B8E16A/4E3C1750" Ref="L504"  Part="1" 
F 0 "L504" H 8950 4850 60  0000 C CNN
F 1 "SRF2012" H 8950 5100 60  0000 C CNN
F 2 "SRF2012" H 8950 5000 60  0001 C CNN
F 3 "" H 8950 5000 60  0001 C CNN
	1    8950 5000
	1    0    0    -1  
$EndComp
Text HLabel 9900 5100 2    60   3State ~ 0
USB_DP0
Text HLabel 9900 4950 2    60   3State ~ 0
USB_DM0
$Comp
L VDD5V #PWR011
U 1 1 51B8EA8B
P 6100 4400
AR Path="/52DA0C17/51B8EA8B" Ref="#PWR011"  Part="1" 
AR Path="/52DAC516/51B8E16A/51B8EA8B" Ref="#PWR502"  Part="1" 
F 0 "#PWR011" H 6100 4500 30  0001 C CNN
F 1 "VDD5V" H 6100 4500 30  0000 C CNN
F 2 "" H 6100 4400 60  0001 C CNN
F 3 "" H 6100 4400 60  0001 C CNN
	1    6100 4400
	1    0    0    -1  
$EndComp
Wire Wire Line
	7050 4850 7050 5450
Connection ~ 7050 4850
Connection ~ 7050 5150
Connection ~ 7050 5050
Connection ~ 7050 4950
Connection ~ 6400 5200
Wire Wire Line
	6400 5200 6750 5200
Connection ~ 6550 5200
Wire Wire Line
	6550 5200 6550 5300
Connection ~ 6750 4600
Wire Wire Line
	7850 5150 7850 5350
Wire Wire Line
	6400 4600 6400 4700
Wire Wire Line
	6400 5200 6400 5100
Wire Wire Line
	6750 5200 6750 5100
Connection ~ 6400 4600
Wire Wire Line
	6750 4450 6750 4700
Wire Wire Line
	6150 4450 6100 4450
Wire Wire Line
	6100 4450 6100 4400
Wire Wire Line
	7850 5050 7950 5050
Wire Wire Line
	7850 4600 7850 4850
Wire Wire Line
	6400 4600 7850 4600
Text Notes 7150 5350 0    60   ~ 0
UE27AC54100
Text GLabel 9400 6200 0    60   BiDi ~ 0
GND_CASE
$Comp
L USB_2A J502
U 1 1 51B8EAB7
P 7650 5000
AR Path="/52DA0C17/51B8EAB7" Ref="J502"  Part="1" 
AR Path="/52DAC516/51B8E16A/51B8EAB7" Ref="J502"  Part="1" 
F 0 "J502" H 7575 5250 60  0000 C CNN
F 1 "USB_2A" H 7700 4700 60  0001 C CNN
F 2 "opendous:CONN_USB_A_Opendous" H 7650 5000 60  0001 C CNN
F 3 "" H 7650 5000 60  0001 C CNN
F 4 "VCC" H 7975 5150 50  0001 C CNN "VCC"
F 5 "D+" H 7950 5050 50  0001 C CNN "Data+"
F 6 "D-" H 7950 4950 50  0001 C CNN "Data-"
F 7 "GND" H 7975 4850 50  0001 C CNN "Ground"
	1    7650 5000
	1    0    0    -1  
$EndComp
$Comp
L INDUCTOR L502
U 1 1 51B8EABD
P 6450 4450
AR Path="/52DA0C17/51B8EABD" Ref="L502"  Part="1" 
AR Path="/52DAC516/51B8E16A/51B8EABD" Ref="L502"  Part="1" 
F 0 "L502" V 6400 4450 40  0000 C CNN
F 1 "2A 120 ohm" V 6550 4450 40  0000 C CNN
F 2 "SM0805" H 6450 4450 60  0001 C CNN
F 3 "" H 6450 4450 60  0001 C CNN
	1    6450 4450
	0    -1   -1   0   
$EndComp
$Comp
L GND #PWR012
U 1 1 51B8EAC9
P 6550 5300
AR Path="/52DA0C17/51B8EAC9" Ref="#PWR012"  Part="1" 
AR Path="/52DAC516/51B8E16A/51B8EAC9" Ref="#PWR504"  Part="1" 
F 0 "#PWR012" H 6550 5300 30  0001 C CNN
F 1 "GND" H 6550 5230 30  0001 C CNN
F 2 "" H 6550 5300 60  0001 C CNN
F 3 "" H 6550 5300 60  0001 C CNN
	1    6550 5300
	1    0    0    -1  
$EndComp
$Comp
L C C502
U 1 1 51B8EACF
P 6400 4900
AR Path="/52DA0C17/51B8EACF" Ref="C502"  Part="1" 
AR Path="/52DAC516/51B8E16A/51B8EACF" Ref="C502"  Part="1" 
F 0 "C502" H 6450 5000 50  0000 L CNN
F 1 "33uF" H 6450 4800 50  0000 L CNN
F 2 "SM1206" H 6400 4900 60  0001 C CNN
F 3 "" H 6400 4900 60  0001 C CNN
	1    6400 4900
	1    0    0    -1  
$EndComp
$Comp
L C C504
U 1 1 51B8EAD5
P 6750 4900
AR Path="/52DA0C17/51B8EAD5" Ref="C504"  Part="1" 
AR Path="/52DAC516/51B8E16A/51B8EAD5" Ref="C504"  Part="1" 
F 0 "C504" H 6800 5000 50  0000 L CNN
F 1 "100nF" H 6800 4800 50  0000 L CNN
F 2 "SM0603" H 6750 4900 60  0001 C CNN
F 3 "" H 6750 4900 60  0001 C CNN
	1    6750 4900
	1    0    0    -1  
$EndComp
$Comp
L GND #PWR013
U 1 1 51B8EADB
P 7850 5350
AR Path="/52DA0C17/51B8EADB" Ref="#PWR013"  Part="1" 
AR Path="/52DAC516/51B8E16A/51B8EADB" Ref="#PWR506"  Part="1" 
F 0 "#PWR013" H 7850 5350 30  0001 C CNN
F 1 "GND" H 7850 5280 30  0001 C CNN
F 2 "" H 7850 5350 60  0001 C CNN
F 3 "" H 7850 5350 60  0001 C CNN
	1    7850 5350
	1    0    0    -1  
$EndComp
Wire Wire Line
	7050 5450 7100 5450
Wire Wire Line
	7950 5050 7950 5100
Wire Wire Line
	10000 6200 10100 6200
Wire Wire Line
	10100 6200 10100 6350
$Comp
L GND #PWR014
U 1 1 520C8C3D
P 10100 6350
AR Path="/52DA0C17/520C8C3D" Ref="#PWR014"  Part="1" 
AR Path="/52DAC516/51B8E16A/520C8C3D" Ref="#PWR525"  Part="1" 
F 0 "#PWR014" H 10100 6350 30  0001 C CNN
F 1 "GND" H 10100 6280 30  0001 C CNN
F 2 "" H 10100 6350 60  0001 C CNN
F 3 "" H 10100 6350 60  0001 C CNN
	1    10100 6350
	1    0    0    -1  
$EndComp
$Comp
L INDUCTOR L508
U 1 1 520C8C43
P 9700 6200
AR Path="/52DA0C17/520C8C43" Ref="L508"  Part="1" 
AR Path="/52DAC516/51B8E16A/520C8C43" Ref="L508"  Part="1" 
F 0 "L508" V 9650 6200 40  0000 C CNN
F 1 "HZ0805D152R-10" V 9800 6200 40  0000 C CNN
F 2 "SM0805" H 9700 6200 60  0001 C CNN
F 3 "" H 9700 6200 60  0001 C CNN
	1    9700 6200
	0    -1   -1   0   
$EndComp
Text GLabel 7100 5450 2    60   BiDi ~ 0
GND_CASE
$EndSCHEMATC
