"Id";"Designator";"Package";"Quantity";"Designation";"Supplier and ref";
1;"USB1";"conn_usb_A-vert";1;"USB_2A";;;
2;"Q1";"-SOT363_PHILIPS";1;"MMDT3904";;;
3;"U3";"-SO08W";1;"M25P32";;;
4;"P10,P3,P7,P5";"MHOLE";4;"CONN_1";;;
5;"U11";"LT1117";1;"LT1117CST-3.3";;;
6;"IC1";"LQFP128_14x14mm_0.4mmPitch_iMX233";1;"iMX233";;;
7;"J1";"J1";1;"MICROSD";;;
8;"L2,L8,L13,L12,L11";"SM0805";5;"HZ0805D152R-10 (1500 ohm)";;;
9;"R32,R7,R29";"SM0603";3;"47k";;;
10;"R8,R51,R52,RE3,RE4";"SM0603";5;"10k";;;
11;"R9,R28,R30,R31,R13,R16,R5,R33";"SM0603";8;"1k";;;
12;"P2,P4";"pin_array_12x2";2;"CONN_12X2";;;
13;"C40,C48";"SM1206";2;"33uF Ceramic";;;
14;"C27,C35,C39,C76,C74,CE1";"SM1206";6;"33uF";;;
15;"L1";"SM0805";1;"15uH";;;
16;"R22";"SM0603";1;"110";;;
17;"R23,R10";"SM0603";2;"47K";;;
18;"R25,R24";"SM0603";2;"1K 1%";;;
19;"C71,C70,C61,C62,C63,C67,C66,C65,C64,C68,C23,C32,C41,C24,C31,C37,C44,C46,C49,C47,C51,C60,C57,C409,C410,C408,C401,C405,C404";"SM0603";29;"0.1uF";;;
20;"C69,C29,C43,C50,C38,C42,C411,C406";"SM0603";8;"1uF";;;
21;"R1";"SM0603";1;"1";;;
22;"R2,R3";"SM0603";2;"0.1";;;
23;"C45,C22,C30,C36";"SM0603";4;"0.01uF";;;
24;"R19,R17,R18,R15";"SM0603";4;"11k";;;
25;"R14,R12,R11";"SM0603";3;"1.5k";;;
26;"R6";"SM0603";1;"100K";;;
27;"R4";"SM0603";1;"1K";;;
28;"C53,C52,C402,C403";"SM0603";4;"20 pF";;;
29;"D5,D8,D9";"SM0603";3;"LED";;;
30;"C17,C25,CE9,CE10";"SM0805";4;"1uF";;;
31;"U2";"TSOP66_JEDEC_DDR_SDRAM";1;"MT46V32M16TG";;;
32;"X1";"ABM8G";1;"24MHz";;;
33;"C34";"SM0805";1;"4.7uF";;;
34;"D4,D3,D2";"LED0603";3;"LED";;;
35;"C75";"SM0603";1;"100n";;;
36;"D1";"SOD123";1;"D1";;;
37;"C412,C407";"SM1206";2;"4.7uF";;;
38;"X401";"ABM8G";1;"12MHz";;;
39;"U401";"QFP48_0.5mm_7x7mm_SOT313_LPC1343";1;"ATSAM3N0AA-AU";;;
40;"JP4";"PIN_ARRAY_2X1";1;"J";;;
41;"JP3,JP2,JP1";"SM0603";3;"JUMPER";;;
42;"CE2";"SM0603";1;"100nF";;;
43;"CE5,CE7";"SM0603";2;"2.2nF";;;
44;"DE1";"SOD123";1;"RSA5M";;;
45;"HP1";"SJ-3524-SMT_Stereo_Jack";1;"Headphones";;;
46;"HP2";"SJ-3524-SMT_Stereo_Jack";1;"Line";;;
47;"LE1,LE3,LE4,LE5,LE6,LE7,LE8,LE10";"SM0805";8;"2A 120 ohm";;;
48;"LE9";"SRF2012";1;"SRF2012";;;
49;"PWR1";"J5";1;"JACK-PLUG0";;;
50;"RE5,RE6";"SM0603";2;"4.7k";;;
51;"UE5";"SOT-523";1;"RCLAMP0502B";;;
