EESchema Schematic File Version 2
LIBS:con-jack
LIBS:adm3101e
LIBS:microsd
LIBS:transistor-npn
LIBS:ipc-7351-transistor
LIBS:switch-misc
LIBS:power
LIBS:device
LIBS:transistors
LIBS:conn
LIBS:linear
LIBS:regul
LIBS:74xx
LIBS:cmos4000
LIBS:adc-dac
LIBS:memory
LIBS:xilinx
LIBS:special
LIBS:microcontrollers
LIBS:dsp
LIBS:microchip
LIBS:analog_switches
LIBS:motorola
LIBS:texas
LIBS:intel
LIBS:audio
LIBS:interface
LIBS:digital-audio
LIBS:philips
LIBS:display
LIBS:cypress
LIBS:siliconi
LIBS:opto
LIBS:atmel
LIBS:contrib
LIBS:valves
LIBS:micron_ddr_512Mb
LIBS:iMX23
LIBS:sdmmc
LIBS:usbconn
LIBS:fsusb20
LIBS:r_pack2
LIBS:pasives-connectors
LIBS:EEPROM
LIBS:PWR
LIBS:m25p32
LIBS:PROpendous-cache
LIBS:w_analog
LIBS:gl850g
LIBS:srf2012
LIBS:rclamp0502b
LIBS:mcp130
LIBS:ABM8G
LIBS:usb_a
LIBS:Reset
LIBS:stm32f100vxx
LIBS:lt1117cst
LIBS:zxmhc3f381n8
LIBS:fsusb43
LIBS:usb-mini
LIBS:atsam3n0aa-au
LIBS:drv8835
LIBS:inand
LIBS:ac220s05dc-10w
LIBS:stamp_mini_4_layers-cache
EELAYER 24 0
EELAYER END
$Descr A4 11693 8268
encoding utf-8
Sheet 5 5
Title ""
Date "1 jun 2013"
Rev ""
Comp ""
Comment1 ""
Comment2 ""
Comment3 ""
Comment4 ""
$EndDescr
Wire Wire Line
	3400 5850 3400 6250
Connection ~ 3400 5850
Connection ~ 3400 6150
Connection ~ 3400 6050
Connection ~ 3400 5950
Wire Wire Line
	4200 5950 4300 5950
Wire Wire Line
	4300 5950 4300 5900
Wire Wire Line
	4300 5900 4850 5900
Connection ~ 4400 6050
Wire Wire Line
	4400 6050 4400 5400
Wire Wire Line
	4400 5400 4550 5400
Connection ~ 2750 6200
Wire Wire Line
	2350 6200 3100 6200
Wire Wire Line
	2350 6200 2350 6100
Connection ~ 2900 6200
Wire Wire Line
	4400 6150 4400 6250
Connection ~ 3100 5600
Wire Wire Line
	6250 5900 5750 5900
Wire Wire Line
	6250 6050 5750 6050
Wire Wire Line
	2750 5700 2750 5600
Wire Wire Line
	2750 6100 2750 6300
Wire Wire Line
	3100 6200 3100 6100
Wire Wire Line
	2350 5700 2350 5600
Connection ~ 2750 5600
Wire Wire Line
	4550 5600 4550 5900
Connection ~ 4550 5900
Wire Wire Line
	5700 5500 5800 5500
Wire Wire Line
	5800 5500 5800 5600
Wire Wire Line
	3100 5450 3100 5700
Wire Wire Line
	2500 5450 2450 5450
Wire Wire Line
	2450 5450 2450 5400
Wire Wire Line
	4200 6050 4850 6050
Wire Wire Line
	4200 5600 4200 5850
Wire Wire Line
	2350 5600 4200 5600
Text GLabel 3400 6250 3    60   BiDi ~ 0
GND_CASE
$Comp
L USB_2A USB1
U 1 1 518A5D14
P 4000 6000
F 0 "USB1" H 3925 6250 60  0000 C CNN
F 1 "USB_2A" H 4050 5700 60  0001 C CNN
F 2 "conn_usb_A-vert" H 4000 6000 60  0001 C CNN
F 3 "" H 4000 6000 60  0001 C CNN
F 4 "VCC" H 4325 6150 50  0001 C CNN "VCC"
F 5 "D+" H 4300 6050 50  0001 C CNN "Data+"
F 6 "D-" H 4300 5950 50  0001 C CNN "Data-"
F 7 "GND" H 4325 5850 50  0001 C CNN "Ground"
	1    4000 6000
	1    0    0    -1  
$EndComp
$Comp
L INDUCTOR LE1
U 1 1 518A5D20
P 2800 5450
F 0 "LE1" V 2750 5450 40  0000 C CNN
F 1 "2A 120 ohm" V 2900 5450 40  0000 C CNN
F 2 "SM0805" H 2800 5450 60  0001 C CNN
F 3 "" H 2800 5450 60  0001 C CNN
	1    2800 5450
	0    -1   -1   0   
$EndComp
$Comp
L GND #PWR0123
U 1 1 518A5D2C
P 5800 5600
F 0 "#PWR0123" H 5800 5600 30  0001 C CNN
F 1 "GND" H 5800 5530 30  0001 C CNN
F 2 "" H 5800 5600 60  0001 C CNN
F 3 "" H 5800 5600 60  0001 C CNN
	1    5800 5600
	1    0    0    -1  
$EndComp
$Comp
L RCLAMP0502B UE5
U 1 1 518A5D38
P 5550 5200
F 0 "UE5" V 5500 6000 60  0000 C CNN
F 1 "RCLAMP0502B" V 5500 5600 60  0000 C CNN
F 2 "SOT-523" H 5550 5200 60  0001 C CNN
F 3 "" H 5550 5200 60  0001 C CNN
	1    5550 5200
	0    -1   -1   0   
$EndComp
$Comp
L DIODE DE1
U 1 1 518A5D3E
P 2350 5900
F 0 "DE1" H 2350 6000 40  0000 C CNN
F 1 "RSA5M" H 2350 5800 40  0000 C CNN
F 2 "SOD123" H 2350 5900 60  0001 C CNN
F 3 "" H 2350 5900 60  0001 C CNN
	1    2350 5900
	0    -1   -1   0   
$EndComp
$Comp
L GND #PWR0124
U 1 1 518A5D44
P 4400 6250
F 0 "#PWR0124" H 4400 6250 30  0001 C CNN
F 1 "GND" H 4400 6180 30  0001 C CNN
F 2 "" H 4400 6250 60  0001 C CNN
F 3 "" H 4400 6250 60  0001 C CNN
	1    4400 6250
	1    0    0    -1  
$EndComp
$Comp
L C CE1
U 1 1 518A5D4A
P 2750 5900
F 0 "CE1" H 2800 6000 50  0000 L CNN
F 1 "33uF" H 2800 5800 50  0000 L CNN
F 2 "SM1206" H 2750 5900 60  0001 C CNN
F 3 "" H 2750 5900 60  0001 C CNN
	1    2750 5900
	1    0    0    -1  
$EndComp
$Comp
L C CE2
U 1 1 518A5D50
P 3100 5900
F 0 "CE2" H 3150 6000 50  0000 L CNN
F 1 "100nF" H 3150 5800 50  0000 L CNN
F 2 "SM0603" H 3100 5900 60  0001 C CNN
F 3 "" H 3100 5900 60  0001 C CNN
	1    3100 5900
	1    0    0    -1  
$EndComp
$Comp
L VDD5V #PWR0125
U 1 1 518A5D5C
P 2450 5400
F 0 "#PWR0125" H 2450 5500 30  0001 C CNN
F 1 "VDD5V" H 2450 5500 30  0000 C CNN
F 2 "" H 2450 5400 60  0001 C CNN
F 3 "" H 2450 5400 60  0001 C CNN
	1    2450 5400
	1    0    0    -1  
$EndComp
Text Label 5850 6050 0    60   ~ 0
USB_DP1
Text Label 5850 5900 0    60   ~ 0
USB_DM1
$Comp
L SRF2012 LE9
U 1 1 518A5D64
P 5300 5950
F 0 "LE9" H 5300 5800 60  0000 C CNN
F 1 "SRF2012" H 5300 6050 60  0000 C CNN
F 2 "SRF2012" H 5300 5950 60  0001 C CNN
F 3 "" H 5300 5950 60  0001 C CNN
	1    5300 5950
	1    0    0    -1  
$EndComp
Wire Wire Line
	1800 2150 1300 2150
Wire Wire Line
	1800 2050 1300 2050
Text Label 1400 2050 0    60   ~ 0
USB_DP1
Text Label 1400 2150 0    60   ~ 0
USB_DM1
Text Label 1350 1400 0    60   ~ 0
HP_VGND
Text Label 1400 1300 0    60   ~ 0
HP_R
Text Label 1400 1200 0    60   ~ 0
HP_L
Wire Wire Line
	1700 1400 1300 1400
Wire Wire Line
	1300 1300 1700 1300
Wire Wire Line
	1300 1200 1700 1200
Wire Wire Line
	1700 1550 1300 1550
Wire Wire Line
	1700 1650 1300 1650
Text Label 1350 1550 0    60   ~ 0
LINE_INR
Text Label 1350 1650 0    60   ~ 0
LINE_INL
Wire Wire Line
	1300 1850 1800 1850
Text Label 1450 1850 0    60   ~ 0
VDAC1
Wire Wire Line
	1700 1050 1300 1050
Wire Wire Line
	1800 950  1300 950 
Text Label 1350 1050 0    60   ~ 0
MIC
Text Label 1400 950  0    60   ~ 0
LRADC1
$Comp
L GND #PWR0126
U 1 1 518BA5AB
P 800 3100
F 0 "#PWR0126" H 800 3100 30  0001 C CNN
F 1 "GND" H 800 3030 30  0001 C CNN
F 2 "" H 800 3100 60  0001 C CNN
F 3 "" H 800 3100 60  0001 C CNN
	1    800  3100
	1    0    0    -1  
$EndComp
Wire Wire Line
	800  3100 800  3050
Wire Wire Line
	4200 6150 4400 6150
Wire Wire Line
	1500 3050 1800 3050
Text GLabel 1800 3050 2    60   BiDi ~ 0
GND_CASE
$Comp
L INDUCTOR LE10
U 1 1 518C0FF0
P 1200 3050
F 0 "LE10" V 1150 3050 40  0000 C CNN
F 1 "2A 120 ohm" V 1300 3050 40  0000 C CNN
F 2 "SM0805" H 1200 3050 60  0001 C CNN
F 3 "" H 1200 3050 60  0001 C CNN
	1    1200 3050
	0    -1   -1   0   
$EndComp
Wire Wire Line
	800  3050 900  3050
Connection ~ 1550 3050
$Comp
L GND #PWR0127
U 1 1 51A76D67
P 2750 6300
F 0 "#PWR0127" H 2750 6300 30  0001 C CNN
F 1 "GND" H 2750 6230 30  0001 C CNN
F 2 "" H 2750 6300 60  0001 C CNN
F 3 "" H 2750 6300 60  0001 C CNN
	1    2750 6300
	1    0    0    -1  
$EndComp
$Comp
L GND #PWR0128
U 1 1 51A7B777
P 5350 1150
F 0 "#PWR0128" H 5350 1150 30  0001 C CNN
F 1 "GND" H 5350 1080 30  0001 C CNN
F 2 "" H 5350 1150 60  0001 C CNN
F 3 "" H 5350 1150 60  0001 C CNN
	1    5350 1150
	1    0    0    -1  
$EndComp
Wire Wire Line
	5350 1150 5350 1100
Wire Wire Line
	5350 1100 5000 1100
$Comp
L VDD5V #PWR0129
U 1 1 51A7C1B8
P 5200 1250
F 0 "#PWR0129" H 5200 1350 30  0001 C CNN
F 1 "VDD5V" H 5300 1200 30  0000 C CNN
F 2 "" H 5200 1250 60  0001 C CNN
F 3 "" H 5200 1250 60  0001 C CNN
	1    5200 1250
	1    0    0    -1  
$EndComp
Wire Wire Line
	5200 1250 5200 1300
Wire Wire Line
	5200 1300 5000 1300
Text HLabel 1300 950  0    60   BiDi ~ 0
LRADC1
Text HLabel 1300 1050 0    60   BiDi ~ 0
MIC
Text HLabel 1300 1200 0    60   BiDi ~ 0
HP_L
Text HLabel 1300 1300 0    60   BiDi ~ 0
HP_R
Text HLabel 1300 1400 0    60   BiDi ~ 0
HP_VGND
Text HLabel 1300 1550 0    60   BiDi ~ 0
LINE_INR
Text HLabel 1300 1650 0    60   BiDi ~ 0
LINE_INL
Text HLabel 1300 1850 0    60   BiDi ~ 0
VDAC1
Text HLabel 1300 2050 0    60   BiDi ~ 0
USB_DP
Text HLabel 1300 2150 0    60   BiDi ~ 0
USB_DM
$Comp
L AC220S05DC-10W PWR2
U 1 1 5356991A
P 4750 1850
F 0 "PWR2" H 4400 2800 60  0000 C CNN
F 1 "AC220S05DC-10W" H 4500 2200 60  0000 C CNN
F 2 "ac220s05dc-10w" H 4750 1850 60  0001 C CNN
F 3 "" H 4750 1850 60  0000 C CNN
	1    4750 1850
	1    0    0    -1  
$EndComp
$Comp
L CONN_2 AC_PWR_1
U 1 1 5356FF68
P 2900 1250
F 0 "AC_PWR_1" V 2850 1250 40  0000 C CNN
F 1 "AC_IN" V 2950 1250 40  0000 C CNN
F 2 "282817_2" H 2900 1250 60  0001 C CNN
F 3 "" H 2900 1250 60  0000 C CNN
	1    2900 1250
	-1   0    0    -1  
$EndComp
Wire Wire Line
	3900 1350 3250 1350
Wire Wire Line
	3250 1150 3700 1150
Wire Wire Line
	3700 1150 3700 1200
Wire Wire Line
	3700 1200 3900 1200
$EndSCHEMATC
