G04 (created by PCBNEW (2013-mar-13)-testing) date jue 10 abr 2014 21:13:50 COT*
%MOIN*%
G04 Gerber Fmt 3.4, Leading zero omitted, Abs format*
%FSLAX34Y34*%
G01*
G70*
G90*
G04 APERTURE LIST*
%ADD10C,0.005906*%
%ADD11C,0.015748*%
%ADD12C,0.092520*%
%ADD13C,0.059100*%
%ADD14C,0.196900*%
%ADD15R,0.060000X0.060000*%
%ADD16C,0.060000*%
%ADD17C,0.189000*%
%ADD18R,0.189000X0.189000*%
%ADD19C,0.083000*%
%ADD20C,0.019700*%
%ADD21C,0.027600*%
%ADD22C,0.023600*%
%ADD23C,0.039400*%
%ADD24C,0.078700*%
%ADD25C,0.023600*%
%ADD26C,0.010000*%
G04 APERTURE END LIST*
G54D10*
G54D11*
X63937Y-49984D03*
X63385Y-49984D03*
X63661Y-49984D03*
G54D12*
X46912Y-44637D03*
X46912Y-46779D03*
G54D13*
X44444Y-45708D03*
X45231Y-45708D03*
X46019Y-45708D03*
X46806Y-45708D03*
G54D12*
X44157Y-46779D03*
X44157Y-44637D03*
G54D14*
X66398Y-51965D03*
X47228Y-51965D03*
X47228Y-34055D03*
X66496Y-34055D03*
G54D15*
X65500Y-36500D03*
G54D16*
X66500Y-36500D03*
X65500Y-37500D03*
X66500Y-37500D03*
X65500Y-38500D03*
X66500Y-38500D03*
X65500Y-39500D03*
X66500Y-39500D03*
X65500Y-40500D03*
X66500Y-40500D03*
X65500Y-41500D03*
X66500Y-41500D03*
X65500Y-42500D03*
X66500Y-42500D03*
X65500Y-43500D03*
X66500Y-43500D03*
X65500Y-44500D03*
X66500Y-44500D03*
X65500Y-45500D03*
X66500Y-45500D03*
X65500Y-46500D03*
X66500Y-46500D03*
X65500Y-47500D03*
X66500Y-47500D03*
G54D15*
X53650Y-52512D03*
G54D16*
X53650Y-51512D03*
X54650Y-52512D03*
X54650Y-51512D03*
X55650Y-52512D03*
X55650Y-51512D03*
X56650Y-52512D03*
X56650Y-51512D03*
X57650Y-52512D03*
X57650Y-51512D03*
X58650Y-52512D03*
X58650Y-51512D03*
X59650Y-52512D03*
X59650Y-51512D03*
X60650Y-52512D03*
X60650Y-51512D03*
X61650Y-52512D03*
X61650Y-51512D03*
X62650Y-52512D03*
X62650Y-51512D03*
X63650Y-52512D03*
X63650Y-51512D03*
X64650Y-52512D03*
X64650Y-51512D03*
G54D15*
X66500Y-50543D03*
G54D16*
X65500Y-50543D03*
G54D17*
X43098Y-50051D03*
G54D18*
X45498Y-50051D03*
G54D17*
X43998Y-52051D03*
G54D15*
X65500Y-49503D03*
G54D16*
X66500Y-49503D03*
G54D15*
X65500Y-48503D03*
G54D16*
X66500Y-48503D03*
G54D19*
X42377Y-35803D03*
X44740Y-35803D03*
X42377Y-40425D03*
X44740Y-40425D03*
G54D20*
X55380Y-47160D03*
X59421Y-46472D03*
X56835Y-48043D03*
X58020Y-46638D03*
X59004Y-49000D03*
G54D21*
X55405Y-49342D03*
G54D22*
X62224Y-50330D03*
G54D20*
X61381Y-44129D03*
X57988Y-49008D03*
X57071Y-49343D03*
X61382Y-47858D03*
G54D23*
X51862Y-49598D03*
G54D20*
X56866Y-47764D03*
X50571Y-50673D03*
G54D24*
X53205Y-50736D03*
G54D20*
X61807Y-47614D03*
X58429Y-47024D03*
X50657Y-40480D03*
X49978Y-39462D03*
X50469Y-40220D03*
X51378Y-36969D03*
X51627Y-36836D03*
X49827Y-39240D03*
X49551Y-39213D03*
X49902Y-38622D03*
X50197Y-38602D03*
X50236Y-38327D03*
X50531Y-38307D03*
X50571Y-38031D03*
X50846Y-37972D03*
X51157Y-40264D03*
X50864Y-40325D03*
X52118Y-38850D03*
X52088Y-38242D03*
X52339Y-39366D03*
X51772Y-35886D03*
X52067Y-35768D03*
X52283Y-35984D03*
X52323Y-34823D03*
X56828Y-39014D03*
X56610Y-39270D03*
X54217Y-38083D03*
X53941Y-38106D03*
X53665Y-38154D03*
X53406Y-37976D03*
X56319Y-36457D03*
X53228Y-38181D03*
X56438Y-39025D03*
X55791Y-39193D03*
X55394Y-39177D03*
X55088Y-39183D03*
X54799Y-39193D03*
X54350Y-39230D03*
X54358Y-36441D03*
X54197Y-36650D03*
X54616Y-37136D03*
X53602Y-36752D03*
X56390Y-38205D03*
X55561Y-37145D03*
X52108Y-38521D03*
X52297Y-40116D03*
X63956Y-50818D03*
G54D21*
X60673Y-45791D03*
G54D20*
X59980Y-46535D03*
X58693Y-45512D03*
X58646Y-44941D03*
X64141Y-48433D03*
X54461Y-44165D03*
G54D22*
X44086Y-38232D03*
X47488Y-44003D03*
X45204Y-43492D03*
G54D20*
X48996Y-45413D03*
X56460Y-43342D03*
X56488Y-44161D03*
X48992Y-46078D03*
X57531Y-43827D03*
X57736Y-46094D03*
X57429Y-44079D03*
X57965Y-47390D03*
X61811Y-38858D03*
X58260Y-40142D03*
X59094Y-45016D03*
X57539Y-40181D03*
X59303Y-45213D03*
X62638Y-37087D03*
X62165Y-35866D03*
X59724Y-39862D03*
X60236Y-38445D03*
X59331Y-39646D03*
X60669Y-35472D03*
X62362Y-39370D03*
X57343Y-39106D03*
X59374Y-44811D03*
X62532Y-38024D03*
X57346Y-38803D03*
X60094Y-44858D03*
X62327Y-37823D03*
X57469Y-38390D03*
X60984Y-49146D03*
X58563Y-38110D03*
X61461Y-40327D03*
X57224Y-37126D03*
G54D22*
X48263Y-39248D03*
X44960Y-36677D03*
G54D20*
X61429Y-48236D03*
X54783Y-41236D03*
X64492Y-47755D03*
X60409Y-47713D03*
X54772Y-41528D03*
X64323Y-46382D03*
X61913Y-46303D03*
X64484Y-44071D03*
X62886Y-44634D03*
X62862Y-45764D03*
X63051Y-45571D03*
X55000Y-49236D03*
X55504Y-42591D03*
G54D22*
X61948Y-50488D03*
X64909Y-50145D03*
G54D21*
X56409Y-46315D03*
X59437Y-43169D03*
G54D20*
X54685Y-36701D03*
G54D21*
X55134Y-45157D03*
G54D20*
X53717Y-44118D03*
X62043Y-46744D03*
X54165Y-46150D03*
X56705Y-46874D03*
G54D21*
X63035Y-47299D03*
X52654Y-47677D03*
G54D20*
X53130Y-34823D03*
X59780Y-46831D03*
X58701Y-47965D03*
X42125Y-42610D03*
X43925Y-38771D03*
X45952Y-41893D03*
X43468Y-35161D03*
X42791Y-37070D03*
G54D22*
X47551Y-37122D03*
G54D20*
X54555Y-42563D03*
X53098Y-44185D03*
G54D22*
X53394Y-48035D03*
G54D20*
X49290Y-48974D03*
X53390Y-44091D03*
G54D22*
X53642Y-47209D03*
G54D20*
X51201Y-43051D03*
X54122Y-43327D03*
X51276Y-42594D03*
X57772Y-43209D03*
X57114Y-43051D03*
G54D21*
X48591Y-42335D03*
G54D20*
X64275Y-47566D03*
X59059Y-36020D03*
X60913Y-34555D03*
X48295Y-43933D03*
X49260Y-46524D03*
G54D22*
X51559Y-43972D03*
G54D20*
X52610Y-41819D03*
X58268Y-36209D03*
X63535Y-40862D03*
X60870Y-40075D03*
X52110Y-42850D03*
X59024Y-40181D03*
X63126Y-45157D03*
X62496Y-45169D03*
X63839Y-35555D03*
X61520Y-34559D03*
X56732Y-38031D03*
G54D21*
X56012Y-34709D03*
G54D20*
X48929Y-39276D03*
X53843Y-37063D03*
G54D21*
X55945Y-40508D03*
X52409Y-40776D03*
G54D20*
X53339Y-37091D03*
X53720Y-43244D03*
X55220Y-37898D03*
G54D21*
X54799Y-40583D03*
X54386Y-40591D03*
X54508Y-34559D03*
G54D20*
X57555Y-36669D03*
X52824Y-44189D03*
X55858Y-44268D03*
G54D25*
X57512Y-46638D02*
X58020Y-46638D01*
X58106Y-48642D02*
X57099Y-48642D01*
X57099Y-48642D02*
X57012Y-48555D01*
X56835Y-48043D02*
X57055Y-48043D01*
X59004Y-49000D02*
X58464Y-49000D01*
X57240Y-46910D02*
X57512Y-46638D01*
X58020Y-46638D02*
X59327Y-46638D01*
X57055Y-48043D02*
X57240Y-47858D01*
X59327Y-46638D02*
X59296Y-46638D01*
X59327Y-46566D02*
X59421Y-46472D01*
X57012Y-48220D02*
X56835Y-48043D01*
X57012Y-48555D02*
X57012Y-48220D01*
X58464Y-49000D02*
X58106Y-48642D01*
X57240Y-47858D02*
X57240Y-46910D01*
X59327Y-46638D02*
X59327Y-46566D01*
X65921Y-48988D02*
X64834Y-48988D01*
X65842Y-36500D02*
X66007Y-36665D01*
X66007Y-36665D02*
X66007Y-48901D01*
X66007Y-48901D02*
X65921Y-48988D01*
X53870Y-52011D02*
X53650Y-52231D01*
X53650Y-52512D02*
X53650Y-52231D01*
X65842Y-36500D02*
X65500Y-36500D01*
X63047Y-52011D02*
X53870Y-52011D01*
X63889Y-52011D02*
X63047Y-52011D01*
X64157Y-51744D02*
X63889Y-52011D01*
X64157Y-51149D02*
X64157Y-51744D01*
X64527Y-50779D02*
X64157Y-51149D01*
X64527Y-49295D02*
X64527Y-50779D01*
X64834Y-48988D02*
X64527Y-49295D01*
G54D10*
G36*
X57789Y-41307D02*
X57766Y-41307D01*
X57766Y-40135D01*
X57731Y-40052D01*
X57696Y-40016D01*
X57696Y-38344D01*
X57661Y-38261D01*
X57598Y-38197D01*
X57514Y-38162D01*
X57451Y-38162D01*
X57451Y-37080D01*
X57416Y-36997D01*
X57353Y-36933D01*
X57269Y-36898D01*
X57178Y-36898D01*
X57095Y-36933D01*
X57031Y-36996D01*
X56996Y-37080D01*
X56996Y-37171D01*
X57031Y-37254D01*
X57094Y-37318D01*
X57178Y-37353D01*
X57269Y-37353D01*
X57352Y-37318D01*
X57416Y-37255D01*
X57451Y-37171D01*
X57451Y-37080D01*
X57451Y-38162D01*
X57423Y-38162D01*
X57340Y-38197D01*
X57276Y-38260D01*
X57241Y-38344D01*
X57241Y-38435D01*
X57276Y-38518D01*
X57332Y-38575D01*
X57300Y-38575D01*
X57217Y-38610D01*
X57153Y-38673D01*
X57118Y-38757D01*
X57118Y-38848D01*
X57153Y-38931D01*
X57174Y-38952D01*
X57150Y-38976D01*
X57115Y-39060D01*
X57115Y-39151D01*
X57150Y-39234D01*
X57213Y-39298D01*
X57297Y-39333D01*
X57388Y-39333D01*
X57471Y-39298D01*
X57535Y-39235D01*
X57570Y-39151D01*
X57570Y-39060D01*
X57535Y-38977D01*
X57514Y-38956D01*
X57538Y-38932D01*
X57573Y-38848D01*
X57573Y-38757D01*
X57538Y-38674D01*
X57482Y-38617D01*
X57514Y-38617D01*
X57597Y-38582D01*
X57661Y-38519D01*
X57696Y-38435D01*
X57696Y-38344D01*
X57696Y-40016D01*
X57668Y-39988D01*
X57584Y-39953D01*
X57493Y-39953D01*
X57410Y-39988D01*
X57346Y-40051D01*
X57311Y-40135D01*
X57311Y-40226D01*
X57346Y-40309D01*
X57409Y-40373D01*
X57493Y-40408D01*
X57584Y-40408D01*
X57667Y-40373D01*
X57731Y-40310D01*
X57766Y-40226D01*
X57766Y-40135D01*
X57766Y-41307D01*
X57055Y-41300D01*
X57055Y-38968D01*
X57020Y-38885D01*
X56957Y-38821D01*
X56873Y-38786D01*
X56782Y-38786D01*
X56699Y-38821D01*
X56635Y-38884D01*
X56630Y-38895D01*
X56617Y-38882D01*
X56617Y-38159D01*
X56582Y-38076D01*
X56546Y-38039D01*
X56546Y-36411D01*
X56511Y-36328D01*
X56448Y-36264D01*
X56364Y-36229D01*
X56273Y-36229D01*
X56190Y-36264D01*
X56126Y-36327D01*
X56091Y-36411D01*
X56091Y-36502D01*
X56126Y-36585D01*
X56189Y-36649D01*
X56273Y-36684D01*
X56364Y-36684D01*
X56447Y-36649D01*
X56511Y-36586D01*
X56546Y-36502D01*
X56546Y-36411D01*
X56546Y-38039D01*
X56519Y-38012D01*
X56435Y-37977D01*
X56344Y-37977D01*
X56261Y-38012D01*
X56197Y-38075D01*
X56162Y-38159D01*
X56162Y-38250D01*
X56197Y-38333D01*
X56260Y-38397D01*
X56344Y-38432D01*
X56435Y-38432D01*
X56518Y-38397D01*
X56582Y-38334D01*
X56617Y-38250D01*
X56617Y-38159D01*
X56617Y-38882D01*
X56567Y-38832D01*
X56483Y-38797D01*
X56392Y-38797D01*
X56309Y-38832D01*
X56245Y-38895D01*
X56210Y-38979D01*
X56210Y-39070D01*
X56245Y-39153D01*
X56308Y-39217D01*
X56382Y-39248D01*
X56382Y-39315D01*
X56417Y-39398D01*
X56480Y-39462D01*
X56564Y-39497D01*
X56655Y-39497D01*
X56738Y-39462D01*
X56802Y-39399D01*
X56837Y-39315D01*
X56837Y-39241D01*
X56873Y-39241D01*
X56956Y-39206D01*
X57020Y-39143D01*
X57055Y-39059D01*
X57055Y-38968D01*
X57055Y-41300D01*
X56018Y-41291D01*
X56018Y-39147D01*
X55983Y-39064D01*
X55920Y-39000D01*
X55836Y-38965D01*
X55788Y-38965D01*
X55788Y-37099D01*
X55753Y-37016D01*
X55690Y-36952D01*
X55606Y-36917D01*
X55515Y-36917D01*
X55432Y-36952D01*
X55368Y-37015D01*
X55333Y-37099D01*
X55333Y-37190D01*
X55368Y-37273D01*
X55431Y-37337D01*
X55515Y-37372D01*
X55606Y-37372D01*
X55689Y-37337D01*
X55753Y-37274D01*
X55788Y-37190D01*
X55788Y-37099D01*
X55788Y-38965D01*
X55745Y-38965D01*
X55662Y-39000D01*
X55598Y-39063D01*
X55595Y-39069D01*
X55586Y-39048D01*
X55523Y-38984D01*
X55439Y-38949D01*
X55348Y-38949D01*
X55265Y-38984D01*
X55238Y-39011D01*
X55217Y-38990D01*
X55133Y-38955D01*
X55042Y-38955D01*
X54959Y-38990D01*
X54938Y-39010D01*
X54928Y-39000D01*
X54912Y-38993D01*
X54912Y-36655D01*
X54877Y-36572D01*
X54814Y-36508D01*
X54730Y-36473D01*
X54639Y-36473D01*
X54580Y-36497D01*
X54585Y-36486D01*
X54585Y-36395D01*
X54550Y-36312D01*
X54487Y-36248D01*
X54403Y-36213D01*
X54312Y-36213D01*
X54229Y-36248D01*
X54165Y-36311D01*
X54130Y-36395D01*
X54130Y-36431D01*
X54068Y-36457D01*
X54004Y-36520D01*
X53969Y-36604D01*
X53969Y-36695D01*
X54004Y-36778D01*
X54067Y-36842D01*
X54151Y-36877D01*
X54242Y-36877D01*
X54325Y-36842D01*
X54389Y-36779D01*
X54424Y-36695D01*
X54424Y-36659D01*
X54462Y-36644D01*
X54457Y-36655D01*
X54457Y-36746D01*
X54492Y-36829D01*
X54555Y-36893D01*
X54591Y-36908D01*
X54570Y-36908D01*
X54487Y-36943D01*
X54423Y-37006D01*
X54388Y-37090D01*
X54388Y-37181D01*
X54423Y-37264D01*
X54486Y-37328D01*
X54570Y-37363D01*
X54661Y-37363D01*
X54744Y-37328D01*
X54808Y-37265D01*
X54843Y-37181D01*
X54843Y-37090D01*
X54808Y-37007D01*
X54745Y-36943D01*
X54709Y-36928D01*
X54730Y-36928D01*
X54813Y-36893D01*
X54877Y-36830D01*
X54912Y-36746D01*
X54912Y-36655D01*
X54912Y-38993D01*
X54844Y-38965D01*
X54753Y-38965D01*
X54670Y-39000D01*
X54606Y-39063D01*
X54571Y-39147D01*
X54571Y-39170D01*
X54542Y-39101D01*
X54479Y-39037D01*
X54444Y-39022D01*
X54444Y-38037D01*
X54409Y-37954D01*
X54346Y-37890D01*
X54262Y-37855D01*
X54171Y-37855D01*
X54088Y-37890D01*
X54066Y-37911D01*
X53986Y-37878D01*
X53895Y-37878D01*
X53829Y-37905D01*
X53829Y-36706D01*
X53794Y-36623D01*
X53731Y-36559D01*
X53647Y-36524D01*
X53556Y-36524D01*
X53473Y-36559D01*
X53409Y-36622D01*
X53374Y-36706D01*
X53374Y-36797D01*
X53409Y-36880D01*
X53472Y-36944D01*
X53556Y-36979D01*
X53647Y-36979D01*
X53730Y-36944D01*
X53794Y-36881D01*
X53829Y-36797D01*
X53829Y-36706D01*
X53829Y-37905D01*
X53812Y-37913D01*
X53772Y-37952D01*
X53710Y-37926D01*
X53631Y-37926D01*
X53598Y-37847D01*
X53535Y-37783D01*
X53451Y-37748D01*
X53360Y-37748D01*
X53357Y-37749D01*
X53357Y-34777D01*
X53322Y-34694D01*
X53259Y-34630D01*
X53175Y-34595D01*
X53084Y-34595D01*
X53001Y-34630D01*
X52937Y-34693D01*
X52902Y-34777D01*
X52902Y-34868D01*
X52937Y-34951D01*
X53000Y-35015D01*
X53084Y-35050D01*
X53175Y-35050D01*
X53258Y-35015D01*
X53322Y-34952D01*
X53357Y-34868D01*
X53357Y-34777D01*
X53357Y-37749D01*
X53277Y-37783D01*
X53213Y-37846D01*
X53178Y-37930D01*
X53178Y-37955D01*
X53099Y-37988D01*
X53035Y-38051D01*
X53000Y-38135D01*
X53000Y-38226D01*
X53035Y-38309D01*
X53098Y-38373D01*
X53182Y-38408D01*
X53273Y-38408D01*
X53356Y-38373D01*
X53420Y-38310D01*
X53452Y-38234D01*
X53472Y-38282D01*
X53535Y-38346D01*
X53619Y-38381D01*
X53710Y-38381D01*
X53793Y-38346D01*
X53833Y-38307D01*
X53895Y-38333D01*
X53986Y-38333D01*
X54069Y-38298D01*
X54091Y-38277D01*
X54171Y-38310D01*
X54262Y-38310D01*
X54345Y-38275D01*
X54409Y-38212D01*
X54444Y-38128D01*
X54444Y-38037D01*
X54444Y-39022D01*
X54395Y-39002D01*
X54304Y-39002D01*
X54221Y-39037D01*
X54157Y-39100D01*
X54122Y-39184D01*
X54122Y-39275D01*
X54157Y-39358D01*
X54220Y-39422D01*
X54304Y-39457D01*
X54395Y-39457D01*
X54478Y-39422D01*
X54542Y-39359D01*
X54577Y-39275D01*
X54577Y-39252D01*
X54606Y-39321D01*
X54669Y-39385D01*
X54753Y-39420D01*
X54844Y-39420D01*
X54927Y-39385D01*
X54948Y-39365D01*
X54958Y-39375D01*
X55042Y-39410D01*
X55133Y-39410D01*
X55216Y-39375D01*
X55243Y-39348D01*
X55264Y-39369D01*
X55348Y-39404D01*
X55439Y-39404D01*
X55522Y-39369D01*
X55586Y-39306D01*
X55589Y-39300D01*
X55598Y-39321D01*
X55661Y-39385D01*
X55745Y-39420D01*
X55836Y-39420D01*
X55919Y-39385D01*
X55983Y-39322D01*
X56018Y-39238D01*
X56018Y-39147D01*
X56018Y-41291D01*
X55010Y-41282D01*
X55010Y-41281D01*
X55010Y-41190D01*
X54975Y-41107D01*
X54912Y-41043D01*
X54828Y-41008D01*
X54737Y-41008D01*
X54654Y-41043D01*
X54590Y-41106D01*
X54555Y-41190D01*
X54555Y-41277D01*
X52566Y-41259D01*
X52566Y-39320D01*
X52550Y-39282D01*
X52550Y-34777D01*
X52515Y-34694D01*
X52452Y-34630D01*
X52368Y-34595D01*
X52277Y-34595D01*
X52194Y-34630D01*
X52130Y-34693D01*
X52095Y-34777D01*
X52095Y-34868D01*
X52130Y-34951D01*
X52193Y-35015D01*
X52277Y-35050D01*
X52368Y-35050D01*
X52451Y-35015D01*
X52515Y-34952D01*
X52550Y-34868D01*
X52550Y-34777D01*
X52550Y-39282D01*
X52531Y-39237D01*
X52510Y-39215D01*
X52510Y-35938D01*
X52475Y-35855D01*
X52412Y-35791D01*
X52328Y-35756D01*
X52294Y-35756D01*
X52294Y-35722D01*
X52259Y-35639D01*
X52196Y-35575D01*
X52112Y-35540D01*
X52021Y-35540D01*
X51938Y-35575D01*
X51874Y-35638D01*
X51858Y-35675D01*
X51817Y-35658D01*
X51726Y-35658D01*
X51643Y-35693D01*
X51579Y-35756D01*
X51544Y-35840D01*
X51544Y-35931D01*
X51579Y-36014D01*
X51642Y-36078D01*
X51726Y-36113D01*
X51817Y-36113D01*
X51900Y-36078D01*
X51964Y-36015D01*
X51980Y-35978D01*
X52021Y-35995D01*
X52055Y-35995D01*
X52055Y-36029D01*
X52090Y-36112D01*
X52153Y-36176D01*
X52237Y-36211D01*
X52328Y-36211D01*
X52411Y-36176D01*
X52475Y-36113D01*
X52510Y-36029D01*
X52510Y-35938D01*
X52510Y-39215D01*
X52468Y-39173D01*
X52384Y-39138D01*
X52345Y-39138D01*
X52345Y-38804D01*
X52310Y-38721D01*
X52270Y-38680D01*
X52300Y-38650D01*
X52335Y-38566D01*
X52335Y-38475D01*
X52300Y-38392D01*
X52280Y-38371D01*
X52280Y-38371D01*
X52315Y-38287D01*
X52315Y-38196D01*
X52280Y-38113D01*
X52217Y-38049D01*
X52133Y-38014D01*
X52042Y-38014D01*
X51959Y-38049D01*
X51895Y-38112D01*
X51860Y-38196D01*
X51860Y-38287D01*
X51895Y-38370D01*
X51915Y-38391D01*
X51915Y-38391D01*
X51880Y-38475D01*
X51880Y-38566D01*
X51915Y-38649D01*
X51955Y-38690D01*
X51925Y-38720D01*
X51890Y-38804D01*
X51890Y-38895D01*
X51925Y-38978D01*
X51988Y-39042D01*
X52072Y-39077D01*
X52163Y-39077D01*
X52246Y-39042D01*
X52310Y-38979D01*
X52345Y-38895D01*
X52345Y-38804D01*
X52345Y-39138D01*
X52293Y-39138D01*
X52210Y-39173D01*
X52146Y-39236D01*
X52111Y-39320D01*
X52111Y-39411D01*
X52146Y-39494D01*
X52209Y-39558D01*
X52293Y-39593D01*
X52384Y-39593D01*
X52467Y-39558D01*
X52531Y-39495D01*
X52566Y-39411D01*
X52566Y-39320D01*
X52566Y-41259D01*
X52524Y-41259D01*
X52524Y-40070D01*
X52489Y-39987D01*
X52426Y-39923D01*
X52342Y-39888D01*
X52251Y-39888D01*
X52168Y-39923D01*
X52104Y-39986D01*
X52069Y-40070D01*
X52069Y-40161D01*
X52104Y-40244D01*
X52167Y-40308D01*
X52251Y-40343D01*
X52342Y-40343D01*
X52425Y-40308D01*
X52489Y-40245D01*
X52524Y-40161D01*
X52524Y-40070D01*
X52524Y-41259D01*
X51854Y-41253D01*
X51854Y-36790D01*
X51819Y-36707D01*
X51756Y-36643D01*
X51672Y-36608D01*
X51581Y-36608D01*
X51498Y-36643D01*
X51434Y-36706D01*
X51419Y-36741D01*
X51332Y-36741D01*
X51249Y-36776D01*
X51185Y-36839D01*
X51150Y-36923D01*
X51150Y-37014D01*
X51185Y-37097D01*
X51248Y-37161D01*
X51332Y-37196D01*
X51423Y-37196D01*
X51506Y-37161D01*
X51570Y-37098D01*
X51585Y-37063D01*
X51672Y-37063D01*
X51755Y-37028D01*
X51819Y-36965D01*
X51854Y-36881D01*
X51854Y-36790D01*
X51854Y-41253D01*
X51384Y-41248D01*
X51384Y-40218D01*
X51349Y-40135D01*
X51286Y-40071D01*
X51202Y-40036D01*
X51111Y-40036D01*
X51073Y-40052D01*
X51073Y-37926D01*
X51038Y-37843D01*
X50975Y-37779D01*
X50891Y-37744D01*
X50800Y-37744D01*
X50717Y-37779D01*
X50670Y-37825D01*
X50616Y-37803D01*
X50525Y-37803D01*
X50442Y-37838D01*
X50378Y-37901D01*
X50343Y-37985D01*
X50343Y-38076D01*
X50369Y-38138D01*
X50365Y-38134D01*
X50281Y-38099D01*
X50190Y-38099D01*
X50107Y-38134D01*
X50043Y-38197D01*
X50008Y-38281D01*
X50008Y-38372D01*
X50032Y-38431D01*
X50031Y-38429D01*
X49947Y-38394D01*
X49856Y-38394D01*
X49773Y-38429D01*
X49709Y-38492D01*
X49674Y-38576D01*
X49674Y-38667D01*
X49709Y-38750D01*
X49772Y-38814D01*
X49856Y-38849D01*
X49947Y-38849D01*
X50030Y-38814D01*
X50059Y-38786D01*
X50067Y-38794D01*
X50151Y-38829D01*
X50242Y-38829D01*
X50325Y-38794D01*
X50389Y-38731D01*
X50424Y-38647D01*
X50424Y-38556D01*
X50400Y-38497D01*
X50401Y-38499D01*
X50485Y-38534D01*
X50576Y-38534D01*
X50659Y-38499D01*
X50723Y-38436D01*
X50758Y-38352D01*
X50758Y-38261D01*
X50730Y-38193D01*
X50746Y-38177D01*
X50800Y-38199D01*
X50891Y-38199D01*
X50974Y-38164D01*
X51038Y-38101D01*
X51073Y-38017D01*
X51073Y-37926D01*
X51073Y-40052D01*
X51028Y-40071D01*
X50974Y-40124D01*
X50909Y-40097D01*
X50818Y-40097D01*
X50735Y-40132D01*
X50695Y-40171D01*
X50661Y-40091D01*
X50598Y-40027D01*
X50514Y-39992D01*
X50423Y-39992D01*
X50340Y-40027D01*
X50276Y-40090D01*
X50241Y-40174D01*
X50241Y-40265D01*
X50276Y-40348D01*
X50339Y-40412D01*
X50423Y-40447D01*
X50429Y-40447D01*
X50429Y-40525D01*
X50464Y-40608D01*
X50527Y-40672D01*
X50611Y-40707D01*
X50702Y-40707D01*
X50785Y-40672D01*
X50849Y-40609D01*
X50873Y-40552D01*
X50909Y-40552D01*
X50992Y-40517D01*
X51046Y-40464D01*
X51111Y-40491D01*
X51202Y-40491D01*
X51285Y-40456D01*
X51349Y-40393D01*
X51384Y-40309D01*
X51384Y-40218D01*
X51384Y-41248D01*
X50205Y-41237D01*
X50205Y-39416D01*
X50170Y-39333D01*
X50107Y-39269D01*
X50054Y-39247D01*
X50054Y-39194D01*
X50019Y-39111D01*
X49956Y-39047D01*
X49872Y-39012D01*
X49781Y-39012D01*
X49704Y-39044D01*
X49680Y-39020D01*
X49596Y-38985D01*
X49505Y-38985D01*
X49422Y-39020D01*
X49358Y-39083D01*
X49323Y-39167D01*
X49323Y-39258D01*
X49358Y-39341D01*
X49421Y-39405D01*
X49505Y-39440D01*
X49596Y-39440D01*
X49673Y-39408D01*
X49697Y-39432D01*
X49750Y-39454D01*
X49750Y-39507D01*
X49785Y-39590D01*
X49848Y-39654D01*
X49932Y-39689D01*
X50023Y-39689D01*
X50106Y-39654D01*
X50170Y-39591D01*
X50205Y-39507D01*
X50205Y-39416D01*
X50205Y-41237D01*
X48515Y-41222D01*
X48515Y-34062D01*
X57789Y-34062D01*
X57789Y-41307D01*
X57789Y-41307D01*
G37*
G54D26*
X57789Y-41307D02*
X57766Y-41307D01*
X57766Y-40135D01*
X57731Y-40052D01*
X57696Y-40016D01*
X57696Y-38344D01*
X57661Y-38261D01*
X57598Y-38197D01*
X57514Y-38162D01*
X57451Y-38162D01*
X57451Y-37080D01*
X57416Y-36997D01*
X57353Y-36933D01*
X57269Y-36898D01*
X57178Y-36898D01*
X57095Y-36933D01*
X57031Y-36996D01*
X56996Y-37080D01*
X56996Y-37171D01*
X57031Y-37254D01*
X57094Y-37318D01*
X57178Y-37353D01*
X57269Y-37353D01*
X57352Y-37318D01*
X57416Y-37255D01*
X57451Y-37171D01*
X57451Y-37080D01*
X57451Y-38162D01*
X57423Y-38162D01*
X57340Y-38197D01*
X57276Y-38260D01*
X57241Y-38344D01*
X57241Y-38435D01*
X57276Y-38518D01*
X57332Y-38575D01*
X57300Y-38575D01*
X57217Y-38610D01*
X57153Y-38673D01*
X57118Y-38757D01*
X57118Y-38848D01*
X57153Y-38931D01*
X57174Y-38952D01*
X57150Y-38976D01*
X57115Y-39060D01*
X57115Y-39151D01*
X57150Y-39234D01*
X57213Y-39298D01*
X57297Y-39333D01*
X57388Y-39333D01*
X57471Y-39298D01*
X57535Y-39235D01*
X57570Y-39151D01*
X57570Y-39060D01*
X57535Y-38977D01*
X57514Y-38956D01*
X57538Y-38932D01*
X57573Y-38848D01*
X57573Y-38757D01*
X57538Y-38674D01*
X57482Y-38617D01*
X57514Y-38617D01*
X57597Y-38582D01*
X57661Y-38519D01*
X57696Y-38435D01*
X57696Y-38344D01*
X57696Y-40016D01*
X57668Y-39988D01*
X57584Y-39953D01*
X57493Y-39953D01*
X57410Y-39988D01*
X57346Y-40051D01*
X57311Y-40135D01*
X57311Y-40226D01*
X57346Y-40309D01*
X57409Y-40373D01*
X57493Y-40408D01*
X57584Y-40408D01*
X57667Y-40373D01*
X57731Y-40310D01*
X57766Y-40226D01*
X57766Y-40135D01*
X57766Y-41307D01*
X57055Y-41300D01*
X57055Y-38968D01*
X57020Y-38885D01*
X56957Y-38821D01*
X56873Y-38786D01*
X56782Y-38786D01*
X56699Y-38821D01*
X56635Y-38884D01*
X56630Y-38895D01*
X56617Y-38882D01*
X56617Y-38159D01*
X56582Y-38076D01*
X56546Y-38039D01*
X56546Y-36411D01*
X56511Y-36328D01*
X56448Y-36264D01*
X56364Y-36229D01*
X56273Y-36229D01*
X56190Y-36264D01*
X56126Y-36327D01*
X56091Y-36411D01*
X56091Y-36502D01*
X56126Y-36585D01*
X56189Y-36649D01*
X56273Y-36684D01*
X56364Y-36684D01*
X56447Y-36649D01*
X56511Y-36586D01*
X56546Y-36502D01*
X56546Y-36411D01*
X56546Y-38039D01*
X56519Y-38012D01*
X56435Y-37977D01*
X56344Y-37977D01*
X56261Y-38012D01*
X56197Y-38075D01*
X56162Y-38159D01*
X56162Y-38250D01*
X56197Y-38333D01*
X56260Y-38397D01*
X56344Y-38432D01*
X56435Y-38432D01*
X56518Y-38397D01*
X56582Y-38334D01*
X56617Y-38250D01*
X56617Y-38159D01*
X56617Y-38882D01*
X56567Y-38832D01*
X56483Y-38797D01*
X56392Y-38797D01*
X56309Y-38832D01*
X56245Y-38895D01*
X56210Y-38979D01*
X56210Y-39070D01*
X56245Y-39153D01*
X56308Y-39217D01*
X56382Y-39248D01*
X56382Y-39315D01*
X56417Y-39398D01*
X56480Y-39462D01*
X56564Y-39497D01*
X56655Y-39497D01*
X56738Y-39462D01*
X56802Y-39399D01*
X56837Y-39315D01*
X56837Y-39241D01*
X56873Y-39241D01*
X56956Y-39206D01*
X57020Y-39143D01*
X57055Y-39059D01*
X57055Y-38968D01*
X57055Y-41300D01*
X56018Y-41291D01*
X56018Y-39147D01*
X55983Y-39064D01*
X55920Y-39000D01*
X55836Y-38965D01*
X55788Y-38965D01*
X55788Y-37099D01*
X55753Y-37016D01*
X55690Y-36952D01*
X55606Y-36917D01*
X55515Y-36917D01*
X55432Y-36952D01*
X55368Y-37015D01*
X55333Y-37099D01*
X55333Y-37190D01*
X55368Y-37273D01*
X55431Y-37337D01*
X55515Y-37372D01*
X55606Y-37372D01*
X55689Y-37337D01*
X55753Y-37274D01*
X55788Y-37190D01*
X55788Y-37099D01*
X55788Y-38965D01*
X55745Y-38965D01*
X55662Y-39000D01*
X55598Y-39063D01*
X55595Y-39069D01*
X55586Y-39048D01*
X55523Y-38984D01*
X55439Y-38949D01*
X55348Y-38949D01*
X55265Y-38984D01*
X55238Y-39011D01*
X55217Y-38990D01*
X55133Y-38955D01*
X55042Y-38955D01*
X54959Y-38990D01*
X54938Y-39010D01*
X54928Y-39000D01*
X54912Y-38993D01*
X54912Y-36655D01*
X54877Y-36572D01*
X54814Y-36508D01*
X54730Y-36473D01*
X54639Y-36473D01*
X54580Y-36497D01*
X54585Y-36486D01*
X54585Y-36395D01*
X54550Y-36312D01*
X54487Y-36248D01*
X54403Y-36213D01*
X54312Y-36213D01*
X54229Y-36248D01*
X54165Y-36311D01*
X54130Y-36395D01*
X54130Y-36431D01*
X54068Y-36457D01*
X54004Y-36520D01*
X53969Y-36604D01*
X53969Y-36695D01*
X54004Y-36778D01*
X54067Y-36842D01*
X54151Y-36877D01*
X54242Y-36877D01*
X54325Y-36842D01*
X54389Y-36779D01*
X54424Y-36695D01*
X54424Y-36659D01*
X54462Y-36644D01*
X54457Y-36655D01*
X54457Y-36746D01*
X54492Y-36829D01*
X54555Y-36893D01*
X54591Y-36908D01*
X54570Y-36908D01*
X54487Y-36943D01*
X54423Y-37006D01*
X54388Y-37090D01*
X54388Y-37181D01*
X54423Y-37264D01*
X54486Y-37328D01*
X54570Y-37363D01*
X54661Y-37363D01*
X54744Y-37328D01*
X54808Y-37265D01*
X54843Y-37181D01*
X54843Y-37090D01*
X54808Y-37007D01*
X54745Y-36943D01*
X54709Y-36928D01*
X54730Y-36928D01*
X54813Y-36893D01*
X54877Y-36830D01*
X54912Y-36746D01*
X54912Y-36655D01*
X54912Y-38993D01*
X54844Y-38965D01*
X54753Y-38965D01*
X54670Y-39000D01*
X54606Y-39063D01*
X54571Y-39147D01*
X54571Y-39170D01*
X54542Y-39101D01*
X54479Y-39037D01*
X54444Y-39022D01*
X54444Y-38037D01*
X54409Y-37954D01*
X54346Y-37890D01*
X54262Y-37855D01*
X54171Y-37855D01*
X54088Y-37890D01*
X54066Y-37911D01*
X53986Y-37878D01*
X53895Y-37878D01*
X53829Y-37905D01*
X53829Y-36706D01*
X53794Y-36623D01*
X53731Y-36559D01*
X53647Y-36524D01*
X53556Y-36524D01*
X53473Y-36559D01*
X53409Y-36622D01*
X53374Y-36706D01*
X53374Y-36797D01*
X53409Y-36880D01*
X53472Y-36944D01*
X53556Y-36979D01*
X53647Y-36979D01*
X53730Y-36944D01*
X53794Y-36881D01*
X53829Y-36797D01*
X53829Y-36706D01*
X53829Y-37905D01*
X53812Y-37913D01*
X53772Y-37952D01*
X53710Y-37926D01*
X53631Y-37926D01*
X53598Y-37847D01*
X53535Y-37783D01*
X53451Y-37748D01*
X53360Y-37748D01*
X53357Y-37749D01*
X53357Y-34777D01*
X53322Y-34694D01*
X53259Y-34630D01*
X53175Y-34595D01*
X53084Y-34595D01*
X53001Y-34630D01*
X52937Y-34693D01*
X52902Y-34777D01*
X52902Y-34868D01*
X52937Y-34951D01*
X53000Y-35015D01*
X53084Y-35050D01*
X53175Y-35050D01*
X53258Y-35015D01*
X53322Y-34952D01*
X53357Y-34868D01*
X53357Y-34777D01*
X53357Y-37749D01*
X53277Y-37783D01*
X53213Y-37846D01*
X53178Y-37930D01*
X53178Y-37955D01*
X53099Y-37988D01*
X53035Y-38051D01*
X53000Y-38135D01*
X53000Y-38226D01*
X53035Y-38309D01*
X53098Y-38373D01*
X53182Y-38408D01*
X53273Y-38408D01*
X53356Y-38373D01*
X53420Y-38310D01*
X53452Y-38234D01*
X53472Y-38282D01*
X53535Y-38346D01*
X53619Y-38381D01*
X53710Y-38381D01*
X53793Y-38346D01*
X53833Y-38307D01*
X53895Y-38333D01*
X53986Y-38333D01*
X54069Y-38298D01*
X54091Y-38277D01*
X54171Y-38310D01*
X54262Y-38310D01*
X54345Y-38275D01*
X54409Y-38212D01*
X54444Y-38128D01*
X54444Y-38037D01*
X54444Y-39022D01*
X54395Y-39002D01*
X54304Y-39002D01*
X54221Y-39037D01*
X54157Y-39100D01*
X54122Y-39184D01*
X54122Y-39275D01*
X54157Y-39358D01*
X54220Y-39422D01*
X54304Y-39457D01*
X54395Y-39457D01*
X54478Y-39422D01*
X54542Y-39359D01*
X54577Y-39275D01*
X54577Y-39252D01*
X54606Y-39321D01*
X54669Y-39385D01*
X54753Y-39420D01*
X54844Y-39420D01*
X54927Y-39385D01*
X54948Y-39365D01*
X54958Y-39375D01*
X55042Y-39410D01*
X55133Y-39410D01*
X55216Y-39375D01*
X55243Y-39348D01*
X55264Y-39369D01*
X55348Y-39404D01*
X55439Y-39404D01*
X55522Y-39369D01*
X55586Y-39306D01*
X55589Y-39300D01*
X55598Y-39321D01*
X55661Y-39385D01*
X55745Y-39420D01*
X55836Y-39420D01*
X55919Y-39385D01*
X55983Y-39322D01*
X56018Y-39238D01*
X56018Y-39147D01*
X56018Y-41291D01*
X55010Y-41282D01*
X55010Y-41281D01*
X55010Y-41190D01*
X54975Y-41107D01*
X54912Y-41043D01*
X54828Y-41008D01*
X54737Y-41008D01*
X54654Y-41043D01*
X54590Y-41106D01*
X54555Y-41190D01*
X54555Y-41277D01*
X52566Y-41259D01*
X52566Y-39320D01*
X52550Y-39282D01*
X52550Y-34777D01*
X52515Y-34694D01*
X52452Y-34630D01*
X52368Y-34595D01*
X52277Y-34595D01*
X52194Y-34630D01*
X52130Y-34693D01*
X52095Y-34777D01*
X52095Y-34868D01*
X52130Y-34951D01*
X52193Y-35015D01*
X52277Y-35050D01*
X52368Y-35050D01*
X52451Y-35015D01*
X52515Y-34952D01*
X52550Y-34868D01*
X52550Y-34777D01*
X52550Y-39282D01*
X52531Y-39237D01*
X52510Y-39215D01*
X52510Y-35938D01*
X52475Y-35855D01*
X52412Y-35791D01*
X52328Y-35756D01*
X52294Y-35756D01*
X52294Y-35722D01*
X52259Y-35639D01*
X52196Y-35575D01*
X52112Y-35540D01*
X52021Y-35540D01*
X51938Y-35575D01*
X51874Y-35638D01*
X51858Y-35675D01*
X51817Y-35658D01*
X51726Y-35658D01*
X51643Y-35693D01*
X51579Y-35756D01*
X51544Y-35840D01*
X51544Y-35931D01*
X51579Y-36014D01*
X51642Y-36078D01*
X51726Y-36113D01*
X51817Y-36113D01*
X51900Y-36078D01*
X51964Y-36015D01*
X51980Y-35978D01*
X52021Y-35995D01*
X52055Y-35995D01*
X52055Y-36029D01*
X52090Y-36112D01*
X52153Y-36176D01*
X52237Y-36211D01*
X52328Y-36211D01*
X52411Y-36176D01*
X52475Y-36113D01*
X52510Y-36029D01*
X52510Y-35938D01*
X52510Y-39215D01*
X52468Y-39173D01*
X52384Y-39138D01*
X52345Y-39138D01*
X52345Y-38804D01*
X52310Y-38721D01*
X52270Y-38680D01*
X52300Y-38650D01*
X52335Y-38566D01*
X52335Y-38475D01*
X52300Y-38392D01*
X52280Y-38371D01*
X52280Y-38371D01*
X52315Y-38287D01*
X52315Y-38196D01*
X52280Y-38113D01*
X52217Y-38049D01*
X52133Y-38014D01*
X52042Y-38014D01*
X51959Y-38049D01*
X51895Y-38112D01*
X51860Y-38196D01*
X51860Y-38287D01*
X51895Y-38370D01*
X51915Y-38391D01*
X51915Y-38391D01*
X51880Y-38475D01*
X51880Y-38566D01*
X51915Y-38649D01*
X51955Y-38690D01*
X51925Y-38720D01*
X51890Y-38804D01*
X51890Y-38895D01*
X51925Y-38978D01*
X51988Y-39042D01*
X52072Y-39077D01*
X52163Y-39077D01*
X52246Y-39042D01*
X52310Y-38979D01*
X52345Y-38895D01*
X52345Y-38804D01*
X52345Y-39138D01*
X52293Y-39138D01*
X52210Y-39173D01*
X52146Y-39236D01*
X52111Y-39320D01*
X52111Y-39411D01*
X52146Y-39494D01*
X52209Y-39558D01*
X52293Y-39593D01*
X52384Y-39593D01*
X52467Y-39558D01*
X52531Y-39495D01*
X52566Y-39411D01*
X52566Y-39320D01*
X52566Y-41259D01*
X52524Y-41259D01*
X52524Y-40070D01*
X52489Y-39987D01*
X52426Y-39923D01*
X52342Y-39888D01*
X52251Y-39888D01*
X52168Y-39923D01*
X52104Y-39986D01*
X52069Y-40070D01*
X52069Y-40161D01*
X52104Y-40244D01*
X52167Y-40308D01*
X52251Y-40343D01*
X52342Y-40343D01*
X52425Y-40308D01*
X52489Y-40245D01*
X52524Y-40161D01*
X52524Y-40070D01*
X52524Y-41259D01*
X51854Y-41253D01*
X51854Y-36790D01*
X51819Y-36707D01*
X51756Y-36643D01*
X51672Y-36608D01*
X51581Y-36608D01*
X51498Y-36643D01*
X51434Y-36706D01*
X51419Y-36741D01*
X51332Y-36741D01*
X51249Y-36776D01*
X51185Y-36839D01*
X51150Y-36923D01*
X51150Y-37014D01*
X51185Y-37097D01*
X51248Y-37161D01*
X51332Y-37196D01*
X51423Y-37196D01*
X51506Y-37161D01*
X51570Y-37098D01*
X51585Y-37063D01*
X51672Y-37063D01*
X51755Y-37028D01*
X51819Y-36965D01*
X51854Y-36881D01*
X51854Y-36790D01*
X51854Y-41253D01*
X51384Y-41248D01*
X51384Y-40218D01*
X51349Y-40135D01*
X51286Y-40071D01*
X51202Y-40036D01*
X51111Y-40036D01*
X51073Y-40052D01*
X51073Y-37926D01*
X51038Y-37843D01*
X50975Y-37779D01*
X50891Y-37744D01*
X50800Y-37744D01*
X50717Y-37779D01*
X50670Y-37825D01*
X50616Y-37803D01*
X50525Y-37803D01*
X50442Y-37838D01*
X50378Y-37901D01*
X50343Y-37985D01*
X50343Y-38076D01*
X50369Y-38138D01*
X50365Y-38134D01*
X50281Y-38099D01*
X50190Y-38099D01*
X50107Y-38134D01*
X50043Y-38197D01*
X50008Y-38281D01*
X50008Y-38372D01*
X50032Y-38431D01*
X50031Y-38429D01*
X49947Y-38394D01*
X49856Y-38394D01*
X49773Y-38429D01*
X49709Y-38492D01*
X49674Y-38576D01*
X49674Y-38667D01*
X49709Y-38750D01*
X49772Y-38814D01*
X49856Y-38849D01*
X49947Y-38849D01*
X50030Y-38814D01*
X50059Y-38786D01*
X50067Y-38794D01*
X50151Y-38829D01*
X50242Y-38829D01*
X50325Y-38794D01*
X50389Y-38731D01*
X50424Y-38647D01*
X50424Y-38556D01*
X50400Y-38497D01*
X50401Y-38499D01*
X50485Y-38534D01*
X50576Y-38534D01*
X50659Y-38499D01*
X50723Y-38436D01*
X50758Y-38352D01*
X50758Y-38261D01*
X50730Y-38193D01*
X50746Y-38177D01*
X50800Y-38199D01*
X50891Y-38199D01*
X50974Y-38164D01*
X51038Y-38101D01*
X51073Y-38017D01*
X51073Y-37926D01*
X51073Y-40052D01*
X51028Y-40071D01*
X50974Y-40124D01*
X50909Y-40097D01*
X50818Y-40097D01*
X50735Y-40132D01*
X50695Y-40171D01*
X50661Y-40091D01*
X50598Y-40027D01*
X50514Y-39992D01*
X50423Y-39992D01*
X50340Y-40027D01*
X50276Y-40090D01*
X50241Y-40174D01*
X50241Y-40265D01*
X50276Y-40348D01*
X50339Y-40412D01*
X50423Y-40447D01*
X50429Y-40447D01*
X50429Y-40525D01*
X50464Y-40608D01*
X50527Y-40672D01*
X50611Y-40707D01*
X50702Y-40707D01*
X50785Y-40672D01*
X50849Y-40609D01*
X50873Y-40552D01*
X50909Y-40552D01*
X50992Y-40517D01*
X51046Y-40464D01*
X51111Y-40491D01*
X51202Y-40491D01*
X51285Y-40456D01*
X51349Y-40393D01*
X51384Y-40309D01*
X51384Y-40218D01*
X51384Y-41248D01*
X50205Y-41237D01*
X50205Y-39416D01*
X50170Y-39333D01*
X50107Y-39269D01*
X50054Y-39247D01*
X50054Y-39194D01*
X50019Y-39111D01*
X49956Y-39047D01*
X49872Y-39012D01*
X49781Y-39012D01*
X49704Y-39044D01*
X49680Y-39020D01*
X49596Y-38985D01*
X49505Y-38985D01*
X49422Y-39020D01*
X49358Y-39083D01*
X49323Y-39167D01*
X49323Y-39258D01*
X49358Y-39341D01*
X49421Y-39405D01*
X49505Y-39440D01*
X49596Y-39440D01*
X49673Y-39408D01*
X49697Y-39432D01*
X49750Y-39454D01*
X49750Y-39507D01*
X49785Y-39590D01*
X49848Y-39654D01*
X49932Y-39689D01*
X50023Y-39689D01*
X50106Y-39654D01*
X50170Y-39591D01*
X50205Y-39507D01*
X50205Y-39416D01*
X50205Y-41237D01*
X48515Y-41222D01*
X48515Y-34062D01*
X57789Y-34062D01*
X57789Y-41307D01*
G54D10*
G36*
X57839Y-43430D02*
X56664Y-43445D01*
X56688Y-43387D01*
X56688Y-43297D01*
X56653Y-43213D01*
X56589Y-43149D01*
X56506Y-43115D01*
X56415Y-43114D01*
X56331Y-43149D01*
X56267Y-43213D01*
X56233Y-43297D01*
X56233Y-43387D01*
X56258Y-43450D01*
X55731Y-43456D01*
X55731Y-42545D01*
X55696Y-42462D01*
X55633Y-42398D01*
X55549Y-42363D01*
X55458Y-42363D01*
X55375Y-42398D01*
X55311Y-42461D01*
X55276Y-42545D01*
X55276Y-42636D01*
X55311Y-42719D01*
X55374Y-42783D01*
X55458Y-42818D01*
X55549Y-42818D01*
X55632Y-42783D01*
X55696Y-42720D01*
X55731Y-42636D01*
X55731Y-42545D01*
X55731Y-43456D01*
X54782Y-43468D01*
X54782Y-42517D01*
X54747Y-42434D01*
X54684Y-42370D01*
X54600Y-42335D01*
X54509Y-42335D01*
X54426Y-42370D01*
X54362Y-42433D01*
X54327Y-42517D01*
X54327Y-42608D01*
X54362Y-42691D01*
X54425Y-42755D01*
X54509Y-42790D01*
X54600Y-42790D01*
X54683Y-42755D01*
X54747Y-42692D01*
X54782Y-42608D01*
X54782Y-42517D01*
X54782Y-43468D01*
X54296Y-43474D01*
X54314Y-43456D01*
X54349Y-43372D01*
X54349Y-43281D01*
X54314Y-43198D01*
X54251Y-43134D01*
X54167Y-43099D01*
X54076Y-43099D01*
X53993Y-43134D01*
X53941Y-43185D01*
X53912Y-43115D01*
X53849Y-43051D01*
X53765Y-43016D01*
X53674Y-43016D01*
X53591Y-43051D01*
X53527Y-43114D01*
X53492Y-43198D01*
X53492Y-43289D01*
X53527Y-43372D01*
X53590Y-43436D01*
X53674Y-43471D01*
X53765Y-43471D01*
X53848Y-43436D01*
X53900Y-43385D01*
X53929Y-43455D01*
X53952Y-43478D01*
X52337Y-43498D01*
X52337Y-42804D01*
X52302Y-42721D01*
X52239Y-42657D01*
X52155Y-42622D01*
X52064Y-42622D01*
X51981Y-42657D01*
X51917Y-42720D01*
X51882Y-42804D01*
X51882Y-42895D01*
X51917Y-42978D01*
X51980Y-43042D01*
X52064Y-43077D01*
X52155Y-43077D01*
X52238Y-43042D01*
X52302Y-42979D01*
X52337Y-42895D01*
X52337Y-42804D01*
X52337Y-43498D01*
X51428Y-43510D01*
X51428Y-43005D01*
X51393Y-42922D01*
X51330Y-42858D01*
X51246Y-42823D01*
X51155Y-42823D01*
X51072Y-42858D01*
X51008Y-42921D01*
X50973Y-43005D01*
X50973Y-43096D01*
X51008Y-43179D01*
X51071Y-43243D01*
X51155Y-43278D01*
X51246Y-43278D01*
X51329Y-43243D01*
X51393Y-43180D01*
X51428Y-43096D01*
X51428Y-43005D01*
X51428Y-43510D01*
X48431Y-43547D01*
X48420Y-42211D01*
X57836Y-42214D01*
X57839Y-43430D01*
X57839Y-43430D01*
G37*
G54D26*
X57839Y-43430D02*
X56664Y-43445D01*
X56688Y-43387D01*
X56688Y-43297D01*
X56653Y-43213D01*
X56589Y-43149D01*
X56506Y-43115D01*
X56415Y-43114D01*
X56331Y-43149D01*
X56267Y-43213D01*
X56233Y-43297D01*
X56233Y-43387D01*
X56258Y-43450D01*
X55731Y-43456D01*
X55731Y-42545D01*
X55696Y-42462D01*
X55633Y-42398D01*
X55549Y-42363D01*
X55458Y-42363D01*
X55375Y-42398D01*
X55311Y-42461D01*
X55276Y-42545D01*
X55276Y-42636D01*
X55311Y-42719D01*
X55374Y-42783D01*
X55458Y-42818D01*
X55549Y-42818D01*
X55632Y-42783D01*
X55696Y-42720D01*
X55731Y-42636D01*
X55731Y-42545D01*
X55731Y-43456D01*
X54782Y-43468D01*
X54782Y-42517D01*
X54747Y-42434D01*
X54684Y-42370D01*
X54600Y-42335D01*
X54509Y-42335D01*
X54426Y-42370D01*
X54362Y-42433D01*
X54327Y-42517D01*
X54327Y-42608D01*
X54362Y-42691D01*
X54425Y-42755D01*
X54509Y-42790D01*
X54600Y-42790D01*
X54683Y-42755D01*
X54747Y-42692D01*
X54782Y-42608D01*
X54782Y-42517D01*
X54782Y-43468D01*
X54296Y-43474D01*
X54314Y-43456D01*
X54349Y-43372D01*
X54349Y-43281D01*
X54314Y-43198D01*
X54251Y-43134D01*
X54167Y-43099D01*
X54076Y-43099D01*
X53993Y-43134D01*
X53941Y-43185D01*
X53912Y-43115D01*
X53849Y-43051D01*
X53765Y-43016D01*
X53674Y-43016D01*
X53591Y-43051D01*
X53527Y-43114D01*
X53492Y-43198D01*
X53492Y-43289D01*
X53527Y-43372D01*
X53590Y-43436D01*
X53674Y-43471D01*
X53765Y-43471D01*
X53848Y-43436D01*
X53900Y-43385D01*
X53929Y-43455D01*
X53952Y-43478D01*
X52337Y-43498D01*
X52337Y-42804D01*
X52302Y-42721D01*
X52239Y-42657D01*
X52155Y-42622D01*
X52064Y-42622D01*
X51981Y-42657D01*
X51917Y-42720D01*
X51882Y-42804D01*
X51882Y-42895D01*
X51917Y-42978D01*
X51980Y-43042D01*
X52064Y-43077D01*
X52155Y-43077D01*
X52238Y-43042D01*
X52302Y-42979D01*
X52337Y-42895D01*
X52337Y-42804D01*
X52337Y-43498D01*
X51428Y-43510D01*
X51428Y-43005D01*
X51393Y-42922D01*
X51330Y-42858D01*
X51246Y-42823D01*
X51155Y-42823D01*
X51072Y-42858D01*
X51008Y-42921D01*
X50973Y-43005D01*
X50973Y-43096D01*
X51008Y-43179D01*
X51071Y-43243D01*
X51155Y-43278D01*
X51246Y-43278D01*
X51329Y-43243D01*
X51393Y-43180D01*
X51428Y-43096D01*
X51428Y-43005D01*
X51428Y-43510D01*
X48431Y-43547D01*
X48420Y-42211D01*
X57836Y-42214D01*
X57839Y-43430D01*
G54D10*
G36*
X64950Y-48741D02*
X64834Y-48741D01*
X64834Y-48741D01*
X64740Y-48759D01*
X64719Y-48773D01*
X64719Y-47710D01*
X64711Y-47691D01*
X64711Y-44025D01*
X64676Y-43942D01*
X64613Y-43878D01*
X64529Y-43843D01*
X64438Y-43843D01*
X64355Y-43878D01*
X64291Y-43941D01*
X64256Y-44025D01*
X64256Y-44116D01*
X64291Y-44199D01*
X64354Y-44263D01*
X64438Y-44298D01*
X64529Y-44298D01*
X64612Y-44263D01*
X64676Y-44200D01*
X64711Y-44116D01*
X64711Y-44025D01*
X64711Y-47691D01*
X64685Y-47627D01*
X64621Y-47563D01*
X64550Y-47533D01*
X64550Y-46336D01*
X64515Y-46253D01*
X64452Y-46189D01*
X64368Y-46154D01*
X64277Y-46154D01*
X64194Y-46189D01*
X64130Y-46252D01*
X64095Y-46336D01*
X64095Y-46427D01*
X64130Y-46510D01*
X64193Y-46574D01*
X64277Y-46609D01*
X64368Y-46609D01*
X64451Y-46574D01*
X64515Y-46511D01*
X64550Y-46427D01*
X64550Y-46336D01*
X64550Y-47533D01*
X64537Y-47528D01*
X64447Y-47528D01*
X64363Y-47562D01*
X64299Y-47626D01*
X64264Y-47710D01*
X64264Y-47800D01*
X64299Y-47884D01*
X64363Y-47948D01*
X64446Y-47983D01*
X64537Y-47983D01*
X64620Y-47948D01*
X64684Y-47884D01*
X64719Y-47801D01*
X64719Y-47710D01*
X64719Y-48773D01*
X64659Y-48813D01*
X64659Y-48813D01*
X64523Y-48950D01*
X64369Y-48950D01*
X64369Y-48388D01*
X64334Y-48304D01*
X64270Y-48240D01*
X64187Y-48205D01*
X64096Y-48205D01*
X64013Y-48240D01*
X63948Y-48304D01*
X63914Y-48387D01*
X63914Y-48478D01*
X63948Y-48561D01*
X64012Y-48625D01*
X64096Y-48660D01*
X64186Y-48660D01*
X64270Y-48626D01*
X64334Y-48562D01*
X64369Y-48478D01*
X64369Y-48388D01*
X64369Y-48950D01*
X63302Y-48950D01*
X63302Y-47246D01*
X63278Y-47189D01*
X63278Y-45525D01*
X63243Y-45442D01*
X63180Y-45378D01*
X63113Y-45350D01*
X63113Y-44588D01*
X63078Y-44505D01*
X63015Y-44441D01*
X62995Y-44432D01*
X62995Y-35245D01*
X62946Y-35128D01*
X62856Y-35038D01*
X62739Y-34990D01*
X62612Y-34989D01*
X62495Y-35038D01*
X62405Y-35128D01*
X62357Y-35245D01*
X62356Y-35372D01*
X62405Y-35489D01*
X62495Y-35579D01*
X62612Y-35627D01*
X62739Y-35628D01*
X62856Y-35579D01*
X62946Y-35489D01*
X62994Y-35372D01*
X62995Y-35245D01*
X62995Y-44432D01*
X62931Y-44406D01*
X62865Y-44406D01*
X62865Y-37041D01*
X62830Y-36958D01*
X62767Y-36894D01*
X62683Y-36859D01*
X62592Y-36859D01*
X62509Y-36894D01*
X62445Y-36957D01*
X62410Y-37041D01*
X62410Y-37132D01*
X62445Y-37215D01*
X62508Y-37279D01*
X62592Y-37314D01*
X62683Y-37314D01*
X62766Y-37279D01*
X62830Y-37216D01*
X62865Y-37132D01*
X62865Y-37041D01*
X62865Y-44406D01*
X62840Y-44406D01*
X62759Y-44440D01*
X62759Y-37978D01*
X62724Y-37895D01*
X62661Y-37831D01*
X62577Y-37796D01*
X62554Y-37796D01*
X62554Y-37777D01*
X62519Y-37694D01*
X62456Y-37630D01*
X62392Y-37603D01*
X62392Y-35820D01*
X62357Y-35737D01*
X62294Y-35673D01*
X62210Y-35638D01*
X62119Y-35638D01*
X62036Y-35673D01*
X61972Y-35736D01*
X61937Y-35820D01*
X61937Y-35911D01*
X61972Y-35994D01*
X62035Y-36058D01*
X62119Y-36093D01*
X62210Y-36093D01*
X62293Y-36058D01*
X62357Y-35995D01*
X62392Y-35911D01*
X62392Y-35820D01*
X62392Y-37603D01*
X62372Y-37595D01*
X62281Y-37595D01*
X62198Y-37630D01*
X62134Y-37693D01*
X62099Y-37777D01*
X62099Y-37868D01*
X62134Y-37951D01*
X62197Y-38015D01*
X62281Y-38050D01*
X62304Y-38050D01*
X62304Y-38069D01*
X62339Y-38152D01*
X62402Y-38216D01*
X62486Y-38251D01*
X62577Y-38251D01*
X62660Y-38216D01*
X62724Y-38153D01*
X62759Y-38069D01*
X62759Y-37978D01*
X62759Y-44440D01*
X62757Y-44441D01*
X62693Y-44504D01*
X62658Y-44588D01*
X62658Y-44679D01*
X62693Y-44762D01*
X62756Y-44826D01*
X62840Y-44861D01*
X62931Y-44861D01*
X63014Y-44826D01*
X63078Y-44763D01*
X63113Y-44679D01*
X63113Y-44588D01*
X63113Y-45350D01*
X63096Y-45343D01*
X63005Y-45343D01*
X62922Y-45378D01*
X62858Y-45441D01*
X62823Y-45525D01*
X62823Y-45536D01*
X62816Y-45536D01*
X62733Y-45571D01*
X62669Y-45634D01*
X62634Y-45718D01*
X62634Y-45809D01*
X62669Y-45892D01*
X62732Y-45956D01*
X62816Y-45991D01*
X62907Y-45991D01*
X62990Y-45956D01*
X63054Y-45893D01*
X63089Y-45809D01*
X63089Y-45798D01*
X63096Y-45798D01*
X63179Y-45763D01*
X63243Y-45700D01*
X63278Y-45616D01*
X63278Y-45525D01*
X63278Y-47189D01*
X63261Y-47147D01*
X63186Y-47072D01*
X63088Y-47032D01*
X62982Y-47031D01*
X62883Y-47072D01*
X62808Y-47147D01*
X62768Y-47245D01*
X62767Y-47351D01*
X62808Y-47450D01*
X62883Y-47525D01*
X62981Y-47565D01*
X63087Y-47566D01*
X63186Y-47525D01*
X63261Y-47450D01*
X63301Y-47352D01*
X63302Y-47246D01*
X63302Y-48950D01*
X62589Y-48950D01*
X62589Y-39324D01*
X62554Y-39241D01*
X62491Y-39177D01*
X62407Y-39142D01*
X62316Y-39142D01*
X62233Y-39177D01*
X62169Y-39240D01*
X62134Y-39324D01*
X62134Y-39415D01*
X62169Y-39498D01*
X62232Y-39562D01*
X62316Y-39597D01*
X62407Y-39597D01*
X62490Y-39562D01*
X62554Y-39499D01*
X62589Y-39415D01*
X62589Y-39324D01*
X62589Y-48950D01*
X62050Y-48950D01*
X62050Y-46971D01*
X62088Y-46971D01*
X62171Y-46936D01*
X62235Y-46873D01*
X62270Y-46789D01*
X62270Y-46698D01*
X62235Y-46615D01*
X62172Y-46551D01*
X62088Y-46516D01*
X62050Y-46516D01*
X62050Y-46487D01*
X62105Y-46432D01*
X62140Y-46348D01*
X62140Y-46257D01*
X62105Y-46174D01*
X62050Y-46118D01*
X62050Y-43450D01*
X62038Y-43450D01*
X62038Y-38812D01*
X62003Y-38729D01*
X61940Y-38665D01*
X61856Y-38630D01*
X61765Y-38630D01*
X61682Y-38665D01*
X61618Y-38728D01*
X61583Y-38812D01*
X61583Y-38903D01*
X61618Y-38986D01*
X61681Y-39050D01*
X61765Y-39085D01*
X61856Y-39085D01*
X61939Y-39050D01*
X62003Y-38987D01*
X62038Y-38903D01*
X62038Y-38812D01*
X62038Y-43450D01*
X61688Y-43450D01*
X61688Y-40281D01*
X61653Y-40198D01*
X61590Y-40134D01*
X61506Y-40099D01*
X61415Y-40099D01*
X61332Y-40134D01*
X61268Y-40197D01*
X61233Y-40281D01*
X61233Y-40372D01*
X61268Y-40455D01*
X61331Y-40519D01*
X61415Y-40554D01*
X61506Y-40554D01*
X61589Y-40519D01*
X61653Y-40456D01*
X61688Y-40372D01*
X61688Y-40281D01*
X61688Y-43450D01*
X60896Y-43450D01*
X60896Y-35426D01*
X60861Y-35343D01*
X60798Y-35279D01*
X60714Y-35244D01*
X60623Y-35244D01*
X60540Y-35279D01*
X60476Y-35342D01*
X60441Y-35426D01*
X60441Y-35517D01*
X60476Y-35600D01*
X60539Y-35664D01*
X60623Y-35699D01*
X60714Y-35699D01*
X60797Y-35664D01*
X60861Y-35601D01*
X60896Y-35517D01*
X60896Y-35426D01*
X60896Y-43450D01*
X60463Y-43450D01*
X60463Y-38399D01*
X60428Y-38316D01*
X60365Y-38252D01*
X60281Y-38217D01*
X60190Y-38217D01*
X60107Y-38252D01*
X60043Y-38315D01*
X60008Y-38399D01*
X60008Y-38490D01*
X60043Y-38573D01*
X60106Y-38637D01*
X60190Y-38672D01*
X60281Y-38672D01*
X60364Y-38637D01*
X60428Y-38574D01*
X60463Y-38490D01*
X60463Y-38399D01*
X60463Y-43450D01*
X59951Y-43450D01*
X59951Y-39816D01*
X59916Y-39733D01*
X59853Y-39669D01*
X59845Y-39665D01*
X59845Y-35245D01*
X59796Y-35128D01*
X59706Y-35038D01*
X59589Y-34990D01*
X59462Y-34989D01*
X59345Y-35038D01*
X59255Y-35128D01*
X59207Y-35245D01*
X59206Y-35372D01*
X59255Y-35489D01*
X59345Y-35579D01*
X59462Y-35627D01*
X59589Y-35628D01*
X59706Y-35579D01*
X59796Y-35489D01*
X59844Y-35372D01*
X59845Y-35245D01*
X59845Y-39665D01*
X59769Y-39634D01*
X59678Y-39634D01*
X59595Y-39669D01*
X59548Y-39715D01*
X59558Y-39691D01*
X59558Y-39600D01*
X59523Y-39517D01*
X59460Y-39453D01*
X59376Y-39418D01*
X59285Y-39418D01*
X59202Y-39453D01*
X59138Y-39516D01*
X59103Y-39600D01*
X59103Y-39691D01*
X59138Y-39774D01*
X59201Y-39838D01*
X59285Y-39873D01*
X59376Y-39873D01*
X59459Y-39838D01*
X59506Y-39792D01*
X59496Y-39816D01*
X59496Y-39907D01*
X59531Y-39990D01*
X59594Y-40054D01*
X59678Y-40089D01*
X59769Y-40089D01*
X59852Y-40054D01*
X59916Y-39991D01*
X59951Y-39907D01*
X59951Y-39816D01*
X59951Y-43450D01*
X59704Y-43450D01*
X59704Y-43116D01*
X59663Y-43017D01*
X59588Y-42942D01*
X59490Y-42902D01*
X59384Y-42901D01*
X59285Y-42942D01*
X59210Y-43017D01*
X59170Y-43115D01*
X59169Y-43221D01*
X59210Y-43320D01*
X59285Y-43395D01*
X59383Y-43435D01*
X59489Y-43436D01*
X59588Y-43395D01*
X59663Y-43320D01*
X59703Y-43222D01*
X59704Y-43116D01*
X59704Y-43450D01*
X58790Y-43450D01*
X58790Y-38064D01*
X58755Y-37981D01*
X58692Y-37917D01*
X58608Y-37882D01*
X58517Y-37882D01*
X58434Y-37917D01*
X58370Y-37980D01*
X58335Y-38064D01*
X58335Y-38155D01*
X58370Y-38238D01*
X58433Y-38302D01*
X58517Y-38337D01*
X58608Y-38337D01*
X58691Y-38302D01*
X58755Y-38239D01*
X58790Y-38155D01*
X58790Y-38064D01*
X58790Y-43450D01*
X58550Y-43450D01*
X58550Y-41950D01*
X48200Y-41950D01*
X48200Y-43800D01*
X54450Y-43800D01*
X54450Y-43937D01*
X54415Y-43937D01*
X54332Y-43972D01*
X54268Y-44035D01*
X54233Y-44119D01*
X54233Y-44210D01*
X54268Y-44293D01*
X54331Y-44357D01*
X54415Y-44392D01*
X54450Y-44392D01*
X54450Y-48950D01*
X54392Y-48950D01*
X54392Y-46104D01*
X54357Y-46021D01*
X54294Y-45957D01*
X54210Y-45922D01*
X54119Y-45922D01*
X54036Y-45957D01*
X53972Y-46020D01*
X53944Y-46087D01*
X53944Y-44072D01*
X53909Y-43989D01*
X53846Y-43925D01*
X53762Y-43890D01*
X53671Y-43890D01*
X53588Y-43925D01*
X53566Y-43946D01*
X53519Y-43898D01*
X53435Y-43863D01*
X53344Y-43863D01*
X53261Y-43898D01*
X53197Y-43961D01*
X53190Y-43977D01*
X53143Y-43957D01*
X53052Y-43957D01*
X52969Y-43992D01*
X52959Y-44002D01*
X52953Y-43996D01*
X52869Y-43961D01*
X52778Y-43961D01*
X52695Y-43996D01*
X52631Y-44059D01*
X52596Y-44143D01*
X52596Y-44234D01*
X52631Y-44317D01*
X52694Y-44381D01*
X52778Y-44416D01*
X52869Y-44416D01*
X52952Y-44381D01*
X52962Y-44371D01*
X52968Y-44377D01*
X53052Y-44412D01*
X53143Y-44412D01*
X53226Y-44377D01*
X53290Y-44314D01*
X53297Y-44298D01*
X53344Y-44318D01*
X53435Y-44318D01*
X53518Y-44283D01*
X53540Y-44262D01*
X53587Y-44310D01*
X53671Y-44345D01*
X53762Y-44345D01*
X53845Y-44310D01*
X53909Y-44247D01*
X53944Y-44163D01*
X53944Y-44072D01*
X53944Y-46087D01*
X53937Y-46104D01*
X53937Y-46195D01*
X53972Y-46278D01*
X54035Y-46342D01*
X54119Y-46377D01*
X54210Y-46377D01*
X54293Y-46342D01*
X54357Y-46279D01*
X54392Y-46195D01*
X54392Y-46104D01*
X54392Y-48950D01*
X53889Y-48950D01*
X53889Y-47160D01*
X53851Y-47069D01*
X53782Y-46999D01*
X53691Y-46962D01*
X53593Y-46961D01*
X53502Y-46999D01*
X53432Y-47068D01*
X53395Y-47159D01*
X53394Y-47257D01*
X53432Y-47348D01*
X53501Y-47418D01*
X53592Y-47455D01*
X53690Y-47456D01*
X53781Y-47418D01*
X53851Y-47349D01*
X53888Y-47258D01*
X53889Y-47160D01*
X53889Y-48950D01*
X53641Y-48950D01*
X53641Y-47986D01*
X53603Y-47895D01*
X53534Y-47825D01*
X53443Y-47788D01*
X53345Y-47787D01*
X53254Y-47825D01*
X53184Y-47894D01*
X53147Y-47985D01*
X53146Y-48083D01*
X53184Y-48174D01*
X53253Y-48244D01*
X53344Y-48281D01*
X53442Y-48282D01*
X53533Y-48244D01*
X53603Y-48175D01*
X53640Y-48084D01*
X53641Y-47986D01*
X53641Y-48950D01*
X52921Y-48950D01*
X52921Y-47624D01*
X52880Y-47525D01*
X52805Y-47450D01*
X52707Y-47410D01*
X52601Y-47409D01*
X52502Y-47450D01*
X52427Y-47525D01*
X52387Y-47623D01*
X52386Y-47729D01*
X52427Y-47828D01*
X52502Y-47903D01*
X52600Y-47943D01*
X52706Y-47944D01*
X52805Y-47903D01*
X52880Y-47828D01*
X52920Y-47730D01*
X52921Y-47624D01*
X52921Y-48950D01*
X49517Y-48950D01*
X49517Y-48928D01*
X49482Y-48845D01*
X49419Y-48781D01*
X49335Y-48746D01*
X49244Y-48746D01*
X49223Y-48755D01*
X49223Y-45368D01*
X49189Y-45284D01*
X49125Y-45220D01*
X49041Y-45185D01*
X48951Y-45185D01*
X48867Y-45220D01*
X48803Y-45284D01*
X48768Y-45367D01*
X48768Y-45458D01*
X48803Y-45542D01*
X48867Y-45606D01*
X48950Y-45640D01*
X49041Y-45640D01*
X49124Y-45606D01*
X49188Y-45542D01*
X49223Y-45458D01*
X49223Y-45368D01*
X49223Y-48755D01*
X49219Y-48756D01*
X49219Y-46033D01*
X49185Y-45950D01*
X49121Y-45885D01*
X49037Y-45851D01*
X48947Y-45851D01*
X48863Y-45885D01*
X48799Y-45949D01*
X48764Y-46033D01*
X48764Y-46123D01*
X48799Y-46207D01*
X48863Y-46271D01*
X48946Y-46306D01*
X49037Y-46306D01*
X49120Y-46271D01*
X49184Y-46207D01*
X49219Y-46124D01*
X49219Y-46033D01*
X49219Y-48756D01*
X49161Y-48781D01*
X49097Y-48844D01*
X49062Y-48928D01*
X49062Y-48950D01*
X47550Y-48950D01*
X47550Y-44245D01*
X47627Y-44213D01*
X47697Y-44144D01*
X47735Y-44053D01*
X47735Y-43955D01*
X47697Y-43864D01*
X47628Y-43794D01*
X47550Y-43762D01*
X47550Y-41550D01*
X54544Y-41550D01*
X54544Y-41573D01*
X54579Y-41656D01*
X54642Y-41720D01*
X54726Y-41755D01*
X54817Y-41755D01*
X54900Y-41720D01*
X54964Y-41657D01*
X54999Y-41573D01*
X54999Y-41550D01*
X58050Y-41550D01*
X58050Y-40229D01*
X58067Y-40270D01*
X58130Y-40334D01*
X58214Y-40369D01*
X58305Y-40369D01*
X58388Y-40334D01*
X58452Y-40271D01*
X58487Y-40187D01*
X58487Y-40096D01*
X58452Y-40013D01*
X58389Y-39949D01*
X58305Y-39914D01*
X58214Y-39914D01*
X58131Y-39949D01*
X58067Y-40012D01*
X58050Y-40054D01*
X58050Y-34050D01*
X64950Y-34050D01*
X64950Y-48741D01*
X64950Y-48741D01*
G37*
G54D26*
X64950Y-48741D02*
X64834Y-48741D01*
X64834Y-48741D01*
X64740Y-48759D01*
X64719Y-48773D01*
X64719Y-47710D01*
X64711Y-47691D01*
X64711Y-44025D01*
X64676Y-43942D01*
X64613Y-43878D01*
X64529Y-43843D01*
X64438Y-43843D01*
X64355Y-43878D01*
X64291Y-43941D01*
X64256Y-44025D01*
X64256Y-44116D01*
X64291Y-44199D01*
X64354Y-44263D01*
X64438Y-44298D01*
X64529Y-44298D01*
X64612Y-44263D01*
X64676Y-44200D01*
X64711Y-44116D01*
X64711Y-44025D01*
X64711Y-47691D01*
X64685Y-47627D01*
X64621Y-47563D01*
X64550Y-47533D01*
X64550Y-46336D01*
X64515Y-46253D01*
X64452Y-46189D01*
X64368Y-46154D01*
X64277Y-46154D01*
X64194Y-46189D01*
X64130Y-46252D01*
X64095Y-46336D01*
X64095Y-46427D01*
X64130Y-46510D01*
X64193Y-46574D01*
X64277Y-46609D01*
X64368Y-46609D01*
X64451Y-46574D01*
X64515Y-46511D01*
X64550Y-46427D01*
X64550Y-46336D01*
X64550Y-47533D01*
X64537Y-47528D01*
X64447Y-47528D01*
X64363Y-47562D01*
X64299Y-47626D01*
X64264Y-47710D01*
X64264Y-47800D01*
X64299Y-47884D01*
X64363Y-47948D01*
X64446Y-47983D01*
X64537Y-47983D01*
X64620Y-47948D01*
X64684Y-47884D01*
X64719Y-47801D01*
X64719Y-47710D01*
X64719Y-48773D01*
X64659Y-48813D01*
X64659Y-48813D01*
X64523Y-48950D01*
X64369Y-48950D01*
X64369Y-48388D01*
X64334Y-48304D01*
X64270Y-48240D01*
X64187Y-48205D01*
X64096Y-48205D01*
X64013Y-48240D01*
X63948Y-48304D01*
X63914Y-48387D01*
X63914Y-48478D01*
X63948Y-48561D01*
X64012Y-48625D01*
X64096Y-48660D01*
X64186Y-48660D01*
X64270Y-48626D01*
X64334Y-48562D01*
X64369Y-48478D01*
X64369Y-48388D01*
X64369Y-48950D01*
X63302Y-48950D01*
X63302Y-47246D01*
X63278Y-47189D01*
X63278Y-45525D01*
X63243Y-45442D01*
X63180Y-45378D01*
X63113Y-45350D01*
X63113Y-44588D01*
X63078Y-44505D01*
X63015Y-44441D01*
X62995Y-44432D01*
X62995Y-35245D01*
X62946Y-35128D01*
X62856Y-35038D01*
X62739Y-34990D01*
X62612Y-34989D01*
X62495Y-35038D01*
X62405Y-35128D01*
X62357Y-35245D01*
X62356Y-35372D01*
X62405Y-35489D01*
X62495Y-35579D01*
X62612Y-35627D01*
X62739Y-35628D01*
X62856Y-35579D01*
X62946Y-35489D01*
X62994Y-35372D01*
X62995Y-35245D01*
X62995Y-44432D01*
X62931Y-44406D01*
X62865Y-44406D01*
X62865Y-37041D01*
X62830Y-36958D01*
X62767Y-36894D01*
X62683Y-36859D01*
X62592Y-36859D01*
X62509Y-36894D01*
X62445Y-36957D01*
X62410Y-37041D01*
X62410Y-37132D01*
X62445Y-37215D01*
X62508Y-37279D01*
X62592Y-37314D01*
X62683Y-37314D01*
X62766Y-37279D01*
X62830Y-37216D01*
X62865Y-37132D01*
X62865Y-37041D01*
X62865Y-44406D01*
X62840Y-44406D01*
X62759Y-44440D01*
X62759Y-37978D01*
X62724Y-37895D01*
X62661Y-37831D01*
X62577Y-37796D01*
X62554Y-37796D01*
X62554Y-37777D01*
X62519Y-37694D01*
X62456Y-37630D01*
X62392Y-37603D01*
X62392Y-35820D01*
X62357Y-35737D01*
X62294Y-35673D01*
X62210Y-35638D01*
X62119Y-35638D01*
X62036Y-35673D01*
X61972Y-35736D01*
X61937Y-35820D01*
X61937Y-35911D01*
X61972Y-35994D01*
X62035Y-36058D01*
X62119Y-36093D01*
X62210Y-36093D01*
X62293Y-36058D01*
X62357Y-35995D01*
X62392Y-35911D01*
X62392Y-35820D01*
X62392Y-37603D01*
X62372Y-37595D01*
X62281Y-37595D01*
X62198Y-37630D01*
X62134Y-37693D01*
X62099Y-37777D01*
X62099Y-37868D01*
X62134Y-37951D01*
X62197Y-38015D01*
X62281Y-38050D01*
X62304Y-38050D01*
X62304Y-38069D01*
X62339Y-38152D01*
X62402Y-38216D01*
X62486Y-38251D01*
X62577Y-38251D01*
X62660Y-38216D01*
X62724Y-38153D01*
X62759Y-38069D01*
X62759Y-37978D01*
X62759Y-44440D01*
X62757Y-44441D01*
X62693Y-44504D01*
X62658Y-44588D01*
X62658Y-44679D01*
X62693Y-44762D01*
X62756Y-44826D01*
X62840Y-44861D01*
X62931Y-44861D01*
X63014Y-44826D01*
X63078Y-44763D01*
X63113Y-44679D01*
X63113Y-44588D01*
X63113Y-45350D01*
X63096Y-45343D01*
X63005Y-45343D01*
X62922Y-45378D01*
X62858Y-45441D01*
X62823Y-45525D01*
X62823Y-45536D01*
X62816Y-45536D01*
X62733Y-45571D01*
X62669Y-45634D01*
X62634Y-45718D01*
X62634Y-45809D01*
X62669Y-45892D01*
X62732Y-45956D01*
X62816Y-45991D01*
X62907Y-45991D01*
X62990Y-45956D01*
X63054Y-45893D01*
X63089Y-45809D01*
X63089Y-45798D01*
X63096Y-45798D01*
X63179Y-45763D01*
X63243Y-45700D01*
X63278Y-45616D01*
X63278Y-45525D01*
X63278Y-47189D01*
X63261Y-47147D01*
X63186Y-47072D01*
X63088Y-47032D01*
X62982Y-47031D01*
X62883Y-47072D01*
X62808Y-47147D01*
X62768Y-47245D01*
X62767Y-47351D01*
X62808Y-47450D01*
X62883Y-47525D01*
X62981Y-47565D01*
X63087Y-47566D01*
X63186Y-47525D01*
X63261Y-47450D01*
X63301Y-47352D01*
X63302Y-47246D01*
X63302Y-48950D01*
X62589Y-48950D01*
X62589Y-39324D01*
X62554Y-39241D01*
X62491Y-39177D01*
X62407Y-39142D01*
X62316Y-39142D01*
X62233Y-39177D01*
X62169Y-39240D01*
X62134Y-39324D01*
X62134Y-39415D01*
X62169Y-39498D01*
X62232Y-39562D01*
X62316Y-39597D01*
X62407Y-39597D01*
X62490Y-39562D01*
X62554Y-39499D01*
X62589Y-39415D01*
X62589Y-39324D01*
X62589Y-48950D01*
X62050Y-48950D01*
X62050Y-46971D01*
X62088Y-46971D01*
X62171Y-46936D01*
X62235Y-46873D01*
X62270Y-46789D01*
X62270Y-46698D01*
X62235Y-46615D01*
X62172Y-46551D01*
X62088Y-46516D01*
X62050Y-46516D01*
X62050Y-46487D01*
X62105Y-46432D01*
X62140Y-46348D01*
X62140Y-46257D01*
X62105Y-46174D01*
X62050Y-46118D01*
X62050Y-43450D01*
X62038Y-43450D01*
X62038Y-38812D01*
X62003Y-38729D01*
X61940Y-38665D01*
X61856Y-38630D01*
X61765Y-38630D01*
X61682Y-38665D01*
X61618Y-38728D01*
X61583Y-38812D01*
X61583Y-38903D01*
X61618Y-38986D01*
X61681Y-39050D01*
X61765Y-39085D01*
X61856Y-39085D01*
X61939Y-39050D01*
X62003Y-38987D01*
X62038Y-38903D01*
X62038Y-38812D01*
X62038Y-43450D01*
X61688Y-43450D01*
X61688Y-40281D01*
X61653Y-40198D01*
X61590Y-40134D01*
X61506Y-40099D01*
X61415Y-40099D01*
X61332Y-40134D01*
X61268Y-40197D01*
X61233Y-40281D01*
X61233Y-40372D01*
X61268Y-40455D01*
X61331Y-40519D01*
X61415Y-40554D01*
X61506Y-40554D01*
X61589Y-40519D01*
X61653Y-40456D01*
X61688Y-40372D01*
X61688Y-40281D01*
X61688Y-43450D01*
X60896Y-43450D01*
X60896Y-35426D01*
X60861Y-35343D01*
X60798Y-35279D01*
X60714Y-35244D01*
X60623Y-35244D01*
X60540Y-35279D01*
X60476Y-35342D01*
X60441Y-35426D01*
X60441Y-35517D01*
X60476Y-35600D01*
X60539Y-35664D01*
X60623Y-35699D01*
X60714Y-35699D01*
X60797Y-35664D01*
X60861Y-35601D01*
X60896Y-35517D01*
X60896Y-35426D01*
X60896Y-43450D01*
X60463Y-43450D01*
X60463Y-38399D01*
X60428Y-38316D01*
X60365Y-38252D01*
X60281Y-38217D01*
X60190Y-38217D01*
X60107Y-38252D01*
X60043Y-38315D01*
X60008Y-38399D01*
X60008Y-38490D01*
X60043Y-38573D01*
X60106Y-38637D01*
X60190Y-38672D01*
X60281Y-38672D01*
X60364Y-38637D01*
X60428Y-38574D01*
X60463Y-38490D01*
X60463Y-38399D01*
X60463Y-43450D01*
X59951Y-43450D01*
X59951Y-39816D01*
X59916Y-39733D01*
X59853Y-39669D01*
X59845Y-39665D01*
X59845Y-35245D01*
X59796Y-35128D01*
X59706Y-35038D01*
X59589Y-34990D01*
X59462Y-34989D01*
X59345Y-35038D01*
X59255Y-35128D01*
X59207Y-35245D01*
X59206Y-35372D01*
X59255Y-35489D01*
X59345Y-35579D01*
X59462Y-35627D01*
X59589Y-35628D01*
X59706Y-35579D01*
X59796Y-35489D01*
X59844Y-35372D01*
X59845Y-35245D01*
X59845Y-39665D01*
X59769Y-39634D01*
X59678Y-39634D01*
X59595Y-39669D01*
X59548Y-39715D01*
X59558Y-39691D01*
X59558Y-39600D01*
X59523Y-39517D01*
X59460Y-39453D01*
X59376Y-39418D01*
X59285Y-39418D01*
X59202Y-39453D01*
X59138Y-39516D01*
X59103Y-39600D01*
X59103Y-39691D01*
X59138Y-39774D01*
X59201Y-39838D01*
X59285Y-39873D01*
X59376Y-39873D01*
X59459Y-39838D01*
X59506Y-39792D01*
X59496Y-39816D01*
X59496Y-39907D01*
X59531Y-39990D01*
X59594Y-40054D01*
X59678Y-40089D01*
X59769Y-40089D01*
X59852Y-40054D01*
X59916Y-39991D01*
X59951Y-39907D01*
X59951Y-39816D01*
X59951Y-43450D01*
X59704Y-43450D01*
X59704Y-43116D01*
X59663Y-43017D01*
X59588Y-42942D01*
X59490Y-42902D01*
X59384Y-42901D01*
X59285Y-42942D01*
X59210Y-43017D01*
X59170Y-43115D01*
X59169Y-43221D01*
X59210Y-43320D01*
X59285Y-43395D01*
X59383Y-43435D01*
X59489Y-43436D01*
X59588Y-43395D01*
X59663Y-43320D01*
X59703Y-43222D01*
X59704Y-43116D01*
X59704Y-43450D01*
X58790Y-43450D01*
X58790Y-38064D01*
X58755Y-37981D01*
X58692Y-37917D01*
X58608Y-37882D01*
X58517Y-37882D01*
X58434Y-37917D01*
X58370Y-37980D01*
X58335Y-38064D01*
X58335Y-38155D01*
X58370Y-38238D01*
X58433Y-38302D01*
X58517Y-38337D01*
X58608Y-38337D01*
X58691Y-38302D01*
X58755Y-38239D01*
X58790Y-38155D01*
X58790Y-38064D01*
X58790Y-43450D01*
X58550Y-43450D01*
X58550Y-41950D01*
X48200Y-41950D01*
X48200Y-43800D01*
X54450Y-43800D01*
X54450Y-43937D01*
X54415Y-43937D01*
X54332Y-43972D01*
X54268Y-44035D01*
X54233Y-44119D01*
X54233Y-44210D01*
X54268Y-44293D01*
X54331Y-44357D01*
X54415Y-44392D01*
X54450Y-44392D01*
X54450Y-48950D01*
X54392Y-48950D01*
X54392Y-46104D01*
X54357Y-46021D01*
X54294Y-45957D01*
X54210Y-45922D01*
X54119Y-45922D01*
X54036Y-45957D01*
X53972Y-46020D01*
X53944Y-46087D01*
X53944Y-44072D01*
X53909Y-43989D01*
X53846Y-43925D01*
X53762Y-43890D01*
X53671Y-43890D01*
X53588Y-43925D01*
X53566Y-43946D01*
X53519Y-43898D01*
X53435Y-43863D01*
X53344Y-43863D01*
X53261Y-43898D01*
X53197Y-43961D01*
X53190Y-43977D01*
X53143Y-43957D01*
X53052Y-43957D01*
X52969Y-43992D01*
X52959Y-44002D01*
X52953Y-43996D01*
X52869Y-43961D01*
X52778Y-43961D01*
X52695Y-43996D01*
X52631Y-44059D01*
X52596Y-44143D01*
X52596Y-44234D01*
X52631Y-44317D01*
X52694Y-44381D01*
X52778Y-44416D01*
X52869Y-44416D01*
X52952Y-44381D01*
X52962Y-44371D01*
X52968Y-44377D01*
X53052Y-44412D01*
X53143Y-44412D01*
X53226Y-44377D01*
X53290Y-44314D01*
X53297Y-44298D01*
X53344Y-44318D01*
X53435Y-44318D01*
X53518Y-44283D01*
X53540Y-44262D01*
X53587Y-44310D01*
X53671Y-44345D01*
X53762Y-44345D01*
X53845Y-44310D01*
X53909Y-44247D01*
X53944Y-44163D01*
X53944Y-44072D01*
X53944Y-46087D01*
X53937Y-46104D01*
X53937Y-46195D01*
X53972Y-46278D01*
X54035Y-46342D01*
X54119Y-46377D01*
X54210Y-46377D01*
X54293Y-46342D01*
X54357Y-46279D01*
X54392Y-46195D01*
X54392Y-46104D01*
X54392Y-48950D01*
X53889Y-48950D01*
X53889Y-47160D01*
X53851Y-47069D01*
X53782Y-46999D01*
X53691Y-46962D01*
X53593Y-46961D01*
X53502Y-46999D01*
X53432Y-47068D01*
X53395Y-47159D01*
X53394Y-47257D01*
X53432Y-47348D01*
X53501Y-47418D01*
X53592Y-47455D01*
X53690Y-47456D01*
X53781Y-47418D01*
X53851Y-47349D01*
X53888Y-47258D01*
X53889Y-47160D01*
X53889Y-48950D01*
X53641Y-48950D01*
X53641Y-47986D01*
X53603Y-47895D01*
X53534Y-47825D01*
X53443Y-47788D01*
X53345Y-47787D01*
X53254Y-47825D01*
X53184Y-47894D01*
X53147Y-47985D01*
X53146Y-48083D01*
X53184Y-48174D01*
X53253Y-48244D01*
X53344Y-48281D01*
X53442Y-48282D01*
X53533Y-48244D01*
X53603Y-48175D01*
X53640Y-48084D01*
X53641Y-47986D01*
X53641Y-48950D01*
X52921Y-48950D01*
X52921Y-47624D01*
X52880Y-47525D01*
X52805Y-47450D01*
X52707Y-47410D01*
X52601Y-47409D01*
X52502Y-47450D01*
X52427Y-47525D01*
X52387Y-47623D01*
X52386Y-47729D01*
X52427Y-47828D01*
X52502Y-47903D01*
X52600Y-47943D01*
X52706Y-47944D01*
X52805Y-47903D01*
X52880Y-47828D01*
X52920Y-47730D01*
X52921Y-47624D01*
X52921Y-48950D01*
X49517Y-48950D01*
X49517Y-48928D01*
X49482Y-48845D01*
X49419Y-48781D01*
X49335Y-48746D01*
X49244Y-48746D01*
X49223Y-48755D01*
X49223Y-45368D01*
X49189Y-45284D01*
X49125Y-45220D01*
X49041Y-45185D01*
X48951Y-45185D01*
X48867Y-45220D01*
X48803Y-45284D01*
X48768Y-45367D01*
X48768Y-45458D01*
X48803Y-45542D01*
X48867Y-45606D01*
X48950Y-45640D01*
X49041Y-45640D01*
X49124Y-45606D01*
X49188Y-45542D01*
X49223Y-45458D01*
X49223Y-45368D01*
X49223Y-48755D01*
X49219Y-48756D01*
X49219Y-46033D01*
X49185Y-45950D01*
X49121Y-45885D01*
X49037Y-45851D01*
X48947Y-45851D01*
X48863Y-45885D01*
X48799Y-45949D01*
X48764Y-46033D01*
X48764Y-46123D01*
X48799Y-46207D01*
X48863Y-46271D01*
X48946Y-46306D01*
X49037Y-46306D01*
X49120Y-46271D01*
X49184Y-46207D01*
X49219Y-46124D01*
X49219Y-46033D01*
X49219Y-48756D01*
X49161Y-48781D01*
X49097Y-48844D01*
X49062Y-48928D01*
X49062Y-48950D01*
X47550Y-48950D01*
X47550Y-44245D01*
X47627Y-44213D01*
X47697Y-44144D01*
X47735Y-44053D01*
X47735Y-43955D01*
X47697Y-43864D01*
X47628Y-43794D01*
X47550Y-43762D01*
X47550Y-41550D01*
X54544Y-41550D01*
X54544Y-41573D01*
X54579Y-41656D01*
X54642Y-41720D01*
X54726Y-41755D01*
X54817Y-41755D01*
X54900Y-41720D01*
X54964Y-41657D01*
X54999Y-41573D01*
X54999Y-41550D01*
X58050Y-41550D01*
X58050Y-40229D01*
X58067Y-40270D01*
X58130Y-40334D01*
X58214Y-40369D01*
X58305Y-40369D01*
X58388Y-40334D01*
X58452Y-40271D01*
X58487Y-40187D01*
X58487Y-40096D01*
X58452Y-40013D01*
X58389Y-39949D01*
X58305Y-39914D01*
X58214Y-39914D01*
X58131Y-39949D01*
X58067Y-40012D01*
X58050Y-40054D01*
X58050Y-34050D01*
X64950Y-34050D01*
X64950Y-48741D01*
G54D10*
G36*
X64280Y-50677D02*
X64184Y-50773D01*
X64149Y-50690D01*
X64144Y-50685D01*
X64144Y-49943D01*
X64113Y-49866D01*
X64054Y-49808D01*
X63978Y-49776D01*
X63895Y-49776D01*
X63819Y-49808D01*
X63799Y-49828D01*
X63779Y-49808D01*
X63702Y-49776D01*
X63620Y-49776D01*
X63543Y-49808D01*
X63523Y-49828D01*
X63503Y-49808D01*
X63427Y-49776D01*
X63344Y-49776D01*
X63268Y-49808D01*
X63209Y-49866D01*
X63178Y-49942D01*
X63178Y-50025D01*
X63209Y-50101D01*
X63267Y-50160D01*
X63344Y-50191D01*
X63426Y-50192D01*
X63503Y-50160D01*
X63523Y-50140D01*
X63543Y-50160D01*
X63619Y-50191D01*
X63702Y-50192D01*
X63778Y-50160D01*
X63799Y-50140D01*
X63819Y-50160D01*
X63895Y-50191D01*
X63978Y-50192D01*
X64054Y-50160D01*
X64113Y-50102D01*
X64144Y-50025D01*
X64144Y-49943D01*
X64144Y-50685D01*
X64085Y-50626D01*
X64002Y-50591D01*
X63911Y-50591D01*
X63827Y-50625D01*
X63763Y-50689D01*
X63729Y-50773D01*
X63729Y-50863D01*
X63763Y-50947D01*
X63827Y-51011D01*
X63911Y-51046D01*
X63935Y-51046D01*
X63929Y-51055D01*
X63910Y-51149D01*
X63910Y-51165D01*
X63893Y-51148D01*
X63735Y-51083D01*
X63565Y-51082D01*
X63407Y-51148D01*
X63286Y-51268D01*
X63221Y-51426D01*
X63220Y-51596D01*
X63286Y-51754D01*
X63296Y-51764D01*
X63047Y-51764D01*
X63003Y-51764D01*
X63013Y-51755D01*
X63078Y-51597D01*
X63079Y-51427D01*
X63013Y-51269D01*
X62893Y-51148D01*
X62735Y-51083D01*
X62565Y-51082D01*
X62407Y-51148D01*
X62286Y-51268D01*
X62221Y-51426D01*
X62220Y-51596D01*
X62286Y-51754D01*
X62296Y-51764D01*
X62195Y-51764D01*
X62195Y-50439D01*
X62158Y-50348D01*
X62088Y-50278D01*
X61998Y-50241D01*
X61899Y-50241D01*
X61809Y-50278D01*
X61739Y-50348D01*
X61701Y-50438D01*
X61701Y-50537D01*
X61739Y-50627D01*
X61808Y-50697D01*
X61899Y-50735D01*
X61997Y-50735D01*
X62088Y-50697D01*
X62158Y-50628D01*
X62195Y-50537D01*
X62195Y-50439D01*
X62195Y-51764D01*
X62003Y-51764D01*
X62013Y-51755D01*
X62078Y-51597D01*
X62079Y-51427D01*
X62013Y-51269D01*
X61893Y-51148D01*
X61735Y-51083D01*
X61565Y-51082D01*
X61407Y-51148D01*
X61286Y-51268D01*
X61221Y-51426D01*
X61220Y-51596D01*
X61286Y-51754D01*
X61296Y-51764D01*
X61211Y-51764D01*
X61211Y-49100D01*
X61176Y-49017D01*
X61113Y-48953D01*
X61029Y-48918D01*
X60940Y-48918D01*
X60940Y-45738D01*
X60899Y-45640D01*
X60824Y-45565D01*
X60726Y-45524D01*
X60620Y-45524D01*
X60522Y-45564D01*
X60447Y-45639D01*
X60406Y-45737D01*
X60406Y-45844D01*
X60446Y-45942D01*
X60521Y-46017D01*
X60619Y-46058D01*
X60726Y-46058D01*
X60824Y-46017D01*
X60899Y-45942D01*
X60940Y-45844D01*
X60940Y-45738D01*
X60940Y-48918D01*
X60938Y-48918D01*
X60855Y-48953D01*
X60791Y-49016D01*
X60756Y-49100D01*
X60756Y-49191D01*
X60791Y-49274D01*
X60854Y-49338D01*
X60938Y-49373D01*
X61029Y-49373D01*
X61112Y-49338D01*
X61176Y-49275D01*
X61211Y-49191D01*
X61211Y-49100D01*
X61211Y-51764D01*
X61003Y-51764D01*
X61013Y-51755D01*
X61078Y-51597D01*
X61079Y-51427D01*
X61013Y-51269D01*
X60893Y-51148D01*
X60735Y-51083D01*
X60636Y-51082D01*
X60636Y-47667D01*
X60601Y-47584D01*
X60538Y-47520D01*
X60454Y-47485D01*
X60363Y-47485D01*
X60321Y-47502D01*
X60321Y-44812D01*
X60286Y-44729D01*
X60223Y-44665D01*
X60139Y-44630D01*
X60048Y-44630D01*
X59965Y-44665D01*
X59901Y-44728D01*
X59866Y-44812D01*
X59866Y-44903D01*
X59901Y-44986D01*
X59964Y-45050D01*
X60048Y-45085D01*
X60139Y-45085D01*
X60222Y-45050D01*
X60286Y-44987D01*
X60321Y-44903D01*
X60321Y-44812D01*
X60321Y-47502D01*
X60280Y-47520D01*
X60216Y-47583D01*
X60207Y-47604D01*
X60207Y-46490D01*
X60173Y-46406D01*
X60109Y-46342D01*
X60025Y-46307D01*
X59935Y-46307D01*
X59851Y-46342D01*
X59787Y-46406D01*
X59752Y-46489D01*
X59752Y-46580D01*
X59762Y-46603D01*
X59734Y-46603D01*
X59668Y-46631D01*
X59668Y-46472D01*
X59649Y-46377D01*
X59601Y-46306D01*
X59601Y-44765D01*
X59566Y-44682D01*
X59503Y-44618D01*
X59419Y-44583D01*
X59328Y-44583D01*
X59245Y-44618D01*
X59181Y-44681D01*
X59146Y-44765D01*
X59146Y-44791D01*
X59139Y-44788D01*
X59048Y-44788D01*
X58965Y-44823D01*
X58901Y-44886D01*
X58873Y-44953D01*
X58873Y-44895D01*
X58838Y-44812D01*
X58775Y-44748D01*
X58691Y-44713D01*
X58600Y-44713D01*
X58517Y-44748D01*
X58453Y-44811D01*
X58418Y-44895D01*
X58418Y-44986D01*
X58453Y-45069D01*
X58516Y-45133D01*
X58600Y-45168D01*
X58691Y-45168D01*
X58774Y-45133D01*
X58838Y-45070D01*
X58866Y-45003D01*
X58866Y-45061D01*
X58901Y-45144D01*
X58964Y-45208D01*
X59048Y-45243D01*
X59075Y-45243D01*
X59075Y-45258D01*
X59110Y-45341D01*
X59173Y-45405D01*
X59257Y-45440D01*
X59348Y-45440D01*
X59431Y-45405D01*
X59495Y-45342D01*
X59530Y-45258D01*
X59530Y-45167D01*
X59495Y-45084D01*
X59441Y-45029D01*
X59502Y-45003D01*
X59566Y-44940D01*
X59601Y-44856D01*
X59601Y-44765D01*
X59601Y-46306D01*
X59595Y-46297D01*
X59515Y-46243D01*
X59421Y-46224D01*
X59326Y-46243D01*
X59246Y-46297D01*
X59152Y-46391D01*
X58920Y-46391D01*
X58920Y-45466D01*
X58885Y-45383D01*
X58822Y-45319D01*
X58738Y-45284D01*
X58647Y-45284D01*
X58564Y-45319D01*
X58500Y-45382D01*
X58465Y-45466D01*
X58465Y-45557D01*
X58500Y-45640D01*
X58563Y-45704D01*
X58647Y-45739D01*
X58738Y-45739D01*
X58821Y-45704D01*
X58885Y-45641D01*
X58920Y-45557D01*
X58920Y-45466D01*
X58920Y-46391D01*
X58020Y-46391D01*
X57963Y-46391D01*
X57963Y-46048D01*
X57928Y-45965D01*
X57865Y-45901D01*
X57781Y-45866D01*
X57690Y-45866D01*
X57607Y-45901D01*
X57543Y-45964D01*
X57508Y-46048D01*
X57508Y-46139D01*
X57543Y-46222D01*
X57606Y-46286D01*
X57690Y-46321D01*
X57781Y-46321D01*
X57864Y-46286D01*
X57928Y-46223D01*
X57963Y-46139D01*
X57963Y-46048D01*
X57963Y-46391D01*
X57512Y-46391D01*
X57512Y-46390D01*
X57417Y-46409D01*
X57337Y-46463D01*
X57065Y-46735D01*
X57011Y-46815D01*
X56993Y-46910D01*
X56993Y-47755D01*
X56952Y-47796D01*
X56932Y-47796D01*
X56932Y-46828D01*
X56897Y-46745D01*
X56834Y-46681D01*
X56750Y-46646D01*
X56715Y-46646D01*
X56715Y-44116D01*
X56681Y-44032D01*
X56617Y-43968D01*
X56533Y-43933D01*
X56443Y-43933D01*
X56359Y-43968D01*
X56295Y-44032D01*
X56260Y-44115D01*
X56260Y-44206D01*
X56295Y-44290D01*
X56359Y-44354D01*
X56442Y-44388D01*
X56533Y-44388D01*
X56616Y-44354D01*
X56680Y-44290D01*
X56715Y-44206D01*
X56715Y-44116D01*
X56715Y-46646D01*
X56676Y-46646D01*
X56676Y-46262D01*
X56635Y-46163D01*
X56560Y-46088D01*
X56462Y-46048D01*
X56356Y-46047D01*
X56257Y-46088D01*
X56182Y-46163D01*
X56142Y-46261D01*
X56141Y-46367D01*
X56182Y-46466D01*
X56257Y-46541D01*
X56355Y-46581D01*
X56461Y-46582D01*
X56560Y-46541D01*
X56635Y-46466D01*
X56675Y-46368D01*
X56676Y-46262D01*
X56676Y-46646D01*
X56659Y-46646D01*
X56576Y-46681D01*
X56512Y-46744D01*
X56477Y-46828D01*
X56477Y-46919D01*
X56512Y-47002D01*
X56575Y-47066D01*
X56659Y-47101D01*
X56750Y-47101D01*
X56833Y-47066D01*
X56897Y-47003D01*
X56932Y-46919D01*
X56932Y-46828D01*
X56932Y-47796D01*
X56835Y-47796D01*
X56740Y-47814D01*
X56660Y-47868D01*
X56606Y-47948D01*
X56588Y-48043D01*
X56606Y-48137D01*
X56660Y-48217D01*
X56765Y-48322D01*
X56765Y-48555D01*
X56783Y-48649D01*
X56837Y-48729D01*
X56924Y-48816D01*
X57004Y-48870D01*
X57099Y-48889D01*
X57099Y-48889D01*
X57099Y-48889D01*
X58003Y-48889D01*
X58289Y-49174D01*
X58289Y-49174D01*
X58289Y-49174D01*
X58369Y-49228D01*
X58464Y-49247D01*
X58464Y-49247D01*
X58464Y-49247D01*
X59004Y-49247D01*
X59098Y-49228D01*
X59178Y-49174D01*
X59232Y-49094D01*
X59251Y-49000D01*
X59232Y-48905D01*
X59178Y-48825D01*
X59098Y-48771D01*
X59004Y-48753D01*
X58928Y-48753D01*
X58928Y-47919D01*
X58893Y-47836D01*
X58830Y-47772D01*
X58746Y-47737D01*
X58655Y-47737D01*
X58572Y-47772D01*
X58508Y-47835D01*
X58473Y-47919D01*
X58473Y-48010D01*
X58508Y-48093D01*
X58571Y-48157D01*
X58655Y-48192D01*
X58746Y-48192D01*
X58829Y-48157D01*
X58893Y-48094D01*
X58928Y-48010D01*
X58928Y-47919D01*
X58928Y-48753D01*
X58566Y-48753D01*
X58280Y-48467D01*
X58200Y-48413D01*
X58192Y-48412D01*
X58192Y-47344D01*
X58157Y-47261D01*
X58094Y-47197D01*
X58010Y-47162D01*
X57919Y-47162D01*
X57836Y-47197D01*
X57772Y-47260D01*
X57737Y-47344D01*
X57737Y-47435D01*
X57772Y-47518D01*
X57835Y-47582D01*
X57919Y-47617D01*
X58010Y-47617D01*
X58093Y-47582D01*
X58157Y-47519D01*
X58192Y-47435D01*
X58192Y-47344D01*
X58192Y-48412D01*
X58106Y-48395D01*
X57259Y-48395D01*
X57259Y-48220D01*
X57253Y-48193D01*
X57414Y-48032D01*
X57468Y-47952D01*
X57487Y-47858D01*
X57487Y-47858D01*
X57487Y-47857D01*
X57487Y-47012D01*
X57614Y-46885D01*
X58020Y-46885D01*
X59296Y-46885D01*
X59327Y-46885D01*
X59421Y-46866D01*
X59501Y-46812D01*
X59555Y-46732D01*
X59566Y-46675D01*
X59595Y-46646D01*
X59649Y-46566D01*
X59668Y-46472D01*
X59668Y-46631D01*
X59651Y-46638D01*
X59587Y-46701D01*
X59552Y-46785D01*
X59552Y-46876D01*
X59587Y-46959D01*
X59650Y-47023D01*
X59734Y-47058D01*
X59825Y-47058D01*
X59908Y-47023D01*
X59972Y-46960D01*
X60007Y-46876D01*
X60007Y-46785D01*
X59998Y-46762D01*
X60025Y-46762D01*
X60109Y-46728D01*
X60173Y-46664D01*
X60207Y-46580D01*
X60207Y-46490D01*
X60207Y-47604D01*
X60181Y-47667D01*
X60181Y-47758D01*
X60216Y-47841D01*
X60279Y-47905D01*
X60363Y-47940D01*
X60454Y-47940D01*
X60537Y-47905D01*
X60601Y-47842D01*
X60636Y-47758D01*
X60636Y-47667D01*
X60636Y-51082D01*
X60565Y-51082D01*
X60407Y-51148D01*
X60286Y-51268D01*
X60221Y-51426D01*
X60220Y-51596D01*
X60286Y-51754D01*
X60296Y-51764D01*
X60003Y-51764D01*
X60013Y-51755D01*
X60078Y-51597D01*
X60079Y-51427D01*
X60013Y-51269D01*
X59893Y-51148D01*
X59735Y-51083D01*
X59565Y-51082D01*
X59407Y-51148D01*
X59286Y-51268D01*
X59221Y-51426D01*
X59220Y-51596D01*
X59286Y-51754D01*
X59296Y-51764D01*
X59003Y-51764D01*
X59013Y-51755D01*
X59078Y-51597D01*
X59079Y-51427D01*
X59013Y-51269D01*
X58893Y-51148D01*
X58735Y-51083D01*
X58565Y-51082D01*
X58407Y-51148D01*
X58286Y-51268D01*
X58221Y-51426D01*
X58220Y-51596D01*
X58286Y-51754D01*
X58296Y-51764D01*
X58003Y-51764D01*
X58013Y-51755D01*
X58078Y-51597D01*
X58079Y-51427D01*
X58013Y-51269D01*
X57893Y-51148D01*
X57735Y-51083D01*
X57565Y-51082D01*
X57407Y-51148D01*
X57286Y-51268D01*
X57221Y-51426D01*
X57220Y-51596D01*
X57286Y-51754D01*
X57296Y-51764D01*
X57003Y-51764D01*
X57013Y-51755D01*
X57078Y-51597D01*
X57079Y-51427D01*
X57013Y-51269D01*
X56893Y-51148D01*
X56735Y-51083D01*
X56565Y-51082D01*
X56407Y-51148D01*
X56286Y-51268D01*
X56221Y-51426D01*
X56220Y-51596D01*
X56286Y-51754D01*
X56296Y-51764D01*
X56085Y-51764D01*
X56085Y-44222D01*
X56050Y-44139D01*
X55987Y-44075D01*
X55903Y-44040D01*
X55812Y-44040D01*
X55729Y-44075D01*
X55665Y-44138D01*
X55630Y-44222D01*
X55630Y-44313D01*
X55665Y-44396D01*
X55728Y-44460D01*
X55812Y-44495D01*
X55903Y-44495D01*
X55986Y-44460D01*
X56050Y-44397D01*
X56085Y-44313D01*
X56085Y-44222D01*
X56085Y-51764D01*
X56003Y-51764D01*
X56013Y-51755D01*
X56078Y-51597D01*
X56079Y-51427D01*
X56013Y-51269D01*
X55893Y-51148D01*
X55735Y-51083D01*
X55607Y-51082D01*
X55607Y-47114D01*
X55572Y-47031D01*
X55509Y-46967D01*
X55425Y-46932D01*
X55401Y-46932D01*
X55401Y-45104D01*
X55360Y-45005D01*
X55285Y-44930D01*
X55187Y-44890D01*
X55081Y-44889D01*
X54982Y-44930D01*
X54907Y-45005D01*
X54867Y-45103D01*
X54866Y-45209D01*
X54907Y-45308D01*
X54982Y-45383D01*
X55080Y-45423D01*
X55186Y-45424D01*
X55285Y-45383D01*
X55360Y-45308D01*
X55400Y-45210D01*
X55401Y-45104D01*
X55401Y-46932D01*
X55334Y-46932D01*
X55251Y-46967D01*
X55187Y-47030D01*
X55152Y-47114D01*
X55152Y-47205D01*
X55187Y-47288D01*
X55250Y-47352D01*
X55334Y-47387D01*
X55425Y-47387D01*
X55508Y-47352D01*
X55572Y-47289D01*
X55607Y-47205D01*
X55607Y-47114D01*
X55607Y-51082D01*
X55565Y-51082D01*
X55407Y-51148D01*
X55286Y-51268D01*
X55221Y-51426D01*
X55220Y-51596D01*
X55286Y-51754D01*
X55296Y-51764D01*
X55050Y-51764D01*
X55116Y-51614D01*
X55119Y-51428D01*
X55052Y-51255D01*
X55041Y-51238D01*
X54964Y-51210D01*
X54951Y-51223D01*
X54951Y-51197D01*
X54923Y-51120D01*
X54752Y-51045D01*
X54566Y-51042D01*
X54393Y-51109D01*
X54376Y-51120D01*
X54348Y-51197D01*
X54650Y-51499D01*
X54951Y-51197D01*
X54951Y-51223D01*
X54662Y-51512D01*
X54668Y-51517D01*
X54655Y-51530D01*
X54650Y-51524D01*
X54644Y-51530D01*
X54631Y-51517D01*
X54637Y-51512D01*
X54335Y-51210D01*
X54258Y-51238D01*
X54183Y-51409D01*
X54180Y-51595D01*
X54246Y-51764D01*
X54003Y-51764D01*
X54013Y-51755D01*
X54078Y-51597D01*
X54079Y-51427D01*
X54013Y-51269D01*
X53893Y-51148D01*
X53735Y-51083D01*
X53565Y-51082D01*
X53407Y-51148D01*
X53286Y-51268D01*
X53221Y-51426D01*
X53220Y-51596D01*
X53286Y-51754D01*
X53406Y-51875D01*
X53564Y-51940D01*
X53591Y-51940D01*
X53582Y-51950D01*
X48341Y-51950D01*
X48342Y-51744D01*
X48300Y-51642D01*
X48300Y-49300D01*
X54780Y-49300D01*
X54807Y-49364D01*
X54870Y-49428D01*
X54954Y-49463D01*
X55045Y-49463D01*
X55128Y-49428D01*
X55192Y-49365D01*
X55227Y-49281D01*
X55227Y-49190D01*
X55192Y-49107D01*
X55129Y-49043D01*
X55045Y-49008D01*
X54954Y-49008D01*
X54871Y-49043D01*
X54807Y-49106D01*
X54800Y-49124D01*
X54800Y-43800D01*
X57303Y-43800D01*
X57303Y-43872D01*
X57307Y-43882D01*
X57300Y-43886D01*
X57236Y-43949D01*
X57201Y-44033D01*
X57201Y-44124D01*
X57236Y-44207D01*
X57299Y-44271D01*
X57383Y-44306D01*
X57474Y-44306D01*
X57557Y-44271D01*
X57621Y-44208D01*
X57656Y-44124D01*
X57656Y-44033D01*
X57652Y-44023D01*
X57659Y-44019D01*
X57723Y-43956D01*
X57758Y-43872D01*
X57758Y-43800D01*
X61452Y-43800D01*
X61651Y-48178D01*
X61621Y-48107D01*
X61558Y-48043D01*
X61474Y-48008D01*
X61383Y-48008D01*
X61300Y-48043D01*
X61236Y-48106D01*
X61201Y-48190D01*
X61201Y-48281D01*
X61236Y-48364D01*
X61299Y-48428D01*
X61383Y-48463D01*
X61474Y-48463D01*
X61557Y-48428D01*
X61621Y-48365D01*
X61655Y-48282D01*
X61702Y-49300D01*
X64280Y-49300D01*
X64280Y-50677D01*
X64280Y-50677D01*
G37*
G54D26*
X64280Y-50677D02*
X64184Y-50773D01*
X64149Y-50690D01*
X64144Y-50685D01*
X64144Y-49943D01*
X64113Y-49866D01*
X64054Y-49808D01*
X63978Y-49776D01*
X63895Y-49776D01*
X63819Y-49808D01*
X63799Y-49828D01*
X63779Y-49808D01*
X63702Y-49776D01*
X63620Y-49776D01*
X63543Y-49808D01*
X63523Y-49828D01*
X63503Y-49808D01*
X63427Y-49776D01*
X63344Y-49776D01*
X63268Y-49808D01*
X63209Y-49866D01*
X63178Y-49942D01*
X63178Y-50025D01*
X63209Y-50101D01*
X63267Y-50160D01*
X63344Y-50191D01*
X63426Y-50192D01*
X63503Y-50160D01*
X63523Y-50140D01*
X63543Y-50160D01*
X63619Y-50191D01*
X63702Y-50192D01*
X63778Y-50160D01*
X63799Y-50140D01*
X63819Y-50160D01*
X63895Y-50191D01*
X63978Y-50192D01*
X64054Y-50160D01*
X64113Y-50102D01*
X64144Y-50025D01*
X64144Y-49943D01*
X64144Y-50685D01*
X64085Y-50626D01*
X64002Y-50591D01*
X63911Y-50591D01*
X63827Y-50625D01*
X63763Y-50689D01*
X63729Y-50773D01*
X63729Y-50863D01*
X63763Y-50947D01*
X63827Y-51011D01*
X63911Y-51046D01*
X63935Y-51046D01*
X63929Y-51055D01*
X63910Y-51149D01*
X63910Y-51165D01*
X63893Y-51148D01*
X63735Y-51083D01*
X63565Y-51082D01*
X63407Y-51148D01*
X63286Y-51268D01*
X63221Y-51426D01*
X63220Y-51596D01*
X63286Y-51754D01*
X63296Y-51764D01*
X63047Y-51764D01*
X63003Y-51764D01*
X63013Y-51755D01*
X63078Y-51597D01*
X63079Y-51427D01*
X63013Y-51269D01*
X62893Y-51148D01*
X62735Y-51083D01*
X62565Y-51082D01*
X62407Y-51148D01*
X62286Y-51268D01*
X62221Y-51426D01*
X62220Y-51596D01*
X62286Y-51754D01*
X62296Y-51764D01*
X62195Y-51764D01*
X62195Y-50439D01*
X62158Y-50348D01*
X62088Y-50278D01*
X61998Y-50241D01*
X61899Y-50241D01*
X61809Y-50278D01*
X61739Y-50348D01*
X61701Y-50438D01*
X61701Y-50537D01*
X61739Y-50627D01*
X61808Y-50697D01*
X61899Y-50735D01*
X61997Y-50735D01*
X62088Y-50697D01*
X62158Y-50628D01*
X62195Y-50537D01*
X62195Y-50439D01*
X62195Y-51764D01*
X62003Y-51764D01*
X62013Y-51755D01*
X62078Y-51597D01*
X62079Y-51427D01*
X62013Y-51269D01*
X61893Y-51148D01*
X61735Y-51083D01*
X61565Y-51082D01*
X61407Y-51148D01*
X61286Y-51268D01*
X61221Y-51426D01*
X61220Y-51596D01*
X61286Y-51754D01*
X61296Y-51764D01*
X61211Y-51764D01*
X61211Y-49100D01*
X61176Y-49017D01*
X61113Y-48953D01*
X61029Y-48918D01*
X60940Y-48918D01*
X60940Y-45738D01*
X60899Y-45640D01*
X60824Y-45565D01*
X60726Y-45524D01*
X60620Y-45524D01*
X60522Y-45564D01*
X60447Y-45639D01*
X60406Y-45737D01*
X60406Y-45844D01*
X60446Y-45942D01*
X60521Y-46017D01*
X60619Y-46058D01*
X60726Y-46058D01*
X60824Y-46017D01*
X60899Y-45942D01*
X60940Y-45844D01*
X60940Y-45738D01*
X60940Y-48918D01*
X60938Y-48918D01*
X60855Y-48953D01*
X60791Y-49016D01*
X60756Y-49100D01*
X60756Y-49191D01*
X60791Y-49274D01*
X60854Y-49338D01*
X60938Y-49373D01*
X61029Y-49373D01*
X61112Y-49338D01*
X61176Y-49275D01*
X61211Y-49191D01*
X61211Y-49100D01*
X61211Y-51764D01*
X61003Y-51764D01*
X61013Y-51755D01*
X61078Y-51597D01*
X61079Y-51427D01*
X61013Y-51269D01*
X60893Y-51148D01*
X60735Y-51083D01*
X60636Y-51082D01*
X60636Y-47667D01*
X60601Y-47584D01*
X60538Y-47520D01*
X60454Y-47485D01*
X60363Y-47485D01*
X60321Y-47502D01*
X60321Y-44812D01*
X60286Y-44729D01*
X60223Y-44665D01*
X60139Y-44630D01*
X60048Y-44630D01*
X59965Y-44665D01*
X59901Y-44728D01*
X59866Y-44812D01*
X59866Y-44903D01*
X59901Y-44986D01*
X59964Y-45050D01*
X60048Y-45085D01*
X60139Y-45085D01*
X60222Y-45050D01*
X60286Y-44987D01*
X60321Y-44903D01*
X60321Y-44812D01*
X60321Y-47502D01*
X60280Y-47520D01*
X60216Y-47583D01*
X60207Y-47604D01*
X60207Y-46490D01*
X60173Y-46406D01*
X60109Y-46342D01*
X60025Y-46307D01*
X59935Y-46307D01*
X59851Y-46342D01*
X59787Y-46406D01*
X59752Y-46489D01*
X59752Y-46580D01*
X59762Y-46603D01*
X59734Y-46603D01*
X59668Y-46631D01*
X59668Y-46472D01*
X59649Y-46377D01*
X59601Y-46306D01*
X59601Y-44765D01*
X59566Y-44682D01*
X59503Y-44618D01*
X59419Y-44583D01*
X59328Y-44583D01*
X59245Y-44618D01*
X59181Y-44681D01*
X59146Y-44765D01*
X59146Y-44791D01*
X59139Y-44788D01*
X59048Y-44788D01*
X58965Y-44823D01*
X58901Y-44886D01*
X58873Y-44953D01*
X58873Y-44895D01*
X58838Y-44812D01*
X58775Y-44748D01*
X58691Y-44713D01*
X58600Y-44713D01*
X58517Y-44748D01*
X58453Y-44811D01*
X58418Y-44895D01*
X58418Y-44986D01*
X58453Y-45069D01*
X58516Y-45133D01*
X58600Y-45168D01*
X58691Y-45168D01*
X58774Y-45133D01*
X58838Y-45070D01*
X58866Y-45003D01*
X58866Y-45061D01*
X58901Y-45144D01*
X58964Y-45208D01*
X59048Y-45243D01*
X59075Y-45243D01*
X59075Y-45258D01*
X59110Y-45341D01*
X59173Y-45405D01*
X59257Y-45440D01*
X59348Y-45440D01*
X59431Y-45405D01*
X59495Y-45342D01*
X59530Y-45258D01*
X59530Y-45167D01*
X59495Y-45084D01*
X59441Y-45029D01*
X59502Y-45003D01*
X59566Y-44940D01*
X59601Y-44856D01*
X59601Y-44765D01*
X59601Y-46306D01*
X59595Y-46297D01*
X59515Y-46243D01*
X59421Y-46224D01*
X59326Y-46243D01*
X59246Y-46297D01*
X59152Y-46391D01*
X58920Y-46391D01*
X58920Y-45466D01*
X58885Y-45383D01*
X58822Y-45319D01*
X58738Y-45284D01*
X58647Y-45284D01*
X58564Y-45319D01*
X58500Y-45382D01*
X58465Y-45466D01*
X58465Y-45557D01*
X58500Y-45640D01*
X58563Y-45704D01*
X58647Y-45739D01*
X58738Y-45739D01*
X58821Y-45704D01*
X58885Y-45641D01*
X58920Y-45557D01*
X58920Y-45466D01*
X58920Y-46391D01*
X58020Y-46391D01*
X57963Y-46391D01*
X57963Y-46048D01*
X57928Y-45965D01*
X57865Y-45901D01*
X57781Y-45866D01*
X57690Y-45866D01*
X57607Y-45901D01*
X57543Y-45964D01*
X57508Y-46048D01*
X57508Y-46139D01*
X57543Y-46222D01*
X57606Y-46286D01*
X57690Y-46321D01*
X57781Y-46321D01*
X57864Y-46286D01*
X57928Y-46223D01*
X57963Y-46139D01*
X57963Y-46048D01*
X57963Y-46391D01*
X57512Y-46391D01*
X57512Y-46390D01*
X57417Y-46409D01*
X57337Y-46463D01*
X57065Y-46735D01*
X57011Y-46815D01*
X56993Y-46910D01*
X56993Y-47755D01*
X56952Y-47796D01*
X56932Y-47796D01*
X56932Y-46828D01*
X56897Y-46745D01*
X56834Y-46681D01*
X56750Y-46646D01*
X56715Y-46646D01*
X56715Y-44116D01*
X56681Y-44032D01*
X56617Y-43968D01*
X56533Y-43933D01*
X56443Y-43933D01*
X56359Y-43968D01*
X56295Y-44032D01*
X56260Y-44115D01*
X56260Y-44206D01*
X56295Y-44290D01*
X56359Y-44354D01*
X56442Y-44388D01*
X56533Y-44388D01*
X56616Y-44354D01*
X56680Y-44290D01*
X56715Y-44206D01*
X56715Y-44116D01*
X56715Y-46646D01*
X56676Y-46646D01*
X56676Y-46262D01*
X56635Y-46163D01*
X56560Y-46088D01*
X56462Y-46048D01*
X56356Y-46047D01*
X56257Y-46088D01*
X56182Y-46163D01*
X56142Y-46261D01*
X56141Y-46367D01*
X56182Y-46466D01*
X56257Y-46541D01*
X56355Y-46581D01*
X56461Y-46582D01*
X56560Y-46541D01*
X56635Y-46466D01*
X56675Y-46368D01*
X56676Y-46262D01*
X56676Y-46646D01*
X56659Y-46646D01*
X56576Y-46681D01*
X56512Y-46744D01*
X56477Y-46828D01*
X56477Y-46919D01*
X56512Y-47002D01*
X56575Y-47066D01*
X56659Y-47101D01*
X56750Y-47101D01*
X56833Y-47066D01*
X56897Y-47003D01*
X56932Y-46919D01*
X56932Y-46828D01*
X56932Y-47796D01*
X56835Y-47796D01*
X56740Y-47814D01*
X56660Y-47868D01*
X56606Y-47948D01*
X56588Y-48043D01*
X56606Y-48137D01*
X56660Y-48217D01*
X56765Y-48322D01*
X56765Y-48555D01*
X56783Y-48649D01*
X56837Y-48729D01*
X56924Y-48816D01*
X57004Y-48870D01*
X57099Y-48889D01*
X57099Y-48889D01*
X57099Y-48889D01*
X58003Y-48889D01*
X58289Y-49174D01*
X58289Y-49174D01*
X58289Y-49174D01*
X58369Y-49228D01*
X58464Y-49247D01*
X58464Y-49247D01*
X58464Y-49247D01*
X59004Y-49247D01*
X59098Y-49228D01*
X59178Y-49174D01*
X59232Y-49094D01*
X59251Y-49000D01*
X59232Y-48905D01*
X59178Y-48825D01*
X59098Y-48771D01*
X59004Y-48753D01*
X58928Y-48753D01*
X58928Y-47919D01*
X58893Y-47836D01*
X58830Y-47772D01*
X58746Y-47737D01*
X58655Y-47737D01*
X58572Y-47772D01*
X58508Y-47835D01*
X58473Y-47919D01*
X58473Y-48010D01*
X58508Y-48093D01*
X58571Y-48157D01*
X58655Y-48192D01*
X58746Y-48192D01*
X58829Y-48157D01*
X58893Y-48094D01*
X58928Y-48010D01*
X58928Y-47919D01*
X58928Y-48753D01*
X58566Y-48753D01*
X58280Y-48467D01*
X58200Y-48413D01*
X58192Y-48412D01*
X58192Y-47344D01*
X58157Y-47261D01*
X58094Y-47197D01*
X58010Y-47162D01*
X57919Y-47162D01*
X57836Y-47197D01*
X57772Y-47260D01*
X57737Y-47344D01*
X57737Y-47435D01*
X57772Y-47518D01*
X57835Y-47582D01*
X57919Y-47617D01*
X58010Y-47617D01*
X58093Y-47582D01*
X58157Y-47519D01*
X58192Y-47435D01*
X58192Y-47344D01*
X58192Y-48412D01*
X58106Y-48395D01*
X57259Y-48395D01*
X57259Y-48220D01*
X57253Y-48193D01*
X57414Y-48032D01*
X57468Y-47952D01*
X57487Y-47858D01*
X57487Y-47858D01*
X57487Y-47857D01*
X57487Y-47012D01*
X57614Y-46885D01*
X58020Y-46885D01*
X59296Y-46885D01*
X59327Y-46885D01*
X59421Y-46866D01*
X59501Y-46812D01*
X59555Y-46732D01*
X59566Y-46675D01*
X59595Y-46646D01*
X59649Y-46566D01*
X59668Y-46472D01*
X59668Y-46631D01*
X59651Y-46638D01*
X59587Y-46701D01*
X59552Y-46785D01*
X59552Y-46876D01*
X59587Y-46959D01*
X59650Y-47023D01*
X59734Y-47058D01*
X59825Y-47058D01*
X59908Y-47023D01*
X59972Y-46960D01*
X60007Y-46876D01*
X60007Y-46785D01*
X59998Y-46762D01*
X60025Y-46762D01*
X60109Y-46728D01*
X60173Y-46664D01*
X60207Y-46580D01*
X60207Y-46490D01*
X60207Y-47604D01*
X60181Y-47667D01*
X60181Y-47758D01*
X60216Y-47841D01*
X60279Y-47905D01*
X60363Y-47940D01*
X60454Y-47940D01*
X60537Y-47905D01*
X60601Y-47842D01*
X60636Y-47758D01*
X60636Y-47667D01*
X60636Y-51082D01*
X60565Y-51082D01*
X60407Y-51148D01*
X60286Y-51268D01*
X60221Y-51426D01*
X60220Y-51596D01*
X60286Y-51754D01*
X60296Y-51764D01*
X60003Y-51764D01*
X60013Y-51755D01*
X60078Y-51597D01*
X60079Y-51427D01*
X60013Y-51269D01*
X59893Y-51148D01*
X59735Y-51083D01*
X59565Y-51082D01*
X59407Y-51148D01*
X59286Y-51268D01*
X59221Y-51426D01*
X59220Y-51596D01*
X59286Y-51754D01*
X59296Y-51764D01*
X59003Y-51764D01*
X59013Y-51755D01*
X59078Y-51597D01*
X59079Y-51427D01*
X59013Y-51269D01*
X58893Y-51148D01*
X58735Y-51083D01*
X58565Y-51082D01*
X58407Y-51148D01*
X58286Y-51268D01*
X58221Y-51426D01*
X58220Y-51596D01*
X58286Y-51754D01*
X58296Y-51764D01*
X58003Y-51764D01*
X58013Y-51755D01*
X58078Y-51597D01*
X58079Y-51427D01*
X58013Y-51269D01*
X57893Y-51148D01*
X57735Y-51083D01*
X57565Y-51082D01*
X57407Y-51148D01*
X57286Y-51268D01*
X57221Y-51426D01*
X57220Y-51596D01*
X57286Y-51754D01*
X57296Y-51764D01*
X57003Y-51764D01*
X57013Y-51755D01*
X57078Y-51597D01*
X57079Y-51427D01*
X57013Y-51269D01*
X56893Y-51148D01*
X56735Y-51083D01*
X56565Y-51082D01*
X56407Y-51148D01*
X56286Y-51268D01*
X56221Y-51426D01*
X56220Y-51596D01*
X56286Y-51754D01*
X56296Y-51764D01*
X56085Y-51764D01*
X56085Y-44222D01*
X56050Y-44139D01*
X55987Y-44075D01*
X55903Y-44040D01*
X55812Y-44040D01*
X55729Y-44075D01*
X55665Y-44138D01*
X55630Y-44222D01*
X55630Y-44313D01*
X55665Y-44396D01*
X55728Y-44460D01*
X55812Y-44495D01*
X55903Y-44495D01*
X55986Y-44460D01*
X56050Y-44397D01*
X56085Y-44313D01*
X56085Y-44222D01*
X56085Y-51764D01*
X56003Y-51764D01*
X56013Y-51755D01*
X56078Y-51597D01*
X56079Y-51427D01*
X56013Y-51269D01*
X55893Y-51148D01*
X55735Y-51083D01*
X55607Y-51082D01*
X55607Y-47114D01*
X55572Y-47031D01*
X55509Y-46967D01*
X55425Y-46932D01*
X55401Y-46932D01*
X55401Y-45104D01*
X55360Y-45005D01*
X55285Y-44930D01*
X55187Y-44890D01*
X55081Y-44889D01*
X54982Y-44930D01*
X54907Y-45005D01*
X54867Y-45103D01*
X54866Y-45209D01*
X54907Y-45308D01*
X54982Y-45383D01*
X55080Y-45423D01*
X55186Y-45424D01*
X55285Y-45383D01*
X55360Y-45308D01*
X55400Y-45210D01*
X55401Y-45104D01*
X55401Y-46932D01*
X55334Y-46932D01*
X55251Y-46967D01*
X55187Y-47030D01*
X55152Y-47114D01*
X55152Y-47205D01*
X55187Y-47288D01*
X55250Y-47352D01*
X55334Y-47387D01*
X55425Y-47387D01*
X55508Y-47352D01*
X55572Y-47289D01*
X55607Y-47205D01*
X55607Y-47114D01*
X55607Y-51082D01*
X55565Y-51082D01*
X55407Y-51148D01*
X55286Y-51268D01*
X55221Y-51426D01*
X55220Y-51596D01*
X55286Y-51754D01*
X55296Y-51764D01*
X55050Y-51764D01*
X55116Y-51614D01*
X55119Y-51428D01*
X55052Y-51255D01*
X55041Y-51238D01*
X54964Y-51210D01*
X54951Y-51223D01*
X54951Y-51197D01*
X54923Y-51120D01*
X54752Y-51045D01*
X54566Y-51042D01*
X54393Y-51109D01*
X54376Y-51120D01*
X54348Y-51197D01*
X54650Y-51499D01*
X54951Y-51197D01*
X54951Y-51223D01*
X54662Y-51512D01*
X54668Y-51517D01*
X54655Y-51530D01*
X54650Y-51524D01*
X54644Y-51530D01*
X54631Y-51517D01*
X54637Y-51512D01*
X54335Y-51210D01*
X54258Y-51238D01*
X54183Y-51409D01*
X54180Y-51595D01*
X54246Y-51764D01*
X54003Y-51764D01*
X54013Y-51755D01*
X54078Y-51597D01*
X54079Y-51427D01*
X54013Y-51269D01*
X53893Y-51148D01*
X53735Y-51083D01*
X53565Y-51082D01*
X53407Y-51148D01*
X53286Y-51268D01*
X53221Y-51426D01*
X53220Y-51596D01*
X53286Y-51754D01*
X53406Y-51875D01*
X53564Y-51940D01*
X53591Y-51940D01*
X53582Y-51950D01*
X48341Y-51950D01*
X48342Y-51744D01*
X48300Y-51642D01*
X48300Y-49300D01*
X54780Y-49300D01*
X54807Y-49364D01*
X54870Y-49428D01*
X54954Y-49463D01*
X55045Y-49463D01*
X55128Y-49428D01*
X55192Y-49365D01*
X55227Y-49281D01*
X55227Y-49190D01*
X55192Y-49107D01*
X55129Y-49043D01*
X55045Y-49008D01*
X54954Y-49008D01*
X54871Y-49043D01*
X54807Y-49106D01*
X54800Y-49124D01*
X54800Y-43800D01*
X57303Y-43800D01*
X57303Y-43872D01*
X57307Y-43882D01*
X57300Y-43886D01*
X57236Y-43949D01*
X57201Y-44033D01*
X57201Y-44124D01*
X57236Y-44207D01*
X57299Y-44271D01*
X57383Y-44306D01*
X57474Y-44306D01*
X57557Y-44271D01*
X57621Y-44208D01*
X57656Y-44124D01*
X57656Y-44033D01*
X57652Y-44023D01*
X57659Y-44019D01*
X57723Y-43956D01*
X57758Y-43872D01*
X57758Y-43800D01*
X61452Y-43800D01*
X61651Y-48178D01*
X61621Y-48107D01*
X61558Y-48043D01*
X61474Y-48008D01*
X61383Y-48008D01*
X61300Y-48043D01*
X61236Y-48106D01*
X61201Y-48190D01*
X61201Y-48281D01*
X61236Y-48364D01*
X61299Y-48428D01*
X61383Y-48463D01*
X61474Y-48463D01*
X61557Y-48428D01*
X61621Y-48365D01*
X61655Y-48282D01*
X61702Y-49300D01*
X64280Y-49300D01*
X64280Y-50677D01*
M02*
