EESchema Schematic File Version 2
LIBS:con-jack
LIBS:adm3101e
LIBS:microsd
LIBS:transistor-npn
LIBS:ipc-7351-transistor
LIBS:switch-misc
LIBS:power
LIBS:device
LIBS:transistors
LIBS:conn
LIBS:linear
LIBS:regul
LIBS:74xx
LIBS:cmos4000
LIBS:adc-dac
LIBS:memory
LIBS:xilinx
LIBS:special
LIBS:microcontrollers
LIBS:dsp
LIBS:microchip
LIBS:analog_switches
LIBS:motorola
LIBS:texas
LIBS:intel
LIBS:audio
LIBS:interface
LIBS:digital-audio
LIBS:philips
LIBS:display
LIBS:cypress
LIBS:siliconi
LIBS:opto
LIBS:atmel
LIBS:contrib
LIBS:valves
LIBS:micron_ddr_512Mb
LIBS:iMX23
LIBS:sdmmc
LIBS:usbconn
LIBS:fsusb20
LIBS:r_pack2
LIBS:pasives-connectors
LIBS:EEPROM
LIBS:PWR
LIBS:m25p32
LIBS:PROpendous-cache
LIBS:w_analog
LIBS:gl850g
LIBS:srf2012
LIBS:rclamp0502b
LIBS:mcp130
LIBS:ABM8G
LIBS:usb_a
LIBS:Reset
LIBS:stm32f100vxx
LIBS:lt1117cst
LIBS:zxmhc3f381n8
LIBS:fsusb43
LIBS:usb-mini
LIBS:atsam3n0aa-au
LIBS:stamp_mini_4_layers-cache
EELAYER 24 0
EELAYER END
$Descr A4 11693 8268
encoding utf-8
Sheet 1 5
Title ""
Date "9 may 2013"
Rev ""
Comp ""
Comment1 ""
Comment2 ""
Comment3 ""
Comment4 ""
$EndDescr
$Sheet
S 1550 1750 1350 1250
U 4E78AF25
F0 "SAM3M" 60
F1 "SAM3N.sch" 60
F2 "JNRST" B R 2900 2050 60 
F3 "JTMS" B R 2900 2450 60 
F4 "JTCK" B R 2900 2350 60 
F5 "JTDO" B R 2900 2150 60 
F6 "JTDI" B R 2900 2250 60 
F7 "SAM_RX" O R 2900 1950 60 
F8 "SAM_TX" O R 2900 1850 60 
F9 "TWD" I R 2900 2800 60 
F10 "TWCK" I R 2900 2700 60 
$EndSheet
$Sheet
S 3150 1600 1600 2950
U 4D30AC69
F0 "i.MX233" 60
F1 "i.MX233.sch" 60
F2 "DDR_A[0..12]" O R 4750 2400 60 
F3 "DDR_DQ[0..15]" B R 4750 2500 60 
F4 "DDR_WEN" O R 4750 2750 60 
F5 "DDR_RASN" O R 4750 2950 60 
F6 "DDR_DQS1" O R 4750 3200 60 
F7 "DDR_DQS0" O R 4750 3100 60 
F8 "DDR_DQM1" O R 4750 3450 60 
F9 "DDR_DQM0" O R 4750 3350 60 
F10 "DDR_CLK" O R 4750 3600 60 
F11 "DDR_CLKN" O R 4750 3700 60 
F12 "DDR_CKE" O R 4750 3800 60 
F13 "DDR_CASN" O R 4750 2850 60 
F14 "DDR_CE0" O R 4750 2650 60 
F15 "DDR_BA1" O R 4750 4050 60 
F16 "DDR_BA0" O R 4750 3950 60 
F17 "I2C_SCL" B L 3150 2700 60 
F18 "I2C_SDA" B L 3150 2800 60 
F19 "AUART_TX" B L 3150 1950 60 
F20 "AUART_RX" B L 3150 1850 60 
F21 "GPMI_RDN" O L 3150 2250 60 
F22 "GPMI_D06" O L 3150 2050 60 
F23 "GPMI_CLE" O L 3150 2350 60 
F24 "GPMI_D04" O L 3150 2150 60 
F25 "GPMI_ALE" O L 3150 2450 60 
F26 "USB_DM" B L 3150 4250 60 
F27 "USB_DP" B L 3150 4150 60 
F28 "VDAC1" B L 3150 4050 60 
F29 "HPR" B L 3150 3650 60 
F30 "HPL" B L 3150 3550 60 
F31 "HP_VGND" B L 3150 3750 60 
F32 "MIC" B L 3150 3450 60 
F33 "LINE_INR" B L 3150 3850 60 
F34 "LINE_INL" B L 3150 3950 60 
F35 "LRADC1" B L 3150 3350 60 
$EndSheet
Wire Wire Line
	2900 1950 3150 1950
Wire Wire Line
	3150 2800 2900 2800
Wire Wire Line
	2900 2250 3150 2250
Wire Wire Line
	2900 2050 3150 2050
Wire Bus Line
	5250 2400 4750 2400
Wire Wire Line
	4750 3450 5250 3450
Wire Wire Line
	5250 3200 4750 3200
Wire Wire Line
	4750 2950 5250 2950
Wire Wire Line
	4750 4050 5250 4050
Wire Wire Line
	4750 3800 5250 3800
Wire Wire Line
	4750 3600 5250 3600
Wire Wire Line
	4750 2850 5250 2850
Wire Wire Line
	4750 2750 5250 2750
Wire Wire Line
	4750 2650 5250 2650
Wire Wire Line
	4750 3700 5250 3700
Wire Wire Line
	4750 3950 5250 3950
Wire Wire Line
	4750 3100 5250 3100
Wire Wire Line
	5250 3350 4750 3350
Wire Bus Line
	4750 2500 5250 2500
Wire Wire Line
	2900 2150 3150 2150
Wire Wire Line
	2900 2350 3150 2350
Wire Wire Line
	2900 2450 3150 2450
Wire Wire Line
	2900 2700 3150 2700
Wire Wire Line
	2900 1850 3150 1850
$Sheet
S 5250 1600 1150 2500
U 4D30B991
F0 "DDR" 60
F1 "DDR1.sch" 60
F2 "DDR_A[0..12]" I L 5250 2400 60 
F3 "DDR_DQ[0..15]" B L 5250 2500 60 
F4 "DDR_BA0" I L 5250 3950 60 
F5 "DDR_BA1" I L 5250 4050 60 
F6 "DDR_CE0" I L 5250 2650 60 
F7 "DDR_CASN" I L 5250 2850 60 
F8 "DDR_CKE" I L 5250 3800 60 
F9 "DDR_CLKN" I L 5250 3700 60 
F10 "DDR_CLK" I L 5250 3600 60 
F11 "DDR_DQM0" I L 5250 3350 60 
F12 "DDR_DQM1" I L 5250 3450 60 
F13 "DDR_DQS0" I L 5250 3100 60 
F14 "DDR_DQS1" I L 5250 3200 60 
F15 "DDR_RASN" I L 5250 2950 60 
F16 "DDR_WEN" I L 5250 2750 60 
$EndSheet
$Sheet
S 2150 3250 800  1300
U 52CF47AB
F0 "basic_io" 50
F1 "child_ssd.sch" 50
F2 "LRADC1" B R 2950 3350 60 
F3 "MIC" B R 2950 3450 60 
F4 "HP_L" B R 2950 3550 60 
F5 "HP_R" B R 2950 3650 60 
F6 "HP_VGND" B R 2950 3750 60 
F7 "LINE_INR" B R 2950 3850 60 
F8 "LINE_INL" B R 2950 3950 60 
F9 "VDAC1" B R 2950 4050 60 
F10 "USB_DP" B R 2950 4150 60 
F11 "USB_DM" B R 2950 4250 60 
$EndSheet
Wire Wire Line
	2950 3350 3150 3350
Wire Wire Line
	3150 3450 2950 3450
Wire Wire Line
	2950 3550 3150 3550
Wire Wire Line
	3150 3650 2950 3650
Wire Wire Line
	2950 3750 3150 3750
Wire Wire Line
	3150 3850 2950 3850
Wire Wire Line
	2950 3950 3150 3950
Wire Wire Line
	3150 4050 2950 4050
Wire Wire Line
	2950 4150 3150 4150
Wire Wire Line
	3150 4250 2950 4250
$EndSCHEMATC
