ARM GAS  /tmp/cc4YHyd8.s 			page 1


   1              		.syntax unified
   2              		.cpu cortex-m3
   3              		.fpu softvfp
   4              		.eabi_attribute 20, 1
   5              		.eabi_attribute 21, 1
   6              		.eabi_attribute 23, 3
   7              		.eabi_attribute 24, 1
   8              		.eabi_attribute 25, 1
   9              		.eabi_attribute 26, 1
  10              		.eabi_attribute 30, 2
  11              		.eabi_attribute 34, 1
  12              		.eabi_attribute 18, 4
  13              		.thumb
  14              		.file	"atmel_pmc.c"
  15              		.text
  16              	.Ltext0:
  17              		.cfi_sections	.debug_frame
  18              		.section	.text.PMC_EnablePeripheral,"ax",%progbits
  19              		.align	2
  20              		.p2align 4,,15
  21              		.global	PMC_EnablePeripheral
  22              		.thumb
  23              		.thumb_func
  24              		.type	PMC_EnablePeripheral, %function
  25              	PMC_EnablePeripheral:
  26              	.LFB36:
  27              		.file 1 "./atmel_lib/atmel_pmc.c"
  28              		.loc 1 61 0
  29              		.cfi_startproc
  30              		@ args = 0, pretend = 0, frame = 0
  31              		@ frame_needed = 0, uses_anonymous_args = 0
  32              	.LVL0:
  33              		.loc 1 62 0
  34 0000 1F28     		cmp	r0, #31
  35              		.loc 1 61 0
  36 0002 08B5     		push	{r3, lr}
  37              		.cfi_def_cfa_offset 8
  38              		.cfi_offset 3, -8
  39              		.cfi_offset 14, -4
  40              		.loc 1 62 0
  41 0004 0CD8     		bhi	.L5
  42              		.loc 1 64 0
  43 0006 0123     		movs	r3, #1
  44 0008 03FA00F0 		lsl	r0, r3, r0
  45              	.LVL1:
  46 000c 4FF48063 		mov	r3, #1024
  47 0010 C4F20E03 		movt	r3, 16398
  48 0014 9A69     		ldr	r2, [r3, #24]
  49 0016 0240     		ands	r2, r2, r0
  50 0018 9042     		cmp	r0, r2
  51              		.loc 1 70 0
  52 001a 18BF     		it	ne
  53 001c 1861     		strne	r0, [r3, #16]
  54 001e 08BD     		pop	{r3, pc}
  55              	.LVL2:
  56              	.L5:
  57              		.loc 1 62 0 discriminator 1
ARM GAS  /tmp/cc4YHyd8.s 			page 2


  58 0020 40F20000 		movw	r0, #:lower16:.LC0
  59              	.LVL3:
  60 0024 40F20002 		movw	r2, #:lower16:.LANCHOR0
  61 0028 40F20003 		movw	r3, #:lower16:.LC1
  62 002c C0F20000 		movt	r0, #:upper16:.LC0
  63 0030 C0F20002 		movt	r2, #:upper16:.LANCHOR0
  64 0034 C0F20003 		movt	r3, #:upper16:.LC1
  65 0038 3E21     		movs	r1, #62
  66 003a FFF7FEFF 		bl	__assert_func
  67              	.LVL4:
  68              		.cfi_endproc
  69              	.LFE36:
  70              		.size	PMC_EnablePeripheral, .-PMC_EnablePeripheral
  71 003e 00BF     		.section	.text.PMC_DisablePeripheral,"ax",%progbits
  72              		.align	2
  73              		.p2align 4,,15
  74              		.global	PMC_DisablePeripheral
  75              		.thumb
  76              		.thumb_func
  77              		.type	PMC_DisablePeripheral, %function
  78              	PMC_DisablePeripheral:
  79              	.LFB37:
  80              		.loc 1 83 0
  81              		.cfi_startproc
  82              		@ args = 0, pretend = 0, frame = 0
  83              		@ frame_needed = 0, uses_anonymous_args = 0
  84              	.LVL5:
  85              		.loc 1 84 0
  86 0000 1F28     		cmp	r0, #31
  87              		.loc 1 83 0
  88 0002 08B5     		push	{r3, lr}
  89              		.cfi_def_cfa_offset 8
  90              		.cfi_offset 3, -8
  91              		.cfi_offset 14, -4
  92              		.loc 1 84 0
  93 0004 0CD8     		bhi	.L9
  94              		.loc 1 86 0
  95 0006 0123     		movs	r3, #1
  96 0008 03FA00F0 		lsl	r0, r3, r0
  97              	.LVL6:
  98 000c 4FF48063 		mov	r3, #1024
  99 0010 C4F20E03 		movt	r3, 16398
 100 0014 9A69     		ldr	r2, [r3, #24]
 101 0016 0240     		ands	r2, r2, r0
 102 0018 9042     		cmp	r0, r2
 103              		.loc 1 92 0
 104 001a 08BF     		it	eq
 105 001c 5861     		streq	r0, [r3, #20]
 106 001e 08BD     		pop	{r3, pc}
 107              	.LVL7:
 108              	.L9:
 109              		.loc 1 84 0 discriminator 1
 110 0020 40F20000 		movw	r0, #:lower16:.LC0
 111              	.LVL8:
 112 0024 40F20002 		movw	r2, #:lower16:.LANCHOR1
 113 0028 40F20003 		movw	r3, #:lower16:.LC1
 114 002c C0F20000 		movt	r0, #:upper16:.LC0
ARM GAS  /tmp/cc4YHyd8.s 			page 3


 115 0030 C0F20002 		movt	r2, #:upper16:.LANCHOR1
 116 0034 C0F20003 		movt	r3, #:upper16:.LC1
 117 0038 5421     		movs	r1, #84
 118 003a FFF7FEFF 		bl	__assert_func
 119              	.LVL9:
 120              		.cfi_endproc
 121              	.LFE37:
 122              		.size	PMC_DisablePeripheral, .-PMC_DisablePeripheral
 123 003e 00BF     		.section	.text.PMC_EnableAllPeripherals,"ax",%progbits
 124              		.align	2
 125              		.p2align 4,,15
 126              		.global	PMC_EnableAllPeripherals
 127              		.thumb
 128              		.thumb_func
 129              		.type	PMC_EnableAllPeripherals, %function
 130              	PMC_EnableAllPeripherals:
 131              	.LFB38:
 132              		.loc 1 100 0
 133              		.cfi_startproc
 134              		@ args = 0, pretend = 0, frame = 0
 135              		@ frame_needed = 0, uses_anonymous_args = 0
 136              		@ link register save eliminated.
 137              		.loc 1 101 0
 138 0000 4FF48062 		mov	r2, #1024
 139 0004 C4F20E02 		movt	r2, 16398
 140 0008 6FF00303 		mvn	r3, #3
 141 000c 1361     		str	r3, [r2, #16]
 142              	.L12:
 143              		.loc 1 102 0 discriminator 1
 144 000e 9369     		ldr	r3, [r2, #24]
 145 0010 23F00303 		bic	r3, r3, #3
 146 0014 0433     		adds	r3, r3, #4
 147 0016 FAD1     		bne	.L12
 148              		.loc 1 105 0
 149 0018 7047     		bx	lr
 150              		.cfi_endproc
 151              	.LFE38:
 152              		.size	PMC_EnableAllPeripherals, .-PMC_EnableAllPeripherals
 153 001a 00BFAFF3 		.section	.text.PMC_DisableAllPeripherals,"ax",%progbits
 153      0080
 154              		.align	2
 155              		.p2align 4,,15
 156              		.global	PMC_DisableAllPeripherals
 157              		.thumb
 158              		.thumb_func
 159              		.type	PMC_DisableAllPeripherals, %function
 160              	PMC_DisableAllPeripherals:
 161              	.LFB39:
 162              		.loc 1 111 0
 163              		.cfi_startproc
 164              		@ args = 0, pretend = 0, frame = 0
 165              		@ frame_needed = 0, uses_anonymous_args = 0
 166              		@ link register save eliminated.
 167              		.loc 1 112 0
 168 0000 4FF48062 		mov	r2, #1024
 169 0004 C4F20E02 		movt	r2, 16398
 170 0008 6FF00303 		mvn	r3, #3
ARM GAS  /tmp/cc4YHyd8.s 			page 4


 171 000c 5361     		str	r3, [r2, #20]
 172              	.L15:
 173              		.loc 1 113 0 discriminator 1
 174 000e 9369     		ldr	r3, [r2, #24]
 175 0010 33F00301 		bics	r1, r3, #3
 176 0014 FBD1     		bne	.L15
 177              		.loc 1 116 0
 178 0016 7047     		bx	lr
 179              		.cfi_endproc
 180              	.LFE39:
 181              		.size	PMC_DisableAllPeripherals, .-PMC_DisableAllPeripherals
 182 0018 AFF30080 		.section	.text.PMC_IsPeriphEnabled,"ax",%progbits
 182      AFF30080 
 183              		.align	2
 184              		.p2align 4,,15
 185              		.global	PMC_IsPeriphEnabled
 186              		.thumb
 187              		.thumb_func
 188              		.type	PMC_IsPeriphEnabled, %function
 189              	PMC_IsPeriphEnabled:
 190              	.LFB40:
 191              		.loc 1 124 0
 192              		.cfi_startproc
 193              		@ args = 0, pretend = 0, frame = 0
 194              		@ frame_needed = 0, uses_anonymous_args = 0
 195              	.LVL10:
 196              		.loc 1 125 0
 197 0000 1F28     		cmp	r0, #31
 198              		.loc 1 124 0
 199 0002 08B5     		push	{r3, lr}
 200              		.cfi_def_cfa_offset 8
 201              		.cfi_offset 3, -8
 202              		.cfi_offset 14, -4
 203              		.loc 1 125 0
 204 0004 09D8     		bhi	.L18
 205              		.loc 1 127 0
 206 0006 0123     		movs	r3, #1
 207 0008 03FA00F0 		lsl	r0, r3, r0
 208              	.LVL11:
 209 000c 4FF48063 		mov	r3, #1024
 210 0010 C4F20E03 		movt	r3, 16398
 211 0014 9B69     		ldr	r3, [r3, #24]
 212              		.loc 1 128 0
 213 0016 1840     		ands	r0, r0, r3
 214 0018 08BD     		pop	{r3, pc}
 215              	.LVL12:
 216              	.L18:
 217              		.loc 1 125 0 discriminator 1
 218 001a 40F20000 		movw	r0, #:lower16:.LC0
 219              	.LVL13:
 220 001e 40F20002 		movw	r2, #:lower16:.LANCHOR2
 221 0022 40F20003 		movw	r3, #:lower16:.LC1
 222 0026 C0F20000 		movt	r0, #:upper16:.LC0
 223 002a C0F20002 		movt	r2, #:upper16:.LANCHOR2
 224 002e C0F20003 		movt	r3, #:upper16:.LC1
 225 0032 7D21     		movs	r1, #125
 226 0034 FFF7FEFF 		bl	__assert_func
ARM GAS  /tmp/cc4YHyd8.s 			page 5


 227              	.LVL14:
 228              		.cfi_endproc
 229              	.LFE40:
 230              		.size	PMC_IsPeriphEnabled, .-PMC_IsPeriphEnabled
 231 0038 AFF30080 		.section	.rodata.__func__.5797,"a",%progbits
 231      AFF30080 
 232              		.align	2
 233              		.set	.LANCHOR2,. + 0
 234              		.type	__func__.5797, %object
 235              		.size	__func__.5797, 20
 236              	__func__.5797:
 237 0000 504D435F 		.ascii	"PMC_IsPeriphEnabled\000"
 237      49735065 
 237      72697068 
 237      456E6162 
 237      6C656400 
 238              		.section	.rodata.__func__.5781,"a",%progbits
 239              		.align	2
 240              		.set	.LANCHOR1,. + 0
 241              		.type	__func__.5781, %object
 242              		.size	__func__.5781, 22
 243              	__func__.5781:
 244 0000 504D435F 		.ascii	"PMC_DisablePeripheral\000"
 244      44697361 
 244      626C6550 
 244      65726970 
 244      68657261 
 245 0016 0000     		.section	.rodata.__func__.5777,"a",%progbits
 246              		.align	2
 247              		.set	.LANCHOR0,. + 0
 248              		.type	__func__.5777, %object
 249              		.size	__func__.5777, 21
 250              	__func__.5777:
 251 0000 504D435F 		.ascii	"PMC_EnablePeripheral\000"
 251      456E6162 
 251      6C655065 
 251      72697068 
 251      6572616C 
 252 0015 000000   		.section	.rodata.str1.4,"aMS",%progbits,1
 253              		.align	2
 254              	.LC0:
 255 0000 2E2F6174 		.ascii	"./atmel_lib/atmel_pmc.c\000"
 255      6D656C5F 
 255      6C69622F 
 255      61746D65 
 255      6C5F706D 
 256              	.LC1:
 257 0018 64774964 		.ascii	"dwId < 32\000"
 257      203C2033 
 257      3200
 258 0022 0000     		.text
 259              	.Letext0:
 260              		.file 2 "/usr/include/newlib/machine/_default_types.h"
 261              		.file 3 "/usr/include/newlib/stdint.h"
 262              		.file 4 "./atmel_lib/include/SAM3N.h"
 263              		.file 5 "../../os/hal/platforms/AT91SAM3/core_cm3.h"
 264              		.file 6 "/usr/include/newlib/assert.h"
ARM GAS  /tmp/cc4YHyd8.s 			page 6


 265              		.section	.debug_info,"",%progbits
 266              	.Ldebug_info0:
 267 0000 72040000 		.4byte	0x472
 268 0004 0400     		.2byte	0x4
 269 0006 00000000 		.4byte	.Ldebug_abbrev0
 270 000a 04       		.byte	0x4
 271 000b 01       		.uleb128 0x1
 272 000c 33000000 		.4byte	.LASF50
 273 0010 01       		.byte	0x1
 274 0011 DB000000 		.4byte	.LASF51
 275 0015 CA020000 		.4byte	.LASF52
 276 0019 00000000 		.4byte	.Ldebug_ranges0+0
 277 001d 00000000 		.4byte	0
 278 0021 00000000 		.4byte	.Ldebug_line0
 279 0025 02       		.uleb128 0x2
 280 0026 01       		.byte	0x1
 281 0027 06       		.byte	0x6
 282 0028 17010000 		.4byte	.LASF0
 283 002c 02       		.uleb128 0x2
 284 002d 01       		.byte	0x1
 285 002e 08       		.byte	0x8
 286 002f 23010000 		.4byte	.LASF1
 287 0033 02       		.uleb128 0x2
 288 0034 02       		.byte	0x2
 289 0035 05       		.byte	0x5
 290 0036 7D020000 		.4byte	.LASF2
 291 003a 02       		.uleb128 0x2
 292 003b 02       		.byte	0x2
 293 003c 07       		.byte	0x7
 294 003d 50010000 		.4byte	.LASF3
 295 0041 02       		.uleb128 0x2
 296 0042 04       		.byte	0x4
 297 0043 05       		.byte	0x5
 298 0044 BC020000 		.4byte	.LASF4
 299 0048 03       		.uleb128 0x3
 300 0049 9A010000 		.4byte	.LASF9
 301 004d 02       		.byte	0x2
 302 004e 38       		.byte	0x38
 303 004f 53000000 		.4byte	0x53
 304 0053 02       		.uleb128 0x2
 305 0054 04       		.byte	0x4
 306 0055 07       		.byte	0x7
 307 0056 88010000 		.4byte	.LASF5
 308 005a 02       		.uleb128 0x2
 309 005b 08       		.byte	0x8
 310 005c 05       		.byte	0x5
 311 005d 4D020000 		.4byte	.LASF6
 312 0061 02       		.uleb128 0x2
 313 0062 08       		.byte	0x8
 314 0063 07       		.byte	0x7
 315 0064 EB010000 		.4byte	.LASF7
 316 0068 04       		.uleb128 0x4
 317 0069 04       		.byte	0x4
 318 006a 05       		.byte	0x5
 319 006b 696E7400 		.ascii	"int\000"
 320 006f 02       		.uleb128 0x2
 321 0070 04       		.byte	0x4
ARM GAS  /tmp/cc4YHyd8.s 			page 7


 322 0071 07       		.byte	0x7
 323 0072 DE010000 		.4byte	.LASF8
 324 0076 03       		.uleb128 0x3
 325 0077 B3020000 		.4byte	.LASF10
 326 007b 03       		.byte	0x3
 327 007c 42       		.byte	0x42
 328 007d 48000000 		.4byte	0x48
 329 0081 03       		.uleb128 0x3
 330 0082 5B020000 		.4byte	.LASF11
 331 0086 04       		.byte	0x4
 332 0087 35       		.byte	0x35
 333 0088 8C000000 		.4byte	0x8c
 334 008c 05       		.uleb128 0x5
 335 008d 91000000 		.4byte	0x91
 336 0091 06       		.uleb128 0x6
 337 0092 76000000 		.4byte	0x76
 338 0096 03       		.uleb128 0x3
 339 0097 79010000 		.4byte	.LASF12
 340 009b 04       		.byte	0x4
 341 009c 39       		.byte	0x39
 342 009d A1000000 		.4byte	0xa1
 343 00a1 06       		.uleb128 0x6
 344 00a2 76000000 		.4byte	0x76
 345 00a6 03       		.uleb128 0x3
 346 00a7 3E020000 		.4byte	.LASF13
 347 00ab 04       		.byte	0x4
 348 00ac 3A       		.byte	0x3a
 349 00ad A1000000 		.4byte	0xa1
 350 00b1 07       		.uleb128 0x7
 351 00b2 A6000000 		.4byte	0xa6
 352 00b6 C1000000 		.4byte	0xc1
 353 00ba 08       		.uleb128 0x8
 354 00bb C1000000 		.4byte	0xc1
 355 00bf 00       		.byte	0
 356 00c0 00       		.byte	0
 357 00c1 02       		.uleb128 0x2
 358 00c2 04       		.byte	0x4
 359 00c3 07       		.byte	0x7
 360 00c4 44020000 		.4byte	.LASF14
 361 00c8 07       		.uleb128 0x7
 362 00c9 A6000000 		.4byte	0xa6
 363 00cd D8000000 		.4byte	0xd8
 364 00d1 08       		.uleb128 0x8
 365 00d2 C1000000 		.4byte	0xc1
 366 00d6 04       		.byte	0x4
 367 00d7 00       		.byte	0
 368 00d8 07       		.uleb128 0x7
 369 00d9 A6000000 		.4byte	0xa6
 370 00dd E8000000 		.4byte	0xe8
 371 00e1 08       		.uleb128 0x8
 372 00e2 C1000000 		.4byte	0xc1
 373 00e6 02       		.byte	0x2
 374 00e7 00       		.byte	0
 375 00e8 09       		.uleb128 0x9
 376 00e9 1401     		.2byte	0x114
 377 00eb 04       		.byte	0x4
 378 00ec 1A0A     		.2byte	0xa1a
ARM GAS  /tmp/cc4YHyd8.s 			page 8


 379 00ee 60020000 		.4byte	0x260
 380 00f2 0A       		.uleb128 0xa
 381 00f3 7F010000 		.4byte	.LASF15
 382 00f7 04       		.byte	0x4
 383 00f8 1B0A     		.2byte	0xa1b
 384 00fa 96000000 		.4byte	0x96
 385 00fe 00       		.byte	0
 386 00ff 0A       		.uleb128 0xa
 387 0100 2E030000 		.4byte	.LASF16
 388 0104 04       		.byte	0x4
 389 0105 1C0A     		.2byte	0xa1c
 390 0107 96000000 		.4byte	0x96
 391 010b 04       		.byte	0x4
 392 010c 0A       		.uleb128 0xa
 393 010d A1020000 		.4byte	.LASF17
 394 0111 04       		.byte	0x4
 395 0112 1D0A     		.2byte	0xa1d
 396 0114 81000000 		.4byte	0x81
 397 0118 08       		.byte	0x8
 398 0119 0A       		.uleb128 0xa
 399 011a 87020000 		.4byte	.LASF18
 400 011e 04       		.byte	0x4
 401 011f 1E0A     		.2byte	0xa1e
 402 0121 60020000 		.4byte	0x260
 403 0125 0C       		.byte	0xc
 404 0126 0A       		.uleb128 0xa
 405 0127 AA020000 		.4byte	.LASF19
 406 012b 04       		.byte	0x4
 407 012c 1F0A     		.2byte	0xa1f
 408 012e 96000000 		.4byte	0x96
 409 0132 10       		.byte	0x10
 410 0133 0A       		.uleb128 0xa
 411 0134 31010000 		.4byte	.LASF20
 412 0138 04       		.byte	0x4
 413 0139 200A     		.2byte	0xa20
 414 013b 96000000 		.4byte	0x96
 415 013f 14       		.byte	0x14
 416 0140 0A       		.uleb128 0xa
 417 0141 05010000 		.4byte	.LASF21
 418 0145 04       		.byte	0x4
 419 0146 210A     		.2byte	0xa21
 420 0148 81000000 		.4byte	0x81
 421 014c 18       		.byte	0x18
 422 014d 0A       		.uleb128 0xa
 423 014e 02020000 		.4byte	.LASF22
 424 0152 04       		.byte	0x4
 425 0153 220A     		.2byte	0xa22
 426 0155 65020000 		.4byte	0x265
 427 0159 1C       		.byte	0x1c
 428 015a 0A       		.uleb128 0xa
 429 015b F3000000 		.4byte	.LASF23
 430 015f 04       		.byte	0x4
 431 0160 230A     		.2byte	0xa23
 432 0162 A6000000 		.4byte	0xa6
 433 0166 20       		.byte	0x20
 434 0167 0A       		.uleb128 0xa
 435 0168 1C000000 		.4byte	.LASF24
ARM GAS  /tmp/cc4YHyd8.s 			page 9


 436 016c 04       		.byte	0x4
 437 016d 240A     		.2byte	0xa24
 438 016f 81000000 		.4byte	0x81
 439 0173 24       		.byte	0x24
 440 0174 0A       		.uleb128 0xa
 441 0175 00000000 		.4byte	.LASF25
 442 0179 04       		.byte	0x4
 443 017a 250A     		.2byte	0xa25
 444 017c A6000000 		.4byte	0xa6
 445 0180 28       		.byte	0x28
 446 0181 0A       		.uleb128 0xa
 447 0182 0C020000 		.4byte	.LASF26
 448 0186 04       		.byte	0x4
 449 0187 260A     		.2byte	0xa26
 450 0189 6A020000 		.4byte	0x26a
 451 018d 2C       		.byte	0x2c
 452 018e 0A       		.uleb128 0xa
 453 018f 63010000 		.4byte	.LASF27
 454 0193 04       		.byte	0x4
 455 0194 270A     		.2byte	0xa27
 456 0196 A6000000 		.4byte	0xa6
 457 019a 30       		.byte	0x30
 458 019b 0A       		.uleb128 0xa
 459 019c 16020000 		.4byte	.LASF28
 460 01a0 04       		.byte	0x4
 461 01a1 280A     		.2byte	0xa28
 462 01a3 6F020000 		.4byte	0x26f
 463 01a7 34       		.byte	0x34
 464 01a8 0A       		.uleb128 0xa
 465 01a9 26000000 		.4byte	.LASF29
 466 01ad 04       		.byte	0x4
 467 01ae 290A     		.2byte	0xa29
 468 01b0 74020000 		.4byte	0x274
 469 01b4 40       		.byte	0x40
 470 01b5 0A       		.uleb128 0xa
 471 01b6 20020000 		.4byte	.LASF30
 472 01ba 04       		.byte	0x4
 473 01bb 2A0A     		.2byte	0xa2a
 474 01bd 79020000 		.4byte	0x279
 475 01c1 4C       		.byte	0x4c
 476 01c2 0A       		.uleb128 0xa
 477 01c3 AE010000 		.4byte	.LASF31
 478 01c7 04       		.byte	0x4
 479 01c8 2B0A     		.2byte	0xa2b
 480 01ca 96000000 		.4byte	0x96
 481 01ce 60       		.byte	0x60
 482 01cf 0A       		.uleb128 0xa
 483 01d0 58030000 		.4byte	.LASF32
 484 01d4 04       		.byte	0x4
 485 01d5 2C0A     		.2byte	0xa2c
 486 01d7 96000000 		.4byte	0x96
 487 01db 64       		.byte	0x64
 488 01dc 0A       		.uleb128 0xa
 489 01dd 91020000 		.4byte	.LASF33
 490 01e1 04       		.byte	0x4
 491 01e2 2D0A     		.2byte	0xa2d
 492 01e4 81000000 		.4byte	0x81
ARM GAS  /tmp/cc4YHyd8.s 			page 10


 493 01e8 68       		.byte	0x68
 494 01e9 0A       		.uleb128 0xa
 495 01ea 61020000 		.4byte	.LASF34
 496 01ee 04       		.byte	0x4
 497 01ef 2E0A     		.2byte	0xa2e
 498 01f1 81000000 		.4byte	0x81
 499 01f5 6C       		.byte	0x6c
 500 01f6 0A       		.uleb128 0xa
 501 01f7 A5010000 		.4byte	.LASF35
 502 01fb 04       		.byte	0x4
 503 01fc 2F0A     		.2byte	0xa2f
 504 01fe A6000000 		.4byte	0xa6
 505 0202 70       		.byte	0x70
 506 0203 0A       		.uleb128 0xa
 507 0204 13000000 		.4byte	.LASF36
 508 0208 04       		.byte	0x4
 509 0209 300A     		.2byte	0xa30
 510 020b A6000000 		.4byte	0xa6
 511 020f 74       		.byte	0x74
 512 0210 0A       		.uleb128 0xa
 513 0211 98020000 		.4byte	.LASF37
 514 0215 04       		.byte	0x4
 515 0216 310A     		.2byte	0xa31
 516 0218 96000000 		.4byte	0x96
 517 021c 78       		.byte	0x78
 518 021d 0A       		.uleb128 0xa
 519 021e 2A020000 		.4byte	.LASF38
 520 0222 04       		.byte	0x4
 521 0223 320A     		.2byte	0xa32
 522 0225 8E020000 		.4byte	0x28e
 523 0229 7C       		.byte	0x7c
 524 022a 0A       		.uleb128 0xa
 525 022b 0A000000 		.4byte	.LASF39
 526 022f 04       		.byte	0x4
 527 0230 330A     		.2byte	0xa33
 528 0232 A6000000 		.4byte	0xa6
 529 0236 E4       		.byte	0xe4
 530 0237 0A       		.uleb128 0xa
 531 0238 FC000000 		.4byte	.LASF40
 532 023c 04       		.byte	0x4
 533 023d 340A     		.2byte	0xa34
 534 023f 81000000 		.4byte	0x81
 535 0243 E8       		.byte	0xe8
 536 0244 0A       		.uleb128 0xa
 537 0245 34020000 		.4byte	.LASF41
 538 0249 04       		.byte	0x4
 539 024a 350A     		.2byte	0xa35
 540 024c A3020000 		.4byte	0x2a3
 541 0250 EC       		.byte	0xec
 542 0251 0B       		.uleb128 0xb
 543 0252 37030000 		.4byte	.LASF42
 544 0256 04       		.byte	0x4
 545 0257 360A     		.2byte	0xa36
 546 0259 A6000000 		.4byte	0xa6
 547 025d 1001     		.2byte	0x110
 548 025f 00       		.byte	0
 549 0260 06       		.uleb128 0x6
ARM GAS  /tmp/cc4YHyd8.s 			page 11


 550 0261 B1000000 		.4byte	0xb1
 551 0265 06       		.uleb128 0x6
 552 0266 B1000000 		.4byte	0xb1
 553 026a 06       		.uleb128 0x6
 554 026b B1000000 		.4byte	0xb1
 555 026f 06       		.uleb128 0x6
 556 0270 D8000000 		.4byte	0xd8
 557 0274 06       		.uleb128 0x6
 558 0275 D8000000 		.4byte	0xd8
 559 0279 06       		.uleb128 0x6
 560 027a C8000000 		.4byte	0xc8
 561 027e 07       		.uleb128 0x7
 562 027f A6000000 		.4byte	0xa6
 563 0283 8E020000 		.4byte	0x28e
 564 0287 08       		.uleb128 0x8
 565 0288 C1000000 		.4byte	0xc1
 566 028c 19       		.byte	0x19
 567 028d 00       		.byte	0
 568 028e 06       		.uleb128 0x6
 569 028f 7E020000 		.4byte	0x27e
 570 0293 07       		.uleb128 0x7
 571 0294 A6000000 		.4byte	0xa6
 572 0298 A3020000 		.4byte	0x2a3
 573 029c 08       		.uleb128 0x8
 574 029d C1000000 		.4byte	0xc1
 575 02a1 08       		.byte	0x8
 576 02a2 00       		.byte	0
 577 02a3 06       		.uleb128 0x6
 578 02a4 93020000 		.4byte	0x293
 579 02a8 0C       		.uleb128 0xc
 580 02a9 506D6300 		.ascii	"Pmc\000"
 581 02ad 04       		.byte	0x4
 582 02ae 370A     		.2byte	0xa37
 583 02b0 E8000000 		.4byte	0xe8
 584 02b4 0D       		.uleb128 0xd
 585 02b5 04       		.byte	0x4
 586 02b6 BA020000 		.4byte	0x2ba
 587 02ba 05       		.uleb128 0x5
 588 02bb BF020000 		.4byte	0x2bf
 589 02bf 02       		.uleb128 0x2
 590 02c0 01       		.byte	0x1
 591 02c1 08       		.byte	0x8
 592 02c2 C5020000 		.4byte	.LASF43
 593 02c6 0E       		.uleb128 0xe
 594 02c7 19030000 		.4byte	.LASF44
 595 02cb 01       		.byte	0x1
 596 02cc 3C       		.byte	0x3c
 597 02cd 00000000 		.4byte	.LFB36
 598 02d1 3E000000 		.4byte	.LFE36-.LFB36
 599 02d5 01       		.uleb128 0x1
 600 02d6 9C       		.byte	0x9c
 601 02d7 25030000 		.4byte	0x325
 602 02db 0F       		.uleb128 0xf
 603 02dc 2E000000 		.4byte	.LASF46
 604 02e0 01       		.byte	0x1
 605 02e1 3C       		.byte	0x3c
 606 02e2 76000000 		.4byte	0x76
ARM GAS  /tmp/cc4YHyd8.s 			page 12


 607 02e6 00000000 		.4byte	.LLST0
 608 02ea 10       		.uleb128 0x10
 609 02eb 0E010000 		.4byte	.LASF47
 610 02ef 35030000 		.4byte	0x335
 611 02f3 05       		.uleb128 0x5
 612 02f4 03       		.byte	0x3
 613 02f5 00000000 		.4byte	__func__.5777
 614 02f9 11       		.uleb128 0x11
 615 02fa 3E000000 		.4byte	.LVL4
 616 02fe 59040000 		.4byte	0x459
 617 0302 12       		.uleb128 0x12
 618 0303 01       		.uleb128 0x1
 619 0304 53       		.byte	0x53
 620 0305 05       		.uleb128 0x5
 621 0306 03       		.byte	0x3
 622 0307 18000000 		.4byte	.LC1
 623 030b 12       		.uleb128 0x12
 624 030c 01       		.uleb128 0x1
 625 030d 52       		.byte	0x52
 626 030e 05       		.uleb128 0x5
 627 030f 03       		.byte	0x3
 628 0310 00000000 		.4byte	.LANCHOR0
 629 0314 12       		.uleb128 0x12
 630 0315 01       		.uleb128 0x1
 631 0316 51       		.byte	0x51
 632 0317 02       		.uleb128 0x2
 633 0318 08       		.byte	0x8
 634 0319 3E       		.byte	0x3e
 635 031a 12       		.uleb128 0x12
 636 031b 01       		.uleb128 0x1
 637 031c 50       		.byte	0x50
 638 031d 05       		.uleb128 0x5
 639 031e 03       		.byte	0x3
 640 031f 00000000 		.4byte	.LC0
 641 0323 00       		.byte	0
 642 0324 00       		.byte	0
 643 0325 07       		.uleb128 0x7
 644 0326 BF020000 		.4byte	0x2bf
 645 032a 35030000 		.4byte	0x335
 646 032e 08       		.uleb128 0x8
 647 032f C1000000 		.4byte	0xc1
 648 0333 14       		.byte	0x14
 649 0334 00       		.byte	0
 650 0335 05       		.uleb128 0x5
 651 0336 25030000 		.4byte	0x325
 652 033a 0E       		.uleb128 0xe
 653 033b 3A010000 		.4byte	.LASF45
 654 033f 01       		.byte	0x1
 655 0340 52       		.byte	0x52
 656 0341 00000000 		.4byte	.LFB37
 657 0345 3E000000 		.4byte	.LFE37-.LFB37
 658 0349 01       		.uleb128 0x1
 659 034a 9C       		.byte	0x9c
 660 034b 99030000 		.4byte	0x399
 661 034f 0F       		.uleb128 0xf
 662 0350 2E000000 		.4byte	.LASF46
 663 0354 01       		.byte	0x1
ARM GAS  /tmp/cc4YHyd8.s 			page 13


 664 0355 52       		.byte	0x52
 665 0356 76000000 		.4byte	0x76
 666 035a 3A000000 		.4byte	.LLST1
 667 035e 10       		.uleb128 0x10
 668 035f 0E010000 		.4byte	.LASF47
 669 0363 A9030000 		.4byte	0x3a9
 670 0367 05       		.uleb128 0x5
 671 0368 03       		.byte	0x3
 672 0369 00000000 		.4byte	__func__.5781
 673 036d 11       		.uleb128 0x11
 674 036e 3E000000 		.4byte	.LVL9
 675 0372 59040000 		.4byte	0x459
 676 0376 12       		.uleb128 0x12
 677 0377 01       		.uleb128 0x1
 678 0378 53       		.byte	0x53
 679 0379 05       		.uleb128 0x5
 680 037a 03       		.byte	0x3
 681 037b 18000000 		.4byte	.LC1
 682 037f 12       		.uleb128 0x12
 683 0380 01       		.uleb128 0x1
 684 0381 52       		.byte	0x52
 685 0382 05       		.uleb128 0x5
 686 0383 03       		.byte	0x3
 687 0384 00000000 		.4byte	.LANCHOR1
 688 0388 12       		.uleb128 0x12
 689 0389 01       		.uleb128 0x1
 690 038a 51       		.byte	0x51
 691 038b 02       		.uleb128 0x2
 692 038c 08       		.byte	0x8
 693 038d 54       		.byte	0x54
 694 038e 12       		.uleb128 0x12
 695 038f 01       		.uleb128 0x1
 696 0390 50       		.byte	0x50
 697 0391 05       		.uleb128 0x5
 698 0392 03       		.byte	0x3
 699 0393 00000000 		.4byte	.LC0
 700 0397 00       		.byte	0
 701 0398 00       		.byte	0
 702 0399 07       		.uleb128 0x7
 703 039a BF020000 		.4byte	0x2bf
 704 039e A9030000 		.4byte	0x3a9
 705 03a2 08       		.uleb128 0x8
 706 03a3 C1000000 		.4byte	0xc1
 707 03a7 15       		.byte	0x15
 708 03a8 00       		.byte	0
 709 03a9 05       		.uleb128 0x5
 710 03aa 99030000 		.4byte	0x399
 711 03ae 13       		.uleb128 0x13
 712 03af 3F030000 		.4byte	.LASF48
 713 03b3 01       		.byte	0x1
 714 03b4 63       		.byte	0x63
 715 03b5 00000000 		.4byte	.LFB38
 716 03b9 1A000000 		.4byte	.LFE38-.LFB38
 717 03bd 01       		.uleb128 0x1
 718 03be 9C       		.byte	0x9c
 719 03bf 13       		.uleb128 0x13
 720 03c0 C4010000 		.4byte	.LASF49
ARM GAS  /tmp/cc4YHyd8.s 			page 14


 721 03c4 01       		.byte	0x1
 722 03c5 6E       		.byte	0x6e
 723 03c6 00000000 		.4byte	.LFB39
 724 03ca 18000000 		.4byte	.LFE39-.LFB39
 725 03ce 01       		.uleb128 0x1
 726 03cf 9C       		.byte	0x9c
 727 03d0 14       		.uleb128 0x14
 728 03d1 69020000 		.4byte	.LASF53
 729 03d5 01       		.byte	0x1
 730 03d6 7B       		.byte	0x7b
 731 03d7 76000000 		.4byte	0x76
 732 03db 00000000 		.4byte	.LFB40
 733 03df 38000000 		.4byte	.LFE40-.LFB40
 734 03e3 01       		.uleb128 0x1
 735 03e4 9C       		.byte	0x9c
 736 03e5 33040000 		.4byte	0x433
 737 03e9 0F       		.uleb128 0xf
 738 03ea 2E000000 		.4byte	.LASF46
 739 03ee 01       		.byte	0x1
 740 03ef 7B       		.byte	0x7b
 741 03f0 76000000 		.4byte	0x76
 742 03f4 74000000 		.4byte	.LLST2
 743 03f8 10       		.uleb128 0x10
 744 03f9 0E010000 		.4byte	.LASF47
 745 03fd 43040000 		.4byte	0x443
 746 0401 05       		.uleb128 0x5
 747 0402 03       		.byte	0x3
 748 0403 00000000 		.4byte	__func__.5797
 749 0407 11       		.uleb128 0x11
 750 0408 38000000 		.4byte	.LVL14
 751 040c 59040000 		.4byte	0x459
 752 0410 12       		.uleb128 0x12
 753 0411 01       		.uleb128 0x1
 754 0412 53       		.byte	0x53
 755 0413 05       		.uleb128 0x5
 756 0414 03       		.byte	0x3
 757 0415 18000000 		.4byte	.LC1
 758 0419 12       		.uleb128 0x12
 759 041a 01       		.uleb128 0x1
 760 041b 52       		.byte	0x52
 761 041c 05       		.uleb128 0x5
 762 041d 03       		.byte	0x3
 763 041e 00000000 		.4byte	.LANCHOR2
 764 0422 12       		.uleb128 0x12
 765 0423 01       		.uleb128 0x1
 766 0424 51       		.byte	0x51
 767 0425 02       		.uleb128 0x2
 768 0426 08       		.byte	0x8
 769 0427 7D       		.byte	0x7d
 770 0428 12       		.uleb128 0x12
 771 0429 01       		.uleb128 0x1
 772 042a 50       		.byte	0x50
 773 042b 05       		.uleb128 0x5
 774 042c 03       		.byte	0x3
 775 042d 00000000 		.4byte	.LC0
 776 0431 00       		.byte	0
 777 0432 00       		.byte	0
ARM GAS  /tmp/cc4YHyd8.s 			page 15


 778 0433 07       		.uleb128 0x7
 779 0434 BF020000 		.4byte	0x2bf
 780 0438 43040000 		.4byte	0x443
 781 043c 08       		.uleb128 0x8
 782 043d C1000000 		.4byte	0xc1
 783 0441 13       		.byte	0x13
 784 0442 00       		.byte	0
 785 0443 05       		.uleb128 0x5
 786 0444 33040000 		.4byte	0x433
 787 0448 15       		.uleb128 0x15
 788 0449 6C010000 		.4byte	.LASF54
 789 044d 05       		.byte	0x5
 790 044e CE06     		.2byte	0x6ce
 791 0450 54040000 		.4byte	0x454
 792 0454 06       		.uleb128 0x6
 793 0455 68000000 		.4byte	0x68
 794 0459 16       		.uleb128 0x16
 795 045a B6010000 		.4byte	.LASF55
 796 045e 06       		.byte	0x6
 797 045f 29       		.byte	0x29
 798 0460 17       		.uleb128 0x17
 799 0461 B4020000 		.4byte	0x2b4
 800 0465 17       		.uleb128 0x17
 801 0466 68000000 		.4byte	0x68
 802 046a 17       		.uleb128 0x17
 803 046b B4020000 		.4byte	0x2b4
 804 046f 17       		.uleb128 0x17
 805 0470 B4020000 		.4byte	0x2b4
 806 0474 00       		.byte	0
 807 0475 00       		.byte	0
 808              		.section	.debug_abbrev,"",%progbits
 809              	.Ldebug_abbrev0:
 810 0000 01       		.uleb128 0x1
 811 0001 11       		.uleb128 0x11
 812 0002 01       		.byte	0x1
 813 0003 25       		.uleb128 0x25
 814 0004 0E       		.uleb128 0xe
 815 0005 13       		.uleb128 0x13
 816 0006 0B       		.uleb128 0xb
 817 0007 03       		.uleb128 0x3
 818 0008 0E       		.uleb128 0xe
 819 0009 1B       		.uleb128 0x1b
 820 000a 0E       		.uleb128 0xe
 821 000b 55       		.uleb128 0x55
 822 000c 17       		.uleb128 0x17
 823 000d 11       		.uleb128 0x11
 824 000e 01       		.uleb128 0x1
 825 000f 10       		.uleb128 0x10
 826 0010 17       		.uleb128 0x17
 827 0011 00       		.byte	0
 828 0012 00       		.byte	0
 829 0013 02       		.uleb128 0x2
 830 0014 24       		.uleb128 0x24
 831 0015 00       		.byte	0
 832 0016 0B       		.uleb128 0xb
 833 0017 0B       		.uleb128 0xb
 834 0018 3E       		.uleb128 0x3e
ARM GAS  /tmp/cc4YHyd8.s 			page 16


 835 0019 0B       		.uleb128 0xb
 836 001a 03       		.uleb128 0x3
 837 001b 0E       		.uleb128 0xe
 838 001c 00       		.byte	0
 839 001d 00       		.byte	0
 840 001e 03       		.uleb128 0x3
 841 001f 16       		.uleb128 0x16
 842 0020 00       		.byte	0
 843 0021 03       		.uleb128 0x3
 844 0022 0E       		.uleb128 0xe
 845 0023 3A       		.uleb128 0x3a
 846 0024 0B       		.uleb128 0xb
 847 0025 3B       		.uleb128 0x3b
 848 0026 0B       		.uleb128 0xb
 849 0027 49       		.uleb128 0x49
 850 0028 13       		.uleb128 0x13
 851 0029 00       		.byte	0
 852 002a 00       		.byte	0
 853 002b 04       		.uleb128 0x4
 854 002c 24       		.uleb128 0x24
 855 002d 00       		.byte	0
 856 002e 0B       		.uleb128 0xb
 857 002f 0B       		.uleb128 0xb
 858 0030 3E       		.uleb128 0x3e
 859 0031 0B       		.uleb128 0xb
 860 0032 03       		.uleb128 0x3
 861 0033 08       		.uleb128 0x8
 862 0034 00       		.byte	0
 863 0035 00       		.byte	0
 864 0036 05       		.uleb128 0x5
 865 0037 26       		.uleb128 0x26
 866 0038 00       		.byte	0
 867 0039 49       		.uleb128 0x49
 868 003a 13       		.uleb128 0x13
 869 003b 00       		.byte	0
 870 003c 00       		.byte	0
 871 003d 06       		.uleb128 0x6
 872 003e 35       		.uleb128 0x35
 873 003f 00       		.byte	0
 874 0040 49       		.uleb128 0x49
 875 0041 13       		.uleb128 0x13
 876 0042 00       		.byte	0
 877 0043 00       		.byte	0
 878 0044 07       		.uleb128 0x7
 879 0045 01       		.uleb128 0x1
 880 0046 01       		.byte	0x1
 881 0047 49       		.uleb128 0x49
 882 0048 13       		.uleb128 0x13
 883 0049 01       		.uleb128 0x1
 884 004a 13       		.uleb128 0x13
 885 004b 00       		.byte	0
 886 004c 00       		.byte	0
 887 004d 08       		.uleb128 0x8
 888 004e 21       		.uleb128 0x21
 889 004f 00       		.byte	0
 890 0050 49       		.uleb128 0x49
 891 0051 13       		.uleb128 0x13
ARM GAS  /tmp/cc4YHyd8.s 			page 17


 892 0052 2F       		.uleb128 0x2f
 893 0053 0B       		.uleb128 0xb
 894 0054 00       		.byte	0
 895 0055 00       		.byte	0
 896 0056 09       		.uleb128 0x9
 897 0057 13       		.uleb128 0x13
 898 0058 01       		.byte	0x1
 899 0059 0B       		.uleb128 0xb
 900 005a 05       		.uleb128 0x5
 901 005b 3A       		.uleb128 0x3a
 902 005c 0B       		.uleb128 0xb
 903 005d 3B       		.uleb128 0x3b
 904 005e 05       		.uleb128 0x5
 905 005f 01       		.uleb128 0x1
 906 0060 13       		.uleb128 0x13
 907 0061 00       		.byte	0
 908 0062 00       		.byte	0
 909 0063 0A       		.uleb128 0xa
 910 0064 0D       		.uleb128 0xd
 911 0065 00       		.byte	0
 912 0066 03       		.uleb128 0x3
 913 0067 0E       		.uleb128 0xe
 914 0068 3A       		.uleb128 0x3a
 915 0069 0B       		.uleb128 0xb
 916 006a 3B       		.uleb128 0x3b
 917 006b 05       		.uleb128 0x5
 918 006c 49       		.uleb128 0x49
 919 006d 13       		.uleb128 0x13
 920 006e 38       		.uleb128 0x38
 921 006f 0B       		.uleb128 0xb
 922 0070 00       		.byte	0
 923 0071 00       		.byte	0
 924 0072 0B       		.uleb128 0xb
 925 0073 0D       		.uleb128 0xd
 926 0074 00       		.byte	0
 927 0075 03       		.uleb128 0x3
 928 0076 0E       		.uleb128 0xe
 929 0077 3A       		.uleb128 0x3a
 930 0078 0B       		.uleb128 0xb
 931 0079 3B       		.uleb128 0x3b
 932 007a 05       		.uleb128 0x5
 933 007b 49       		.uleb128 0x49
 934 007c 13       		.uleb128 0x13
 935 007d 38       		.uleb128 0x38
 936 007e 05       		.uleb128 0x5
 937 007f 00       		.byte	0
 938 0080 00       		.byte	0
 939 0081 0C       		.uleb128 0xc
 940 0082 16       		.uleb128 0x16
 941 0083 00       		.byte	0
 942 0084 03       		.uleb128 0x3
 943 0085 08       		.uleb128 0x8
 944 0086 3A       		.uleb128 0x3a
 945 0087 0B       		.uleb128 0xb
 946 0088 3B       		.uleb128 0x3b
 947 0089 05       		.uleb128 0x5
 948 008a 49       		.uleb128 0x49
ARM GAS  /tmp/cc4YHyd8.s 			page 18


 949 008b 13       		.uleb128 0x13
 950 008c 00       		.byte	0
 951 008d 00       		.byte	0
 952 008e 0D       		.uleb128 0xd
 953 008f 0F       		.uleb128 0xf
 954 0090 00       		.byte	0
 955 0091 0B       		.uleb128 0xb
 956 0092 0B       		.uleb128 0xb
 957 0093 49       		.uleb128 0x49
 958 0094 13       		.uleb128 0x13
 959 0095 00       		.byte	0
 960 0096 00       		.byte	0
 961 0097 0E       		.uleb128 0xe
 962 0098 2E       		.uleb128 0x2e
 963 0099 01       		.byte	0x1
 964 009a 3F       		.uleb128 0x3f
 965 009b 19       		.uleb128 0x19
 966 009c 03       		.uleb128 0x3
 967 009d 0E       		.uleb128 0xe
 968 009e 3A       		.uleb128 0x3a
 969 009f 0B       		.uleb128 0xb
 970 00a0 3B       		.uleb128 0x3b
 971 00a1 0B       		.uleb128 0xb
 972 00a2 27       		.uleb128 0x27
 973 00a3 19       		.uleb128 0x19
 974 00a4 11       		.uleb128 0x11
 975 00a5 01       		.uleb128 0x1
 976 00a6 12       		.uleb128 0x12
 977 00a7 06       		.uleb128 0x6
 978 00a8 40       		.uleb128 0x40
 979 00a9 18       		.uleb128 0x18
 980 00aa 9742     		.uleb128 0x2117
 981 00ac 19       		.uleb128 0x19
 982 00ad 01       		.uleb128 0x1
 983 00ae 13       		.uleb128 0x13
 984 00af 00       		.byte	0
 985 00b0 00       		.byte	0
 986 00b1 0F       		.uleb128 0xf
 987 00b2 05       		.uleb128 0x5
 988 00b3 00       		.byte	0
 989 00b4 03       		.uleb128 0x3
 990 00b5 0E       		.uleb128 0xe
 991 00b6 3A       		.uleb128 0x3a
 992 00b7 0B       		.uleb128 0xb
 993 00b8 3B       		.uleb128 0x3b
 994 00b9 0B       		.uleb128 0xb
 995 00ba 49       		.uleb128 0x49
 996 00bb 13       		.uleb128 0x13
 997 00bc 02       		.uleb128 0x2
 998 00bd 17       		.uleb128 0x17
 999 00be 00       		.byte	0
 1000 00bf 00       		.byte	0
 1001 00c0 10       		.uleb128 0x10
 1002 00c1 34       		.uleb128 0x34
 1003 00c2 00       		.byte	0
 1004 00c3 03       		.uleb128 0x3
 1005 00c4 0E       		.uleb128 0xe
ARM GAS  /tmp/cc4YHyd8.s 			page 19


 1006 00c5 49       		.uleb128 0x49
 1007 00c6 13       		.uleb128 0x13
 1008 00c7 34       		.uleb128 0x34
 1009 00c8 19       		.uleb128 0x19
 1010 00c9 02       		.uleb128 0x2
 1011 00ca 18       		.uleb128 0x18
 1012 00cb 00       		.byte	0
 1013 00cc 00       		.byte	0
 1014 00cd 11       		.uleb128 0x11
 1015 00ce 898201   		.uleb128 0x4109
 1016 00d1 01       		.byte	0x1
 1017 00d2 11       		.uleb128 0x11
 1018 00d3 01       		.uleb128 0x1
 1019 00d4 31       		.uleb128 0x31
 1020 00d5 13       		.uleb128 0x13
 1021 00d6 00       		.byte	0
 1022 00d7 00       		.byte	0
 1023 00d8 12       		.uleb128 0x12
 1024 00d9 8A8201   		.uleb128 0x410a
 1025 00dc 00       		.byte	0
 1026 00dd 02       		.uleb128 0x2
 1027 00de 18       		.uleb128 0x18
 1028 00df 9142     		.uleb128 0x2111
 1029 00e1 18       		.uleb128 0x18
 1030 00e2 00       		.byte	0
 1031 00e3 00       		.byte	0
 1032 00e4 13       		.uleb128 0x13
 1033 00e5 2E       		.uleb128 0x2e
 1034 00e6 00       		.byte	0
 1035 00e7 3F       		.uleb128 0x3f
 1036 00e8 19       		.uleb128 0x19
 1037 00e9 03       		.uleb128 0x3
 1038 00ea 0E       		.uleb128 0xe
 1039 00eb 3A       		.uleb128 0x3a
 1040 00ec 0B       		.uleb128 0xb
 1041 00ed 3B       		.uleb128 0x3b
 1042 00ee 0B       		.uleb128 0xb
 1043 00ef 27       		.uleb128 0x27
 1044 00f0 19       		.uleb128 0x19
 1045 00f1 11       		.uleb128 0x11
 1046 00f2 01       		.uleb128 0x1
 1047 00f3 12       		.uleb128 0x12
 1048 00f4 06       		.uleb128 0x6
 1049 00f5 40       		.uleb128 0x40
 1050 00f6 18       		.uleb128 0x18
 1051 00f7 9742     		.uleb128 0x2117
 1052 00f9 19       		.uleb128 0x19
 1053 00fa 00       		.byte	0
 1054 00fb 00       		.byte	0
 1055 00fc 14       		.uleb128 0x14
 1056 00fd 2E       		.uleb128 0x2e
 1057 00fe 01       		.byte	0x1
 1058 00ff 3F       		.uleb128 0x3f
 1059 0100 19       		.uleb128 0x19
 1060 0101 03       		.uleb128 0x3
 1061 0102 0E       		.uleb128 0xe
 1062 0103 3A       		.uleb128 0x3a
ARM GAS  /tmp/cc4YHyd8.s 			page 20


 1063 0104 0B       		.uleb128 0xb
 1064 0105 3B       		.uleb128 0x3b
 1065 0106 0B       		.uleb128 0xb
 1066 0107 27       		.uleb128 0x27
 1067 0108 19       		.uleb128 0x19
 1068 0109 49       		.uleb128 0x49
 1069 010a 13       		.uleb128 0x13
 1070 010b 11       		.uleb128 0x11
 1071 010c 01       		.uleb128 0x1
 1072 010d 12       		.uleb128 0x12
 1073 010e 06       		.uleb128 0x6
 1074 010f 40       		.uleb128 0x40
 1075 0110 18       		.uleb128 0x18
 1076 0111 9742     		.uleb128 0x2117
 1077 0113 19       		.uleb128 0x19
 1078 0114 01       		.uleb128 0x1
 1079 0115 13       		.uleb128 0x13
 1080 0116 00       		.byte	0
 1081 0117 00       		.byte	0
 1082 0118 15       		.uleb128 0x15
 1083 0119 34       		.uleb128 0x34
 1084 011a 00       		.byte	0
 1085 011b 03       		.uleb128 0x3
 1086 011c 0E       		.uleb128 0xe
 1087 011d 3A       		.uleb128 0x3a
 1088 011e 0B       		.uleb128 0xb
 1089 011f 3B       		.uleb128 0x3b
 1090 0120 05       		.uleb128 0x5
 1091 0121 49       		.uleb128 0x49
 1092 0122 13       		.uleb128 0x13
 1093 0123 3F       		.uleb128 0x3f
 1094 0124 19       		.uleb128 0x19
 1095 0125 3C       		.uleb128 0x3c
 1096 0126 19       		.uleb128 0x19
 1097 0127 00       		.byte	0
 1098 0128 00       		.byte	0
 1099 0129 16       		.uleb128 0x16
 1100 012a 2E       		.uleb128 0x2e
 1101 012b 01       		.byte	0x1
 1102 012c 3F       		.uleb128 0x3f
 1103 012d 19       		.uleb128 0x19
 1104 012e 03       		.uleb128 0x3
 1105 012f 0E       		.uleb128 0xe
 1106 0130 3A       		.uleb128 0x3a
 1107 0131 0B       		.uleb128 0xb
 1108 0132 3B       		.uleb128 0x3b
 1109 0133 0B       		.uleb128 0xb
 1110 0134 27       		.uleb128 0x27
 1111 0135 19       		.uleb128 0x19
 1112 0136 3C       		.uleb128 0x3c
 1113 0137 19       		.uleb128 0x19
 1114 0138 00       		.byte	0
 1115 0139 00       		.byte	0
 1116 013a 17       		.uleb128 0x17
 1117 013b 05       		.uleb128 0x5
 1118 013c 00       		.byte	0
 1119 013d 49       		.uleb128 0x49
ARM GAS  /tmp/cc4YHyd8.s 			page 21


 1120 013e 13       		.uleb128 0x13
 1121 013f 00       		.byte	0
 1122 0140 00       		.byte	0
 1123 0141 00       		.byte	0
 1124              		.section	.debug_loc,"",%progbits
 1125              	.Ldebug_loc0:
 1126              	.LLST0:
 1127 0000 00000000 		.4byte	.LVL0
 1128 0004 0C000000 		.4byte	.LVL1
 1129 0008 0100     		.2byte	0x1
 1130 000a 50       		.byte	0x50
 1131 000b 0C000000 		.4byte	.LVL1
 1132 000f 20000000 		.4byte	.LVL2
 1133 0013 0400     		.2byte	0x4
 1134 0015 F3       		.byte	0xf3
 1135 0016 01       		.uleb128 0x1
 1136 0017 50       		.byte	0x50
 1137 0018 9F       		.byte	0x9f
 1138 0019 20000000 		.4byte	.LVL2
 1139 001d 24000000 		.4byte	.LVL3
 1140 0021 0100     		.2byte	0x1
 1141 0023 50       		.byte	0x50
 1142 0024 24000000 		.4byte	.LVL3
 1143 0028 3E000000 		.4byte	.LFE36
 1144 002c 0400     		.2byte	0x4
 1145 002e F3       		.byte	0xf3
 1146 002f 01       		.uleb128 0x1
 1147 0030 50       		.byte	0x50
 1148 0031 9F       		.byte	0x9f
 1149 0032 00000000 		.4byte	0
 1150 0036 00000000 		.4byte	0
 1151              	.LLST1:
 1152 003a 00000000 		.4byte	.LVL5
 1153 003e 0C000000 		.4byte	.LVL6
 1154 0042 0100     		.2byte	0x1
 1155 0044 50       		.byte	0x50
 1156 0045 0C000000 		.4byte	.LVL6
 1157 0049 20000000 		.4byte	.LVL7
 1158 004d 0400     		.2byte	0x4
 1159 004f F3       		.byte	0xf3
 1160 0050 01       		.uleb128 0x1
 1161 0051 50       		.byte	0x50
 1162 0052 9F       		.byte	0x9f
 1163 0053 20000000 		.4byte	.LVL7
 1164 0057 24000000 		.4byte	.LVL8
 1165 005b 0100     		.2byte	0x1
 1166 005d 50       		.byte	0x50
 1167 005e 24000000 		.4byte	.LVL8
 1168 0062 3E000000 		.4byte	.LFE37
 1169 0066 0400     		.2byte	0x4
 1170 0068 F3       		.byte	0xf3
 1171 0069 01       		.uleb128 0x1
 1172 006a 50       		.byte	0x50
 1173 006b 9F       		.byte	0x9f
 1174 006c 00000000 		.4byte	0
 1175 0070 00000000 		.4byte	0
 1176              	.LLST2:
ARM GAS  /tmp/cc4YHyd8.s 			page 22


 1177 0074 00000000 		.4byte	.LVL10
 1178 0078 0C000000 		.4byte	.LVL11
 1179 007c 0100     		.2byte	0x1
 1180 007e 50       		.byte	0x50
 1181 007f 0C000000 		.4byte	.LVL11
 1182 0083 1A000000 		.4byte	.LVL12
 1183 0087 0400     		.2byte	0x4
 1184 0089 F3       		.byte	0xf3
 1185 008a 01       		.uleb128 0x1
 1186 008b 50       		.byte	0x50
 1187 008c 9F       		.byte	0x9f
 1188 008d 1A000000 		.4byte	.LVL12
 1189 0091 1E000000 		.4byte	.LVL13
 1190 0095 0100     		.2byte	0x1
 1191 0097 50       		.byte	0x50
 1192 0098 1E000000 		.4byte	.LVL13
 1193 009c 38000000 		.4byte	.LFE40
 1194 00a0 0400     		.2byte	0x4
 1195 00a2 F3       		.byte	0xf3
 1196 00a3 01       		.uleb128 0x1
 1197 00a4 50       		.byte	0x50
 1198 00a5 9F       		.byte	0x9f
 1199 00a6 00000000 		.4byte	0
 1200 00aa 00000000 		.4byte	0
 1201              		.section	.debug_aranges,"",%progbits
 1202 0000 3C000000 		.4byte	0x3c
 1203 0004 0200     		.2byte	0x2
 1204 0006 00000000 		.4byte	.Ldebug_info0
 1205 000a 04       		.byte	0x4
 1206 000b 00       		.byte	0
 1207 000c 0000     		.2byte	0
 1208 000e 0000     		.2byte	0
 1209 0010 00000000 		.4byte	.LFB36
 1210 0014 3E000000 		.4byte	.LFE36-.LFB36
 1211 0018 00000000 		.4byte	.LFB37
 1212 001c 3E000000 		.4byte	.LFE37-.LFB37
 1213 0020 00000000 		.4byte	.LFB38
 1214 0024 1A000000 		.4byte	.LFE38-.LFB38
 1215 0028 00000000 		.4byte	.LFB39
 1216 002c 18000000 		.4byte	.LFE39-.LFB39
 1217 0030 00000000 		.4byte	.LFB40
 1218 0034 38000000 		.4byte	.LFE40-.LFB40
 1219 0038 00000000 		.4byte	0
 1220 003c 00000000 		.4byte	0
 1221              		.section	.debug_ranges,"",%progbits
 1222              	.Ldebug_ranges0:
 1223 0000 00000000 		.4byte	.LFB36
 1224 0004 3E000000 		.4byte	.LFE36
 1225 0008 00000000 		.4byte	.LFB37
 1226 000c 3E000000 		.4byte	.LFE37
 1227 0010 00000000 		.4byte	.LFB38
 1228 0014 1A000000 		.4byte	.LFE38
 1229 0018 00000000 		.4byte	.LFB39
 1230 001c 18000000 		.4byte	.LFE39
 1231 0020 00000000 		.4byte	.LFB40
 1232 0024 38000000 		.4byte	.LFE40
 1233 0028 00000000 		.4byte	0
ARM GAS  /tmp/cc4YHyd8.s 			page 23


 1234 002c 00000000 		.4byte	0
 1235              		.section	.debug_line,"",%progbits
 1236              	.Ldebug_line0:
 1237 0000 5C010000 		.section	.debug_str,"MS",%progbits,1
 1237      0200D700 
 1237      00000201 
 1237      FB0E0D00 
 1237      01010101 
 1238              	.LASF25:
 1239 0000 434B4752 		.ascii	"CKGR_PLLR\000"
 1239      5F504C4C 
 1239      5200
 1240              	.LASF39:
 1241 000a 504D435F 		.ascii	"PMC_WPMR\000"
 1241      57504D52 
 1241      00
 1242              	.LASF36:
 1243 0013 504D435F 		.ascii	"PMC_FSPR\000"
 1243      46535052 
 1243      00
 1244              	.LASF24:
 1245 001c 434B4752 		.ascii	"CKGR_MCFR\000"
 1245      5F4D4346 
 1245      5200
 1246              	.LASF29:
 1247 0026 504D435F 		.ascii	"PMC_PCK\000"
 1247      50434B00 
 1248              	.LASF46:
 1249 002e 64774964 		.ascii	"dwId\000"
 1249      00
 1250              	.LASF50:
 1251 0033 474E5520 		.ascii	"GNU C 4.8.2 -mcpu=cortex-m3 -mno-thumb-interwork -m"
 1251      4320342E 
 1251      382E3220 
 1251      2D6D6370 
 1251      753D636F 
 1252 0066 7468756D 		.ascii	"thumb -ggdb -O2 -std=gnu99 -fomit-frame-pointer -fa"
 1252      62202D67 
 1252      67646220 
 1252      2D4F3220 
 1252      2D737464 
 1253 0099 6C69676E 		.ascii	"lign-functions=16 -ffunction-sections -fdata-sectio"
 1253      2D66756E 
 1253      6374696F 
 1253      6E733D31 
 1253      36202D66 
 1254 00cc 6E73202D 		.ascii	"ns -fno-common\000"
 1254      666E6F2D 
 1254      636F6D6D 
 1254      6F6E00
 1255              	.LASF51:
 1256 00db 2E2F6174 		.ascii	"./atmel_lib/atmel_pmc.c\000"
 1256      6D656C5F 
 1256      6C69622F 
 1256      61746D65 
 1256      6C5F706D 
 1257              	.LASF23:
ARM GAS  /tmp/cc4YHyd8.s 			page 24


 1258 00f3 434B4752 		.ascii	"CKGR_MOR\000"
 1258      5F4D4F52 
 1258      00
 1259              	.LASF40:
 1260 00fc 504D435F 		.ascii	"PMC_WPSR\000"
 1260      57505352 
 1260      00
 1261              	.LASF21:
 1262 0105 504D435F 		.ascii	"PMC_PCSR\000"
 1262      50435352 
 1262      00
 1263              	.LASF47:
 1264 010e 5F5F6675 		.ascii	"__func__\000"
 1264      6E635F5F 
 1264      00
 1265              	.LASF0:
 1266 0117 7369676E 		.ascii	"signed char\000"
 1266      65642063 
 1266      68617200 
 1267              	.LASF1:
 1268 0123 756E7369 		.ascii	"unsigned char\000"
 1268      676E6564 
 1268      20636861 
 1268      7200
 1269              	.LASF20:
 1270 0131 504D435F 		.ascii	"PMC_PCDR\000"
 1270      50434452 
 1270      00
 1271              	.LASF45:
 1272 013a 504D435F 		.ascii	"PMC_DisablePeripheral\000"
 1272      44697361 
 1272      626C6550 
 1272      65726970 
 1272      68657261 
 1273              	.LASF3:
 1274 0150 73686F72 		.ascii	"short unsigned int\000"
 1274      7420756E 
 1274      7369676E 
 1274      65642069 
 1274      6E7400
 1275              	.LASF27:
 1276 0163 504D435F 		.ascii	"PMC_MCKR\000"
 1276      4D434B52 
 1276      00
 1277              	.LASF54:
 1278 016c 49544D5F 		.ascii	"ITM_RxBuffer\000"
 1278      52784275 
 1278      66666572 
 1278      00
 1279              	.LASF12:
 1280 0179 576F5265 		.ascii	"WoReg\000"
 1280      6700
 1281              	.LASF15:
 1282 017f 504D435F 		.ascii	"PMC_SCER\000"
 1282      53434552 
 1282      00
 1283              	.LASF5:
ARM GAS  /tmp/cc4YHyd8.s 			page 25


 1284 0188 6C6F6E67 		.ascii	"long unsigned int\000"
 1284      20756E73 
 1284      69676E65 
 1284      6420696E 
 1284      7400
 1285              	.LASF9:
 1286 019a 5F5F7569 		.ascii	"__uint32_t\000"
 1286      6E743332 
 1286      5F7400
 1287              	.LASF35:
 1288 01a5 504D435F 		.ascii	"PMC_FSMR\000"
 1288      46534D52 
 1288      00
 1289              	.LASF31:
 1290 01ae 504D435F 		.ascii	"PMC_IER\000"
 1290      49455200 
 1291              	.LASF55:
 1292 01b6 5F5F6173 		.ascii	"__assert_func\000"
 1292      73657274 
 1292      5F66756E 
 1292      6300
 1293              	.LASF49:
 1294 01c4 504D435F 		.ascii	"PMC_DisableAllPeripherals\000"
 1294      44697361 
 1294      626C6541 
 1294      6C6C5065 
 1294      72697068 
 1295              	.LASF8:
 1296 01de 756E7369 		.ascii	"unsigned int\000"
 1296      676E6564 
 1296      20696E74 
 1296      00
 1297              	.LASF7:
 1298 01eb 6C6F6E67 		.ascii	"long long unsigned int\000"
 1298      206C6F6E 
 1298      6720756E 
 1298      7369676E 
 1298      65642069 
 1299              	.LASF22:
 1300 0202 52657365 		.ascii	"Reserved2\000"
 1300      72766564 
 1300      3200
 1301              	.LASF26:
 1302 020c 52657365 		.ascii	"Reserved3\000"
 1302      72766564 
 1302      3300
 1303              	.LASF28:
 1304 0216 52657365 		.ascii	"Reserved4\000"
 1304      72766564 
 1304      3400
 1305              	.LASF30:
 1306 0220 52657365 		.ascii	"Reserved5\000"
 1306      72766564 
 1306      3500
 1307              	.LASF38:
 1308 022a 52657365 		.ascii	"Reserved6\000"
 1308      72766564 
ARM GAS  /tmp/cc4YHyd8.s 			page 26


 1308      3600
 1309              	.LASF41:
 1310 0234 52657365 		.ascii	"Reserved7\000"
 1310      72766564 
 1310      3700
 1311              	.LASF13:
 1312 023e 52775265 		.ascii	"RwReg\000"
 1312      6700
 1313              	.LASF14:
 1314 0244 73697A65 		.ascii	"sizetype\000"
 1314      74797065 
 1314      00
 1315              	.LASF6:
 1316 024d 6C6F6E67 		.ascii	"long long int\000"
 1316      206C6F6E 
 1316      6720696E 
 1316      7400
 1317              	.LASF11:
 1318 025b 526F5265 		.ascii	"RoReg\000"
 1318      6700
 1319              	.LASF34:
 1320 0261 504D435F 		.ascii	"PMC_IMR\000"
 1320      494D5200 
 1321              	.LASF53:
 1322 0269 504D435F 		.ascii	"PMC_IsPeriphEnabled\000"
 1322      49735065 
 1322      72697068 
 1322      456E6162 
 1322      6C656400 
 1323              	.LASF2:
 1324 027d 73686F72 		.ascii	"short int\000"
 1324      7420696E 
 1324      7400
 1325              	.LASF18:
 1326 0287 52657365 		.ascii	"Reserved1\000"
 1326      72766564 
 1326      3100
 1327              	.LASF33:
 1328 0291 504D435F 		.ascii	"PMC_SR\000"
 1328      535200
 1329              	.LASF37:
 1330 0298 504D435F 		.ascii	"PMC_FOCR\000"
 1330      464F4352 
 1330      00
 1331              	.LASF17:
 1332 02a1 504D435F 		.ascii	"PMC_SCSR\000"
 1332      53435352 
 1332      00
 1333              	.LASF19:
 1334 02aa 504D435F 		.ascii	"PMC_PCER\000"
 1334      50434552 
 1334      00
 1335              	.LASF10:
 1336 02b3 75696E74 		.ascii	"uint32_t\000"
 1336      33325F74 
 1336      00
 1337              	.LASF4:
ARM GAS  /tmp/cc4YHyd8.s 			page 27


 1338 02bc 6C6F6E67 		.ascii	"long int\000"
 1338      20696E74 
 1338      00
 1339              	.LASF43:
 1340 02c5 63686172 		.ascii	"char\000"
 1340      00
 1341              	.LASF52:
 1342 02ca 2F686F6D 		.ascii	"/home/murray/Robotics/Carlos/git/myfork/stamp/iflab"
 1342      652F6D75 
 1342      72726179 
 1342      2F526F62 
 1342      6F746963 
 1343 02fd 2F436869 		.ascii	"/ChibiOS/iflab_code/vm_logo\000"
 1343      62694F53 
 1343      2F69666C 
 1343      61625F63 
 1343      6F64652F 
 1344              	.LASF44:
 1345 0319 504D435F 		.ascii	"PMC_EnablePeripheral\000"
 1345      456E6162 
 1345      6C655065 
 1345      72697068 
 1345      6572616C 
 1346              	.LASF16:
 1347 032e 504D435F 		.ascii	"PMC_SCDR\000"
 1347      53434452 
 1347      00
 1348              	.LASF42:
 1349 0337 504D435F 		.ascii	"PMC_OCR\000"
 1349      4F435200 
 1350              	.LASF48:
 1351 033f 504D435F 		.ascii	"PMC_EnableAllPeripherals\000"
 1351      456E6162 
 1351      6C65416C 
 1351      6C506572 
 1351      69706865 
 1352              	.LASF32:
 1353 0358 504D435F 		.ascii	"PMC_IDR\000"
 1353      49445200 
 1354              		.ident	"GCC: (4.8.2-14ubuntu1+6) 4.8.2"
ARM GAS  /tmp/cc4YHyd8.s 			page 28


DEFINED SYMBOLS
                            *ABS*:00000000 atmel_pmc.c
     /tmp/cc4YHyd8.s:19     .text.PMC_EnablePeripheral:00000000 $t
     /tmp/cc4YHyd8.s:25     .text.PMC_EnablePeripheral:00000000 PMC_EnablePeripheral
     /tmp/cc4YHyd8.s:254    .rodata.str1.4:00000000 .LC0
     /tmp/cc4YHyd8.s:247    .rodata.__func__.5777:00000000 .LANCHOR0
     /tmp/cc4YHyd8.s:256    .rodata.str1.4:00000018 .LC1
     /tmp/cc4YHyd8.s:72     .text.PMC_DisablePeripheral:00000000 $t
     /tmp/cc4YHyd8.s:78     .text.PMC_DisablePeripheral:00000000 PMC_DisablePeripheral
     /tmp/cc4YHyd8.s:240    .rodata.__func__.5781:00000000 .LANCHOR1
     /tmp/cc4YHyd8.s:124    .text.PMC_EnableAllPeripherals:00000000 $t
     /tmp/cc4YHyd8.s:130    .text.PMC_EnableAllPeripherals:00000000 PMC_EnableAllPeripherals
     /tmp/cc4YHyd8.s:154    .text.PMC_DisableAllPeripherals:00000000 $t
     /tmp/cc4YHyd8.s:160    .text.PMC_DisableAllPeripherals:00000000 PMC_DisableAllPeripherals
     /tmp/cc4YHyd8.s:183    .text.PMC_IsPeriphEnabled:00000000 $t
     /tmp/cc4YHyd8.s:189    .text.PMC_IsPeriphEnabled:00000000 PMC_IsPeriphEnabled
     /tmp/cc4YHyd8.s:233    .rodata.__func__.5797:00000000 .LANCHOR2
     /tmp/cc4YHyd8.s:232    .rodata.__func__.5797:00000000 $d
     /tmp/cc4YHyd8.s:236    .rodata.__func__.5797:00000000 __func__.5797
     /tmp/cc4YHyd8.s:239    .rodata.__func__.5781:00000000 $d
     /tmp/cc4YHyd8.s:243    .rodata.__func__.5781:00000000 __func__.5781
     /tmp/cc4YHyd8.s:246    .rodata.__func__.5777:00000000 $d
     /tmp/cc4YHyd8.s:250    .rodata.__func__.5777:00000000 __func__.5777
     /tmp/cc4YHyd8.s:253    .rodata.str1.4:00000000 $d
                     .debug_frame:00000010 $d

UNDEFINED SYMBOLS
__assert_func
