ARM GAS  /tmp/cctIPXEk.s 			page 1


   1              		.syntax unified
   2              		.cpu cortex-m3
   3              		.fpu softvfp
   4              		.eabi_attribute 20, 1
   5              		.eabi_attribute 21, 1
   6              		.eabi_attribute 23, 3
   7              		.eabi_attribute 24, 1
   8              		.eabi_attribute 25, 1
   9              		.eabi_attribute 26, 1
  10              		.eabi_attribute 30, 2
  11              		.eabi_attribute 34, 1
  12              		.eabi_attribute 18, 4
  13              		.thumb
  14              		.file	"chmemcore.c"
  15              		.text
  16              	.Ltext0:
  17              		.cfi_sections	.debug_frame
  18              		.section	.text._core_init,"ax",%progbits
  19              		.align	2
  20              		.p2align 4,,15
  21              		.global	_core_init
  22              		.thumb
  23              		.thumb_func
  24              		.type	_core_init, %function
  25              	_core_init:
  26              	.LFB7:
  27              		.file 1 "../../os/kernel/src/chmemcore.c"
  28              		.loc 1 66 0
  29              		.cfi_startproc
  30              		@ args = 0, pretend = 0, frame = 0
  31              		@ frame_needed = 0, uses_anonymous_args = 0
  32              		@ link register save eliminated.
  33              		.loc 1 71 0
  34 0000 40F20001 		movw	r1, #:lower16:__heap_end__
  35              		.loc 1 70 0
  36 0004 0848     		ldr	r0, .L2
  37              		.loc 1 71 0
  38 0006 C0F20001 		movt	r1, #:upper16:__heap_end__
  39 000a 40F20002 		movw	r2, #:lower16:.LANCHOR1
  40              		.loc 1 70 0
  41 000e 40F20003 		movw	r3, #:lower16:.LANCHOR0
  42              		.loc 1 71 0
  43 0012 21F00701 		bic	r1, r1, #7
  44 0016 C0F20002 		movt	r2, #:upper16:.LANCHOR1
  45              		.loc 1 70 0
  46 001a 20F00700 		bic	r0, r0, #7
  47 001e C0F20003 		movt	r3, #:upper16:.LANCHOR0
  48              		.loc 1 71 0
  49 0022 1160     		str	r1, [r2]
  50              		.loc 1 70 0
  51 0024 1860     		str	r0, [r3]
  52 0026 7047     		bx	lr
  53              	.L3:
  54              		.align	2
  55              	.L2:
  56 0028 07000000 		.word	__heap_base__+7
  57              		.cfi_endproc
ARM GAS  /tmp/cctIPXEk.s 			page 2


  58              	.LFE7:
  59              		.size	_core_init, .-_core_init
  60 002c AFF30080 		.section	.text.chCoreAlloc,"ax",%progbits
  61              		.align	2
  62              		.p2align 4,,15
  63              		.global	chCoreAlloc
  64              		.thumb
  65              		.thumb_func
  66              		.type	chCoreAlloc, %function
  67              	chCoreAlloc:
  68              	.LFB8:
  69              		.loc 1 91 0
  70              		.cfi_startproc
  71              		@ args = 0, pretend = 0, frame = 0
  72              		@ frame_needed = 0, uses_anonymous_args = 0
  73              		@ link register save eliminated.
  74              	.LVL0:
  75              	.LBB6:
  76              		.loc 1 94 0
  77 0000 2023     		movs	r3, #32
  78              	@ 94 "../../os/kernel/src/chmemcore.c" 1
  79 0002 83F31188 		msr     BASEPRI, r3
  80              	@ 0 "" 2
  81              	.LVL1:
  82              		.thumb
  83              	.LBE6:
  84              	.LBB7:
  85              	.LBB8:
  86              		.loc 1 118 0
  87 0006 40F20003 		movw	r3, #:lower16:.LANCHOR0
  88 000a 40F20002 		movw	r2, #:lower16:.LANCHOR1
  89 000e C0F20003 		movt	r3, #:upper16:.LANCHOR0
  90 0012 C0F20002 		movt	r2, #:upper16:.LANCHOR1
  91 0016 1968     		ldr	r1, [r3]
  92 0018 1268     		ldr	r2, [r2]
  93              		.loc 1 117 0
  94 001a 0730     		adds	r0, r0, #7
  95              	.LVL2:
  96 001c 20F00700 		bic	r0, r0, #7
  97              	.LVL3:
  98              		.loc 1 118 0
  99 0020 521A     		subs	r2, r2, r1
 100 0022 9042     		cmp	r0, r2
 101              	.LVL4:
 102              		.loc 1 121 0
 103 0024 9BBF     		ittet	ls
 104 0026 4018     		addls	r0, r0, r1
 105              	.LVL5:
 106 0028 1860     		strls	r0, [r3]
 107              		.loc 1 119 0
 108 002a 0020     		movhi	r0, #0
 109              		.loc 1 122 0
 110 002c 0846     		movls	r0, r1
 111              	.LBE8:
 112              	.LBE7:
 113              	.LBB9:
 114              		.loc 1 96 0
ARM GAS  /tmp/cctIPXEk.s 			page 3


 115 002e 0023     		movs	r3, #0
 116              	@ 96 "../../os/kernel/src/chmemcore.c" 1
 117 0030 83F31188 		msr     BASEPRI, r3
 118              	@ 0 "" 2
 119              		.thumb
 120              	.LBE9:
 121              		.loc 1 98 0
 122 0034 7047     		bx	lr
 123              		.cfi_endproc
 124              	.LFE8:
 125              		.size	chCoreAlloc, .-chCoreAlloc
 126 0036 00BFAFF3 		.section	.text.chCoreAllocI,"ax",%progbits
 126      0080AFF3 
 126      0080
 127              		.align	2
 128              		.p2align 4,,15
 129              		.global	chCoreAllocI
 130              		.thumb
 131              		.thumb_func
 132              		.type	chCoreAllocI, %function
 133              	chCoreAllocI:
 134              	.LFB9:
 135              		.loc 1 112 0
 136              		.cfi_startproc
 137              		@ args = 0, pretend = 0, frame = 0
 138              		@ frame_needed = 0, uses_anonymous_args = 0
 139              		@ link register save eliminated.
 140              	.LVL6:
 141              		.loc 1 118 0
 142 0000 40F20003 		movw	r3, #:lower16:.LANCHOR0
 143 0004 40F20002 		movw	r2, #:lower16:.LANCHOR1
 144 0008 C0F20003 		movt	r3, #:upper16:.LANCHOR0
 145 000c C0F20002 		movt	r2, #:upper16:.LANCHOR1
 146 0010 1968     		ldr	r1, [r3]
 147 0012 1268     		ldr	r2, [r2]
 148              		.loc 1 117 0
 149 0014 0730     		adds	r0, r0, #7
 150              	.LVL7:
 151 0016 20F00700 		bic	r0, r0, #7
 152              	.LVL8:
 153              		.loc 1 118 0
 154 001a 521A     		subs	r2, r2, r1
 155 001c 9042     		cmp	r0, r2
 156              	.LVL9:
 157              		.loc 1 121 0
 158 001e 9DBF     		ittte	ls
 159 0020 4018     		addls	r0, r0, r1
 160              	.LVL10:
 161 0022 1860     		strls	r0, [r3]
 162              		.loc 1 122 0
 163 0024 0846     		movls	r0, r1
 164              		.loc 1 119 0
 165 0026 0020     		movhi	r0, #0
 166              		.loc 1 123 0
 167 0028 7047     		bx	lr
 168              		.cfi_endproc
 169              	.LFE9:
ARM GAS  /tmp/cctIPXEk.s 			page 4


 170              		.size	chCoreAllocI, .-chCoreAllocI
 171 002a 00BFAFF3 		.section	.text.chCoreStatus,"ax",%progbits
 171      0080
 172              		.align	2
 173              		.p2align 4,,15
 174              		.global	chCoreStatus
 175              		.thumb
 176              		.thumb_func
 177              		.type	chCoreStatus, %function
 178              	chCoreStatus:
 179              	.LFB10:
 180              		.loc 1 132 0
 181              		.cfi_startproc
 182              		@ args = 0, pretend = 0, frame = 0
 183              		@ frame_needed = 0, uses_anonymous_args = 0
 184              		@ link register save eliminated.
 185              		.loc 1 134 0
 186 0000 40F20002 		movw	r2, #:lower16:.LANCHOR1
 187 0004 40F20003 		movw	r3, #:lower16:.LANCHOR0
 188 0008 C0F20002 		movt	r2, #:upper16:.LANCHOR1
 189 000c C0F20003 		movt	r3, #:upper16:.LANCHOR0
 190 0010 1068     		ldr	r0, [r2]
 191 0012 1B68     		ldr	r3, [r3]
 192              		.loc 1 135 0
 193 0014 C01A     		subs	r0, r0, r3
 194 0016 7047     		bx	lr
 195              		.cfi_endproc
 196              	.LFE10:
 197              		.size	chCoreStatus, .-chCoreStatus
 198 0018 AFF30080 		.section	.bss.endmem,"aw",%nobits
 198      AFF30080 
 199              		.align	2
 200              		.set	.LANCHOR1,. + 0
 201              		.type	endmem, %object
 202              		.size	endmem, 4
 203              	endmem:
 204 0000 00000000 		.space	4
 205              		.section	.bss.nextmem,"aw",%nobits
 206              		.align	2
 207              		.set	.LANCHOR0,. + 0
 208              		.type	nextmem, %object
 209              		.size	nextmem, 4
 210              	nextmem:
 211 0000 00000000 		.space	4
 212              		.text
 213              	.Letext0:
 214              		.file 2 "/usr/lib/gcc/arm-none-eabi/4.8.2/include/stddef.h"
 215              		.file 3 "/usr/include/newlib/machine/_default_types.h"
 216              		.file 4 "/usr/include/newlib/stdint.h"
 217              		.section	.debug_info,"",%progbits
 218              	.Ldebug_info0:
 219 0000 14020000 		.4byte	0x214
 220 0004 0400     		.2byte	0x4
 221 0006 00000000 		.4byte	.Ldebug_abbrev0
 222 000a 04       		.byte	0x4
 223 000b 01       		.uleb128 0x1
 224 000c 18000000 		.4byte	.LASF20
ARM GAS  /tmp/cctIPXEk.s 			page 5


 225 0010 01       		.byte	0x1
 226 0011 F5010000 		.4byte	.LASF21
 227 0015 73010000 		.4byte	.LASF22
 228 0019 00000000 		.4byte	.Ldebug_ranges0+0
 229 001d 00000000 		.4byte	0
 230 0021 00000000 		.4byte	.Ldebug_line0
 231 0025 02       		.uleb128 0x2
 232 0026 04       		.byte	0x4
 233 0027 05       		.byte	0x5
 234 0028 696E7400 		.ascii	"int\000"
 235 002c 03       		.uleb128 0x3
 236 002d 11000000 		.4byte	.LASF2
 237 0031 02       		.byte	0x2
 238 0032 D4       		.byte	0xd4
 239 0033 37000000 		.4byte	0x37
 240 0037 04       		.uleb128 0x4
 241 0038 04       		.byte	0x4
 242 0039 07       		.byte	0x7
 243 003a 39010000 		.4byte	.LASF0
 244 003e 04       		.uleb128 0x4
 245 003f 01       		.byte	0x1
 246 0040 06       		.byte	0x6
 247 0041 2A020000 		.4byte	.LASF1
 248 0045 03       		.uleb128 0x3
 249 0046 07000000 		.4byte	.LASF3
 250 004a 03       		.byte	0x3
 251 004b 1C       		.byte	0x1c
 252 004c 50000000 		.4byte	0x50
 253 0050 04       		.uleb128 0x4
 254 0051 01       		.byte	0x1
 255 0052 08       		.byte	0x8
 256 0053 15010000 		.4byte	.LASF4
 257 0057 04       		.uleb128 0x4
 258 0058 02       		.byte	0x2
 259 0059 05       		.byte	0x5
 260 005a EB010000 		.4byte	.LASF5
 261 005e 04       		.uleb128 0x4
 262 005f 02       		.byte	0x2
 263 0060 07       		.byte	0x7
 264 0061 F9000000 		.4byte	.LASF6
 265 0065 04       		.uleb128 0x4
 266 0066 04       		.byte	0x4
 267 0067 05       		.byte	0x5
 268 0068 21020000 		.4byte	.LASF7
 269 006c 03       		.uleb128 0x3
 270 006d 23010000 		.4byte	.LASF8
 271 0071 03       		.byte	0x3
 272 0072 38       		.byte	0x38
 273 0073 77000000 		.4byte	0x77
 274 0077 04       		.uleb128 0x4
 275 0078 04       		.byte	0x4
 276 0079 07       		.byte	0x7
 277 007a DA000000 		.4byte	.LASF9
 278 007e 04       		.uleb128 0x4
 279 007f 08       		.byte	0x8
 280 0080 05       		.byte	0x5
 281 0081 CB010000 		.4byte	.LASF10
ARM GAS  /tmp/cctIPXEk.s 			page 6


 282 0085 04       		.uleb128 0x4
 283 0086 08       		.byte	0x8
 284 0087 07       		.byte	0x7
 285 0088 46010000 		.4byte	.LASF11
 286 008c 03       		.uleb128 0x3
 287 008d 5D010000 		.4byte	.LASF12
 288 0091 04       		.byte	0x4
 289 0092 2A       		.byte	0x2a
 290 0093 45000000 		.4byte	0x45
 291 0097 03       		.uleb128 0x3
 292 0098 0C010000 		.4byte	.LASF13
 293 009c 04       		.byte	0x4
 294 009d 42       		.byte	0x42
 295 009e 6C000000 		.4byte	0x6c
 296 00a2 05       		.uleb128 0x5
 297 00a3 04       		.byte	0x4
 298 00a4 04       		.uleb128 0x4
 299 00a5 04       		.byte	0x4
 300 00a6 07       		.byte	0x7
 301 00a7 C2010000 		.4byte	.LASF14
 302 00ab 04       		.uleb128 0x4
 303 00ac 01       		.byte	0x1
 304 00ad 08       		.byte	0x8
 305 00ae D9010000 		.4byte	.LASF15
 306 00b2 06       		.uleb128 0x6
 307 00b3 04       		.byte	0x4
 308 00b4 8C000000 		.4byte	0x8c
 309 00b8 07       		.uleb128 0x7
 310 00b9 C8000000 		.4byte	.LASF23
 311 00bd 01       		.byte	0x1
 312 00be 70       		.byte	0x70
 313 00bf A2000000 		.4byte	0xa2
 314 00c3 01       		.byte	0x1
 315 00c4 DD000000 		.4byte	0xdd
 316 00c8 08       		.uleb128 0x8
 317 00c9 D5000000 		.4byte	.LASF24
 318 00cd 01       		.byte	0x1
 319 00ce 70       		.byte	0x70
 320 00cf 2C000000 		.4byte	0x2c
 321 00d3 09       		.uleb128 0x9
 322 00d4 7000     		.ascii	"p\000"
 323 00d6 01       		.byte	0x1
 324 00d7 71       		.byte	0x71
 325 00d8 A2000000 		.4byte	0xa2
 326 00dc 00       		.byte	0
 327 00dd 0A       		.uleb128 0xa
 328 00de 2E010000 		.4byte	.LASF25
 329 00e2 01       		.byte	0x1
 330 00e3 42       		.byte	0x42
 331 00e4 00000000 		.4byte	.LFB7
 332 00e8 2C000000 		.4byte	.LFE7-.LFB7
 333 00ec 01       		.uleb128 0x1
 334 00ed 9C       		.byte	0x9c
 335 00ee 09010000 		.4byte	0x109
 336 00f2 0B       		.uleb128 0xb
 337 00f3 65010000 		.4byte	.LASF16
 338 00f7 01       		.byte	0x1
ARM GAS  /tmp/cctIPXEk.s 			page 7


 339 00f8 44       		.byte	0x44
 340 00f9 09010000 		.4byte	0x109
 341 00fd 0B       		.uleb128 0xb
 342 00fe DE010000 		.4byte	.LASF17
 343 0102 01       		.byte	0x1
 344 0103 45       		.byte	0x45
 345 0104 09010000 		.4byte	0x109
 346 0108 00       		.byte	0
 347 0109 0C       		.uleb128 0xc
 348 010a 8C000000 		.4byte	0x8c
 349 010e 14010000 		.4byte	0x114
 350 0112 0D       		.uleb128 0xd
 351 0113 00       		.byte	0
 352 0114 0E       		.uleb128 0xe
 353 0115 15020000 		.4byte	.LASF26
 354 0119 01       		.byte	0x1
 355 011a 5B       		.byte	0x5b
 356 011b A2000000 		.4byte	0xa2
 357 011f 00000000 		.4byte	.LFB8
 358 0123 36000000 		.4byte	.LFE8-.LFB8
 359 0127 01       		.uleb128 0x1
 360 0128 9C       		.byte	0x9c
 361 0129 A6010000 		.4byte	0x1a6
 362 012d 0F       		.uleb128 0xf
 363 012e D5000000 		.4byte	.LASF24
 364 0132 01       		.byte	0x1
 365 0133 5B       		.byte	0x5b
 366 0134 2C000000 		.4byte	0x2c
 367 0138 00000000 		.4byte	.LLST0
 368 013c 09       		.uleb128 0x9
 369 013d 7000     		.ascii	"p\000"
 370 013f 01       		.byte	0x1
 371 0140 5C       		.byte	0x5c
 372 0141 A2000000 		.4byte	0xa2
 373 0145 10       		.uleb128 0x10
 374 0146 00000000 		.4byte	.LBB6
 375 014a 06000000 		.4byte	.LBE6-.LBB6
 376 014e 60010000 		.4byte	0x160
 377 0152 11       		.uleb128 0x11
 378 0153 746D7000 		.ascii	"tmp\000"
 379 0157 01       		.byte	0x1
 380 0158 5E       		.byte	0x5e
 381 0159 97000000 		.4byte	0x97
 382 015d 01       		.uleb128 0x1
 383 015e 53       		.byte	0x53
 384 015f 00       		.byte	0
 385 0160 12       		.uleb128 0x12
 386 0161 B8000000 		.4byte	0xb8
 387 0165 06000000 		.4byte	.LBB7
 388 0169 28000000 		.4byte	.LBE7-.LBB7
 389 016d 01       		.byte	0x1
 390 016e 5F       		.byte	0x5f
 391 016f 8E010000 		.4byte	0x18e
 392 0173 13       		.uleb128 0x13
 393 0174 C8000000 		.4byte	0xc8
 394 0178 2E000000 		.4byte	.LLST1
 395 017c 14       		.uleb128 0x14
ARM GAS  /tmp/cctIPXEk.s 			page 8


 396 017d 06000000 		.4byte	.LBB8
 397 0181 28000000 		.4byte	.LBE8-.LBB8
 398 0185 15       		.uleb128 0x15
 399 0186 D3000000 		.4byte	0xd3
 400 018a 01       		.uleb128 0x1
 401 018b 51       		.byte	0x51
 402 018c 00       		.byte	0
 403 018d 00       		.byte	0
 404 018e 14       		.uleb128 0x14
 405 018f 2E000000 		.4byte	.LBB9
 406 0193 06000000 		.4byte	.LBE9-.LBB9
 407 0197 11       		.uleb128 0x11
 408 0198 746D7000 		.ascii	"tmp\000"
 409 019c 01       		.byte	0x1
 410 019d 60       		.byte	0x60
 411 019e 97000000 		.4byte	0x97
 412 01a2 01       		.uleb128 0x1
 413 01a3 53       		.byte	0x53
 414 01a4 00       		.byte	0
 415 01a5 00       		.byte	0
 416 01a6 16       		.uleb128 0x16
 417 01a7 B8000000 		.4byte	0xb8
 418 01ab 00000000 		.4byte	.LFB9
 419 01af 2A000000 		.4byte	.LFE9-.LFB9
 420 01b3 01       		.uleb128 0x1
 421 01b4 9C       		.byte	0x9c
 422 01b5 CA010000 		.4byte	0x1ca
 423 01b9 13       		.uleb128 0x13
 424 01ba C8000000 		.4byte	0xc8
 425 01be 6C000000 		.4byte	.LLST2
 426 01c2 15       		.uleb128 0x15
 427 01c3 D3000000 		.4byte	0xd3
 428 01c7 01       		.uleb128 0x1
 429 01c8 51       		.byte	0x51
 430 01c9 00       		.byte	0
 431 01ca 17       		.uleb128 0x17
 432 01cb EC000000 		.4byte	.LASF27
 433 01cf 01       		.byte	0x1
 434 01d0 84       		.byte	0x84
 435 01d1 2C000000 		.4byte	0x2c
 436 01d5 00000000 		.4byte	.LFB10
 437 01d9 18000000 		.4byte	.LFE10-.LFB10
 438 01dd 01       		.uleb128 0x1
 439 01de 9C       		.byte	0x9c
 440 01df 18       		.uleb128 0x18
 441 01e0 C0000000 		.4byte	.LASF18
 442 01e4 01       		.byte	0x1
 443 01e5 3A       		.byte	0x3a
 444 01e6 B2000000 		.4byte	0xb2
 445 01ea 05       		.uleb128 0x5
 446 01eb 03       		.byte	0x3
 447 01ec 00000000 		.4byte	nextmem
 448 01f0 18       		.uleb128 0x18
 449 01f1 00000000 		.4byte	.LASF19
 450 01f5 01       		.byte	0x1
 451 01f6 3B       		.byte	0x3b
 452 01f7 B2000000 		.4byte	0xb2
ARM GAS  /tmp/cctIPXEk.s 			page 9


 453 01fb 05       		.uleb128 0x5
 454 01fc 03       		.byte	0x3
 455 01fd 00000000 		.4byte	endmem
 456 0201 0B       		.uleb128 0xb
 457 0202 65010000 		.4byte	.LASF16
 458 0206 01       		.byte	0x1
 459 0207 44       		.byte	0x44
 460 0208 09010000 		.4byte	0x109
 461 020c 0B       		.uleb128 0xb
 462 020d DE010000 		.4byte	.LASF17
 463 0211 01       		.byte	0x1
 464 0212 45       		.byte	0x45
 465 0213 09010000 		.4byte	0x109
 466 0217 00       		.byte	0
 467              		.section	.debug_abbrev,"",%progbits
 468              	.Ldebug_abbrev0:
 469 0000 01       		.uleb128 0x1
 470 0001 11       		.uleb128 0x11
 471 0002 01       		.byte	0x1
 472 0003 25       		.uleb128 0x25
 473 0004 0E       		.uleb128 0xe
 474 0005 13       		.uleb128 0x13
 475 0006 0B       		.uleb128 0xb
 476 0007 03       		.uleb128 0x3
 477 0008 0E       		.uleb128 0xe
 478 0009 1B       		.uleb128 0x1b
 479 000a 0E       		.uleb128 0xe
 480 000b 55       		.uleb128 0x55
 481 000c 17       		.uleb128 0x17
 482 000d 11       		.uleb128 0x11
 483 000e 01       		.uleb128 0x1
 484 000f 10       		.uleb128 0x10
 485 0010 17       		.uleb128 0x17
 486 0011 00       		.byte	0
 487 0012 00       		.byte	0
 488 0013 02       		.uleb128 0x2
 489 0014 24       		.uleb128 0x24
 490 0015 00       		.byte	0
 491 0016 0B       		.uleb128 0xb
 492 0017 0B       		.uleb128 0xb
 493 0018 3E       		.uleb128 0x3e
 494 0019 0B       		.uleb128 0xb
 495 001a 03       		.uleb128 0x3
 496 001b 08       		.uleb128 0x8
 497 001c 00       		.byte	0
 498 001d 00       		.byte	0
 499 001e 03       		.uleb128 0x3
 500 001f 16       		.uleb128 0x16
 501 0020 00       		.byte	0
 502 0021 03       		.uleb128 0x3
 503 0022 0E       		.uleb128 0xe
 504 0023 3A       		.uleb128 0x3a
 505 0024 0B       		.uleb128 0xb
 506 0025 3B       		.uleb128 0x3b
 507 0026 0B       		.uleb128 0xb
 508 0027 49       		.uleb128 0x49
 509 0028 13       		.uleb128 0x13
ARM GAS  /tmp/cctIPXEk.s 			page 10


 510 0029 00       		.byte	0
 511 002a 00       		.byte	0
 512 002b 04       		.uleb128 0x4
 513 002c 24       		.uleb128 0x24
 514 002d 00       		.byte	0
 515 002e 0B       		.uleb128 0xb
 516 002f 0B       		.uleb128 0xb
 517 0030 3E       		.uleb128 0x3e
 518 0031 0B       		.uleb128 0xb
 519 0032 03       		.uleb128 0x3
 520 0033 0E       		.uleb128 0xe
 521 0034 00       		.byte	0
 522 0035 00       		.byte	0
 523 0036 05       		.uleb128 0x5
 524 0037 0F       		.uleb128 0xf
 525 0038 00       		.byte	0
 526 0039 0B       		.uleb128 0xb
 527 003a 0B       		.uleb128 0xb
 528 003b 00       		.byte	0
 529 003c 00       		.byte	0
 530 003d 06       		.uleb128 0x6
 531 003e 0F       		.uleb128 0xf
 532 003f 00       		.byte	0
 533 0040 0B       		.uleb128 0xb
 534 0041 0B       		.uleb128 0xb
 535 0042 49       		.uleb128 0x49
 536 0043 13       		.uleb128 0x13
 537 0044 00       		.byte	0
 538 0045 00       		.byte	0
 539 0046 07       		.uleb128 0x7
 540 0047 2E       		.uleb128 0x2e
 541 0048 01       		.byte	0x1
 542 0049 3F       		.uleb128 0x3f
 543 004a 19       		.uleb128 0x19
 544 004b 03       		.uleb128 0x3
 545 004c 0E       		.uleb128 0xe
 546 004d 3A       		.uleb128 0x3a
 547 004e 0B       		.uleb128 0xb
 548 004f 3B       		.uleb128 0x3b
 549 0050 0B       		.uleb128 0xb
 550 0051 27       		.uleb128 0x27
 551 0052 19       		.uleb128 0x19
 552 0053 49       		.uleb128 0x49
 553 0054 13       		.uleb128 0x13
 554 0055 20       		.uleb128 0x20
 555 0056 0B       		.uleb128 0xb
 556 0057 01       		.uleb128 0x1
 557 0058 13       		.uleb128 0x13
 558 0059 00       		.byte	0
 559 005a 00       		.byte	0
 560 005b 08       		.uleb128 0x8
 561 005c 05       		.uleb128 0x5
 562 005d 00       		.byte	0
 563 005e 03       		.uleb128 0x3
 564 005f 0E       		.uleb128 0xe
 565 0060 3A       		.uleb128 0x3a
 566 0061 0B       		.uleb128 0xb
ARM GAS  /tmp/cctIPXEk.s 			page 11


 567 0062 3B       		.uleb128 0x3b
 568 0063 0B       		.uleb128 0xb
 569 0064 49       		.uleb128 0x49
 570 0065 13       		.uleb128 0x13
 571 0066 00       		.byte	0
 572 0067 00       		.byte	0
 573 0068 09       		.uleb128 0x9
 574 0069 34       		.uleb128 0x34
 575 006a 00       		.byte	0
 576 006b 03       		.uleb128 0x3
 577 006c 08       		.uleb128 0x8
 578 006d 3A       		.uleb128 0x3a
 579 006e 0B       		.uleb128 0xb
 580 006f 3B       		.uleb128 0x3b
 581 0070 0B       		.uleb128 0xb
 582 0071 49       		.uleb128 0x49
 583 0072 13       		.uleb128 0x13
 584 0073 00       		.byte	0
 585 0074 00       		.byte	0
 586 0075 0A       		.uleb128 0xa
 587 0076 2E       		.uleb128 0x2e
 588 0077 01       		.byte	0x1
 589 0078 3F       		.uleb128 0x3f
 590 0079 19       		.uleb128 0x19
 591 007a 03       		.uleb128 0x3
 592 007b 0E       		.uleb128 0xe
 593 007c 3A       		.uleb128 0x3a
 594 007d 0B       		.uleb128 0xb
 595 007e 3B       		.uleb128 0x3b
 596 007f 0B       		.uleb128 0xb
 597 0080 27       		.uleb128 0x27
 598 0081 19       		.uleb128 0x19
 599 0082 11       		.uleb128 0x11
 600 0083 01       		.uleb128 0x1
 601 0084 12       		.uleb128 0x12
 602 0085 06       		.uleb128 0x6
 603 0086 40       		.uleb128 0x40
 604 0087 18       		.uleb128 0x18
 605 0088 9742     		.uleb128 0x2117
 606 008a 19       		.uleb128 0x19
 607 008b 01       		.uleb128 0x1
 608 008c 13       		.uleb128 0x13
 609 008d 00       		.byte	0
 610 008e 00       		.byte	0
 611 008f 0B       		.uleb128 0xb
 612 0090 34       		.uleb128 0x34
 613 0091 00       		.byte	0
 614 0092 03       		.uleb128 0x3
 615 0093 0E       		.uleb128 0xe
 616 0094 3A       		.uleb128 0x3a
 617 0095 0B       		.uleb128 0xb
 618 0096 3B       		.uleb128 0x3b
 619 0097 0B       		.uleb128 0xb
 620 0098 49       		.uleb128 0x49
 621 0099 13       		.uleb128 0x13
 622 009a 3F       		.uleb128 0x3f
 623 009b 19       		.uleb128 0x19
ARM GAS  /tmp/cctIPXEk.s 			page 12


 624 009c 3C       		.uleb128 0x3c
 625 009d 19       		.uleb128 0x19
 626 009e 00       		.byte	0
 627 009f 00       		.byte	0
 628 00a0 0C       		.uleb128 0xc
 629 00a1 01       		.uleb128 0x1
 630 00a2 01       		.byte	0x1
 631 00a3 49       		.uleb128 0x49
 632 00a4 13       		.uleb128 0x13
 633 00a5 01       		.uleb128 0x1
 634 00a6 13       		.uleb128 0x13
 635 00a7 00       		.byte	0
 636 00a8 00       		.byte	0
 637 00a9 0D       		.uleb128 0xd
 638 00aa 21       		.uleb128 0x21
 639 00ab 00       		.byte	0
 640 00ac 00       		.byte	0
 641 00ad 00       		.byte	0
 642 00ae 0E       		.uleb128 0xe
 643 00af 2E       		.uleb128 0x2e
 644 00b0 01       		.byte	0x1
 645 00b1 3F       		.uleb128 0x3f
 646 00b2 19       		.uleb128 0x19
 647 00b3 03       		.uleb128 0x3
 648 00b4 0E       		.uleb128 0xe
 649 00b5 3A       		.uleb128 0x3a
 650 00b6 0B       		.uleb128 0xb
 651 00b7 3B       		.uleb128 0x3b
 652 00b8 0B       		.uleb128 0xb
 653 00b9 27       		.uleb128 0x27
 654 00ba 19       		.uleb128 0x19
 655 00bb 49       		.uleb128 0x49
 656 00bc 13       		.uleb128 0x13
 657 00bd 11       		.uleb128 0x11
 658 00be 01       		.uleb128 0x1
 659 00bf 12       		.uleb128 0x12
 660 00c0 06       		.uleb128 0x6
 661 00c1 40       		.uleb128 0x40
 662 00c2 18       		.uleb128 0x18
 663 00c3 9742     		.uleb128 0x2117
 664 00c5 19       		.uleb128 0x19
 665 00c6 01       		.uleb128 0x1
 666 00c7 13       		.uleb128 0x13
 667 00c8 00       		.byte	0
 668 00c9 00       		.byte	0
 669 00ca 0F       		.uleb128 0xf
 670 00cb 05       		.uleb128 0x5
 671 00cc 00       		.byte	0
 672 00cd 03       		.uleb128 0x3
 673 00ce 0E       		.uleb128 0xe
 674 00cf 3A       		.uleb128 0x3a
 675 00d0 0B       		.uleb128 0xb
 676 00d1 3B       		.uleb128 0x3b
 677 00d2 0B       		.uleb128 0xb
 678 00d3 49       		.uleb128 0x49
 679 00d4 13       		.uleb128 0x13
 680 00d5 02       		.uleb128 0x2
ARM GAS  /tmp/cctIPXEk.s 			page 13


 681 00d6 17       		.uleb128 0x17
 682 00d7 00       		.byte	0
 683 00d8 00       		.byte	0
 684 00d9 10       		.uleb128 0x10
 685 00da 0B       		.uleb128 0xb
 686 00db 01       		.byte	0x1
 687 00dc 11       		.uleb128 0x11
 688 00dd 01       		.uleb128 0x1
 689 00de 12       		.uleb128 0x12
 690 00df 06       		.uleb128 0x6
 691 00e0 01       		.uleb128 0x1
 692 00e1 13       		.uleb128 0x13
 693 00e2 00       		.byte	0
 694 00e3 00       		.byte	0
 695 00e4 11       		.uleb128 0x11
 696 00e5 34       		.uleb128 0x34
 697 00e6 00       		.byte	0
 698 00e7 03       		.uleb128 0x3
 699 00e8 08       		.uleb128 0x8
 700 00e9 3A       		.uleb128 0x3a
 701 00ea 0B       		.uleb128 0xb
 702 00eb 3B       		.uleb128 0x3b
 703 00ec 0B       		.uleb128 0xb
 704 00ed 49       		.uleb128 0x49
 705 00ee 13       		.uleb128 0x13
 706 00ef 02       		.uleb128 0x2
 707 00f0 18       		.uleb128 0x18
 708 00f1 00       		.byte	0
 709 00f2 00       		.byte	0
 710 00f3 12       		.uleb128 0x12
 711 00f4 1D       		.uleb128 0x1d
 712 00f5 01       		.byte	0x1
 713 00f6 31       		.uleb128 0x31
 714 00f7 13       		.uleb128 0x13
 715 00f8 11       		.uleb128 0x11
 716 00f9 01       		.uleb128 0x1
 717 00fa 12       		.uleb128 0x12
 718 00fb 06       		.uleb128 0x6
 719 00fc 58       		.uleb128 0x58
 720 00fd 0B       		.uleb128 0xb
 721 00fe 59       		.uleb128 0x59
 722 00ff 0B       		.uleb128 0xb
 723 0100 01       		.uleb128 0x1
 724 0101 13       		.uleb128 0x13
 725 0102 00       		.byte	0
 726 0103 00       		.byte	0
 727 0104 13       		.uleb128 0x13
 728 0105 05       		.uleb128 0x5
 729 0106 00       		.byte	0
 730 0107 31       		.uleb128 0x31
 731 0108 13       		.uleb128 0x13
 732 0109 02       		.uleb128 0x2
 733 010a 17       		.uleb128 0x17
 734 010b 00       		.byte	0
 735 010c 00       		.byte	0
 736 010d 14       		.uleb128 0x14
 737 010e 0B       		.uleb128 0xb
ARM GAS  /tmp/cctIPXEk.s 			page 14


 738 010f 01       		.byte	0x1
 739 0110 11       		.uleb128 0x11
 740 0111 01       		.uleb128 0x1
 741 0112 12       		.uleb128 0x12
 742 0113 06       		.uleb128 0x6
 743 0114 00       		.byte	0
 744 0115 00       		.byte	0
 745 0116 15       		.uleb128 0x15
 746 0117 34       		.uleb128 0x34
 747 0118 00       		.byte	0
 748 0119 31       		.uleb128 0x31
 749 011a 13       		.uleb128 0x13
 750 011b 02       		.uleb128 0x2
 751 011c 18       		.uleb128 0x18
 752 011d 00       		.byte	0
 753 011e 00       		.byte	0
 754 011f 16       		.uleb128 0x16
 755 0120 2E       		.uleb128 0x2e
 756 0121 01       		.byte	0x1
 757 0122 31       		.uleb128 0x31
 758 0123 13       		.uleb128 0x13
 759 0124 11       		.uleb128 0x11
 760 0125 01       		.uleb128 0x1
 761 0126 12       		.uleb128 0x12
 762 0127 06       		.uleb128 0x6
 763 0128 40       		.uleb128 0x40
 764 0129 18       		.uleb128 0x18
 765 012a 9742     		.uleb128 0x2117
 766 012c 19       		.uleb128 0x19
 767 012d 01       		.uleb128 0x1
 768 012e 13       		.uleb128 0x13
 769 012f 00       		.byte	0
 770 0130 00       		.byte	0
 771 0131 17       		.uleb128 0x17
 772 0132 2E       		.uleb128 0x2e
 773 0133 00       		.byte	0
 774 0134 3F       		.uleb128 0x3f
 775 0135 19       		.uleb128 0x19
 776 0136 03       		.uleb128 0x3
 777 0137 0E       		.uleb128 0xe
 778 0138 3A       		.uleb128 0x3a
 779 0139 0B       		.uleb128 0xb
 780 013a 3B       		.uleb128 0x3b
 781 013b 0B       		.uleb128 0xb
 782 013c 27       		.uleb128 0x27
 783 013d 19       		.uleb128 0x19
 784 013e 49       		.uleb128 0x49
 785 013f 13       		.uleb128 0x13
 786 0140 11       		.uleb128 0x11
 787 0141 01       		.uleb128 0x1
 788 0142 12       		.uleb128 0x12
 789 0143 06       		.uleb128 0x6
 790 0144 40       		.uleb128 0x40
 791 0145 18       		.uleb128 0x18
 792 0146 9742     		.uleb128 0x2117
 793 0148 19       		.uleb128 0x19
 794 0149 00       		.byte	0
ARM GAS  /tmp/cctIPXEk.s 			page 15


 795 014a 00       		.byte	0
 796 014b 18       		.uleb128 0x18
 797 014c 34       		.uleb128 0x34
 798 014d 00       		.byte	0
 799 014e 03       		.uleb128 0x3
 800 014f 0E       		.uleb128 0xe
 801 0150 3A       		.uleb128 0x3a
 802 0151 0B       		.uleb128 0xb
 803 0152 3B       		.uleb128 0x3b
 804 0153 0B       		.uleb128 0xb
 805 0154 49       		.uleb128 0x49
 806 0155 13       		.uleb128 0x13
 807 0156 02       		.uleb128 0x2
 808 0157 18       		.uleb128 0x18
 809 0158 00       		.byte	0
 810 0159 00       		.byte	0
 811 015a 00       		.byte	0
 812              		.section	.debug_loc,"",%progbits
 813              	.Ldebug_loc0:
 814              	.LLST0:
 815 0000 00000000 		.4byte	.LVL0
 816 0004 1C000000 		.4byte	.LVL2
 817 0008 0100     		.2byte	0x1
 818 000a 50       		.byte	0x50
 819 000b 1C000000 		.4byte	.LVL2
 820 000f 20000000 		.4byte	.LVL3
 821 0013 0300     		.2byte	0x3
 822 0015 70       		.byte	0x70
 823 0016 79       		.sleb128 -7
 824 0017 9F       		.byte	0x9f
 825 0018 20000000 		.4byte	.LVL3
 826 001c 36000000 		.4byte	.LFE8
 827 0020 0400     		.2byte	0x4
 828 0022 F3       		.byte	0xf3
 829 0023 01       		.uleb128 0x1
 830 0024 50       		.byte	0x50
 831 0025 9F       		.byte	0x9f
 832 0026 00000000 		.4byte	0
 833 002a 00000000 		.4byte	0
 834              	.LLST1:
 835 002e 06000000 		.4byte	.LVL1
 836 0032 1C000000 		.4byte	.LVL2
 837 0036 0100     		.2byte	0x1
 838 0038 50       		.byte	0x50
 839 0039 1C000000 		.4byte	.LVL2
 840 003d 20000000 		.4byte	.LVL3
 841 0041 0300     		.2byte	0x3
 842 0043 70       		.byte	0x70
 843 0044 79       		.sleb128 -7
 844 0045 9F       		.byte	0x9f
 845 0046 20000000 		.4byte	.LVL3
 846 004a 28000000 		.4byte	.LVL5
 847 004e 0100     		.2byte	0x1
 848 0050 50       		.byte	0x50
 849 0051 28000000 		.4byte	.LVL5
 850 0055 36000000 		.4byte	.LFE8
 851 0059 0900     		.2byte	0x9
ARM GAS  /tmp/cctIPXEk.s 			page 16


 852 005b F3       		.byte	0xf3
 853 005c 01       		.uleb128 0x1
 854 005d 50       		.byte	0x50
 855 005e 23       		.byte	0x23
 856 005f 07       		.uleb128 0x7
 857 0060 09       		.byte	0x9
 858 0061 F8       		.byte	0xf8
 859 0062 1A       		.byte	0x1a
 860 0063 9F       		.byte	0x9f
 861 0064 00000000 		.4byte	0
 862 0068 00000000 		.4byte	0
 863              	.LLST2:
 864 006c 00000000 		.4byte	.LVL6
 865 0070 16000000 		.4byte	.LVL7
 866 0074 0100     		.2byte	0x1
 867 0076 50       		.byte	0x50
 868 0077 16000000 		.4byte	.LVL7
 869 007b 1A000000 		.4byte	.LVL8
 870 007f 0300     		.2byte	0x3
 871 0081 70       		.byte	0x70
 872 0082 79       		.sleb128 -7
 873 0083 9F       		.byte	0x9f
 874 0084 1A000000 		.4byte	.LVL8
 875 0088 22000000 		.4byte	.LVL10
 876 008c 0100     		.2byte	0x1
 877 008e 50       		.byte	0x50
 878 008f 22000000 		.4byte	.LVL10
 879 0093 2A000000 		.4byte	.LFE9
 880 0097 0900     		.2byte	0x9
 881 0099 F3       		.byte	0xf3
 882 009a 01       		.uleb128 0x1
 883 009b 50       		.byte	0x50
 884 009c 23       		.byte	0x23
 885 009d 07       		.uleb128 0x7
 886 009e 09       		.byte	0x9
 887 009f F8       		.byte	0xf8
 888 00a0 1A       		.byte	0x1a
 889 00a1 9F       		.byte	0x9f
 890 00a2 00000000 		.4byte	0
 891 00a6 00000000 		.4byte	0
 892              		.section	.debug_aranges,"",%progbits
 893 0000 34000000 		.4byte	0x34
 894 0004 0200     		.2byte	0x2
 895 0006 00000000 		.4byte	.Ldebug_info0
 896 000a 04       		.byte	0x4
 897 000b 00       		.byte	0
 898 000c 0000     		.2byte	0
 899 000e 0000     		.2byte	0
 900 0010 00000000 		.4byte	.LFB7
 901 0014 2C000000 		.4byte	.LFE7-.LFB7
 902 0018 00000000 		.4byte	.LFB8
 903 001c 36000000 		.4byte	.LFE8-.LFB8
 904 0020 00000000 		.4byte	.LFB9
 905 0024 2A000000 		.4byte	.LFE9-.LFB9
 906 0028 00000000 		.4byte	.LFB10
 907 002c 18000000 		.4byte	.LFE10-.LFB10
 908 0030 00000000 		.4byte	0
ARM GAS  /tmp/cctIPXEk.s 			page 17


 909 0034 00000000 		.4byte	0
 910              		.section	.debug_ranges,"",%progbits
 911              	.Ldebug_ranges0:
 912 0000 00000000 		.4byte	.LFB7
 913 0004 2C000000 		.4byte	.LFE7
 914 0008 00000000 		.4byte	.LFB8
 915 000c 36000000 		.4byte	.LFE8
 916 0010 00000000 		.4byte	.LFB9
 917 0014 2A000000 		.4byte	.LFE9
 918 0018 00000000 		.4byte	.LFB10
 919 001c 18000000 		.4byte	.LFE10
 920 0020 00000000 		.4byte	0
 921 0024 00000000 		.4byte	0
 922              		.section	.debug_line,"",%progbits
 923              	.Ldebug_line0:
 924 0000 1F010000 		.section	.debug_str,"MS",%progbits,1
 924      0200BB00 
 924      00000201 
 924      FB0E0D00 
 924      01010101 
 925              	.LASF19:
 926 0000 656E646D 		.ascii	"endmem\000"
 926      656D00
 927              	.LASF3:
 928 0007 5F5F7569 		.ascii	"__uint8_t\000"
 928      6E74385F 
 928      7400
 929              	.LASF2:
 930 0011 73697A65 		.ascii	"size_t\000"
 930      5F7400
 931              	.LASF20:
 932 0018 474E5520 		.ascii	"GNU C 4.8.2 -mcpu=cortex-m3 -mno-thumb-interwork -m"
 932      4320342E 
 932      382E3220 
 932      2D6D6370 
 932      753D636F 
 933 004b 7468756D 		.ascii	"thumb -ggdb -O2 -std=gnu99 -fomit-frame-pointer -fa"
 933      62202D67 
 933      67646220 
 933      2D4F3220 
 933      2D737464 
 934 007e 6C69676E 		.ascii	"lign-functions=16 -ffunction-sections -fdata-sectio"
 934      2D66756E 
 934      6374696F 
 934      6E733D31 
 934      36202D66 
 935 00b1 6E73202D 		.ascii	"ns -fno-common\000"
 935      666E6F2D 
 935      636F6D6D 
 935      6F6E00
 936              	.LASF18:
 937 00c0 6E657874 		.ascii	"nextmem\000"
 937      6D656D00 
 938              	.LASF23:
 939 00c8 6368436F 		.ascii	"chCoreAllocI\000"
 939      7265416C 
 939      6C6F6349 
ARM GAS  /tmp/cctIPXEk.s 			page 18


 939      00
 940              	.LASF24:
 941 00d5 73697A65 		.ascii	"size\000"
 941      00
 942              	.LASF9:
 943 00da 6C6F6E67 		.ascii	"long unsigned int\000"
 943      20756E73 
 943      69676E65 
 943      6420696E 
 943      7400
 944              	.LASF27:
 945 00ec 6368436F 		.ascii	"chCoreStatus\000"
 945      72655374 
 945      61747573 
 945      00
 946              	.LASF6:
 947 00f9 73686F72 		.ascii	"short unsigned int\000"
 947      7420756E 
 947      7369676E 
 947      65642069 
 947      6E7400
 948              	.LASF13:
 949 010c 75696E74 		.ascii	"uint32_t\000"
 949      33325F74 
 949      00
 950              	.LASF4:
 951 0115 756E7369 		.ascii	"unsigned char\000"
 951      676E6564 
 951      20636861 
 951      7200
 952              	.LASF8:
 953 0123 5F5F7569 		.ascii	"__uint32_t\000"
 953      6E743332 
 953      5F7400
 954              	.LASF25:
 955 012e 5F636F72 		.ascii	"_core_init\000"
 955      655F696E 
 955      697400
 956              	.LASF0:
 957 0139 756E7369 		.ascii	"unsigned int\000"
 957      676E6564 
 957      20696E74 
 957      00
 958              	.LASF11:
 959 0146 6C6F6E67 		.ascii	"long long unsigned int\000"
 959      206C6F6E 
 959      6720756E 
 959      7369676E 
 959      65642069 
 960              	.LASF12:
 961 015d 75696E74 		.ascii	"uint8_t\000"
 961      385F7400 
 962              	.LASF16:
 963 0165 5F5F6865 		.ascii	"__heap_base__\000"
 963      61705F62 
 963      6173655F 
 963      5F00
ARM GAS  /tmp/cctIPXEk.s 			page 19


 964              	.LASF22:
 965 0173 2F686F6D 		.ascii	"/home/murray/Robotics/Carlos/git/myfork/stamp/iflab"
 965      652F6D75 
 965      72726179 
 965      2F526F62 
 965      6F746963 
 966 01a6 2F436869 		.ascii	"/ChibiOS/iflab_code/vm_logo\000"
 966      62694F53 
 966      2F69666C 
 966      61625F63 
 966      6F64652F 
 967              	.LASF14:
 968 01c2 73697A65 		.ascii	"sizetype\000"
 968      74797065 
 968      00
 969              	.LASF10:
 970 01cb 6C6F6E67 		.ascii	"long long int\000"
 970      206C6F6E 
 970      6720696E 
 970      7400
 971              	.LASF15:
 972 01d9 63686172 		.ascii	"char\000"
 972      00
 973              	.LASF17:
 974 01de 5F5F6865 		.ascii	"__heap_end__\000"
 974      61705F65 
 974      6E645F5F 
 974      00
 975              	.LASF5:
 976 01eb 73686F72 		.ascii	"short int\000"
 976      7420696E 
 976      7400
 977              	.LASF21:
 978 01f5 2E2E2F2E 		.ascii	"../../os/kernel/src/chmemcore.c\000"
 978      2E2F6F73 
 978      2F6B6572 
 978      6E656C2F 
 978      7372632F 
 979              	.LASF26:
 980 0215 6368436F 		.ascii	"chCoreAlloc\000"
 980      7265416C 
 980      6C6F6300 
 981              	.LASF7:
 982 0221 6C6F6E67 		.ascii	"long int\000"
 982      20696E74 
 982      00
 983              	.LASF1:
 984 022a 7369676E 		.ascii	"signed char\000"
 984      65642063 
 984      68617200 
 985              		.ident	"GCC: (4.8.2-14ubuntu1+6) 4.8.2"
ARM GAS  /tmp/cctIPXEk.s 			page 20


DEFINED SYMBOLS
                            *ABS*:00000000 chmemcore.c
     /tmp/cctIPXEk.s:19     .text._core_init:00000000 $t
     /tmp/cctIPXEk.s:25     .text._core_init:00000000 _core_init
     /tmp/cctIPXEk.s:200    .bss.endmem:00000000 .LANCHOR1
     /tmp/cctIPXEk.s:207    .bss.nextmem:00000000 .LANCHOR0
     /tmp/cctIPXEk.s:56     .text._core_init:00000028 $d
     /tmp/cctIPXEk.s:61     .text.chCoreAlloc:00000000 $t
     /tmp/cctIPXEk.s:67     .text.chCoreAlloc:00000000 chCoreAlloc
     /tmp/cctIPXEk.s:127    .text.chCoreAllocI:00000000 $t
     /tmp/cctIPXEk.s:133    .text.chCoreAllocI:00000000 chCoreAllocI
     /tmp/cctIPXEk.s:172    .text.chCoreStatus:00000000 $t
     /tmp/cctIPXEk.s:178    .text.chCoreStatus:00000000 chCoreStatus
     /tmp/cctIPXEk.s:199    .bss.endmem:00000000 $d
     /tmp/cctIPXEk.s:203    .bss.endmem:00000000 endmem
     /tmp/cctIPXEk.s:206    .bss.nextmem:00000000 $d
     /tmp/cctIPXEk.s:210    .bss.nextmem:00000000 nextmem
                     .debug_frame:00000010 $d
     /tmp/cctIPXEk.s:60     .text._core_init:0000002c $t

UNDEFINED SYMBOLS
__heap_end__
__heap_base__
