ARM GAS  /tmp/ccs3H8xc.s 			page 1


   1              		.syntax unified
   2              		.cpu cortex-m3
   3              		.fpu softvfp
   4              		.eabi_attribute 20, 1
   5              		.eabi_attribute 21, 1
   6              		.eabi_attribute 23, 3
   7              		.eabi_attribute 24, 1
   8              		.eabi_attribute 25, 1
   9              		.eabi_attribute 26, 1
  10              		.eabi_attribute 30, 2
  11              		.eabi_attribute 34, 1
  12              		.eabi_attribute 18, 4
  13              		.thumb
  14              		.file	"hw_adc.c"
  15              		.text
  16              	.Ltext0:
  17              		.cfi_sections	.debug_frame
  18              		.section	.text.hw_adc_init,"ax",%progbits
  19              		.align	2
  20              		.p2align 4,,15
  21              		.global	hw_adc_init
  22              		.thumb
  23              		.thumb_func
  24              		.type	hw_adc_init, %function
  25              	hw_adc_init:
  26              	.LFB0:
  27              		.file 1 "./weta_vm/hw/hw_adc.c"
  28              		.loc 1 6 0
  29              		.cfi_startproc
  30              		@ args = 0, pretend = 0, frame = 0
  31              		@ frame_needed = 0, uses_anonymous_args = 0
  32              		@ link register save eliminated.
  33              	.LVL0:
  34              		.loc 1 8 0
  35 0000 FFF7FEBF 		b	stamp_init_adc
  36              	.LVL1:
  37              		.cfi_endproc
  38              	.LFE0:
  39              		.size	hw_adc_init, .-hw_adc_init
  40 0004 AFF30080 		.section	.text.hw_adc_get,"ax",%progbits
  40      AFF30080 
  40      AFF30080 
  41              		.align	2
  42              		.p2align 4,,15
  43              		.global	hw_adc_get
  44              		.thumb
  45              		.thumb_func
  46              		.type	hw_adc_get, %function
  47              	hw_adc_get:
  48              	.LFB1:
  49              		.loc 1 13 0
  50              		.cfi_startproc
  51              		@ args = 0, pretend = 0, frame = 0
  52              		@ frame_needed = 0, uses_anonymous_args = 0
  53              		@ link register save eliminated.
  54              	.LVL2:
  55              		.loc 1 14 0
ARM GAS  /tmp/ccs3H8xc.s 			page 2


  56 0000 FFF7FEBF 		b	stamp_adc
  57              	.LVL3:
  58              		.cfi_endproc
  59              	.LFE1:
  60              		.size	hw_adc_get, .-hw_adc_get
  61 0004 AFF30080 		.text
  61      AFF30080 
  61      AFF30080 
  62              	.Letext0:
  63              		.file 2 "/usr/include/newlib/machine/_default_types.h"
  64              		.file 3 "/usr/include/newlib/stdint.h"
  65              		.file 4 "./weta_vm/hw/board_stamp.h"
  66              		.section	.debug_info,"",%progbits
  67              	.Ldebug_info0:
  68 0000 55010000 		.4byte	0x155
  69 0004 0400     		.2byte	0x4
  70 0006 00000000 		.4byte	.Ldebug_abbrev0
  71 000a 04       		.byte	0x4
  72 000b 01       		.uleb128 0x1
  73 000c 32000000 		.4byte	.LASF19
  74 0010 01       		.byte	0x1
  75 0011 1C000000 		.4byte	.LASF20
  76 0015 B4010000 		.4byte	.LASF21
  77 0019 00000000 		.4byte	.Ldebug_ranges0+0
  78 001d 00000000 		.4byte	0
  79 0021 00000000 		.4byte	.Ldebug_line0
  80 0025 02       		.uleb128 0x2
  81 0026 01       		.byte	0x1
  82 0027 06       		.byte	0x6
  83 0028 E6000000 		.4byte	.LASF0
  84 002c 03       		.uleb128 0x3
  85 002d 00000000 		.4byte	.LASF2
  86 0031 02       		.byte	0x2
  87 0032 1C       		.byte	0x1c
  88 0033 37000000 		.4byte	0x37
  89 0037 02       		.uleb128 0x2
  90 0038 01       		.byte	0x1
  91 0039 08       		.byte	0x8
  92 003a F2000000 		.4byte	.LASF1
  93 003e 03       		.uleb128 0x3
  94 003f 12000000 		.4byte	.LASF3
  95 0043 02       		.byte	0x2
  96 0044 25       		.byte	0x25
  97 0045 49000000 		.4byte	0x49
  98 0049 02       		.uleb128 0x2
  99 004a 02       		.byte	0x2
 100 004b 05       		.byte	0x5
 101 004c 98010000 		.4byte	.LASF4
 102 0050 03       		.uleb128 0x3
 103 0051 25010000 		.4byte	.LASF5
 104 0055 02       		.byte	0x2
 105 0056 26       		.byte	0x26
 106 0057 5B000000 		.4byte	0x5b
 107 005b 02       		.uleb128 0x2
 108 005c 02       		.byte	0x2
 109 005d 07       		.byte	0x7
 110 005e 12010000 		.4byte	.LASF6
ARM GAS  /tmp/ccs3H8xc.s 			page 3


 111 0062 02       		.uleb128 0x2
 112 0063 04       		.byte	0x4
 113 0064 05       		.byte	0x5
 114 0065 AB010000 		.4byte	.LASF7
 115 0069 02       		.uleb128 0x2
 116 006a 04       		.byte	0x4
 117 006b 07       		.byte	0x7
 118 006c 00010000 		.4byte	.LASF8
 119 0070 02       		.uleb128 0x2
 120 0071 08       		.byte	0x8
 121 0072 05       		.byte	0x5
 122 0073 84010000 		.4byte	.LASF9
 123 0077 02       		.uleb128 0x2
 124 0078 08       		.byte	0x8
 125 0079 07       		.byte	0x7
 126 007a 5D010000 		.4byte	.LASF10
 127 007e 04       		.uleb128 0x4
 128 007f 04       		.byte	0x4
 129 0080 05       		.byte	0x5
 130 0081 696E7400 		.ascii	"int\000"
 131 0085 02       		.uleb128 0x2
 132 0086 04       		.byte	0x4
 133 0087 07       		.byte	0x7
 134 0088 3B010000 		.4byte	.LASF11
 135 008c 03       		.uleb128 0x3
 136 008d 74010000 		.4byte	.LASF12
 137 0091 03       		.byte	0x3
 138 0092 2A       		.byte	0x2a
 139 0093 2C000000 		.4byte	0x2c
 140 0097 03       		.uleb128 0x3
 141 0098 7C010000 		.4byte	.LASF13
 142 009c 03       		.byte	0x3
 143 009d 35       		.byte	0x35
 144 009e 3E000000 		.4byte	0x3e
 145 00a2 03       		.uleb128 0x3
 146 00a3 A2010000 		.4byte	.LASF14
 147 00a7 03       		.byte	0x3
 148 00a8 36       		.byte	0x36
 149 00a9 50000000 		.4byte	0x50
 150 00ad 05       		.uleb128 0x5
 151 00ae DA000000 		.4byte	.LASF22
 152 00b2 01       		.byte	0x1
 153 00b3 05       		.byte	0x5
 154 00b4 00000000 		.4byte	.LFB0
 155 00b8 04000000 		.4byte	.LFE0-.LFB0
 156 00bc 01       		.uleb128 0x1
 157 00bd 9C       		.byte	0x9c
 158 00be DB000000 		.4byte	0xdb
 159 00c2 06       		.uleb128 0x6
 160 00c3 48010000 		.4byte	.LASF15
 161 00c7 01       		.byte	0x1
 162 00c8 05       		.byte	0x5
 163 00c9 A2000000 		.4byte	0xa2
 164 00cd 00000000 		.4byte	.LLST0
 165 00d1 07       		.uleb128 0x7
 166 00d2 04000000 		.4byte	.LVL1
 167 00d6 31010000 		.4byte	0x131
ARM GAS  /tmp/ccs3H8xc.s 			page 4


 168 00da 00       		.byte	0
 169 00db 08       		.uleb128 0x8
 170 00dc 30010000 		.4byte	.LASF23
 171 00e0 01       		.byte	0x1
 172 00e1 0C       		.byte	0xc
 173 00e2 24010000 		.4byte	0x124
 174 00e6 00000000 		.4byte	.LFB1
 175 00ea 04000000 		.4byte	.LFE1-.LFB1
 176 00ee 01       		.uleb128 0x1
 177 00ef 9C       		.byte	0x9c
 178 00f0 24010000 		.4byte	0x124
 179 00f4 06       		.uleb128 0x6
 180 00f5 0A000000 		.4byte	.LASF16
 181 00f9 01       		.byte	0x1
 182 00fa 0C       		.byte	0xc
 183 00fb 8C000000 		.4byte	0x8c
 184 00ff 21000000 		.4byte	.LLST1
 185 0103 06       		.uleb128 0x6
 186 0104 92010000 		.4byte	.LASF17
 187 0108 01       		.byte	0x1
 188 0109 0C       		.byte	0xc
 189 010a 2B010000 		.4byte	0x12b
 190 010e 42000000 		.4byte	.LLST2
 191 0112 09       		.uleb128 0x9
 192 0113 04000000 		.4byte	.LVL3
 193 0117 38010000 		.4byte	0x138
 194 011b 0A       		.uleb128 0xa
 195 011c 01       		.uleb128 0x1
 196 011d 51       		.byte	0x51
 197 011e 03       		.uleb128 0x3
 198 011f F3       		.byte	0xf3
 199 0120 01       		.uleb128 0x1
 200 0121 51       		.byte	0x51
 201 0122 00       		.byte	0
 202 0123 00       		.byte	0
 203 0124 02       		.uleb128 0x2
 204 0125 01       		.byte	0x1
 205 0126 02       		.byte	0x2
 206 0127 03020000 		.4byte	.LASF18
 207 012b 0B       		.uleb128 0xb
 208 012c 04       		.byte	0x4
 209 012d 97000000 		.4byte	0x97
 210 0131 0C       		.uleb128 0xc
 211 0132 4E010000 		.4byte	.LASF24
 212 0136 04       		.byte	0x4
 213 0137 19       		.byte	0x19
 214 0138 0D       		.uleb128 0xd
 215 0139 09020000 		.4byte	.LASF25
 216 013d 04       		.byte	0x4
 217 013e 1A       		.byte	0x1a
 218 013f 24010000 		.4byte	0x124
 219 0143 52010000 		.4byte	0x152
 220 0147 0E       		.uleb128 0xe
 221 0148 8C000000 		.4byte	0x8c
 222 014c 0E       		.uleb128 0xe
 223 014d 52010000 		.4byte	0x152
 224 0151 00       		.byte	0
ARM GAS  /tmp/ccs3H8xc.s 			page 5


 225 0152 0B       		.uleb128 0xb
 226 0153 04       		.byte	0x4
 227 0154 A2000000 		.4byte	0xa2
 228 0158 00       		.byte	0
 229              		.section	.debug_abbrev,"",%progbits
 230              	.Ldebug_abbrev0:
 231 0000 01       		.uleb128 0x1
 232 0001 11       		.uleb128 0x11
 233 0002 01       		.byte	0x1
 234 0003 25       		.uleb128 0x25
 235 0004 0E       		.uleb128 0xe
 236 0005 13       		.uleb128 0x13
 237 0006 0B       		.uleb128 0xb
 238 0007 03       		.uleb128 0x3
 239 0008 0E       		.uleb128 0xe
 240 0009 1B       		.uleb128 0x1b
 241 000a 0E       		.uleb128 0xe
 242 000b 55       		.uleb128 0x55
 243 000c 17       		.uleb128 0x17
 244 000d 11       		.uleb128 0x11
 245 000e 01       		.uleb128 0x1
 246 000f 10       		.uleb128 0x10
 247 0010 17       		.uleb128 0x17
 248 0011 00       		.byte	0
 249 0012 00       		.byte	0
 250 0013 02       		.uleb128 0x2
 251 0014 24       		.uleb128 0x24
 252 0015 00       		.byte	0
 253 0016 0B       		.uleb128 0xb
 254 0017 0B       		.uleb128 0xb
 255 0018 3E       		.uleb128 0x3e
 256 0019 0B       		.uleb128 0xb
 257 001a 03       		.uleb128 0x3
 258 001b 0E       		.uleb128 0xe
 259 001c 00       		.byte	0
 260 001d 00       		.byte	0
 261 001e 03       		.uleb128 0x3
 262 001f 16       		.uleb128 0x16
 263 0020 00       		.byte	0
 264 0021 03       		.uleb128 0x3
 265 0022 0E       		.uleb128 0xe
 266 0023 3A       		.uleb128 0x3a
 267 0024 0B       		.uleb128 0xb
 268 0025 3B       		.uleb128 0x3b
 269 0026 0B       		.uleb128 0xb
 270 0027 49       		.uleb128 0x49
 271 0028 13       		.uleb128 0x13
 272 0029 00       		.byte	0
 273 002a 00       		.byte	0
 274 002b 04       		.uleb128 0x4
 275 002c 24       		.uleb128 0x24
 276 002d 00       		.byte	0
 277 002e 0B       		.uleb128 0xb
 278 002f 0B       		.uleb128 0xb
 279 0030 3E       		.uleb128 0x3e
 280 0031 0B       		.uleb128 0xb
 281 0032 03       		.uleb128 0x3
ARM GAS  /tmp/ccs3H8xc.s 			page 6


 282 0033 08       		.uleb128 0x8
 283 0034 00       		.byte	0
 284 0035 00       		.byte	0
 285 0036 05       		.uleb128 0x5
 286 0037 2E       		.uleb128 0x2e
 287 0038 01       		.byte	0x1
 288 0039 3F       		.uleb128 0x3f
 289 003a 19       		.uleb128 0x19
 290 003b 03       		.uleb128 0x3
 291 003c 0E       		.uleb128 0xe
 292 003d 3A       		.uleb128 0x3a
 293 003e 0B       		.uleb128 0xb
 294 003f 3B       		.uleb128 0x3b
 295 0040 0B       		.uleb128 0xb
 296 0041 27       		.uleb128 0x27
 297 0042 19       		.uleb128 0x19
 298 0043 11       		.uleb128 0x11
 299 0044 01       		.uleb128 0x1
 300 0045 12       		.uleb128 0x12
 301 0046 06       		.uleb128 0x6
 302 0047 40       		.uleb128 0x40
 303 0048 18       		.uleb128 0x18
 304 0049 9742     		.uleb128 0x2117
 305 004b 19       		.uleb128 0x19
 306 004c 01       		.uleb128 0x1
 307 004d 13       		.uleb128 0x13
 308 004e 00       		.byte	0
 309 004f 00       		.byte	0
 310 0050 06       		.uleb128 0x6
 311 0051 05       		.uleb128 0x5
 312 0052 00       		.byte	0
 313 0053 03       		.uleb128 0x3
 314 0054 0E       		.uleb128 0xe
 315 0055 3A       		.uleb128 0x3a
 316 0056 0B       		.uleb128 0xb
 317 0057 3B       		.uleb128 0x3b
 318 0058 0B       		.uleb128 0xb
 319 0059 49       		.uleb128 0x49
 320 005a 13       		.uleb128 0x13
 321 005b 02       		.uleb128 0x2
 322 005c 17       		.uleb128 0x17
 323 005d 00       		.byte	0
 324 005e 00       		.byte	0
 325 005f 07       		.uleb128 0x7
 326 0060 898201   		.uleb128 0x4109
 327 0063 00       		.byte	0
 328 0064 11       		.uleb128 0x11
 329 0065 01       		.uleb128 0x1
 330 0066 9542     		.uleb128 0x2115
 331 0068 19       		.uleb128 0x19
 332 0069 31       		.uleb128 0x31
 333 006a 13       		.uleb128 0x13
 334 006b 00       		.byte	0
 335 006c 00       		.byte	0
 336 006d 08       		.uleb128 0x8
 337 006e 2E       		.uleb128 0x2e
 338 006f 01       		.byte	0x1
ARM GAS  /tmp/ccs3H8xc.s 			page 7


 339 0070 3F       		.uleb128 0x3f
 340 0071 19       		.uleb128 0x19
 341 0072 03       		.uleb128 0x3
 342 0073 0E       		.uleb128 0xe
 343 0074 3A       		.uleb128 0x3a
 344 0075 0B       		.uleb128 0xb
 345 0076 3B       		.uleb128 0x3b
 346 0077 0B       		.uleb128 0xb
 347 0078 27       		.uleb128 0x27
 348 0079 19       		.uleb128 0x19
 349 007a 49       		.uleb128 0x49
 350 007b 13       		.uleb128 0x13
 351 007c 11       		.uleb128 0x11
 352 007d 01       		.uleb128 0x1
 353 007e 12       		.uleb128 0x12
 354 007f 06       		.uleb128 0x6
 355 0080 40       		.uleb128 0x40
 356 0081 18       		.uleb128 0x18
 357 0082 9742     		.uleb128 0x2117
 358 0084 19       		.uleb128 0x19
 359 0085 01       		.uleb128 0x1
 360 0086 13       		.uleb128 0x13
 361 0087 00       		.byte	0
 362 0088 00       		.byte	0
 363 0089 09       		.uleb128 0x9
 364 008a 898201   		.uleb128 0x4109
 365 008d 01       		.byte	0x1
 366 008e 11       		.uleb128 0x11
 367 008f 01       		.uleb128 0x1
 368 0090 9542     		.uleb128 0x2115
 369 0092 19       		.uleb128 0x19
 370 0093 31       		.uleb128 0x31
 371 0094 13       		.uleb128 0x13
 372 0095 00       		.byte	0
 373 0096 00       		.byte	0
 374 0097 0A       		.uleb128 0xa
 375 0098 8A8201   		.uleb128 0x410a
 376 009b 00       		.byte	0
 377 009c 02       		.uleb128 0x2
 378 009d 18       		.uleb128 0x18
 379 009e 9142     		.uleb128 0x2111
 380 00a0 18       		.uleb128 0x18
 381 00a1 00       		.byte	0
 382 00a2 00       		.byte	0
 383 00a3 0B       		.uleb128 0xb
 384 00a4 0F       		.uleb128 0xf
 385 00a5 00       		.byte	0
 386 00a6 0B       		.uleb128 0xb
 387 00a7 0B       		.uleb128 0xb
 388 00a8 49       		.uleb128 0x49
 389 00a9 13       		.uleb128 0x13
 390 00aa 00       		.byte	0
 391 00ab 00       		.byte	0
 392 00ac 0C       		.uleb128 0xc
 393 00ad 2E       		.uleb128 0x2e
 394 00ae 00       		.byte	0
 395 00af 3F       		.uleb128 0x3f
ARM GAS  /tmp/ccs3H8xc.s 			page 8


 396 00b0 19       		.uleb128 0x19
 397 00b1 03       		.uleb128 0x3
 398 00b2 0E       		.uleb128 0xe
 399 00b3 3A       		.uleb128 0x3a
 400 00b4 0B       		.uleb128 0xb
 401 00b5 3B       		.uleb128 0x3b
 402 00b6 0B       		.uleb128 0xb
 403 00b7 27       		.uleb128 0x27
 404 00b8 19       		.uleb128 0x19
 405 00b9 3C       		.uleb128 0x3c
 406 00ba 19       		.uleb128 0x19
 407 00bb 00       		.byte	0
 408 00bc 00       		.byte	0
 409 00bd 0D       		.uleb128 0xd
 410 00be 2E       		.uleb128 0x2e
 411 00bf 01       		.byte	0x1
 412 00c0 3F       		.uleb128 0x3f
 413 00c1 19       		.uleb128 0x19
 414 00c2 03       		.uleb128 0x3
 415 00c3 0E       		.uleb128 0xe
 416 00c4 3A       		.uleb128 0x3a
 417 00c5 0B       		.uleb128 0xb
 418 00c6 3B       		.uleb128 0x3b
 419 00c7 0B       		.uleb128 0xb
 420 00c8 27       		.uleb128 0x27
 421 00c9 19       		.uleb128 0x19
 422 00ca 49       		.uleb128 0x49
 423 00cb 13       		.uleb128 0x13
 424 00cc 3C       		.uleb128 0x3c
 425 00cd 19       		.uleb128 0x19
 426 00ce 01       		.uleb128 0x1
 427 00cf 13       		.uleb128 0x13
 428 00d0 00       		.byte	0
 429 00d1 00       		.byte	0
 430 00d2 0E       		.uleb128 0xe
 431 00d3 05       		.uleb128 0x5
 432 00d4 00       		.byte	0
 433 00d5 49       		.uleb128 0x49
 434 00d6 13       		.uleb128 0x13
 435 00d7 00       		.byte	0
 436 00d8 00       		.byte	0
 437 00d9 00       		.byte	0
 438              		.section	.debug_loc,"",%progbits
 439              	.Ldebug_loc0:
 440              	.LLST0:
 441 0000 00000000 		.4byte	.LVL0
 442 0004 00000000 		.4byte	.LVL0
 443 0008 0100     		.2byte	0x1
 444 000a 50       		.byte	0x50
 445 000b 00000000 		.4byte	.LVL0
 446 000f 04000000 		.4byte	.LFE0
 447 0013 0400     		.2byte	0x4
 448 0015 F3       		.byte	0xf3
 449 0016 01       		.uleb128 0x1
 450 0017 50       		.byte	0x50
 451 0018 9F       		.byte	0x9f
 452 0019 00000000 		.4byte	0
ARM GAS  /tmp/ccs3H8xc.s 			page 9


 453 001d 00000000 		.4byte	0
 454              	.LLST1:
 455 0021 00000000 		.4byte	.LVL2
 456 0025 03000000 		.4byte	.LVL3-1
 457 0029 0100     		.2byte	0x1
 458 002b 50       		.byte	0x50
 459 002c 03000000 		.4byte	.LVL3-1
 460 0030 04000000 		.4byte	.LFE1
 461 0034 0400     		.2byte	0x4
 462 0036 F3       		.byte	0xf3
 463 0037 01       		.uleb128 0x1
 464 0038 50       		.byte	0x50
 465 0039 9F       		.byte	0x9f
 466 003a 00000000 		.4byte	0
 467 003e 00000000 		.4byte	0
 468              	.LLST2:
 469 0042 00000000 		.4byte	.LVL2
 470 0046 03000000 		.4byte	.LVL3-1
 471 004a 0100     		.2byte	0x1
 472 004c 51       		.byte	0x51
 473 004d 03000000 		.4byte	.LVL3-1
 474 0051 04000000 		.4byte	.LFE1
 475 0055 0400     		.2byte	0x4
 476 0057 F3       		.byte	0xf3
 477 0058 01       		.uleb128 0x1
 478 0059 51       		.byte	0x51
 479 005a 9F       		.byte	0x9f
 480 005b 00000000 		.4byte	0
 481 005f 00000000 		.4byte	0
 482              		.section	.debug_aranges,"",%progbits
 483 0000 24000000 		.4byte	0x24
 484 0004 0200     		.2byte	0x2
 485 0006 00000000 		.4byte	.Ldebug_info0
 486 000a 04       		.byte	0x4
 487 000b 00       		.byte	0
 488 000c 0000     		.2byte	0
 489 000e 0000     		.2byte	0
 490 0010 00000000 		.4byte	.LFB0
 491 0014 04000000 		.4byte	.LFE0-.LFB0
 492 0018 00000000 		.4byte	.LFB1
 493 001c 04000000 		.4byte	.LFE1-.LFB1
 494 0020 00000000 		.4byte	0
 495 0024 00000000 		.4byte	0
 496              		.section	.debug_ranges,"",%progbits
 497              	.Ldebug_ranges0:
 498 0000 00000000 		.4byte	.LFB0
 499 0004 04000000 		.4byte	.LFE0
 500 0008 00000000 		.4byte	.LFB1
 501 000c 04000000 		.4byte	.LFE1
 502 0010 00000000 		.4byte	0
 503 0014 00000000 		.4byte	0
 504              		.section	.debug_line,"",%progbits
 505              	.Ldebug_line0:
 506 0000 B1000000 		.section	.debug_str,"MS",%progbits,1
 506      02008D00 
 506      00000201 
 506      FB0E0D00 
ARM GAS  /tmp/ccs3H8xc.s 			page 10


 506      01010101 
 507              	.LASF2:
 508 0000 5F5F7569 		.ascii	"__uint8_t\000"
 508      6E74385F 
 508      7400
 509              	.LASF16:
 510 000a 6368616E 		.ascii	"channel\000"
 510      6E656C00 
 511              	.LASF3:
 512 0012 5F5F696E 		.ascii	"__int16_t\000"
 512      7431365F 
 512      7400
 513              	.LASF20:
 514 001c 2E2F7765 		.ascii	"./weta_vm/hw/hw_adc.c\000"
 514      74615F76 
 514      6D2F6877 
 514      2F68775F 
 514      6164632E 
 515              	.LASF19:
 516 0032 474E5520 		.ascii	"GNU C 4.8.2 -mcpu=cortex-m3 -mno-thumb-interwork -m"
 516      4320342E 
 516      382E3220 
 516      2D6D6370 
 516      753D636F 
 517 0065 7468756D 		.ascii	"thumb -ggdb -O2 -std=gnu99 -fomit-frame-pointer -fa"
 517      62202D67 
 517      67646220 
 517      2D4F3220 
 517      2D737464 
 518 0098 6C69676E 		.ascii	"lign-functions=16 -ffunction-sections -fdata-sectio"
 518      2D66756E 
 518      6374696F 
 518      6E733D31 
 518      36202D66 
 519 00cb 6E73202D 		.ascii	"ns -fno-common\000"
 519      666E6F2D 
 519      636F6D6D 
 519      6F6E00
 520              	.LASF22:
 521 00da 68775F61 		.ascii	"hw_adc_init\000"
 521      64635F69 
 521      6E697400 
 522              	.LASF0:
 523 00e6 7369676E 		.ascii	"signed char\000"
 523      65642063 
 523      68617200 
 524              	.LASF1:
 525 00f2 756E7369 		.ascii	"unsigned char\000"
 525      676E6564 
 525      20636861 
 525      7200
 526              	.LASF8:
 527 0100 6C6F6E67 		.ascii	"long unsigned int\000"
 527      20756E73 
 527      69676E65 
 527      6420696E 
 527      7400
ARM GAS  /tmp/ccs3H8xc.s 			page 11


 528              	.LASF6:
 529 0112 73686F72 		.ascii	"short unsigned int\000"
 529      7420756E 
 529      7369676E 
 529      65642069 
 529      6E7400
 530              	.LASF5:
 531 0125 5F5F7569 		.ascii	"__uint16_t\000"
 531      6E743136 
 531      5F7400
 532              	.LASF23:
 533 0130 68775F61 		.ascii	"hw_adc_get\000"
 533      64635F67 
 533      657400
 534              	.LASF11:
 535 013b 756E7369 		.ascii	"unsigned int\000"
 535      676E6564 
 535      20696E74 
 535      00
 536              	.LASF15:
 537 0148 666C6167 		.ascii	"flags\000"
 537      7300
 538              	.LASF24:
 539 014e 7374616D 		.ascii	"stamp_init_adc\000"
 539      705F696E 
 539      69745F61 
 539      646300
 540              	.LASF10:
 541 015d 6C6F6E67 		.ascii	"long long unsigned int\000"
 541      206C6F6E 
 541      6720756E 
 541      7369676E 
 541      65642069 
 542              	.LASF12:
 543 0174 75696E74 		.ascii	"uint8_t\000"
 543      385F7400 
 544              	.LASF13:
 545 017c 696E7431 		.ascii	"int16_t\000"
 545      365F7400 
 546              	.LASF9:
 547 0184 6C6F6E67 		.ascii	"long long int\000"
 547      206C6F6E 
 547      6720696E 
 547      7400
 548              	.LASF17:
 549 0192 76616C75 		.ascii	"value\000"
 549      6500
 550              	.LASF4:
 551 0198 73686F72 		.ascii	"short int\000"
 551      7420696E 
 551      7400
 552              	.LASF14:
 553 01a2 75696E74 		.ascii	"uint16_t\000"
 553      31365F74 
 553      00
 554              	.LASF7:
 555 01ab 6C6F6E67 		.ascii	"long int\000"
ARM GAS  /tmp/ccs3H8xc.s 			page 12


 555      20696E74 
 555      00
 556              	.LASF21:
 557 01b4 2F686F6D 		.ascii	"/home/murray/Robotics/Carlos/git/myfork/stamp/iflab"
 557      652F6D75 
 557      72726179 
 557      2F526F62 
 557      6F746963 
 558 01e7 2F436869 		.ascii	"/ChibiOS/iflab_code/vm_logo\000"
 558      62694F53 
 558      2F69666C 
 558      61625F63 
 558      6F64652F 
 559              	.LASF18:
 560 0203 5F426F6F 		.ascii	"_Bool\000"
 560      6C00
 561              	.LASF25:
 562 0209 7374616D 		.ascii	"stamp_adc\000"
 562      705F6164 
 562      6300
 563              		.ident	"GCC: (4.8.2-14ubuntu1+6) 4.8.2"
ARM GAS  /tmp/ccs3H8xc.s 			page 13


DEFINED SYMBOLS
                            *ABS*:00000000 hw_adc.c
     /tmp/ccs3H8xc.s:19     .text.hw_adc_init:00000000 $t
     /tmp/ccs3H8xc.s:25     .text.hw_adc_init:00000000 hw_adc_init
     /tmp/ccs3H8xc.s:41     .text.hw_adc_get:00000000 $t
     /tmp/ccs3H8xc.s:47     .text.hw_adc_get:00000000 hw_adc_get
                     .debug_frame:00000010 $d

UNDEFINED SYMBOLS
stamp_init_adc
stamp_adc
