(module NR6028T4R7M (layer F.Cu) (tedit 55F0BFC9)
  (fp_text reference REF** (at 0.92 5.69) (layer F.SilkS)
    (effects (font (size 1 1) (thickness 0.15)))
  )
  (fp_text value NR6028T4R7M (at 0.92 -5.37) (layer F.Fab)
    (effects (font (size 1 1) (thickness 0.15)))
  )
  (fp_line (start 0 -3.1) (end 5.8 -3.1) (layer F.SilkS) (width 0.15))
  (fp_line (start 5.8 -3.1) (end 5.8 3.1) (layer F.SilkS) (width 0.15))
  (fp_line (start 5.8 3.1) (end -1 3.1) (layer F.SilkS) (width 0.15))
  (fp_line (start -1 3.1) (end -1.1 3.1) (layer F.SilkS) (width 0.15))
  (fp_line (start -1.1 3.1) (end -1.1 -3.1) (layer F.SilkS) (width 0.15))
  (fp_line (start -1.1 -3.1) (end 0 -3.1) (layer F.SilkS) (width 0.15))
  (pad 2 smd rect (at 4.7 0) (size 1.6 5.7) (layers F.Cu F.Paste F.Mask))
  (pad 1 smd rect (at 0 0) (size 1.6 5.7) (layers F.Cu F.Paste F.Mask))
)
