G04 #@! TF.FileFunction,Other,ECO1*
%FSLAX46Y46*%
G04 Gerber Fmt 4.6, Leading zero omitted, Abs format (unit mm)*
G04 Created by KiCad (PCBNEW 0.201503180816+5524~22~ubuntu14.04.1-product) date Wed 25 Mar 2015 05:41:28 PM COT*
%MOMM*%
G01*
G04 APERTURE LIST*
%ADD10C,0.150000*%
%ADD11C,0.152400*%
%ADD12C,0.076200*%
G04 APERTURE END LIST*
D10*
D11*
X130005000Y-133722000D02*
X126195000Y-133722000D01*
X126195000Y-127118000D02*
X130005000Y-127118000D01*
X130005000Y-127118000D02*
X130005000Y-133722000D01*
D12*
X129776400Y-133468000D02*
X129776400Y-127372000D01*
X129776400Y-127372000D02*
X126449000Y-127372000D01*
X126449000Y-127372000D02*
X126449000Y-133468000D01*
X126449000Y-133468000D02*
X126195000Y-133722000D01*
X126195000Y-133722000D02*
X126195000Y-127118000D01*
X126195000Y-127118000D02*
X126449000Y-127372000D01*
X126449000Y-127372000D02*
X129751000Y-127372000D01*
X129751000Y-127372000D02*
X129979600Y-127143400D01*
X129979600Y-127143400D02*
X129979600Y-127753000D01*
X129979600Y-128515000D02*
X129979600Y-130039000D01*
X129979600Y-130801000D02*
X129979600Y-132325000D01*
X129979600Y-133087000D02*
X129979600Y-133696600D01*
X129979600Y-133696600D02*
X129751000Y-133468000D01*
X129751000Y-133468000D02*
X126449000Y-133468000D01*
X126449000Y-133468000D02*
X126195000Y-133722000D01*
X126195000Y-133722000D02*
X126195000Y-131944000D01*
D10*
X181425630Y-147867100D02*
G75*
G03X181425630Y-147867100I-2425630J0D01*
G01*
X114425630Y-147867100D02*
G75*
G03X114425630Y-147867100I-2425630J0D01*
G01*
X114425630Y-81034000D02*
G75*
G03X114425630Y-81034000I-2425630J0D01*
G01*
X181425630Y-81034000D02*
G75*
G03X181425630Y-81034000I-2425630J0D01*
G01*
M02*
