EESchema Schematic File Version 2
LIBS:con-jack
LIBS:adm3101e
LIBS:microsd
LIBS:transistor-npn
LIBS:ipc-7351-transistor
LIBS:switch-misc
LIBS:power
LIBS:device
LIBS:transistors
LIBS:conn
LIBS:linear
LIBS:regul
LIBS:74xx
LIBS:cmos4000
LIBS:adc-dac
LIBS:memory
LIBS:xilinx
LIBS:special
LIBS:microcontrollers
LIBS:dsp
LIBS:microchip
LIBS:analog_switches
LIBS:motorola
LIBS:texas
LIBS:intel
LIBS:audio
LIBS:interface
LIBS:digital-audio
LIBS:philips
LIBS:display
LIBS:cypress
LIBS:siliconi
LIBS:opto
LIBS:atmel
LIBS:contrib
LIBS:valves
LIBS:micron_ddr_512Mb
LIBS:iMX23
LIBS:sdmmc
LIBS:usbconn
LIBS:fsusb20
LIBS:r_pack2
LIBS:pasives-connectors
LIBS:EEPROM
LIBS:PWR
LIBS:m25p32
LIBS:PROpendous-cache
LIBS:w_analog
LIBS:gl850g
LIBS:srf2012
LIBS:rclamp0502b
LIBS:mcp130
LIBS:ABM8G
LIBS:usb_a
LIBS:Reset
LIBS:stm32f100vxx
LIBS:lt1117cst
LIBS:zxmhc3f381n8
LIBS:fsusb43
LIBS:usb-mini
LIBS:atsam3n0aa-au
LIBS:drv8835
LIBS:sam3n2_64
LIBS:prolific
LIBS:ftdichip
LIBS:stamp_mini_4_layers-cache
EELAYER 24 0
EELAYER END
$Descr A4 11693 8268
encoding utf-8
Sheet 3 4
Title ""
Date "27 aug 2009"
Rev ""
Comp ""
Comment1 ""
Comment2 ""
Comment3 ""
Comment4 ""
$EndDescr
Text Notes 7550 7550 0    60   ~ 0
OPEN SERVO V3  KICAD transcription by Luis Carvajal
$Comp
L GND #PWR036
U 1 1 4A96935F
P 8200 3850
F 0 "#PWR036" H 8200 3850 30  0001 C CNN
F 1 "GND" H 8200 3780 30  0001 C CNN
F 2 "" H 8200 3850 60  0001 C CNN
F 3 "" H 8200 3850 60  0001 C CNN
	1    8200 3850
	1    0    0    -1  
$EndComp
Wire Wire Line
	8200 3850 8200 3550
Wire Wire Line
	5950 3400 5950 3450
Wire Wire Line
	8200 3000 8200 3150
Wire Wire Line
	5950 2800 5950 2900
Wire Wire Line
	5950 2850 6250 2850
Connection ~ 5950 2850
$Comp
L GND #PWR037
U 1 1 4A968DF1
P 5950 3450
F 0 "#PWR037" H 5950 3450 30  0001 C CNN
F 1 "GND" H 5950 3380 30  0001 C CNN
F 2 "" H 5950 3450 60  0001 C CNN
F 3 "" H 5950 3450 60  0001 C CNN
	1    5950 3450
	1    0    0    -1  
$EndComp
$Comp
L R R02
U 1 1 4A968DDA
P 5950 3150
F 0 "R02" V 6030 3150 50  0000 C CNN
F 1 "20k" V 5950 3150 50  0000 C CNN
F 2 "opendous:SM0603_Opendous" H 5950 3150 60  0001 C CNN
F 3 "" H 5950 3150 60  0001 C CNN
	1    5950 3150
	-1   0    0    1   
$EndComp
$Comp
L R RO1
U 1 1 4A968DCB
P 5950 2550
F 0 "RO1" V 6030 2550 50  0000 C CNN
F 1 "10k" V 5950 2550 50  0000 C CNN
F 2 "opendous:SM0603_Opendous" H 5950 2550 60  0001 C CNN
F 3 "" H 5950 2550 60  0001 C CNN
	1    5950 2550
	-1   0    0    1   
$EndComp
$Comp
L C C01
U 1 1 4A92AA0D
P 8200 3350
F 0 "C01" H 8250 3450 50  0000 L CNN
F 1 "100nF" H 8250 3250 50  0000 L CNN
F 2 "opendous:SM0603_Opendous" H 8200 3350 60  0001 C CNN
F 3 "" H 8200 3350 60  0001 C CNN
	1    8200 3350
	1    0    0    -1  
$EndComp
$Comp
L SN74CBT1G125 UO1
U 1 1 541E38FB
P 7150 2850
F 0 "UO1" H 7150 2850 60  0000 C CNN
F 1 "SN74CBT1G125" H 7150 2950 60  0000 C CNN
F 2 "opendous:SOT23-5_Opendous" H 7150 2750 60  0001 C CNN
F 3 "" H 7150 2850 60  0000 C CNN
	1    7150 2850
	1    0    0    -1  
$EndComp
Text Notes 6800 3250 0    60   ~ 0
296-1164-1-ND
Wire Wire Line
	5950 2300 5950 1950
Wire Wire Line
	6250 2700 6250 1950
Wire Wire Line
	10450 3400 10450 3450
Wire Wire Line
	10450 2800 10450 2900
Wire Wire Line
	10450 2850 10150 2850
Connection ~ 10450 2850
$Comp
L GND #PWR038
U 1 1 541EF77B
P 10450 3450
F 0 "#PWR038" H 10450 3450 30  0001 C CNN
F 1 "GND" H 10450 3380 30  0001 C CNN
F 2 "" H 10450 3450 60  0001 C CNN
F 3 "" H 10450 3450 60  0001 C CNN
	1    10450 3450
	-1   0    0    -1  
$EndComp
$Comp
L R R04
U 1 1 541EF781
P 10450 3150
F 0 "R04" V 10530 3150 50  0000 C CNN
F 1 "20k" V 10450 3150 50  0000 C CNN
F 2 "opendous:SM0603_Opendous" H 10450 3150 60  0001 C CNN
F 3 "" H 10450 3150 60  0001 C CNN
	1    10450 3150
	1    0    0    1   
$EndComp
$Comp
L R R03
U 1 1 541EF787
P 10450 2550
F 0 "R03" V 10530 2550 50  0000 C CNN
F 1 "10k" V 10450 2550 50  0000 C CNN
F 2 "opendous:SM0603_Opendous" H 10450 2550 60  0001 C CNN
F 3 "" H 10450 2550 60  0001 C CNN
	1    10450 2550
	1    0    0    1   
$EndComp
$Comp
L SN74CBT1G125 UO2
U 1 1 541EF78D
P 9250 2850
F 0 "UO2" H 9250 2850 60  0000 C CNN
F 1 "SN74CBT1G125" H 9250 2950 60  0000 C CNN
F 2 "opendous:SOT23-5_Opendous" H 9250 2750 60  0001 C CNN
F 3 "" H 9250 2850 60  0000 C CNN
	1    9250 2850
	-1   0    0    -1  
$EndComp
Text Notes 9600 3250 2    60   ~ 0
296-1164-1-ND
Wire Wire Line
	10450 2300 10450 1950
Wire Wire Line
	10150 2700 10150 1950
Wire Wire Line
	8050 3000 8350 3000
Wire Wire Line
	8050 2700 8350 2700
Wire Wire Line
	6100 3000 6100 3450
$Comp
L GND #PWR039
U 1 1 541EFBA5
P 6100 3450
F 0 "#PWR039" H 6100 3450 30  0001 C CNN
F 1 "GND" H 6100 3380 30  0001 C CNN
F 2 "" H 6100 3450 60  0001 C CNN
F 3 "" H 6100 3450 60  0001 C CNN
	1    6100 3450
	1    0    0    -1  
$EndComp
Wire Wire Line
	6250 3000 6100 3000
Wire Wire Line
	10300 3000 10300 3450
$Comp
L GND #PWR040
U 1 1 541EFC40
P 10300 3450
F 0 "#PWR040" H 10300 3450 30  0001 C CNN
F 1 "GND" H 10300 3380 30  0001 C CNN
F 2 "" H 10300 3450 60  0001 C CNN
F 3 "" H 10300 3450 60  0001 C CNN
	1    10300 3450
	-1   0    0    -1  
$EndComp
Wire Wire Line
	10150 3000 10300 3000
$Comp
L +3.3VP #PWR041
U 1 1 541F0562
P 8300 2450
F 0 "#PWR041" H 8350 2480 20  0001 C CNN
F 1 "+3.3VP" H 8300 2540 30  0000 C CNN
F 2 "" H 8300 2450 60  0001 C CNN
F 3 "" H 8300 2450 60  0001 C CNN
	1    8300 2450
	1    0    0    -1  
$EndComp
Wire Wire Line
	8300 2450 8300 2700
Connection ~ 8300 2700
Connection ~ 8200 3000
Text HLabel 10150 1950 1    60   Input ~ 0
SMPLA
Text HLabel 10450 1950 1    60   Input ~ 0
M0A
Text HLabel 5950 1950 1    60   Input ~ 0
M0B
Text HLabel 6250 1950 1    60   Input ~ 0
SMPLB
$Comp
L C CO2
U 1 1 541F141E
P 8850 4600
F 0 "CO2" H 8900 4700 50  0000 L CNN
F 1 "100nF" H 8900 4500 50  0000 L CNN
F 2 "opendous:SM0603_Opendous" H 8850 4600 60  0001 C CNN
F 3 "" H 8850 4600 60  0001 C CNN
	1    8850 4600
	1    0    0    -1  
$EndComp
$Comp
L C CO3
U 1 1 541F1591
P 9200 4600
F 0 "CO3" H 9250 4700 50  0000 L CNN
F 1 "100nF" H 9250 4500 50  0000 L CNN
F 2 "opendous:SM0603_Opendous" H 9200 4600 60  0001 C CNN
F 3 "" H 9200 4600 60  0001 C CNN
	1    9200 4600
	1    0    0    -1  
$EndComp
$Comp
L C CO4
U 1 1 541F1607
P 9550 4600
F 0 "CO4" H 9600 4700 50  0000 L CNN
F 1 "100nF" H 9600 4500 50  0000 L CNN
F 2 "opendous:SM0603_Opendous" H 9550 4600 60  0001 C CNN
F 3 "" H 9550 4600 60  0001 C CNN
	1    9550 4600
	1    0    0    -1  
$EndComp
$Comp
L C CO5
U 1 1 541F160D
P 9900 4600
F 0 "CO5" H 9950 4700 50  0000 L CNN
F 1 "100nF" H 9950 4500 50  0000 L CNN
F 2 "opendous:SM0603_Opendous" H 9900 4600 60  0001 C CNN
F 3 "" H 9900 4600 60  0001 C CNN
	1    9900 4600
	1    0    0    -1  
$EndComp
Wire Wire Line
	8850 4800 8850 4900
Wire Wire Line
	8850 4850 9900 4850
Wire Wire Line
	9200 4850 9200 4800
Wire Wire Line
	9550 4850 9550 4800
Connection ~ 9200 4850
Wire Wire Line
	9900 4850 9900 4800
Connection ~ 9550 4850
Wire Wire Line
	8850 4400 8850 4350
Wire Wire Line
	8850 4350 9900 4350
Wire Wire Line
	9200 4350 9200 4400
Wire Wire Line
	9550 4350 9550 4400
Connection ~ 9200 4350
Wire Wire Line
	9900 4350 9900 4400
Connection ~ 9550 4350
$Comp
L GND #PWR042
U 1 1 541F1917
P 8850 4900
F 0 "#PWR042" H 8850 4900 30  0001 C CNN
F 1 "GND" H 8850 4830 30  0001 C CNN
F 2 "" H 8850 4900 60  0001 C CNN
F 3 "" H 8850 4900 60  0001 C CNN
	1    8850 4900
	1    0    0    -1  
$EndComp
Connection ~ 8850 4850
$Comp
L +3.3VP #PWR043
U 1 1 541F19B9
P 8850 4350
F 0 "#PWR043" H 8900 4380 20  0001 C CNN
F 1 "+3.3VP" H 8850 4440 30  0000 C CNN
F 2 "" H 8850 4350 60  0001 C CNN
F 3 "" H 8850 4350 60  0001 C CNN
	1    8850 4350
	1    0    0    -1  
$EndComp
Connection ~ 8850 4350
Text Label 6250 2400 1    60   ~ 0
SMPLB
Text Label 10150 2400 1    60   ~ 0
SMPLA
Wire Wire Line
	8100 3000 8100 1950
Connection ~ 8100 3000
Text HLabel 8100 1950 1    60   Input ~ 0
BEMF0
$Comp
L GND #PWR044
U 1 1 541F21BC
P 3100 3850
F 0 "#PWR044" H 3100 3850 30  0001 C CNN
F 1 "GND" H 3100 3780 30  0001 C CNN
F 2 "" H 3100 3850 60  0001 C CNN
F 3 "" H 3100 3850 60  0001 C CNN
	1    3100 3850
	1    0    0    -1  
$EndComp
Wire Wire Line
	3100 3850 3100 3550
Wire Wire Line
	850  3400 850  3450
Wire Wire Line
	3100 3000 3100 3150
Wire Wire Line
	850  2800 850  2900
Wire Wire Line
	850  2850 1150 2850
Connection ~ 850  2850
$Comp
L GND #PWR045
U 1 1 541F21C8
P 850 3450
F 0 "#PWR045" H 850 3450 30  0001 C CNN
F 1 "GND" H 850 3380 30  0001 C CNN
F 2 "" H 850 3450 60  0001 C CNN
F 3 "" H 850 3450 60  0001 C CNN
	1    850  3450
	1    0    0    -1  
$EndComp
$Comp
L R RO6
U 1 1 541F21CE
P 850 3150
F 0 "RO6" V 930 3150 50  0000 C CNN
F 1 "20k" V 850 3150 50  0000 C CNN
F 2 "opendous:SM0603_Opendous" H 850 3150 60  0001 C CNN
F 3 "" H 850 3150 60  0001 C CNN
	1    850  3150
	-1   0    0    1   
$EndComp
$Comp
L R RO5
U 1 1 541F21D4
P 850 2550
F 0 "RO5" V 930 2550 50  0000 C CNN
F 1 "10k" V 850 2550 50  0000 C CNN
F 2 "opendous:SM0603_Opendous" H 850 2550 60  0001 C CNN
F 3 "" H 850 2550 60  0001 C CNN
	1    850  2550
	-1   0    0    1   
$EndComp
$Comp
L C C06
U 1 1 541F21DA
P 3100 3350
F 0 "C06" H 3150 3450 50  0000 L CNN
F 1 "100nF" H 3150 3250 50  0000 L CNN
F 2 "opendous:SM0603_Opendous" H 3100 3350 60  0001 C CNN
F 3 "" H 3100 3350 60  0001 C CNN
	1    3100 3350
	1    0    0    -1  
$EndComp
$Comp
L SN74CBT1G125 UO3
U 1 1 541F21E0
P 2050 2850
F 0 "UO3" H 2050 2850 60  0000 C CNN
F 1 "SN74CBT1G125" H 2050 2950 60  0000 C CNN
F 2 "opendous:SOT23-5_Opendous" H 2050 2750 60  0001 C CNN
F 3 "" H 2050 2850 60  0000 C CNN
	1    2050 2850
	1    0    0    -1  
$EndComp
Text Notes 1700 3250 0    60   ~ 0
296-1164-1-ND
Wire Wire Line
	850  2300 850  1950
Wire Wire Line
	1150 2700 1150 1950
Wire Wire Line
	5350 3400 5350 3450
Wire Wire Line
	5350 2800 5350 2900
Wire Wire Line
	5350 2850 5050 2850
Connection ~ 5350 2850
$Comp
L GND #PWR046
U 1 1 541F21ED
P 5350 3450
F 0 "#PWR046" H 5350 3450 30  0001 C CNN
F 1 "GND" H 5350 3380 30  0001 C CNN
F 2 "" H 5350 3450 60  0001 C CNN
F 3 "" H 5350 3450 60  0001 C CNN
	1    5350 3450
	-1   0    0    -1  
$EndComp
$Comp
L R RO8
U 1 1 541F21F3
P 5350 3150
F 0 "RO8" V 5430 3150 50  0000 C CNN
F 1 "20k" V 5350 3150 50  0000 C CNN
F 2 "opendous:SM0603_Opendous" H 5350 3150 60  0001 C CNN
F 3 "" H 5350 3150 60  0001 C CNN
	1    5350 3150
	1    0    0    1   
$EndComp
$Comp
L R RO7
U 1 1 541F21F9
P 5350 2550
F 0 "RO7" V 5430 2550 50  0000 C CNN
F 1 "10k" V 5350 2550 50  0000 C CNN
F 2 "opendous:SM0603_Opendous" H 5350 2550 60  0001 C CNN
F 3 "" H 5350 2550 60  0001 C CNN
	1    5350 2550
	1    0    0    1   
$EndComp
$Comp
L SN74CBT1G125 UO4
U 1 1 541F21FF
P 4150 2850
F 0 "UO4" H 4150 2850 60  0000 C CNN
F 1 "SN74CBT1G125" H 4150 2950 60  0000 C CNN
F 2 "opendous:SOT23-5_Opendous" H 4150 2750 60  0001 C CNN
F 3 "" H 4150 2850 60  0000 C CNN
	1    4150 2850
	-1   0    0    -1  
$EndComp
Text Notes 4500 3250 2    60   ~ 0
296-1164-1-ND
Wire Wire Line
	5350 2300 5350 1950
Wire Wire Line
	5050 2700 5050 1950
Wire Wire Line
	2950 3000 3250 3000
Wire Wire Line
	2950 2700 3250 2700
Wire Wire Line
	1000 3000 1000 3450
$Comp
L GND #PWR047
U 1 1 541F220B
P 1000 3450
F 0 "#PWR047" H 1000 3450 30  0001 C CNN
F 1 "GND" H 1000 3380 30  0001 C CNN
F 2 "" H 1000 3450 60  0001 C CNN
F 3 "" H 1000 3450 60  0001 C CNN
	1    1000 3450
	1    0    0    -1  
$EndComp
Wire Wire Line
	1150 3000 1000 3000
Wire Wire Line
	5200 3000 5200 3450
$Comp
L GND #PWR048
U 1 1 541F2213
P 5200 3450
F 0 "#PWR048" H 5200 3450 30  0001 C CNN
F 1 "GND" H 5200 3380 30  0001 C CNN
F 2 "" H 5200 3450 60  0001 C CNN
F 3 "" H 5200 3450 60  0001 C CNN
	1    5200 3450
	-1   0    0    -1  
$EndComp
Wire Wire Line
	5050 3000 5200 3000
$Comp
L +3.3VP #PWR049
U 1 1 541F221A
P 3200 2450
F 0 "#PWR049" H 3250 2480 20  0001 C CNN
F 1 "+3.3VP" H 3200 2540 30  0000 C CNN
F 2 "" H 3200 2450 60  0001 C CNN
F 3 "" H 3200 2450 60  0001 C CNN
	1    3200 2450
	1    0    0    -1  
$EndComp
Wire Wire Line
	3200 2450 3200 2700
Connection ~ 3200 2700
Connection ~ 3100 3000
Text HLabel 5350 1950 1    60   Input ~ 0
M1A
Text HLabel 850  1950 1    60   Input ~ 0
M1B
Text Label 1150 2400 1    60   ~ 0
SMPLB
Text Label 5050 2400 1    60   ~ 0
SMPLA
Wire Wire Line
	3000 3000 3000 1950
Connection ~ 3000 3000
Text HLabel 3000 1950 1    60   Input ~ 0
BEMF1
$EndSCHEMATC
