EESchema Schematic File Version 2
LIBS:con-jack
LIBS:adm3101e
LIBS:microsd
LIBS:transistor-npn
LIBS:ipc-7351-transistor
LIBS:switch-misc
LIBS:power
LIBS:device
LIBS:transistors
LIBS:conn
LIBS:linear
LIBS:regul
LIBS:74xx
LIBS:cmos4000
LIBS:adc-dac
LIBS:memory
LIBS:xilinx
LIBS:special
LIBS:microcontrollers
LIBS:dsp
LIBS:microchip
LIBS:analog_switches
LIBS:motorola
LIBS:texas
LIBS:intel
LIBS:audio
LIBS:interface
LIBS:digital-audio
LIBS:philips
LIBS:display
LIBS:cypress
LIBS:siliconi
LIBS:opto
LIBS:atmel
LIBS:contrib
LIBS:valves
LIBS:micron_ddr_512Mb
LIBS:iMX23
LIBS:sdmmc
LIBS:usbconn
LIBS:fsusb20
LIBS:r_pack2
LIBS:pasives-connectors
LIBS:EEPROM
LIBS:PWR
LIBS:m25p32
LIBS:PROpendous-cache
LIBS:w_analog
LIBS:gl850g
LIBS:srf2012
LIBS:rclamp0502b
LIBS:mcp130
LIBS:ABM8G
LIBS:usb_a
LIBS:Reset
LIBS:stm32f100vxx
LIBS:lt1117cst
LIBS:zxmhc3f381n8
LIBS:fsusb43
LIBS:usb-mini
LIBS:atsam3n0aa-au
LIBS:drv8835
LIBS:sam3n2_64
LIBS:prolific
LIBS:ftdichip
LIBS:stamp_mini_4_layers-cache
EELAYER 24 0
EELAYER END
$Descr User 12000 10000
encoding utf-8
Sheet 2 4
Title ""
Date "9 may 2013"
Rev ""
Comp ""
Comment1 ""
Comment2 ""
Comment3 ""
Comment4 ""
$EndDescr
Text Label 2200 3500 0    60   ~ 0
LED
Text Label 2200 4100 0    60   ~ 0
ADVREF
Text HLabel 6050 4250 2    60   Input ~ 0
TWD
Text HLabel 6050 4150 2    60   Input ~ 0
TWCK
$Comp
L +1.8V #PWR07
U 1 1 516D634E
P 4400 800
F 0 "#PWR07" H 4400 940 20  0001 C CNN
F 1 "+1.8V" H 4400 910 30  0000 C CNN
F 2 "" H 4400 800 60  0001 C CNN
F 3 "" H 4400 800 60  0001 C CNN
	1    4400 800 
	1    0    0    -1  
$EndComp
$Comp
L +1.8V #PWR08
U 1 1 516D632A
P 4800 7800
F 0 "#PWR08" H 4800 7940 20  0001 C CNN
F 1 "+1.8V" H 4800 7910 30  0000 C CNN
F 2 "" H 4800 7800 60  0001 C CNN
F 3 "" H 4800 7800 60  0001 C CNN
	1    4800 7800
	1    0    0    -1  
$EndComp
$Comp
L C C409
U 1 1 516D62FA
P 4250 8150
F 0 "C409" H 4300 8250 50  0000 L CNN
F 1 "0.1uF" H 4300 8050 50  0000 L CNN
F 2 "SM0603" H 4250 8150 60  0001 C CNN
F 3 "" H 4250 8150 60  0001 C CNN
	1    4250 8150
	1    0    0    -1  
$EndComp
$Comp
L C C410
U 1 1 516D62F9
P 4600 8150
F 0 "C410" H 4650 8250 50  0000 L CNN
F 1 "0.1uF" H 4650 8050 50  0000 L CNN
F 2 "SM0603" H 4600 8150 60  0001 C CNN
F 3 "" H 4600 8150 60  0001 C CNN
	1    4600 8150
	1    0    0    -1  
$EndComp
$Comp
L C C411
U 1 1 516D62F8
P 4950 8150
F 0 "C411" H 5000 8250 50  0000 L CNN
F 1 "1uF" H 5000 8050 50  0000 L CNN
F 2 "SM0603" H 4950 8150 60  0001 C CNN
F 3 "" H 4950 8150 60  0001 C CNN
	1    4950 8150
	1    0    0    -1  
$EndComp
$Comp
L C C412
U 1 1 516D62F7
P 5300 8150
F 0 "C412" H 5350 8250 50  0000 L CNN
F 1 "4.7uF" H 5350 8050 50  0000 L CNN
F 2 "SM1206" H 5300 8150 60  0001 C CNN
F 3 "" H 5300 8150 60  0001 C CNN
	1    5300 8150
	1    0    0    -1  
$EndComp
$Comp
L GND #PWR09
U 1 1 516D62F6
P 4800 8450
F 0 "#PWR09" H 4800 8450 30  0001 C CNN
F 1 "GND" H 4800 8380 30  0001 C CNN
F 2 "" H 4800 8450 60  0001 C CNN
F 3 "" H 4800 8450 60  0001 C CNN
	1    4800 8450
	1    0    0    -1  
$EndComp
$Comp
L C C408
U 1 1 516D62F5
P 3900 8150
F 0 "C408" H 3950 8250 50  0000 L CNN
F 1 "0.1uF" H 3950 8050 50  0000 L CNN
F 2 "SM0603" H 3900 8150 60  0001 C CNN
F 3 "" H 3900 8150 60  0001 C CNN
	1    3900 8150
	1    0    0    -1  
$EndComp
$Comp
L +3.3VP #PWR010
U 1 1 516D62A0
P 8150 900
F 0 "#PWR010" H 8200 930 20  0001 C CNN
F 1 "+3.3VP" H 8150 990 30  0000 C CNN
F 2 "" H 8150 900 60  0001 C CNN
F 3 "" H 8150 900 60  0001 C CNN
	1    8150 900 
	1    0    0    -1  
$EndComp
$Comp
L +3.3VP #PWR011
U 1 1 516D629C
P 8750 1000
F 0 "#PWR011" H 8800 1030 20  0001 C CNN
F 1 "+3.3VP" H 8750 1090 30  0000 C CNN
F 2 "" H 8750 1000 60  0001 C CNN
F 3 "" H 8750 1000 60  0001 C CNN
	1    8750 1000
	1    0    0    -1  
$EndComp
$Comp
L +3.3VP #PWR012
U 1 1 516D625C
P 2700 7800
F 0 "#PWR012" H 2750 7830 20  0001 C CNN
F 1 "+3.3VP" H 2700 7890 30  0000 C CNN
F 2 "" H 2700 7800 60  0001 C CNN
F 3 "" H 2700 7800 60  0001 C CNN
	1    2700 7800
	1    0    0    -1  
$EndComp
$Comp
L C C401
U 1 1 516D60B5
P 1800 8150
F 0 "C401" H 1850 8250 50  0000 L CNN
F 1 "0.1uF" H 1850 8050 50  0000 L CNN
F 2 "SM0603" H 1800 8150 60  0001 C CNN
F 3 "" H 1800 8150 60  0001 C CNN
	1    1800 8150
	1    0    0    -1  
$EndComp
$Comp
L GND #PWR013
U 1 1 516D6095
P 2700 8450
F 0 "#PWR013" H 2700 8450 30  0001 C CNN
F 1 "GND" H 2700 8380 30  0001 C CNN
F 2 "" H 2700 8450 60  0001 C CNN
F 3 "" H 2700 8450 60  0001 C CNN
	1    2700 8450
	1    0    0    -1  
$EndComp
$Comp
L C C407
U 1 1 516D6094
P 3200 8150
F 0 "C407" H 3250 8250 50  0000 L CNN
F 1 "4.7uF" H 3250 8050 50  0000 L CNN
F 2 "SM1206" H 3200 8150 60  0001 C CNN
F 3 "" H 3200 8150 60  0001 C CNN
	1    3200 8150
	1    0    0    -1  
$EndComp
$Comp
L C C406
U 1 1 516D6093
P 2850 8150
F 0 "C406" H 2900 8250 50  0000 L CNN
F 1 "1uF" H 2900 8050 50  0000 L CNN
F 2 "SM0603" H 2850 8150 60  0001 C CNN
F 3 "" H 2850 8150 60  0001 C CNN
	1    2850 8150
	1    0    0    -1  
$EndComp
$Comp
L C C405
U 1 1 516D6092
P 2500 8150
F 0 "C405" H 2550 8250 50  0000 L CNN
F 1 "0.1uF" H 2550 8050 50  0000 L CNN
F 2 "SM0603" H 2500 8150 60  0001 C CNN
F 3 "" H 2500 8150 60  0001 C CNN
	1    2500 8150
	1    0    0    -1  
$EndComp
$Comp
L C C404
U 1 1 516D6091
P 2150 8150
F 0 "C404" H 2200 8250 50  0000 L CNN
F 1 "0.1uF" H 2200 8050 50  0000 L CNN
F 2 "SM0603" H 2150 8150 60  0001 C CNN
F 3 "" H 2150 8150 60  0001 C CNN
	1    2150 8150
	1    0    0    -1  
$EndComp
Text HLabel 2300 2650 0    60   Input ~ 0
JNRST
Text HLabel 2300 2550 0    60   Input ~ 0
JTCK
Text HLabel 2300 2450 0    60   Input ~ 0
JTMS
Text HLabel 2300 2350 0    60   Input ~ 0
JTDO
Text HLabel 2300 2250 0    60   Input ~ 0
JTDI
$Comp
L GND #PWR014
U 1 1 516D5EEC
P 4200 5150
F 0 "#PWR014" H 4200 5150 30  0001 C CNN
F 1 "GND" H 4200 5080 30  0001 C CNN
F 2 "" H 4200 5150 60  0001 C CNN
F 3 "" H 4200 5150 60  0001 C CNN
	1    4200 5150
	-1   0    0    -1  
$EndComp
$Comp
L GND #PWR015
U 1 1 516D5EBB
P 700 3250
F 0 "#PWR015" H 700 3250 30  0001 C CNN
F 1 "GND" H 700 3180 30  0001 C CNN
F 2 "" H 700 3250 60  0001 C CNN
F 3 "" H 700 3250 60  0001 C CNN
	1    700  3250
	-1   0    0    -1  
$EndComp
$Comp
L VDD5V #PWR016
U 1 1 4E7B5061
P 6700 1000
F 0 "#PWR016" H 6700 1100 30  0001 C CNN
F 1 "VDD5V" H 6700 1100 30  0000 C CNN
F 2 "" H 6700 1000 60  0001 C CNN
F 3 "" H 6700 1000 60  0001 C CNN
	1    6700 1000
	1    0    0    -1  
$EndComp
$Comp
L GND #PWR017
U 1 1 4E7B4E89
P 6700 1650
F 0 "#PWR017" H 6700 1650 30  0001 C CNN
F 1 "GND" H 6700 1580 30  0001 C CNN
F 2 "" H 6700 1650 60  0001 C CNN
F 3 "" H 6700 1650 60  0001 C CNN
	1    6700 1650
	1    0    0    -1  
$EndComp
$Comp
L GND #PWR018
U 1 1 4E7B4E84
P 8150 1650
F 0 "#PWR018" H 8150 1650 30  0001 C CNN
F 1 "GND" H 8150 1580 30  0001 C CNN
F 2 "" H 8150 1650 60  0001 C CNN
F 3 "" H 8150 1650 60  0001 C CNN
	1    8150 1650
	1    0    0    -1  
$EndComp
$Comp
L C C76
U 1 1 4E7B4A85
P 8150 1350
F 0 "C76" H 8200 1450 50  0000 L CNN
F 1 "33uF" H 8200 1250 50  0000 L CNN
F 2 "SM1206" H 8150 1350 60  0001 C CNN
F 3 "" H 8150 1350 60  0001 C CNN
	1    8150 1350
	1    0    0    -1  
$EndComp
$Comp
L C C74
U 1 1 4E7B4A81
P 6700 1350
F 0 "C74" H 6750 1450 50  0000 L CNN
F 1 "33uF" H 6750 1250 50  0000 L CNN
F 2 "SM1206" H 6700 1350 60  0001 C CNN
F 3 "" H 6700 1350 60  0001 C CNN
	1    6700 1350
	1    0    0    -1  
$EndComp
$Comp
L GND #PWR019
U 1 1 4E7B44BE
P 7750 1650
F 0 "#PWR019" H 7750 1650 30  0001 C CNN
F 1 "GND" H 7750 1580 30  0001 C CNN
F 2 "" H 7750 1650 60  0001 C CNN
F 3 "" H 7750 1650 60  0001 C CNN
	1    7750 1650
	1    0    0    -1  
$EndComp
$Comp
L GND #PWR020
U 1 1 4E7B44A2
P 6900 1250
F 0 "#PWR020" H 6900 1250 30  0001 C CNN
F 1 "GND" H 6900 1180 30  0001 C CNN
F 2 "" H 6900 1250 60  0001 C CNN
F 3 "" H 6900 1250 60  0001 C CNN
	1    6900 1250
	1    0    0    -1  
$EndComp
$Comp
L LT1117CST U11
U 1 1 4E7B41E9
P 7350 1250
F 0 "U11" H 7200 1550 60  0000 C CNN
F 1 "LT1117CST-3.3" H 7350 1250 40  0000 C CNN
F 2 "LT1117" H 7350 1250 60  0001 C CNN
F 3 "" H 7350 1250 60  0001 C CNN
	1    7350 1250
	1    0    0    -1  
$EndComp
$Comp
L C C75
U 1 1 4E7B41E8
P 7750 1350
F 0 "C75" H 7800 1450 50  0000 L CNN
F 1 "100n" H 7800 1250 50  0000 L CNN
F 2 "SM0603" H 7750 1350 60  0001 C CNN
F 3 "" H 7750 1350 60  0001 C CNN
	1    7750 1350
	1    0    0    -1  
$EndComp
$Comp
L R R33
U 1 1 4E188E50
P 10150 1500
F 0 "R33" V 10230 1500 50  0000 C CNN
F 1 "1k" V 10150 1500 50  0000 C CNN
F 2 "SM0603" H 10150 1500 60  0001 C CNN
F 3 "" H 10150 1500 60  0001 C CNN
	1    10150 1500
	0    1    1    0   
$EndComp
$Comp
L LED D9
U 1 1 4E188E4F
P 10150 1200
F 0 "D9" H 10150 1300 50  0000 C CNN
F 1 "LED" H 10150 1100 50  0000 C CNN
F 2 "SM0603" H 10150 1200 60  0001 C CNN
F 3 "" H 10150 1200 60  0001 C CNN
	1    10150 1200
	-1   0    0    1   
$EndComp
$Comp
L GND #PWR021
U 1 1 4E188E4E
P 10550 1500
F 0 "#PWR021" H 10550 1500 30  0001 C CNN
F 1 "GND" H 10550 1430 30  0001 C CNN
F 2 "" H 10550 1500 60  0001 C CNN
F 3 "" H 10550 1500 60  0001 C CNN
	1    10550 1500
	0    -1   1    0   
$EndComp
Text Label 9900 1000 0    60   ~ 0
LED
$Comp
L GND #PWR022
U 1 1 4E186DEB
P 9250 1500
F 0 "#PWR022" H 9250 1500 30  0001 C CNN
F 1 "GND" H 9250 1430 30  0001 C CNN
F 2 "" H 9250 1500 60  0001 C CNN
F 3 "" H 9250 1500 60  0001 C CNN
	1    9250 1500
	0    -1   1    0   
$EndComp
$Comp
L LED D8
U 1 1 4DCDB178
P 8850 1200
F 0 "D8" H 8850 1300 50  0000 C CNN
F 1 "LED" H 8850 1100 50  0000 C CNN
F 2 "SM0603" H 8850 1200 60  0001 C CNN
F 3 "" H 8850 1200 60  0001 C CNN
	1    8850 1200
	-1   0    0    1   
$EndComp
$Comp
L R R5
U 1 1 4DCDB177
P 8850 1500
F 0 "R5" V 8930 1500 50  0000 C CNN
F 1 "1k" V 8850 1500 50  0000 C CNN
F 2 "SM0603" H 8850 1500 60  0001 C CNN
F 3 "" H 8850 1500 60  0001 C CNN
	1    8850 1500
	0    1    1    0   
$EndComp
Text Notes 9600 750  0    60   ~ 0
LEDS
Text Label 2100 3400 0    60   ~ 0
Erase
$Comp
L +3.3VP #PWR023
U 1 1 52EB05DD
P 2100 4100
F 0 "#PWR023" H 2150 4130 20  0001 C CNN
F 1 "+3.3VP" H 2100 4190 30  0000 C CNN
F 2 "" H 2100 4100 60  0001 C CNN
F 3 "" H 2100 4100 60  0001 C CNN
	1    2100 4100
	1    0    0    -1  
$EndComp
$Comp
L DRV8835 UHB1
U 1 1 5344D7DB
P 2050 6750
F 0 "UHB1" H 1850 7400 60  0000 C CNN
F 1 "DRV8835" H 2000 7300 60  0000 C CNN
F 2 "drv8835" H 2050 6750 60  0001 C CNN
F 3 "" H 2050 6750 60  0000 C CNN
	1    2050 6750
	-1   0    0    -1  
$EndComp
$Comp
L +3.3VP #PWR024
U 1 1 5344E1D7
P 1250 6300
F 0 "#PWR024" H 1300 6330 20  0001 C CNN
F 1 "+3.3VP" H 1250 6390 30  0000 C CNN
F 2 "" H 1250 6300 60  0001 C CNN
F 3 "" H 1250 6300 60  0001 C CNN
	1    1250 6300
	1    0    0    -1  
$EndComp
$Comp
L C CHB1
U 1 1 5344E995
P 1150 8100
F 0 "CHB1" H 1200 8200 50  0000 L CNN
F 1 "0.1uF" H 1200 8000 50  0000 L CNN
F 2 "SM0603" H 1150 8100 60  0001 C CNN
F 3 "" H 1150 8100 60  0001 C CNN
	1    1150 8100
	1    0    0    -1  
$EndComp
$Comp
L GND #PWR025
U 1 1 5344E9A6
P 1150 8400
F 0 "#PWR025" H 1150 8400 30  0001 C CNN
F 1 "GND" H 1150 8330 30  0001 C CNN
F 2 "" H 1150 8400 60  0001 C CNN
F 3 "" H 1150 8400 60  0001 C CNN
	1    1150 8400
	1    0    0    -1  
$EndComp
$Comp
L +3.3VP #PWR026
U 1 1 5344E9B7
P 1150 7750
F 0 "#PWR026" H 1200 7780 20  0001 C CNN
F 1 "+3.3VP" H 1150 7840 30  0000 C CNN
F 2 "" H 1150 7750 60  0001 C CNN
F 3 "" H 1150 7750 60  0001 C CNN
	1    1150 7750
	1    0    0    -1  
$EndComp
$Comp
L GND #PWR027
U 1 1 5344F399
P 2850 6950
F 0 "#PWR027" H 2850 6950 30  0001 C CNN
F 1 "GND" H 2850 6880 30  0001 C CNN
F 2 "" H 2850 6950 60  0001 C CNN
F 3 "" H 2850 6950 60  0001 C CNN
	1    2850 6950
	1    0    0    -1  
$EndComp
Text Label 1150 6550 0    60   ~ 0
DIR_M0
Text Label 1150 6750 0    60   ~ 0
DIR_M1
Text Label 1150 6650 0    60   ~ 0
SP_M0
Text Label 1150 6850 0    60   ~ 0
SP_M1
$Comp
L JUMPER JP4
U 1 1 53453E8C
P 10150 3100
F 0 "JP4" H 9750 3150 60  0000 C CNN
F 1 "J" H 10450 3150 40  0000 C CNN
F 2 "Sockets_MOLEX_KK-System:Socket_MOLEX-KK-RM2-54mm_Lock_2pin_straight" H 10150 3100 60  0001 C CNN
F 3 "" H 10150 3100 60  0001 C CNN
	1    10150 3100
	1    0    0    -1  
$EndComp
$Comp
L GND #PWR028
U 1 1 53453E92
P 9500 3100
F 0 "#PWR028" H 9500 3100 30  0001 C CNN
F 1 "GND" H 9500 3030 30  0001 C CNN
F 2 "" H 9500 3100 60  0001 C CNN
F 3 "" H 9500 3100 60  0001 C CNN
	1    9500 3100
	0    1    1    0   
$EndComp
$Comp
L JUMPER JM0
U 1 1 53453E99
P 10150 3250
F 0 "JM0" H 9750 3300 60  0000 C CNN
F 1 "J" H 10450 3300 40  0000 C CNN
F 2 "Sockets_MOLEX_KK-System:Socket_MOLEX-KK-RM2-54mm_Lock_2pin_straight" H 10150 3250 60  0001 C CNN
F 3 "" H 10150 3250 60  0001 C CNN
	1    10150 3250
	1    0    0    -1  
$EndComp
$Comp
L JUMPER JM1
U 1 1 53453E9F
P 10150 3400
F 0 "JM1" H 9750 3450 60  0000 C CNN
F 1 "J" H 10450 3450 40  0000 C CNN
F 2 "Sockets_MOLEX_KK-System:Socket_MOLEX-KK-RM2-54mm_Lock_2pin_straight" H 10150 3400 60  0001 C CNN
F 3 "" H 10150 3400 60  0001 C CNN
	1    10150 3400
	1    0    0    -1  
$EndComp
Text Label 10550 3100 0    60   ~ 0
VM
Text Label 10550 3250 0    60   ~ 0
M0B
Text Label 9500 3250 0    60   ~ 0
M0A
Text Label 9500 3400 0    60   ~ 0
M1A
Text Label 10550 3400 0    60   ~ 0
M1B
Text Label 2850 6750 0    60   ~ 0
M0B
Text Label 2850 6550 0    60   ~ 0
M1B
Text Label 2850 6650 0    60   ~ 0
M0A
Text Label 2850 6450 0    60   ~ 0
M1A
Text Label 2900 6350 0    60   ~ 0
VM
$Comp
L C CHB2
U 1 1 53459780
P 850 8100
F 0 "CHB2" H 900 8200 50  0000 L CNN
F 1 "0.1uF" H 900 8000 50  0000 L CNN
F 2 "SM0603" H 850 8100 60  0001 C CNN
F 3 "" H 850 8100 60  0001 C CNN
	1    850  8100
	1    0    0    -1  
$EndComp
$Comp
L GND #PWR029
U 1 1 53459787
P 850 8400
F 0 "#PWR029" H 850 8400 30  0001 C CNN
F 1 "GND" H 850 8330 30  0001 C CNN
F 2 "" H 850 8400 60  0001 C CNN
F 3 "" H 850 8400 60  0001 C CNN
	1    850  8400
	1    0    0    -1  
$EndComp
Text Label 850  7900 1    60   ~ 0
VM
$Comp
L C C403
U 1 1 541B3A98
P 1150 3500
F 0 "C403" H 1200 3600 50  0000 L CNN
F 1 "20pF" H 1200 3400 50  0000 L CIN
F 2 "SM0603" H 1150 3500 60  0001 C CNN
F 3 "" H 1150 3500 60  0001 C CNN
	1    1150 3500
	0    1    1    0   
$EndComp
$Comp
L C C402
U 1 1 541B3BCF
P 1150 2900
F 0 "C402" V 1100 3000 50  0000 L CNN
F 1 "20pF" V 1100 2650 50  0000 L CNN
F 2 "SM0603" H 1150 2900 60  0001 C CNN
F 3 "" H 1150 2900 60  0001 C CNN
	1    1150 2900
	0    1    1    0   
$EndComp
$Comp
L ABM8G X401
U 1 1 516D5EBA
P 1400 3200
F 0 "X401" H 1400 3350 60  0000 C CNN
F 1 "12MHz" H 1400 3050 60  0000 C CNN
F 2 "ABM8G" H 1400 3200 60  0001 C CNN
F 3 "" H 1400 3200 60  0001 C CNN
	1    1400 3200
	0    1    1    0   
$EndComp
$Comp
L ATSAM3N2 U401
U 1 1 541B802B
P 3950 3250
F 0 "U401" H 5100 1700 60  0000 C CNN
F 1 "ATSAM3N2" H 5150 1600 60  0000 C CNN
F 2 "lqfp64-08" H 3950 3250 60  0001 C CNN
F 3 "" H 3950 3250 60  0000 C CNN
	1    3950 3250
	1    0    0    -1  
$EndComp
NoConn ~ 2500 2150
NoConn ~ 2500 2750
$Comp
L +3.3VP #PWR030
U 1 1 541BA99A
P 3600 900
F 0 "#PWR030" H 3650 930 20  0001 C CNN
F 1 "+3.3VP" H 3600 990 30  0000 C CNN
F 2 "" H 3600 900 60  0001 C CNN
F 3 "" H 3600 900 60  0001 C CNN
	1    3600 900 
	1    0    0    -1  
$EndComp
Text Label 5800 4550 0    60   ~ 0
SP_M0
Text Label 5800 4450 0    60   ~ 0
SP_M1
Text Label 5800 4350 0    60   ~ 0
DIR_M0
Text Label 5800 3450 0    60   ~ 0
DIR_M1
Text Label 5800 3150 0    60   ~ 0
SRV1
Text Label 5800 3250 0    60   ~ 0
SRV2
Text Label 2200 3700 0    60   ~ 0
SEN7
Text Label 2200 3600 0    60   ~ 0
SEN8
Text Label 5850 2850 0    60   ~ 0
SEN1
Text Label 5850 2750 0    60   ~ 0
SEN2
Text Label 5850 2650 0    60   ~ 0
SEN3
Text Label 5850 2550 0    60   ~ 0
SEN4
Text Label 2200 3900 0    60   ~ 0
SEN5
Text Label 2200 3800 0    60   ~ 0
SEN6
Text Label 600  9050 0    60   ~ 0
SEN1
Text Label 5800 4150 0    60   ~ 0
TWCK
Text Label 5800 4250 0    60   ~ 0
TWD
Text Label 2200 3300 0    60   ~ 0
BUZ
Text Label 8300 3200 0    60   ~ 0
BUZ
Text Label 8350 4100 0    60   ~ 0
TWCK
Text Label 7550 4100 0    60   ~ 0
TWD
Text Label 5850 3050 0    60   ~ 0
TIM1
Text Label 5850 2950 0    60   ~ 0
TIM2
Text Label 5850 1950 0    60   ~ 0
TIM3
Text Label 5850 1850 0    60   ~ 0
TIM4
Text Label 8300 3500 0    60   ~ 0
TIM3
Text Label 8400 3800 0    60   ~ 0
TIM4
Text Label 8400 3300 0    60   ~ 0
TIM1
Text Label 7500 3300 0    60   ~ 0
TIM2
Text Label 5800 3950 0    60   ~ 0
DIG5
Text Label 5800 4050 0    60   ~ 0
DIG6
Text Label 5800 3850 0    60   ~ 0
DIG4
Text Notes 3400 5850 0    60   ~ 0
102-1153-ND BUZZER
$Comp
L CONN_01X03 SEN1
U 1 1 541B8DE7
P 1100 9050
F 0 "SEN1" H 1100 9250 50  0000 C CNN
F 1 "CONN_01X03" V 1200 9050 50  0001 C CNN
F 2 "Sockets_MOLEX_KK-System:Socket_MOLEX-KK-RM2-54mm_Lock_3pin_straight" H 1100 9050 60  0001 C CNN
F 3 "" H 1100 9050 60  0000 C CNN
	1    1100 9050
	1    0    0    -1  
$EndComp
Text Notes 5650 9150 0    60   ~ 0
WM2012-ND\nWM4201-ND
Text Label 1250 9050 0    60   ~ 0
SEN2
$Comp
L CONN_01X03 SEN2
U 1 1 541B9B15
P 1750 9050
F 0 "SEN2" H 1750 9250 50  0000 C CNN
F 1 "CONN_01X03" V 1850 9050 50  0001 C CNN
F 2 "Sockets_MOLEX_KK-System:Socket_MOLEX-KK-RM2-54mm_Lock_3pin_straight" H 1750 9050 60  0001 C CNN
F 3 "" H 1750 9050 60  0000 C CNN
	1    1750 9050
	1    0    0    -1  
$EndComp
Text Label 1850 9050 0    60   ~ 0
SEN3
$Comp
L CONN_01X03 SEN3
U 1 1 541B9F04
P 2350 9050
F 0 "SEN3" H 2350 9250 50  0000 C CNN
F 1 "CONN_01X03" V 2450 9050 50  0001 C CNN
F 2 "Sockets_MOLEX_KK-System:Socket_MOLEX-KK-RM2-54mm_Lock_3pin_straight" H 2350 9050 60  0001 C CNN
F 3 "" H 2350 9050 60  0000 C CNN
	1    2350 9050
	1    0    0    -1  
$EndComp
Text Label 2500 9050 0    60   ~ 0
SEN4
$Comp
L CONN_01X03 SEN4
U 1 1 541B9F0C
P 3000 9050
F 0 "SEN4" H 3000 9250 50  0000 C CNN
F 1 "CONN_01X03" V 3100 9050 50  0001 C CNN
F 2 "Sockets_MOLEX_KK-System:Socket_MOLEX-KK-RM2-54mm_Lock_3pin_straight" H 3000 9050 60  0001 C CNN
F 3 "" H 3000 9050 60  0000 C CNN
	1    3000 9050
	1    0    0    -1  
$EndComp
Text Label 3100 9050 0    60   ~ 0
SEN5
$Comp
L CONN_01X03 SEN5
U 1 1 541BA1BE
P 3600 9050
F 0 "SEN5" H 3600 9250 50  0000 C CNN
F 1 "CONN_01X03" V 3700 9050 50  0001 C CNN
F 2 "Sockets_MOLEX_KK-System:Socket_MOLEX-KK-RM2-54mm_Lock_3pin_straight" H 3600 9050 60  0001 C CNN
F 3 "" H 3600 9050 60  0000 C CNN
	1    3600 9050
	1    0    0    -1  
$EndComp
Text Label 3750 9050 0    60   ~ 0
SEN6
$Comp
L CONN_01X03 SEN6
U 1 1 541BA1C6
P 4250 9050
F 0 "SEN6" H 4250 9250 50  0000 C CNN
F 1 "CONN_01X03" V 4350 9050 50  0001 C CNN
F 2 "Sockets_MOLEX_KK-System:Socket_MOLEX-KK-RM2-54mm_Lock_3pin_straight" H 4250 9050 60  0001 C CNN
F 3 "" H 4250 9050 60  0000 C CNN
	1    4250 9050
	1    0    0    -1  
$EndComp
Text Label 4350 9050 0    60   ~ 0
SEN7
$Comp
L CONN_01X03 SEN7
U 1 1 541BA1CE
P 4850 9050
F 0 "SEN7" H 4850 9250 50  0000 C CNN
F 1 "CONN_01X03" V 4950 9050 50  0001 C CNN
F 2 "Sockets_MOLEX_KK-System:Socket_MOLEX-KK-RM2-54mm_Lock_3pin_straight" H 4850 9050 60  0001 C CNN
F 3 "" H 4850 9050 60  0000 C CNN
	1    4850 9050
	1    0    0    -1  
$EndComp
Text Label 5000 9050 0    60   ~ 0
SEN8
$Comp
L CONN_01X03 SEN8
U 1 1 541BA1D6
P 5500 9050
F 0 "SEN8" H 5500 9250 50  0000 C CNN
F 1 "CONN_01X03" V 5600 9050 50  0001 C CNN
F 2 "Sockets_MOLEX_KK-System:Socket_MOLEX-KK-RM2-54mm_Lock_3pin_straight" H 5500 9050 60  0001 C CNN
F 3 "" H 5500 9050 60  0000 C CNN
	1    5500 9050
	1    0    0    -1  
$EndComp
$Comp
L GND #PWR031
U 1 1 541E5896
P 3300 9450
F 0 "#PWR031" H 3300 9450 30  0001 C CNN
F 1 "GND" H 3300 9380 30  0001 C CNN
F 2 "" H 3300 9450 60  0001 C CNN
F 3 "" H 3300 9450 60  0001 C CNN
	1    3300 9450
	1    0    0    -1  
$EndComp
$Sheet
S 4150 6200 1350 800 
U 541E213D
F0 "BEMF" 60
F1 "openservo.sch" 60
F2 "SMPLA" I L 4150 6350 60 
F3 "M0A" I R 5500 6850 60 
F4 "M0B" I R 5500 6750 60 
F5 "SMPLB" I L 4150 6450 60 
F6 "BEMF0" I L 4150 6750 60 
F7 "M1A" I R 5500 6350 60 
F8 "M1B" I R 5500 6450 60 
F9 "BEMF1" I L 4150 6850 60 
$EndSheet
Text Label 3850 6850 0    60   ~ 0
BEMF1
Text Label 3850 6750 0    60   ~ 0
BEMF0
Text Label 3850 6450 0    60   ~ 0
SMPLB
Text Label 3850 6350 0    60   ~ 0
SMPLA
Text Label 5850 2450 0    60   ~ 0
BEMF1
Text Label 5850 2350 0    60   ~ 0
BEMF0
Text Label 5850 2250 0    60   ~ 0
SMPLB
Text Label 5850 2150 0    60   ~ 0
SMPLA
Text Label 5550 6750 0    60   ~ 0
M0B
Text Label 5550 6450 0    60   ~ 0
M1B
Text Label 5550 6850 0    60   ~ 0
M0A
Text Label 5550 6350 0    60   ~ 0
M1A
$Comp
L C CS1
U 1 1 541FD60A
P 3600 8150
F 0 "CS1" H 3650 8250 50  0000 L CNN
F 1 "0.1uF" H 3650 8050 50  0000 L CNN
F 2 "opendous:SM0603_Opendous" H 3600 8150 60  0001 C CNN
F 3 "" H 3600 8150 60  0001 C CNN
	1    3600 8150
	1    0    0    -1  
$EndComp
$Comp
L C CS2
U 1 1 541FDB17
P 1500 8150
F 0 "CS2" H 1550 8250 50  0000 L CNN
F 1 "0.1uF" H 1550 8050 50  0000 L CNN
F 2 "opendous:SM0603_Opendous" H 1500 8150 60  0001 C CNN
F 3 "" H 1500 8150 60  0001 C CNN
	1    1500 8150
	1    0    0    -1  
$EndComp
Text Label 5800 3750 0    60   ~ 0
DIG3
Text Label 5800 3350 0    60   ~ 0
DIG2
Text Label 8350 3700 0    60   ~ 0
DIG5
Text Label 7550 3800 0    60   ~ 0
DIG6
Text Label 7550 3700 0    60   ~ 0
DIG4
Text Label 8350 3600 0    60   ~ 0
DIG3
Text Label 7550 3400 0    60   ~ 0
SRV1
Text Label 8350 3400 0    60   ~ 0
SRV2
Text Label 7550 3600 0    60   ~ 0
DIG2
Text Label 5850 2050 0    60   ~ 0
DIG1
Text Label 7600 3500 0    60   ~ 0
DIG1
Text Label 5850 1750 0    60   ~ 0
DIG7
Text Label 5850 1650 0    60   ~ 0
DIG8
Text Label 5850 1550 0    60   ~ 0
DIG9
Text Label 5850 1450 0    60   ~ 0
DIG10
Text Label 7600 3900 0    60   ~ 0
DIG7
Text Label 8400 3900 0    60   ~ 0
DIG8
Text Label 7600 4000 0    60   ~ 0
DIG9
Text Label 8400 4000 0    60   ~ 0
DIG10
$Comp
L CONN_02X11 CD1
U 1 1 5427DC35
P 8050 3600
F 0 "CD1" H 8050 4200 50  0001 C CNN
F 1 "CONN_02X11" V 8050 3600 50  0000 C CNN
F 2 "Socket_Strips:Socket_Strip_Straight_2x11" H 8050 2400 60  0001 C CNN
F 3 "" H 8050 2400 60  0000 C CNN
	1    8050 3600
	1    0    0    -1  
$EndComp
$Comp
L GND #PWR032
U 1 1 5427951A
P 8800 3100
F 0 "#PWR032" H 8800 3100 30  0001 C CNN
F 1 "GND" H 8800 3030 30  0001 C CNN
F 2 "" H 8800 3100 60  0001 C CNN
F 3 "" H 8800 3100 60  0001 C CNN
	1    8800 3100
	0    -1   1    0   
$EndComp
$Comp
L VDD5V #PWR033
U 1 1 54279C76
P 7500 3000
F 0 "#PWR033" H 7500 3100 30  0001 C CNN
F 1 "VDD5V" H 7500 3100 30  0000 C CNN
F 2 "" H 7500 3000 60  0001 C CNN
F 3 "" H 7500 3000 60  0001 C CNN
	1    7500 3000
	1    0    0    -1  
$EndComp
Wire Wire Line
	2200 3500 2500 3500
Wire Wire Line
	2200 3800 2500 3800
Wire Wire Line
	5750 4250 6050 4250
Wire Wire Line
	6050 3650 5750 3650
Connection ~ 4250 7950
Wire Wire Line
	3600 7950 5300 7950
Connection ~ 4800 7950
Wire Wire Line
	4800 7950 4800 7800
Connection ~ 4600 7950
Connection ~ 4600 8350
Connection ~ 4950 8350
Connection ~ 4950 7950
Wire Wire Line
	4800 8350 4800 8450
Connection ~ 4800 8350
Wire Wire Line
	3600 8350 5300 8350
Connection ~ 4250 8350
Connection ~ 2150 8350
Wire Wire Line
	1500 8350 3200 8350
Connection ~ 2700 8350
Wire Wire Line
	2700 8350 2700 8450
Connection ~ 2850 7950
Connection ~ 2850 8350
Connection ~ 2500 8350
Connection ~ 2500 7950
Wire Wire Line
	2700 7950 2700 7800
Connection ~ 2700 7950
Wire Wire Line
	2300 2650 2500 2650
Wire Wire Line
	2300 2450 2500 2450
Wire Wire Line
	2300 2250 2500 2250
Connection ~ 1650 3500
Wire Wire Line
	1650 3500 1650 3000
Wire Wire Line
	1650 3000 2500 3000
Connection ~ 900  3200
Connection ~ 950  3200
Wire Wire Line
	900  2900 900  3500
Connection ~ 1400 3500
Connection ~ 1400 2900
Wire Wire Line
	950  3250 1000 3250
Wire Wire Line
	950  3150 950  3250
Wire Wire Line
	950  3150 1000 3150
Wire Wire Line
	700  3200 950  3200
Wire Wire Line
	700  3200 700  3250
Connection ~ 6700 1050
Wire Wire Line
	6700 1000 6700 1150
Wire Wire Line
	6700 1550 6700 1650
Wire Wire Line
	8150 1550 8150 1650
Wire Wire Line
	7750 1050 7750 1150
Wire Wire Line
	7000 1150 6900 1150
Wire Wire Line
	6900 1150 6900 1250
Wire Wire Line
	9950 1200 9800 1200
Wire Wire Line
	9800 1200 9800 1500
Wire Wire Line
	9800 1500 9900 1500
Wire Wire Line
	10550 1500 10400 1500
Wire Wire Line
	9900 1000 10500 1000
Wire Wire Line
	10500 1000 10500 1200
Wire Wire Line
	10500 1200 10350 1200
Wire Wire Line
	9050 1200 9200 1200
Wire Wire Line
	9200 1200 9200 1000
Wire Wire Line
	9250 1500 9100 1500
Wire Wire Line
	8600 1500 8500 1500
Wire Wire Line
	8500 1500 8500 1200
Wire Wire Line
	8500 1200 8650 1200
Wire Wire Line
	9200 1000 8750 1000
Wire Wire Line
	7750 1150 7650 1150
Wire Wire Line
	8150 900  8150 1150
Connection ~ 7750 1150
Connection ~ 7750 1050
Wire Wire Line
	7750 1550 7750 1650
Wire Wire Line
	7650 1050 8150 1050
Connection ~ 8150 1050
Wire Wire Line
	7000 1050 6700 1050
Wire Wire Line
	4200 4950 4200 5150
Wire Wire Line
	2300 2350 2500 2350
Wire Wire Line
	2300 2550 2500 2550
Wire Wire Line
	1500 7950 3200 7950
Connection ~ 2150 7950
Wire Wire Line
	6050 3550 5750 3550
Wire Wire Line
	5750 4150 6050 4150
Wire Wire Line
	2100 4100 2500 4100
Wire Wire Line
	2200 3900 2500 3900
Wire Wire Line
	5750 4550 6050 4550
Wire Wire Line
	5750 4350 6050 4350
Wire Wire Line
	5750 4450 6050 4450
Wire Wire Line
	2100 3400 2500 3400
Wire Wire Line
	1500 6350 1250 6350
Wire Wire Line
	1250 6300 1250 6450
Wire Wire Line
	1250 6450 1500 6450
Connection ~ 1250 6350
Wire Wire Line
	1150 8300 1150 8400
Wire Wire Line
	1150 7900 1150 7750
Wire Wire Line
	2850 6850 2850 6950
Wire Wire Line
	2800 6850 2850 6850
Wire Wire Line
	2800 6900 2850 6900
Connection ~ 2850 6900
Wire Wire Line
	800  6550 1500 6550
Wire Wire Line
	800  6750 1500 6750
Wire Wire Line
	800  6650 1500 6650
Wire Wire Line
	800  6850 1500 6850
Wire Wire Line
	9500 3100 9850 3100
Wire Wire Line
	10800 3100 10450 3100
Wire Wire Line
	9450 3250 9850 3250
Wire Wire Line
	9850 3400 9450 3400
Wire Wire Line
	10450 3250 10850 3250
Wire Wire Line
	10450 3400 10850 3400
Wire Wire Line
	2800 6750 3200 6750
Wire Wire Line
	2800 6550 3200 6550
Wire Wire Line
	2800 6650 3200 6650
Wire Wire Line
	3200 6450 2800 6450
Wire Wire Line
	3150 6350 2800 6350
Wire Wire Line
	850  8300 850  8400
Wire Wire Line
	850  7900 850  7750
Wire Wire Line
	900  3500 950  3500
Wire Wire Line
	1350 3500 1650 3500
Wire Wire Line
	1350 2900 2500 2900
Wire Wire Line
	950  2900 900  2900
Wire Wire Line
	3700 1050 3700 800 
Wire Wire Line
	3700 800  4400 800 
Wire Wire Line
	4100 800  4100 1050
Wire Wire Line
	4200 800  4200 1050
Connection ~ 4100 800 
Wire Wire Line
	4300 800  4300 1050
Connection ~ 4200 800 
Wire Wire Line
	4400 800  4400 1050
Connection ~ 4300 800 
Connection ~ 4400 800 
Wire Wire Line
	3600 1050 3600 900 
Wire Wire Line
	3600 900  4000 900 
Wire Wire Line
	3800 900  3800 1050
Wire Wire Line
	3900 900  3900 1050
Connection ~ 3800 900 
Wire Wire Line
	4000 900  4000 1050
Connection ~ 3900 900 
Connection ~ 3600 900 
Wire Wire Line
	3900 4950 3900 5000
Wire Wire Line
	3900 5000 4200 5000
Wire Wire Line
	4000 5000 4000 4950
Wire Wire Line
	4100 5000 4100 4950
Connection ~ 4000 5000
Connection ~ 4100 5000
Connection ~ 4200 5000
Wire Wire Line
	5750 3450 6050 3450
Wire Wire Line
	5750 3150 6050 3150
Wire Wire Line
	6050 3250 5750 3250
Wire Wire Line
	2200 3600 2500 3600
Wire Wire Line
	2200 3700 2500 3700
Wire Wire Line
	6150 2850 5750 2850
Wire Wire Line
	6150 2750 5750 2750
Wire Wire Line
	6150 2650 5750 2650
Wire Wire Line
	6150 2550 5750 2550
Wire Wire Line
	900  9050 600  9050
Wire Wire Line
	2200 3300 2500 3300
Wire Wire Line
	8300 3200 8600 3200
Wire Wire Line
	7500 4100 7800 4100
Wire Wire Line
	8300 4100 8600 4100
Wire Wire Line
	6150 1850 5750 1850
Wire Wire Line
	6150 1950 5750 1950
Wire Wire Line
	6150 2950 5750 2950
Wire Wire Line
	6150 3050 5750 3050
Wire Wire Line
	8600 3800 8300 3800
Wire Wire Line
	8600 3500 8300 3500
Wire Wire Line
	7800 3300 7500 3300
Wire Wire Line
	8600 3300 8300 3300
Wire Wire Line
	6050 3950 5750 3950
Wire Wire Line
	6050 4050 5750 4050
Wire Wire Line
	6050 3850 5750 3850
Wire Wire Line
	1550 9050 1250 9050
Wire Wire Line
	2150 9050 1850 9050
Wire Wire Line
	2800 9050 2500 9050
Wire Wire Line
	3400 9050 3100 9050
Wire Wire Line
	4050 9050 3750 9050
Wire Wire Line
	4650 9050 4350 9050
Wire Wire Line
	5300 9050 5000 9050
Wire Wire Line
	5300 8950 5250 8950
Wire Wire Line
	5250 8950 5250 8750
Wire Wire Line
	5250 8750 800  8750
Wire Wire Line
	4550 8750 4550 8950
Wire Wire Line
	4550 8950 4650 8950
Wire Wire Line
	3950 8750 3950 8950
Wire Wire Line
	3950 8950 4050 8950
Connection ~ 4550 8750
Wire Wire Line
	3300 8750 3300 8950
Wire Wire Line
	3300 8950 3400 8950
Connection ~ 3950 8750
Wire Wire Line
	2700 8750 2700 8950
Wire Wire Line
	2700 8950 2800 8950
Connection ~ 3300 8750
Wire Wire Line
	2050 8750 2050 8950
Wire Wire Line
	2050 8950 2150 8950
Connection ~ 2700 8750
Wire Wire Line
	1450 8750 1450 8950
Wire Wire Line
	1450 8950 1550 8950
Connection ~ 2050 8750
Wire Wire Line
	800  8750 800  8950
Wire Wire Line
	800  8950 900  8950
Connection ~ 1450 8750
Connection ~ 800  8750
Wire Wire Line
	900  9150 800  9150
Wire Wire Line
	800  9150 800  9350
Wire Wire Line
	800  9350 5250 9350
Wire Wire Line
	1450 9350 1450 9150
Wire Wire Line
	1450 9150 1550 9150
Wire Wire Line
	2050 9350 2050 9150
Wire Wire Line
	2050 9150 2150 9150
Connection ~ 1450 9350
Wire Wire Line
	2700 9350 2700 9150
Wire Wire Line
	2700 9150 2800 9150
Connection ~ 2050 9350
Wire Wire Line
	3300 9150 3300 9450
Wire Wire Line
	3300 9150 3400 9150
Connection ~ 2700 9350
Wire Wire Line
	3950 9350 3950 9150
Wire Wire Line
	3950 9150 4050 9150
Connection ~ 3300 9350
Wire Wire Line
	4550 9350 4550 9150
Wire Wire Line
	4550 9150 4650 9150
Connection ~ 3950 9350
Wire Wire Line
	5250 9350 5250 9150
Wire Wire Line
	5250 9150 5300 9150
Connection ~ 4550 9350
Wire Wire Line
	4150 6750 3750 6750
Wire Wire Line
	4150 6850 3750 6850
Wire Wire Line
	4150 6350 3750 6350
Wire Wire Line
	4150 6450 3750 6450
Wire Wire Line
	6150 2350 5750 2350
Wire Wire Line
	6150 2450 5750 2450
Wire Wire Line
	6150 2150 5750 2150
Wire Wire Line
	6150 2250 5750 2250
Wire Wire Line
	5500 6750 5900 6750
Wire Wire Line
	5500 6450 5900 6450
Wire Wire Line
	5500 6850 5900 6850
Wire Wire Line
	5900 6350 5500 6350
Connection ~ 3900 7950
Connection ~ 3900 8350
Connection ~ 1800 7950
Connection ~ 1800 8350
Wire Wire Line
	6050 3750 5750 3750
Wire Wire Line
	6050 3350 5750 3350
Wire Wire Line
	6050 2050 5750 2050
Wire Wire Line
	6050 1750 5750 1750
Wire Wire Line
	6050 1650 5750 1650
Wire Wire Line
	6050 1550 5750 1550
Wire Wire Line
	6050 1450 5750 1450
Wire Wire Line
	8600 3700 8300 3700
Wire Wire Line
	7800 3800 7500 3800
Wire Wire Line
	7800 3700 7500 3700
Wire Wire Line
	8600 3600 8300 3600
Wire Wire Line
	7500 3400 7800 3400
Wire Wire Line
	8600 3400 8300 3400
Wire Wire Line
	7800 3600 7500 3600
Wire Wire Line
	7800 3500 7500 3500
Wire Wire Line
	7800 3900 7500 3900
Wire Wire Line
	8600 3900 8300 3900
Wire Wire Line
	7800 4000 7500 4000
Wire Wire Line
	8600 4000 8300 4000
Wire Wire Line
	8300 3100 8800 3100
Wire Wire Line
	7800 3100 7500 3100
Wire Wire Line
	7500 3100 7500 3000
Wire Wire Line
	7300 3200 7800 3200
Text HLabel 6050 3550 2    60   BiDi ~ 0
TX
Text HLabel 6050 3650 2    60   BiDi ~ 0
RX
Text Label 5850 3550 0    60   ~ 0
TX
Text Label 5850 3650 0    60   ~ 0
RX
$Comp
L +3.3VP #PWR034
U 1 1 543CA989
P 800 8750
F 0 "#PWR034" H 850 8780 20  0001 C CNN
F 1 "+3.3VP" H 800 8840 30  0000 C CNN
F 2 "" H 800 8750 60  0001 C CNN
F 3 "" H 800 8750 60  0001 C CNN
	1    800  8750
	1    0    0    -1  
$EndComp
$Comp
L +3.3VP #PWR035
U 1 1 543CBE71
P 7300 3000
F 0 "#PWR035" H 7350 3030 20  0001 C CNN
F 1 "+3.3VP" H 7300 3090 30  0000 C CNN
F 2 "" H 7300 3000 60  0001 C CNN
F 3 "" H 7300 3000 60  0001 C CNN
	1    7300 3000
	1    0    0    -1  
$EndComp
Wire Wire Line
	7300 3000 7300 3200
$EndSCHEMATC
