PCBNEW-LibModule-V1  mié 03 jul 2013 22:03:16 COT
# encoding utf-8
Units mm
$INDEX
ENG_CD_10
$EndINDEX
$MODULE ENG_CD_10
Po 0 0 0 15 51D4E5CD 00000000 ~~
Li ENG_CD_10
Sc 0
AR 
Op 0 0 0
T0 16.51 -6.04 1.524 1.524 0 0.3048 N V 21 N "ENG_CD_10"
T1 16.79 6.42 1.524 1.524 0 0.3048 N V 21 N "VAL**"
DS -1.89 -4.09 33.5 -4.11 0.381 21
DS 33.5 -4.11 33.5 4.11 0.381 21
DS 33.5 4.11 -1.89 4.11 0.381 21
DS -1.89 4.11 -1.88 -4.09 0.381 21
$PAD
Sh "8" C 1.9 1.9 0 0 0
Dr 1.1 0 0
At STD N 00E0FFFF
Ne 0 ""
Po 24.5 0
$EndPAD
$PAD
Sh "7" C 1.9 1.9 0 0 0
Dr 1.1 0 0
At STD N 00E0FFFF
Ne 0 ""
Po 21 0
$EndPAD
$PAD
Sh "9" C 1.9 1.9 0 0 0
Dr 1.1 0 0
At STD N 00E0FFFF
Ne 0 ""
Po 28 0
$EndPAD
$PAD
Sh "10" C 1.9 1.9 0 0 0
Dr 1.1 0 0
At STD N 00E0FFFF
Ne 0 ""
Po 31.5 0
$EndPAD
$PAD
Sh "6" C 1.9 1.9 0 0 0
Dr 1.1 0 0
At STD N 00E0FFFF
Ne 0 ""
Po 17.5 0
$EndPAD
$PAD
Sh "5" C 1.9 1.9 0 0 0
Dr 1.1 0 0
At STD N 00E0FFFF
Ne 0 ""
Po 14 0
$EndPAD
$PAD
Sh "3" C 1.9 1.9 0 0 0
Dr 1.1 0 0
At STD N 00E0FFFF
Ne 0 ""
Po 7 0
$EndPAD
$PAD
Sh "4" C 1.9 1.9 0 0 0
Dr 1.1 0 0
At STD N 00E0FFFF
Ne 0 ""
Po 10.5 0
$EndPAD
$PAD
Sh "2" C 1.9 1.9 0 0 0
Dr 1.1 0 0
At STD N 00E0FFFF
Ne 0 ""
Po 3.5 0
$EndPAD
$PAD
Sh "1" C 1.9 1.9 0 0 0
Dr 1.1 0 0
At STD N 00E0FFFF
Ne 0 ""
Po 0 0
$EndPAD
$EndMODULE ENG_CD_10
$EndLIBRARY
