<?xml version="1.0" encoding="utf-8"?>
<!DOCTYPE eagle SYSTEM "eagle.dtd">
<eagle version="6.5.0">
<drawing>
<settings>
<setting alwaysvectorfont="no"/>
<setting verticaltext="up"/>
</settings>
<grid distance="0.1" unitdist="inch" unit="mil" style="lines" multiple="1" display="no" altdistance="0.01" altunitdist="inch" altunit="inch"/>
<layers>
<layer number="1" name="Top" color="4" fill="1" visible="yes" active="yes"/>
<layer number="16" name="Bottom" color="1" fill="1" visible="yes" active="yes"/>
<layer number="17" name="Pads" color="2" fill="1" visible="yes" active="yes"/>
<layer number="18" name="Vias" color="2" fill="1" visible="yes" active="yes"/>
<layer number="19" name="Unrouted" color="6" fill="1" visible="yes" active="yes"/>
<layer number="20" name="Dimension" color="15" fill="1" visible="yes" active="yes"/>
<layer number="21" name="tPlace" color="7" fill="1" visible="yes" active="yes"/>
<layer number="22" name="bPlace" color="7" fill="1" visible="yes" active="yes"/>
<layer number="23" name="tOrigins" color="15" fill="1" visible="yes" active="yes"/>
<layer number="24" name="bOrigins" color="15" fill="1" visible="yes" active="yes"/>
<layer number="25" name="tNames" color="7" fill="1" visible="yes" active="yes"/>
<layer number="26" name="bNames" color="7" fill="1" visible="yes" active="yes"/>
<layer number="27" name="tValues" color="7" fill="1" visible="yes" active="yes"/>
<layer number="28" name="bValues" color="7" fill="1" visible="yes" active="yes"/>
<layer number="29" name="tStop" color="7" fill="3" visible="yes" active="yes"/>
<layer number="30" name="bStop" color="7" fill="6" visible="no" active="yes"/>
<layer number="31" name="tCream" color="7" fill="4" visible="yes" active="yes"/>
<layer number="32" name="bCream" color="7" fill="5" visible="no" active="yes"/>
<layer number="33" name="tFinish" color="6" fill="3" visible="no" active="yes"/>
<layer number="34" name="bFinish" color="6" fill="6" visible="no" active="yes"/>
<layer number="35" name="tGlue" color="7" fill="4" visible="no" active="yes"/>
<layer number="36" name="bGlue" color="7" fill="5" visible="no" active="yes"/>
<layer number="37" name="tTest" color="7" fill="1" visible="no" active="yes"/>
<layer number="38" name="bTest" color="7" fill="1" visible="no" active="yes"/>
<layer number="39" name="tKeepout" color="4" fill="11" visible="yes" active="yes"/>
<layer number="40" name="bKeepout" color="1" fill="11" visible="yes" active="yes"/>
<layer number="41" name="tRestrict" color="4" fill="10" visible="yes" active="yes"/>
<layer number="42" name="bRestrict" color="1" fill="10" visible="yes" active="yes"/>
<layer number="43" name="vRestrict" color="2" fill="10" visible="yes" active="yes"/>
<layer number="44" name="Drills" color="7" fill="1" visible="no" active="yes"/>
<layer number="45" name="Holes" color="7" fill="1" visible="no" active="yes"/>
<layer number="46" name="Milling" color="3" fill="1" visible="no" active="yes"/>
<layer number="47" name="Measures" color="7" fill="1" visible="no" active="yes"/>
<layer number="48" name="Document" color="7" fill="1" visible="yes" active="yes"/>
<layer number="49" name="Reference" color="7" fill="1" visible="yes" active="yes"/>
<layer number="51" name="tDocu" color="7" fill="1" visible="yes" active="yes"/>
<layer number="52" name="bDocu" color="7" fill="1" visible="yes" active="yes"/>
<layer number="91" name="Nets" color="2" fill="1" visible="yes" active="yes"/>
<layer number="92" name="Busses" color="1" fill="1" visible="yes" active="yes"/>
<layer number="93" name="Pins" color="2" fill="1" visible="yes" active="yes"/>
<layer number="94" name="Symbols" color="4" fill="1" visible="yes" active="yes"/>
<layer number="95" name="Names" color="7" fill="1" visible="yes" active="yes"/>
<layer number="96" name="Values" color="7" fill="1" visible="yes" active="yes"/>
<layer number="97" name="Info" color="7" fill="1" visible="yes" active="yes"/>
<layer number="98" name="Guide" color="6" fill="1" visible="yes" active="yes"/>
</layers>
<library>
<packages>
<package name="0402">
<smd name="1" x="-0.4191" y="0" dx="0.5588" dy="0.6096" layer="1"/>
<smd name="2" x="0.4191" y="0" dx="0.5588" dy="0.6096" layer="1"/>
<wire x1="-0.1524" y1="-0.3048" x2="-0.1524" y2="0.3048" width="0.1524" layer="25"/>
<wire x1="-0.1524" y1="0.3048" x2="-0.5588" y2="0.3048" width="0.1524" layer="25"/>
<wire x1="-0.5588" y1="-0.3048" x2="-0.1524" y2="-0.3048" width="0.1524" layer="25"/>
<wire x1="0.127" y1="0.3048" x2="0.1524" y2="-0.3048" width="0.1524" layer="25"/>
<wire x1="0.1524" y1="-0.3048" x2="0.5588" y2="-0.3048" width="0.1524" layer="25"/>
<wire x1="0.5588" y1="0.3048" x2="0.127" y2="0.3048" width="0.1524" layer="25"/>
<wire x1="-0.1524" y1="-0.3048" x2="0.1524" y2="-0.3048" width="0.1524" layer="25"/>
<wire x1="0.5588" y1="-0.3048" x2="0.5588" y2="0.3048" width="0.1524" layer="25"/>
<wire x1="0.127" y1="0.3048" x2="-0.1524" y2="0.3048" width="0.1524" layer="25"/>
<wire x1="-0.5588" y1="0.3048" x2="-0.5588" y2="-0.3048" width="0.1524" layer="25"/>
<text x="-2.8702" y="-0.635" size="1.27" layer="25" ratio="6" rot="SR0">&gt;NAME</text>
<text x="-3.4544" y="-0.635" size="1.27" layer="27" ratio="6" rot="SR0">&gt;VALUE</text>
</package>
<package name="CAPSMT_6_B1G">
<smd name="1" x="-1.4986" y="0" dx="1.6002" dy="2.6924" layer="1"/>
<smd name="2" x="1.4986" y="0" dx="1.6002" dy="2.6924" layer="1"/>
<wire x1="-2.6924" y1="0" x2="-3.4544" y2="0" width="0.1524" layer="21"/>
<wire x1="-3.048" y1="0.381" x2="-3.048" y2="-0.381" width="0.1524" layer="21"/>
<wire x1="-0.4064" y1="-1.4986" x2="0.4064" y2="-1.4986" width="0.1524" layer="21"/>
<wire x1="0.4064" y1="1.4986" x2="-0.4064" y2="1.4986" width="0.1524" layer="21"/>
<wire x1="-2.6924" y1="0" x2="-3.4544" y2="0" width="0.1524" layer="25"/>
<wire x1="-3.048" y1="0.381" x2="-3.048" y2="-0.381" width="0.1524" layer="25"/>
<wire x1="-1.8542" y1="-1.4986" x2="1.8542" y2="-1.4986" width="0.1524" layer="25"/>
<wire x1="1.8542" y1="-1.4986" x2="1.8542" y2="1.4986" width="0.1524" layer="25"/>
<wire x1="1.8542" y1="1.4986" x2="-1.8542" y2="1.4986" width="0.1524" layer="25"/>
<wire x1="-1.8542" y1="1.4986" x2="-1.8542" y2="-1.4986" width="0.1524" layer="25"/>
<text x="-2.8702" y="-0.635" size="1.27" layer="25" ratio="6" rot="SR0">&gt;NAME</text>
<text x="-3.4544" y="-0.635" size="1.27" layer="27" ratio="6" rot="SR0">&gt;VALUE</text>
</package>
<package name="0805">
<smd name="1" x="-0.9017" y="0" dx="1.1176" dy="1.4478" layer="1"/>
<smd name="2" x="0.9017" y="0" dx="1.1176" dy="1.4478" layer="1"/>
<wire x1="-0.3556" y1="-0.7112" x2="-0.3556" y2="0.7112" width="0.1524" layer="25"/>
<wire x1="-0.3556" y1="0.7112" x2="-1.1176" y2="0.7112" width="0.1524" layer="25"/>
<wire x1="-1.1176" y1="-0.7112" x2="-0.3556" y2="-0.7112" width="0.1524" layer="25"/>
<wire x1="0.3556" y1="0.7112" x2="0.3556" y2="-0.7112" width="0.1524" layer="25"/>
<wire x1="0.3556" y1="-0.7112" x2="1.1176" y2="-0.7112" width="0.1524" layer="25"/>
<wire x1="1.1176" y1="0.7112" x2="1.1176" y2="0.7366" width="0.1524" layer="25"/>
<wire x1="1.1176" y1="0.7366" x2="0.3556" y2="0.7112" width="0.1524" layer="25"/>
<wire x1="-0.3556" y1="-0.7112" x2="0.3556" y2="-0.7112" width="0.1524" layer="25"/>
<wire x1="1.1176" y1="-0.7112" x2="1.1176" y2="0.7112" width="0.1524" layer="25"/>
<wire x1="1.1176" y1="0.7112" x2="-0.3556" y2="0.7112" width="0.1524" layer="25"/>
<wire x1="-1.1176" y1="0.7112" x2="-1.1176" y2="-0.7112" width="0.1524" layer="25"/>
<text x="-2.8702" y="-0.635" size="1.27" layer="25" ratio="6" rot="SR0">&gt;NAME</text>
<text x="-3.4544" y="-0.635" size="1.27" layer="27" ratio="6" rot="SR0">&gt;VALUE</text>
</package>
<package name="DPAK">
<smd name="1" x="-2.28000625" y="-5.450003125" dx="0.7112" dy="2.1082" layer="1"/>
<smd name="2" x="0" y="0.1524" dx="6.7056" dy="7.5946" layer="1"/>
<smd name="3" x="2.28000625" y="-5.450003125" dx="0.7112" dy="2.1082" layer="1"/>
<wire x1="-1.9558" y1="-3.6576" x2="-2.6162" y2="-3.6576" width="0.1524" layer="25"/>
<wire x1="-2.6162" y1="-3.6576" x2="-2.6162" y2="-6.1468" width="0.1524" layer="25"/>
<wire x1="-2.6162" y1="-6.1468" x2="-1.9558" y2="-6.1468" width="0.1524" layer="25"/>
<wire x1="-1.9558" y1="-6.1468" x2="-1.9558" y2="-3.6576" width="0.1524" layer="25"/>
<wire x1="2.6162" y1="-3.6576" x2="1.9558" y2="-3.6576" width="0.1524" layer="25"/>
<wire x1="1.9558" y1="-3.6576" x2="1.9558" y2="-6.1468" width="0.1524" layer="25"/>
<wire x1="1.9558" y1="-6.1468" x2="2.6162" y2="-6.1468" width="0.1524" layer="25"/>
<wire x1="2.6162" y1="-6.1468" x2="2.6162" y2="-3.6576" width="0.1524" layer="25"/>
<wire x1="-0.3302" y1="-3.6576" x2="-0.3302" y2="-4.6482" width="0.1524" layer="25"/>
<wire x1="-0.3302" y1="-4.6482" x2="0.3302" y2="-4.6482" width="0.1524" layer="25"/>
<wire x1="0.3302" y1="-4.6482" x2="0.3302" y2="-3.6576" width="0.1524" layer="25"/>
<wire x1="-3.3528" y1="-3.6576" x2="3.3528" y2="-3.6576" width="0.1524" layer="25"/>
<wire x1="3.3528" y1="-3.6576" x2="3.3528" y2="3.6576" width="0.1524" layer="25"/>
<wire x1="3.3528" y1="3.6576" x2="-3.3528" y2="3.6576" width="0.1524" layer="25"/>
<wire x1="-3.3528" y1="3.6576" x2="-3.3528" y2="-3.6576" width="0.1524" layer="25"/>
<text x="-5.7658" y="-6.096" size="1.27" layer="25" ratio="6" rot="SR0">*</text>
<text x="-2.8702" y="-0.635" size="1.27" layer="25" ratio="6" rot="SR0">&gt;NAME</text>
<text x="-5.7658" y="-6.096" size="1.27" layer="21" ratio="6" rot="SR0">*</text>
<text x="-3.4544" y="-0.635" size="1.27" layer="27" ratio="6" rot="SR0">&gt;VALUE</text>
</package>
<package name="PG-TSDSON-8">
<smd name="1" x="-1.5113" y="0.975003125" dx="0.7874" dy="0.3302" layer="1"/>
<smd name="2" x="-1.5113" y="0.32499375" dx="0.7874" dy="0.3302" layer="1"/>
<smd name="3" x="-1.5113" y="-0.32499375" dx="0.7874" dy="0.3302" layer="1"/>
<smd name="4" x="-1.5113" y="-0.975003125" dx="0.7874" dy="0.3302" layer="1"/>
<smd name="5" x="1.5113" y="-0.975003125" dx="0.7874" dy="0.3302" layer="1" rot="R180"/>
<smd name="6" x="1.5113" y="-0.32499375" dx="0.7874" dy="0.3302" layer="1" rot="R180"/>
<smd name="7" x="1.5113" y="0.32499375" dx="0.7874" dy="0.3302" layer="1" rot="R180"/>
<smd name="8" x="1.5113" y="0.975003125" dx="0.7874" dy="0.3302" layer="1" rot="R180"/>
<smd name="9" x="0.4572" y="0" dx="1.3208" dy="2.286" layer="1"/>
<wire x1="-1.905" y1="1.143" x2="-1.905" y2="0.8128" width="0.1524" layer="31"/>
<wire x1="-1.905" y1="0.8128" x2="-1.1176" y2="0.8128" width="0.1524" layer="31"/>
<wire x1="-1.1176" y1="0.8128" x2="-1.1176" y2="1.143" width="0.1524" layer="31"/>
<wire x1="-1.1176" y1="1.143" x2="-1.905" y2="1.143" width="0.1524" layer="31"/>
<wire x1="-1.905" y1="0.4826" x2="-1.905" y2="0.1524" width="0.1524" layer="31"/>
<wire x1="-1.905" y1="0.1524" x2="-1.1176" y2="0.1524" width="0.1524" layer="31"/>
<wire x1="-1.1176" y1="0.1524" x2="-1.1176" y2="0.4826" width="0.1524" layer="31"/>
<wire x1="-1.1176" y1="0.4826" x2="-1.905" y2="0.4826" width="0.1524" layer="31"/>
<wire x1="-1.905" y1="-0.1524" x2="-1.905" y2="-0.4826" width="0.1524" layer="31"/>
<wire x1="-1.905" y1="-0.4826" x2="-1.1176" y2="-0.4826" width="0.1524" layer="31"/>
<wire x1="-1.1176" y1="-0.4826" x2="-1.1176" y2="-0.1524" width="0.1524" layer="31"/>
<wire x1="-1.1176" y1="-0.1524" x2="-1.905" y2="-0.1524" width="0.1524" layer="31"/>
<wire x1="-1.905" y1="-0.8128" x2="-1.905" y2="-1.143" width="0.1524" layer="31"/>
<wire x1="-1.905" y1="-1.143" x2="-1.1176" y2="-1.143" width="0.1524" layer="31"/>
<wire x1="-1.1176" y1="-1.143" x2="-1.1176" y2="-0.8128" width="0.1524" layer="31"/>
<wire x1="-1.1176" y1="-0.8128" x2="-1.905" y2="-0.8128" width="0.1524" layer="31"/>
<wire x1="1.1176" y1="-0.8128" x2="1.1176" y2="-1.143" width="0.1524" layer="31"/>
<wire x1="1.1176" y1="-1.143" x2="1.905" y2="-1.143" width="0.1524" layer="31"/>
<wire x1="1.905" y1="-1.143" x2="1.905" y2="-0.8128" width="0.1524" layer="31"/>
<wire x1="1.905" y1="-0.8128" x2="1.1176" y2="-0.8128" width="0.1524" layer="31"/>
<wire x1="1.1176" y1="-0.1524" x2="1.1176" y2="-0.4826" width="0.1524" layer="31"/>
<wire x1="1.1176" y1="-0.4826" x2="1.905" y2="-0.4826" width="0.1524" layer="31"/>
<wire x1="1.905" y1="-0.4826" x2="1.905" y2="-0.1524" width="0.1524" layer="31"/>
<wire x1="1.905" y1="-0.1524" x2="1.1176" y2="-0.1524" width="0.1524" layer="31"/>
<wire x1="1.1176" y1="0.4826" x2="1.1176" y2="0.1524" width="0.1524" layer="31"/>
<wire x1="1.1176" y1="0.1524" x2="1.905" y2="0.1524" width="0.1524" layer="31"/>
<wire x1="1.905" y1="0.1524" x2="1.905" y2="0.4826" width="0.1524" layer="31"/>
<wire x1="1.905" y1="0.4826" x2="1.1176" y2="0.4826" width="0.1524" layer="31"/>
<wire x1="1.1176" y1="1.143" x2="1.1176" y2="0.8128" width="0.1524" layer="31"/>
<wire x1="1.1176" y1="0.8128" x2="1.905" y2="0.8128" width="0.1524" layer="31"/>
<wire x1="1.905" y1="0.8128" x2="1.905" y2="1.143" width="0.1524" layer="31"/>
<wire x1="1.905" y1="1.143" x2="1.1176" y2="1.143" width="0.1524" layer="31"/>
<wire x1="1.7018" y1="1.4732" x2="1.7018" y2="1.7018" width="0.1524" layer="21"/>
<wire x1="-1.7018" y1="-1.4732" x2="-1.7018" y2="-1.7018" width="0.1524" layer="21"/>
<wire x1="-1.7018" y1="-1.7018" x2="1.7018" y2="-1.7018" width="0.1524" layer="21"/>
<wire x1="1.7018" y1="-1.7018" x2="1.7018" y2="-1.4732" width="0.1524" layer="21"/>
<wire x1="1.7018" y1="1.7018" x2="0.3048" y2="1.7018" width="0.1524" layer="21"/>
<wire x1="0.3048" y1="1.7018" x2="-0.3048" y2="1.7018" width="0.1524" layer="21"/>
<wire x1="-0.3048" y1="1.7018" x2="-1.7018" y2="1.7018" width="0.1524" layer="21"/>
<wire x1="-1.7018" y1="1.7018" x2="-1.7018" y2="1.4732" width="0.1524" layer="21"/>
<wire x1="0.3048" y1="1.7018" x2="-0.3048" y2="1.7018" width="0" layer="21" curve="-180"/>
<wire x1="-1.7018" y1="-1.7018" x2="1.7018" y2="-1.7018" width="0.1524" layer="25"/>
<wire x1="1.7018" y1="-1.7018" x2="1.7018" y2="1.7018" width="0.1524" layer="25"/>
<wire x1="1.7018" y1="1.7018" x2="0.3048" y2="1.7018" width="0.1524" layer="25"/>
<wire x1="0.3048" y1="1.7018" x2="-0.3048" y2="1.7018" width="0.1524" layer="25"/>
<wire x1="-0.3048" y1="1.7018" x2="-1.7018" y2="1.7018" width="0.1524" layer="25"/>
<wire x1="-1.7018" y1="1.7018" x2="-1.7018" y2="-1.7018" width="0.1524" layer="25"/>
<wire x1="0.3048" y1="1.7018" x2="-0.3048" y2="1.7018" width="0" layer="25" curve="-180"/>
<text x="-2.8702" y="-0.635" size="1.27" layer="25" ratio="6" rot="SR0">&gt;NAME</text>
<text x="-3.4544" y="-0.635" size="1.27" layer="27" ratio="6" rot="SR0">&gt;VALUE</text>
</package>
<package name="CAPSMT_62_E61">
<smd name="1" x="-1.65735" y="0" dx="2.9464" dy="0.7874" layer="1"/>
<smd name="2" x="1.65735" y="0" dx="2.9464" dy="0.7874" layer="1"/>
<wire x1="2.7432" y1="0.7366" x2="2.7432" y2="2.7432" width="0.1524" layer="21"/>
<wire x1="-2.7432" y1="-0.7366" x2="-2.7432" y2="-1.3716" width="0.1524" layer="21"/>
<wire x1="-2.7432" y1="-1.3716" x2="-2.7432" y2="-2.7432" width="0.1524" layer="21"/>
<wire x1="-3.8608" y1="0" x2="-4.6228" y2="0" width="0.1524" layer="21"/>
<wire x1="-4.2418" y1="0.381" x2="-4.2418" y2="-0.381" width="0.1524" layer="21"/>
<wire x1="-2.7432" y1="1.3716" x2="-1.3716" y2="2.7432" width="0.1524" layer="21"/>
<wire x1="-2.7432" y1="-1.3716" x2="-1.3716" y2="-2.7432" width="0.1524" layer="21"/>
<wire x1="-2.7432" y1="-2.7432" x2="2.7432" y2="-2.7432" width="0.1524" layer="21"/>
<wire x1="2.7432" y1="-2.7432" x2="2.7432" y2="-0.7366" width="0.1524" layer="21"/>
<wire x1="2.7432" y1="2.7432" x2="-2.7432" y2="2.7432" width="0.1524" layer="21"/>
<wire x1="-2.7432" y1="2.7432" x2="-2.7432" y2="0.7366" width="0.1524" layer="21"/>
<wire x1="-3.8608" y1="0" x2="-4.6228" y2="0" width="0.1524" layer="25"/>
<wire x1="-4.2418" y1="0.381" x2="-4.2418" y2="-0.381" width="0.1524" layer="25"/>
<wire x1="-2.7432" y1="1.3716" x2="-1.3716" y2="2.7432" width="0.1524" layer="25"/>
<wire x1="-2.7432" y1="-1.3716" x2="-1.3716" y2="-2.7432" width="0.1524" layer="25"/>
<wire x1="-2.7432" y1="-2.7432" x2="2.7432" y2="-2.7432" width="0.1524" layer="25"/>
<wire x1="2.7432" y1="-2.7432" x2="2.7432" y2="2.7432" width="0.1524" layer="25"/>
<wire x1="2.7432" y1="2.7432" x2="-2.7432" y2="2.7432" width="0.1524" layer="25"/>
<wire x1="-2.7432" y1="2.7432" x2="-2.7432" y2="-2.7432" width="0.1524" layer="25"/>
<text x="-2.8702" y="-0.635" size="1.27" layer="25" ratio="6" rot="SR0">&gt;NAME</text>
<text x="-3.4544" y="-0.635" size="1.27" layer="27" ratio="6" rot="SR0">&gt;VALUE</text>
</package>
<package name="1206">
<smd name="1" x="-1.4986" y="0" dx="1.1176" dy="1.8034" layer="1"/>
<smd name="2" x="1.4986" y="0" dx="1.1176" dy="1.8034" layer="1"/>
<wire x1="-0.6096" y1="-0.9144" x2="0.6096" y2="-0.9144" width="0.1524" layer="21"/>
<wire x1="0.6096" y1="0.9144" x2="-0.6096" y2="0.9144" width="0.1524" layer="21"/>
<wire x1="-0.9398" y1="-0.9144" x2="-0.9398" y2="0.9144" width="0.1524" layer="25"/>
<wire x1="-0.9398" y1="0.9144" x2="-1.7018" y2="0.9144" width="0.1524" layer="25"/>
<wire x1="-1.7018" y1="-0.9144" x2="-0.9398" y2="-0.9144" width="0.1524" layer="25"/>
<wire x1="0.9398" y1="0.9144" x2="0.9398" y2="-0.9144" width="0.1524" layer="25"/>
<wire x1="0.9398" y1="-0.9144" x2="1.7018" y2="-0.889" width="0.1524" layer="25"/>
<wire x1="1.7018" y1="-0.889" x2="1.7018" y2="0.9144" width="0.1524" layer="25"/>
<wire x1="1.7018" y1="0.9144" x2="0.9398" y2="0.9144" width="0.1524" layer="25"/>
<wire x1="-0.9398" y1="-0.9144" x2="1.7018" y2="-0.9144" width="0.1524" layer="25"/>
<wire x1="1.7018" y1="-0.9144" x2="1.7018" y2="-0.889" width="0.1524" layer="25"/>
<wire x1="0.9398" y1="0.9144" x2="-0.9398" y2="0.9144" width="0.1524" layer="25"/>
<wire x1="-1.7018" y1="0.9144" x2="-1.7018" y2="-0.9144" width="0.1524" layer="25"/>
<text x="-2.8702" y="-0.635" size="1.27" layer="25" ratio="6" rot="SR0">&gt;NAME</text>
<text x="-3.4544" y="-0.635" size="1.27" layer="27" ratio="6" rot="SR0">&gt;VALUE</text>
</package>
<package name="MUA08A">
<smd name="1" x="-2.1971" y="0.975003125" dx="1.3716" dy="0.4572" layer="1"/>
<smd name="2" x="-2.1971" y="0.32499375" dx="1.3716" dy="0.4572" layer="1"/>
<smd name="3" x="-2.1971" y="-0.32499375" dx="1.3716" dy="0.4572" layer="1"/>
<smd name="4" x="-2.1971" y="-0.975003125" dx="1.3716" dy="0.4572" layer="1"/>
<smd name="5" x="2.1971" y="-0.975003125" dx="1.3716" dy="0.4572" layer="1"/>
<smd name="6" x="2.1971" y="-0.32499375" dx="1.3716" dy="0.4572" layer="1"/>
<smd name="7" x="2.1971" y="0.32499375" dx="1.3716" dy="0.4572" layer="1"/>
<smd name="8" x="2.1971" y="0.975003125" dx="1.3716" dy="0.4572" layer="1"/>
<wire x1="-1.5494" y1="-1.5494" x2="1.5494" y2="-1.5494" width="0.1524" layer="21"/>
<wire x1="1.5494" y1="1.5494" x2="0.3048" y2="1.5494" width="0.1524" layer="21"/>
<wire x1="0.3048" y1="1.5494" x2="-0.3048" y2="1.5494" width="0.1524" layer="21"/>
<wire x1="-0.3048" y1="1.5494" x2="-1.5494" y2="1.5494" width="0.1524" layer="21"/>
<wire x1="0.3048" y1="1.5494" x2="-0.3048" y2="1.5494" width="0" layer="21" curve="-180"/>
<text x="-3.0226" y="0.8128" size="1.27" layer="21" ratio="6" rot="SR0">*</text>
<wire x1="-1.5494" y1="0.762" x2="-1.5494" y2="1.1684" width="0.1524" layer="25"/>
<wire x1="-1.5494" y1="1.1684" x2="-2.54" y2="1.1684" width="0.1524" layer="25"/>
<wire x1="-2.54" y1="1.1684" x2="-2.54" y2="0.762" width="0.1524" layer="25"/>
<wire x1="-2.54" y1="0.762" x2="-1.5494" y2="0.762" width="0.1524" layer="25"/>
<wire x1="-1.5494" y1="0.127" x2="-1.5494" y2="0.5334" width="0.1524" layer="25"/>
<wire x1="-1.5494" y1="0.5334" x2="-2.54" y2="0.5334" width="0.1524" layer="25"/>
<wire x1="-2.54" y1="0.5334" x2="-2.54" y2="0.127" width="0.1524" layer="25"/>
<wire x1="-2.54" y1="0.127" x2="-1.5494" y2="0.127" width="0.1524" layer="25"/>
<wire x1="-1.5494" y1="-0.5334" x2="-1.5494" y2="-0.127" width="0.1524" layer="25"/>
<wire x1="-1.5494" y1="-0.127" x2="-2.54" y2="-0.127" width="0.1524" layer="25"/>
<wire x1="-2.54" y1="-0.127" x2="-2.54" y2="-0.5334" width="0.1524" layer="25"/>
<wire x1="-2.54" y1="-0.5334" x2="-1.5494" y2="-0.5334" width="0.1524" layer="25"/>
<wire x1="-1.5494" y1="-1.1684" x2="-1.5494" y2="-0.762" width="0.1524" layer="25"/>
<wire x1="-1.5494" y1="-0.762" x2="-2.54" y2="-0.762" width="0.1524" layer="25"/>
<wire x1="-2.54" y1="-0.762" x2="-2.5146" y2="-1.1684" width="0.1524" layer="25"/>
<wire x1="-2.5146" y1="-1.1684" x2="-1.5494" y2="-1.1684" width="0.1524" layer="25"/>
<wire x1="1.5494" y1="-0.762" x2="1.5494" y2="-1.1684" width="0.1524" layer="25"/>
<wire x1="1.5494" y1="-1.1684" x2="2.54" y2="-1.1684" width="0.1524" layer="25"/>
<wire x1="2.54" y1="-1.1684" x2="2.54" y2="-0.762" width="0.1524" layer="25"/>
<wire x1="2.54" y1="-0.762" x2="1.5494" y2="-0.762" width="0.1524" layer="25"/>
<wire x1="1.5494" y1="-0.127" x2="1.5494" y2="-0.5334" width="0.1524" layer="25"/>
<wire x1="1.5494" y1="-0.5334" x2="2.54" y2="-0.5334" width="0.1524" layer="25"/>
<wire x1="2.54" y1="-0.5334" x2="2.54" y2="-0.127" width="0.1524" layer="25"/>
<wire x1="2.54" y1="-0.127" x2="1.5494" y2="-0.127" width="0.1524" layer="25"/>
<wire x1="1.5494" y1="0.5334" x2="1.5494" y2="0.127" width="0.1524" layer="25"/>
<wire x1="1.5494" y1="0.127" x2="2.54" y2="0.127" width="0.1524" layer="25"/>
<wire x1="2.54" y1="0.127" x2="2.54" y2="0.5334" width="0.1524" layer="25"/>
<wire x1="2.54" y1="0.5334" x2="1.5494" y2="0.5334" width="0.1524" layer="25"/>
<wire x1="1.5494" y1="1.1684" x2="1.5494" y2="0.762" width="0.1524" layer="25"/>
<wire x1="1.5494" y1="0.762" x2="2.54" y2="0.762" width="0.1524" layer="25"/>
<wire x1="2.54" y1="0.762" x2="2.54" y2="1.1684" width="0.1524" layer="25"/>
<wire x1="2.54" y1="1.1684" x2="1.5494" y2="1.1684" width="0.1524" layer="25"/>
<wire x1="-1.5494" y1="1.5494" x2="-1.5494" y2="-1.5494" width="0.1524" layer="25"/>
<wire x1="-1.5494" y1="-1.5494" x2="1.5494" y2="-1.5494" width="0.1524" layer="25"/>
<wire x1="1.5494" y1="-1.5494" x2="1.5494" y2="1.5494" width="0.1524" layer="25"/>
<wire x1="1.5494" y1="1.5494" x2="0.3048" y2="1.5494" width="0.1524" layer="25"/>
<wire x1="0.3048" y1="1.5494" x2="-0.3048" y2="1.5494" width="0.1524" layer="25"/>
<wire x1="-0.3048" y1="1.5494" x2="-1.5494" y2="1.5494" width="0.1524" layer="25"/>
<wire x1="0.3048" y1="1.5494" x2="-0.3048" y2="1.5494" width="0" layer="25" curve="-180"/>
<text x="-3.0226" y="0.8128" size="1.27" layer="25" ratio="6" rot="SR0">*</text>
<text x="-2.8702" y="-0.635" size="1.27" layer="25" ratio="6" rot="SR0">&gt;NAME</text>
<text x="-3.4544" y="-0.635" size="1.27" layer="27" ratio="6" rot="SR0">&gt;VALUE</text>
</package>
<package name="MSS1038">
<smd name="1" x="-4.699" y="0" dx="1.778" dy="3.556" layer="1"/>
<smd name="2" x="4.699" y="0" dx="1.778" dy="3.556" layer="1"/>
<wire x1="5.2578" y1="-2.1082" x2="5.2578" y2="-2.54" width="0.1524" layer="21"/>
<wire x1="-5.2578" y1="2.1082" x2="-5.2578" y2="2.54" width="0.1524" layer="21"/>
<wire x1="-2.6416" y1="5.1054" x2="2.6416" y2="5.1054" width="0.1524" layer="21"/>
<wire x1="2.6416" y1="5.1054" x2="5.2578" y2="2.54" width="0.1524" layer="21"/>
<wire x1="5.2578" y1="2.54" x2="5.2578" y2="2.1082" width="0.1524" layer="21"/>
<wire x1="5.2578" y1="-2.54" x2="2.6416" y2="-5.1054" width="0.1524" layer="21"/>
<wire x1="2.6416" y1="-5.1054" x2="-2.6416" y2="-5.1054" width="0.1524" layer="21"/>
<wire x1="-2.6416" y1="-5.1054" x2="-5.2578" y2="-2.54" width="0.1524" layer="21"/>
<wire x1="-5.2578" y1="-2.54" x2="-5.2578" y2="-2.1082" width="0.1524" layer="21"/>
<wire x1="-5.2578" y1="2.54" x2="-2.6416" y2="5.1054" width="0.1524" layer="21"/>
<wire x1="-2.6416" y1="5.1054" x2="2.6416" y2="5.1054" width="0.1524" layer="25"/>
<wire x1="2.6416" y1="5.1054" x2="5.2578" y2="2.54" width="0.1524" layer="25"/>
<wire x1="5.2578" y1="2.54" x2="5.2578" y2="-2.54" width="0.1524" layer="25"/>
<wire x1="5.2578" y1="-2.54" x2="2.6416" y2="-5.1054" width="0.1524" layer="25"/>
<wire x1="2.6416" y1="-5.1054" x2="-2.6416" y2="-5.1054" width="0.1524" layer="25"/>
<wire x1="-2.6416" y1="-5.1054" x2="-5.2578" y2="-2.54" width="0.1524" layer="25"/>
<wire x1="-5.2578" y1="-2.54" x2="-5.2578" y2="2.54" width="0.1524" layer="25"/>
<wire x1="-5.2578" y1="2.54" x2="-2.6416" y2="5.1054" width="0.1524" layer="25"/>
<text x="-2.8702" y="-0.635" size="1.27" layer="25" ratio="6" rot="SR0">&gt;NAME</text>
<text x="-3.4544" y="-0.635" size="1.27" layer="27" ratio="6" rot="SR0">&gt;VALUE</text>
</package>
<package name="IND_NPI34W">
<smd name="1" x="-5.14985" y="0" dx="2.9972" dy="2.794" layer="1"/>
<smd name="2" x="5.14985" y="0" dx="2.9972" dy="2.794" layer="1"/>
<wire x1="6.5024" y1="-1.7272" x2="6.5024" y2="-2.413" width="0.1524" layer="21"/>
<wire x1="-6.5024" y1="1.7272" x2="-6.5024" y2="2.413" width="0.1524" layer="21"/>
<wire x1="-3.2512" y1="4.7498" x2="3.2512" y2="4.7498" width="0.1524" layer="21"/>
<wire x1="3.2512" y1="4.7498" x2="6.5024" y2="2.413" width="0.1524" layer="21"/>
<wire x1="6.5024" y1="2.413" x2="6.5024" y2="1.7272" width="0.1524" layer="21"/>
<wire x1="6.5024" y1="-2.413" x2="3.2512" y2="-4.7498" width="0.1524" layer="21"/>
<wire x1="3.2512" y1="-4.7498" x2="-3.2512" y2="-4.7498" width="0.1524" layer="21"/>
<wire x1="-3.2512" y1="-4.7498" x2="-6.5024" y2="-2.413" width="0.1524" layer="21"/>
<wire x1="-6.5024" y1="-2.413" x2="-6.5024" y2="-1.7272" width="0.1524" layer="21"/>
<wire x1="-6.5024" y1="2.413" x2="-3.2512" y2="4.7498" width="0.1524" layer="21"/>
<wire x1="-3.2512" y1="4.7498" x2="3.2512" y2="4.7498" width="0.1524" layer="25"/>
<wire x1="3.2512" y1="4.7498" x2="6.5024" y2="2.413" width="0.1524" layer="25"/>
<wire x1="6.5024" y1="2.413" x2="6.5024" y2="-2.413" width="0.1524" layer="25"/>
<wire x1="6.5024" y1="-2.413" x2="3.2512" y2="-4.7498" width="0.1524" layer="25"/>
<wire x1="3.2512" y1="-4.7498" x2="-3.2512" y2="-4.7498" width="0.1524" layer="25"/>
<wire x1="-3.2512" y1="-4.7498" x2="-6.5024" y2="-2.413" width="0.1524" layer="25"/>
<wire x1="-6.5024" y1="-2.413" x2="-6.5024" y2="2.413" width="0.1524" layer="25"/>
<wire x1="-6.5024" y1="2.413" x2="-3.2512" y2="4.7498" width="0.1524" layer="25"/>
<text x="-2.8702" y="-0.635" size="1.27" layer="25" ratio="6" rot="SR0">&gt;NAME</text>
<text x="-3.4544" y="-0.635" size="1.27" layer="27" ratio="6" rot="SR0">&gt;VALUE</text>
</package>
</packages>
<symbols>
<symbol name="WB_CONTINUATION">
<pin name="NODE" x="0" y="-2.54" length="short" direction="pas" rot="R270"/>
<wire x1="0" y1="-2.54" x2="0" y2="2.54" width="0.508" layer="94"/>
<wire x1="-2.54" y1="2.54" x2="2.54" y2="2.54" width="0.508" layer="94"/>
<text x="0" y="0" size="2.54" layer="95" ratio="10" rot="SR0">&gt;NAME</text>
<text x="0" y="0" size="2.54" layer="96" ratio="10" rot="SR0">&gt;VALUE</text>
</symbol>
<symbol name="WB_BLOCK_IO">
<pin name="1" x="-1.27" y="0" length="point" direction="pas"/>
<pin name="2" x="1.27" y="0" length="point" direction="pas" rot="R180"/>
<wire x1="-1.27" y1="0" x2="1.27" y2="0" width="0.508" layer="94"/>
<text x="0" y="0" size="2.54" layer="95" ratio="10" rot="SR0">&gt;NAME</text>
<text x="0" y="0" size="2.54" layer="96" ratio="10" rot="SR0">&gt;VALUE</text>
</symbol>
<symbol name="WB_STARTUP_VOLTAGE_SOURCE">
<pin name="+" x="-7.62" y="0" length="short" direction="pas"/>
<pin name="-" x="7.62" y="0" length="short" direction="pas" rot="R180"/>
<wire x1="-1.524" y1="2.794" x2="-1.524" y2="-1.778" width="0.508" layer="94"/>
<wire x1="-1.524" y1="-1.778" x2="1.27" y2="-2.286" width="0.508" layer="94"/>
<wire x1="1.27" y1="-2.286" x2="1.27" y2="-3.048" width="0.508" layer="94"/>
<wire x1="4.064" y1="3.048" x2="4.064" y2="4.572" width="0.508" layer="94"/>
<wire x1="-4.318" y1="3.048" x2="-4.318" y2="4.572" width="0.508" layer="94"/>
<wire x1="-3.556" y1="3.81" x2="-5.08" y2="3.81" width="0.508" layer="94"/>
<wire x1="-3.81" y1="0" x2="-7.62" y2="0" width="0.508" layer="94"/>
<wire x1="7.62" y1="0" x2="3.81" y2="0" width="0.508" layer="94"/>
<text x="0" y="0" size="2.54" layer="95" ratio="10" rot="SR0">&gt;NAME</text>
<text x="0" y="0" size="2.54" layer="96" ratio="10" rot="SR0">&gt;VALUE</text>
</symbol>
<symbol name="WB_SOURCE_RESISTOR">
<pin name="1" x="7.62" y="0" length="short" direction="pas" rot="R180"/>
<pin name="2" x="-7.62" y="0" length="short" direction="pas"/>
<wire x1="7.62" y1="0" x2="5.08" y2="0" width="0.508" layer="94"/>
<wire x1="5.08" y1="0" x2="3.81" y2="1.524" width="0.508" layer="94"/>
<wire x1="3.81" y1="1.524" x2="1.905" y2="-1.524" width="0.508" layer="94"/>
<wire x1="1.905" y1="-1.524" x2="0" y2="1.524" width="0.508" layer="94"/>
<wire x1="0" y1="1.524" x2="-1.905" y2="-1.524" width="0.508" layer="94"/>
<wire x1="-1.905" y1="-1.524" x2="-3.81" y2="1.524" width="0.508" layer="94"/>
<wire x1="-3.81" y1="1.524" x2="-5.08" y2="0" width="0.508" layer="94"/>
<wire x1="-5.08" y1="0" x2="-7.62" y2="0" width="0.508" layer="94"/>
<text x="0" y="0" size="2.54" layer="95" ratio="10" rot="SR0">&gt;NAME</text>
<text x="0" y="0" size="2.54" layer="96" ratio="10" rot="SR0">&gt;VALUE</text>
</symbol>
<symbol name="WB_PRIM_STARTUP_VOLTAGE_SOURCE">
<pin name="+" x="-7.62" y="0" length="short" direction="pas"/>
<pin name="-" x="7.62" y="0" length="short" direction="pas" rot="R180"/>
<wire x1="-1.524" y1="2.794" x2="-1.524" y2="-1.778" width="0.508" layer="94"/>
<wire x1="-1.524" y1="-1.778" x2="1.27" y2="-2.286" width="0.508" layer="94"/>
<wire x1="1.27" y1="-2.286" x2="1.27" y2="-3.048" width="0.508" layer="94"/>
<wire x1="4.064" y1="3.048" x2="4.064" y2="4.572" width="0.508" layer="94"/>
<wire x1="-4.318" y1="3.048" x2="-4.318" y2="4.572" width="0.508" layer="94"/>
<wire x1="-3.556" y1="3.81" x2="-5.08" y2="3.81" width="0.508" layer="94"/>
<wire x1="-3.81" y1="0" x2="-7.62" y2="0" width="0.508" layer="94"/>
<wire x1="7.62" y1="0" x2="3.81" y2="0" width="0.508" layer="94"/>
<text x="0" y="0" size="2.54" layer="95" ratio="10" rot="SR0">&gt;NAME</text>
<text x="0" y="0" size="2.54" layer="96" ratio="10" rot="SR0">&gt;VALUE</text>
</symbol>
<symbol name="WB_CAP_POLARIZED">
<pin name="+" x="7.62" y="0" visible="off" length="short" direction="pas" rot="R180"/>
<pin name="-" x="-7.62" y="0" visible="off" length="short" direction="pas"/>
<wire x1="1.016" y1="-3.302" x2="1.016" y2="0" width="0.1524" layer="94"/>
<wire x1="1.016" y1="0" x2="1.016" y2="3.302" width="0.1524" layer="94"/>
<wire x1="-7.62" y1="0" x2="-0.508" y2="0" width="0.1524" layer="94"/>
<wire x1="1.016" y1="0" x2="7.62" y2="0" width="0.1524" layer="94"/>
<wire x1="3.556" y1="-2.54" x2="3.556" y2="-1.524" width="0.1524" layer="94"/>
<wire x1="3.048" y1="-2.032" x2="4.064" y2="-2.032" width="0.1524" layer="94"/>
<wire x1="-1.651" y1="3.048" x2="-1.778" y2="-3.175" width="0" layer="94" curve="-87"/>
<text x="-4.7244" y="6.5786" size="2.0828" layer="95" ratio="6" rot="SR0">&gt;NAME</text>
<text x="-5.6642" y="-1.0414" size="2.0828" layer="96" ratio="6" rot="SR0">&gt;VALUE</text>
</symbol>
<symbol name="WB_ZERO_VOLT_SOURCE">
<pin name="1" x="-1.27" y="0" length="short" direction="pas"/>
<pin name="2" x="1.27" y="0" length="short" direction="pas" rot="R180"/>
<wire x1="-1.27" y1="0" x2="1.27" y2="0" width="0.508" layer="94"/>
<text x="0" y="0" size="2.54" layer="95" ratio="10" rot="SR0">&gt;NAME</text>
<text x="0" y="0" size="2.54" layer="96" ratio="10" rot="SR0">&gt;VALUE</text>
</symbol>
<symbol name="WB_CURRENT_PROBE">
<pin name="INPUT" x="-3.81" y="0" length="short" direction="pas"/>
<pin name="OUTPUT" x="3.81" y="0" length="short" direction="pas" rot="R180"/>
<wire x1="-4.064" y1="0" x2="-2.54" y2="0" width="0.508" layer="94"/>
<wire x1="1.524" y1="0" x2="0.762" y2="0.889" width="0.508" layer="94"/>
<wire x1="0.762" y1="0.889" x2="0.762" y2="-0.889" width="0.508" layer="94"/>
<wire x1="0.762" y1="-0.889" x2="1.524" y2="0" width="0.508" layer="94"/>
<wire x1="1.524" y1="0" x2="-1.524" y2="0" width="0.508" layer="94"/>
<wire x1="2.54" y1="0" x2="4.064" y2="0" width="0.508" layer="94"/>
<wire x1="-2.413" y1="1.778" x2="2.413" y2="1.778" width="0.254" layer="94"/>
<wire x1="2.413" y1="1.778" x2="2.413" y2="-1.778" width="0.254" layer="94"/>
<wire x1="2.413" y1="-1.778" x2="-2.413" y2="-1.778" width="0.254" layer="94"/>
<wire x1="-2.413" y1="-1.778" x2="-2.413" y2="1.778" width="0.254" layer="94"/>
<text x="0" y="0" size="2.54" layer="95" ratio="10" rot="SR0">&gt;NAME</text>
<text x="0" y="0" size="2.54" layer="96" ratio="10" rot="SR0">&gt;VALUE</text>
</symbol>
<symbol name="WB_PWL_CURRENT_LOAD">
<pin name="+" x="-7.62" y="0" length="short" direction="pas"/>
<pin name="-" x="7.62" y="0" length="short" direction="pas" rot="R180"/>
<wire x1="-7.62" y1="0" x2="-3.81" y2="0" width="0.508" layer="94"/>
<wire x1="7.62" y1="0" x2="3.81" y2="0" width="0.508" layer="94"/>
<wire x1="-1.778" y1="-1.524" x2="1.016" y2="-2.032" width="0.508" layer="94"/>
<wire x1="-1.778" y1="1.524" x2="1.016" y2="2.032" width="0.508" layer="94"/>
<wire x1="-1.778" y1="1.524" x2="-1.778" y2="-1.524" width="0.508" layer="94"/>
<wire x1="1.016" y1="2.032" x2="1.016" y2="2.794" width="0.508" layer="94"/>
<wire x1="1.016" y1="-2.032" x2="1.016" y2="-2.794" width="0.508" layer="94"/>
<wire x1="5.842" y1="3.302" x2="5.842" y2="1.778" width="0.508" layer="94"/>
<wire x1="-5.842" y1="3.302" x2="-5.842" y2="1.778" width="0.508" layer="94"/>
<wire x1="-6.604" y1="2.54" x2="-5.08" y2="2.54" width="0.508" layer="94"/>
<text x="0" y="0" size="2.54" layer="95" ratio="10" rot="SR0">&gt;NAME</text>
<text x="0" y="0" size="2.54" layer="96" ratio="10" rot="SR0">&gt;VALUE</text>
</symbol>
<symbol name="WB_RESISTOR">
<pin name="1" x="7.62" y="0" visible="off" length="short" direction="pas" rot="R180"/>
<pin name="2" x="-7.62" y="0" visible="off" length="short" direction="pas"/>
<wire x1="7.62" y1="0" x2="5.08" y2="0" width="0.1524" layer="94"/>
<wire x1="5.08" y1="0" x2="3.81" y2="1.524" width="0.1524" layer="94"/>
<wire x1="3.81" y1="1.524" x2="1.905" y2="-1.524" width="0.1524" layer="94"/>
<wire x1="1.905" y1="-1.524" x2="0" y2="1.524" width="0.1524" layer="94"/>
<wire x1="0" y1="1.524" x2="-1.905" y2="-1.524" width="0.1524" layer="94"/>
<wire x1="-1.905" y1="-1.524" x2="-3.81" y2="1.524" width="0.1524" layer="94"/>
<wire x1="-3.81" y1="1.524" x2="-5.08" y2="0" width="0.1524" layer="94"/>
<wire x1="-5.08" y1="0" x2="-7.62" y2="0" width="0.1524" layer="94"/>
<text x="-4.7244" y="4.6736" size="2.0828" layer="95" ratio="6" rot="SR0">&gt;NAME</text>
<text x="-5.6642" y="-1.0414" size="2.0828" layer="96" ratio="6" rot="SR0">&gt;VALUE</text>
</symbol>
<symbol name="WB_PWL_VOLTAGE_SOURCE">
<pin name="+" x="-7.62" y="0" length="short" direction="pas"/>
<pin name="-" x="7.62" y="0" length="short" direction="pas" rot="R180"/>
<wire x1="-7.62" y1="0" x2="-3.81" y2="0" width="0.508" layer="94"/>
<wire x1="7.62" y1="0" x2="3.81" y2="0" width="0.508" layer="94"/>
<wire x1="-1.778" y1="-1.524" x2="1.016" y2="-2.032" width="0.508" layer="94"/>
<wire x1="-1.778" y1="1.524" x2="1.016" y2="2.032" width="0.508" layer="94"/>
<wire x1="-1.778" y1="1.524" x2="-1.778" y2="-1.524" width="0.508" layer="94"/>
<wire x1="1.016" y1="2.032" x2="1.016" y2="2.794" width="0.508" layer="94"/>
<wire x1="1.016" y1="-2.032" x2="1.016" y2="-2.794" width="0.508" layer="94"/>
<wire x1="5.842" y1="3.302" x2="5.842" y2="1.778" width="0.508" layer="94"/>
<wire x1="-5.842" y1="3.302" x2="-5.842" y2="1.778" width="0.508" layer="94"/>
<wire x1="-6.604" y1="2.54" x2="-5.08" y2="2.54" width="0.508" layer="94"/>
<text x="0" y="0" size="2.54" layer="95" ratio="10" rot="SR0">&gt;NAME</text>
<text x="0" y="0" size="2.54" layer="96" ratio="10" rot="SR0">&gt;VALUE</text>
</symbol>
<symbol name="WB_PRIM_PWL_VOLTAGE_SOURCE">
<pin name="+" x="-7.62" y="0" length="short" direction="pas"/>
<pin name="-" x="7.62" y="0" length="short" direction="pas" rot="R180"/>
<wire x1="-7.62" y1="0" x2="-3.81" y2="0" width="0.508" layer="94"/>
<wire x1="7.62" y1="0" x2="3.81" y2="0" width="0.508" layer="94"/>
<wire x1="-1.778" y1="-1.524" x2="1.016" y2="-2.032" width="0.508" layer="94"/>
<wire x1="-1.778" y1="1.524" x2="1.016" y2="2.032" width="0.508" layer="94"/>
<wire x1="-1.778" y1="1.524" x2="-1.778" y2="-1.524" width="0.508" layer="94"/>
<wire x1="1.016" y1="2.032" x2="1.016" y2="2.794" width="0.508" layer="94"/>
<wire x1="1.016" y1="-2.032" x2="1.016" y2="-2.794" width="0.508" layer="94"/>
<wire x1="5.842" y1="3.302" x2="5.842" y2="1.778" width="0.508" layer="94"/>
<wire x1="-5.842" y1="3.302" x2="-5.842" y2="1.778" width="0.508" layer="94"/>
<wire x1="-6.604" y1="2.54" x2="-5.08" y2="2.54" width="0.508" layer="94"/>
<text x="0" y="0" size="2.54" layer="95" ratio="10" rot="SR0">&gt;NAME</text>
<text x="0" y="0" size="2.54" layer="96" ratio="10" rot="SR0">&gt;VALUE</text>
</symbol>
<symbol name="WB_CAPACITOR">
<pin name="1" x="7.62" y="0" visible="off" length="short" direction="pas" rot="R180"/>
<pin name="2" x="-7.62" y="0" visible="off" length="short" direction="pas"/>
<wire x1="0.762" y1="-3.048" x2="0.762" y2="0" width="0.1524" layer="94"/>
<wire x1="0.762" y1="0" x2="0.762" y2="3.048" width="0.1524" layer="94"/>
<wire x1="-7.62" y1="0" x2="-0.762" y2="0" width="0.1524" layer="94"/>
<wire x1="0.762" y1="0" x2="7.62" y2="0" width="0.1524" layer="94"/>
<wire x1="-0.762" y1="-3.048" x2="-0.762" y2="3.048" width="0.1524" layer="94"/>
<text x="-4.7244" y="6.5786" size="2.0828" layer="95" ratio="6" rot="SR0">&gt;NAME</text>
<text x="-5.6642" y="-1.0414" size="2.0828" layer="96" ratio="6" rot="SR0">&gt;VALUE</text>
</symbol>
<symbol name="WB_DIODE_SCHOTTKY">
<pin name="A" x="7.62" y="0" length="short" direction="pas" rot="R180"/>
<pin name="K" x="-7.62" y="0" length="short" direction="pas"/>
<wire x1="-7.62" y1="0" x2="-2.032" y2="0" width="0.508" layer="94"/>
<wire x1="-2.032" y1="0" x2="7.62" y2="0" width="0.508" layer="94"/>
<wire x1="-2.794" y1="2.032" x2="-2.794" y2="2.54" width="0.508" layer="94"/>
<wire x1="-2.794" y1="2.54" x2="-2.032" y2="2.54" width="0.508" layer="94"/>
<wire x1="-2.032" y1="2.54" x2="-2.032" y2="0" width="0.508" layer="94"/>
<wire x1="-2.032" y1="0" x2="-2.032" y2="-2.54" width="0.508" layer="94"/>
<wire x1="-2.032" y1="-2.54" x2="-1.27" y2="-2.54" width="0.508" layer="94"/>
<wire x1="-1.27" y1="-2.54" x2="-1.27" y2="-2.032" width="0.508" layer="94"/>
<wire x1="2.032" y1="2.54" x2="-2.032" y2="0" width="0.1524" layer="94"/>
<wire x1="-2.032" y1="0" x2="2.032" y2="-2.54" width="0.1524" layer="94"/>
<wire x1="2.032" y1="-2.54" x2="2.032" y2="2.54" width="0.1524" layer="94"/>
<text x="0" y="0" size="2.54" layer="95" ratio="10" rot="SR0">&gt;NAME</text>
<text x="0" y="0" size="2.54" layer="96" ratio="10" rot="SR0">&gt;VALUE</text>
</symbol>
<symbol name="WB_GND">
<pin name="1" x="0" y="2.54" visible="off" length="short" direction="pas" rot="R270"/>
<wire x1="0" y1="2.54" x2="0" y2="0" width="0.1524" layer="94"/>
<wire x1="-3.302" y1="0" x2="3.302" y2="0" width="0.1524" layer="94"/>
<wire x1="-2.286" y1="-1.016" x2="2.286" y2="-1.016" width="0.1524" layer="94"/>
<wire x1="-0.762" y1="-2.032" x2="0.762" y2="-2.032" width="0.1524" layer="94"/>
<text x="-4.7244" y="-1.0414" size="2.0828" layer="95" ratio="6" rot="SR0">&gt;NAME</text>
<text x="-5.6642" y="-1.0414" size="2.0828" layer="96" ratio="6" rot="SR0">&gt;VALUE</text>
</symbol>
<symbol name="WB_N_MOSFET">
<pin name="DRAIN" x="3.81" y="7.62" length="short" direction="pas" rot="R270"/>
<pin name="GATE" x="-3.81" y="0" length="short" direction="pas"/>
<pin name="SOURCE" x="3.81" y="-7.62" length="short" direction="pas" rot="R90"/>
<wire x1="-3.81" y1="0" x2="0" y2="0" width="0.508" layer="94"/>
<wire x1="1.016" y1="2.032" x2="1.016" y2="0" width="0.508" layer="94"/>
<wire x1="1.016" y1="0" x2="1.016" y2="-2.032" width="0.508" layer="94"/>
<wire x1="1.016" y1="-2.032" x2="1.016" y2="-2.54" width="0.508" layer="94"/>
<wire x1="3.81" y1="2.032" x2="1.016" y2="2.032" width="0.508" layer="94"/>
<wire x1="2.286" y1="0" x2="3.81" y2="0" width="0.508" layer="94"/>
<wire x1="1.27" y1="-2.032" x2="3.556" y2="-2.032" width="0.508" layer="94"/>
<wire x1="1.016" y1="2.54" x2="1.016" y2="2.032" width="0.508" layer="94"/>
<wire x1="1.016" y1="-2.032" x2="3.81" y2="-2.032" width="0.508" layer="94"/>
<wire x1="1.016" y1="0" x2="2.286" y2="1.27" width="0.508" layer="94"/>
<wire x1="2.286" y1="1.27" x2="2.286" y2="0" width="0.508" layer="94"/>
<wire x1="2.286" y1="0" x2="2.286" y2="-1.27" width="0.508" layer="94"/>
<wire x1="2.286" y1="-1.27" x2="1.016" y2="0" width="0.508" layer="94"/>
<wire x1="3.81" y1="0" x2="3.81" y2="-2.032" width="0.508" layer="94"/>
<wire x1="0" y1="-2.54" x2="0" y2="2.54" width="0.508" layer="94"/>
<wire x1="3.81" y1="7.62" x2="3.81" y2="2.032" width="0.508" layer="94"/>
<wire x1="3.81" y1="-2.032" x2="3.81" y2="-7.62" width="0.508" layer="94"/>
<text x="0" y="0" size="2.54" layer="95" ratio="10" rot="SR0">&gt;NAME</text>
<text x="0" y="0" size="2.54" layer="96" ratio="10" rot="SR0">&gt;VALUE</text>
</symbol>
<symbol name="WB_ONE_STAGE_FLT">
<pin name="PIN_1" x="-38.1" y="36.83" length="short" direction="pas" rot="R180"/>
<pin name="PIN_2" x="38.1" y="36.83" length="short" direction="pas" rot="R180"/>
<pin name="PIN_3" x="38.1" y="-44.45" length="short" direction="pas" rot="R180"/>
<pin name="PIN_4" x="-38.1" y="-44.45" length="short" direction="pas" rot="R180"/>
<text x="0" y="0" size="2.54" layer="95" ratio="10" rot="SR0">&gt;NAME</text>
<text x="0" y="0" size="2.54" layer="96" ratio="10" rot="SR0">&gt;VALUE</text>
</symbol>
<symbol name="WB_TWO_STAGES_FLT">
<pin name="PIN_1" x="-38.1" y="36.83" length="short" direction="pas" rot="R180"/>
<pin name="PIN_2" x="38.1" y="36.83" length="short" direction="pas" rot="R180"/>
<pin name="PIN_3" x="38.1" y="-44.45" length="short" direction="pas" rot="R180"/>
<pin name="PIN_4" x="-38.1" y="-44.45" length="short" direction="pas" rot="R180"/>
<text x="0" y="0" size="2.54" layer="95" ratio="10" rot="SR0">&gt;NAME</text>
<text x="0" y="0" size="2.54" layer="96" ratio="10" rot="SR0">&gt;VALUE</text>
</symbol>
<symbol name="WB_INDUCTOR">
<pin name="2" x="7.62" y="0" visible="off" length="short" direction="pas" rot="R180"/>
<pin name="1" x="-7.62" y="0" visible="off" length="short" direction="pas"/>
<wire x1="5.08" y1="0" x2="7.62" y2="0" width="0.1524" layer="94"/>
<wire x1="-7.62" y1="0" x2="-5.08" y2="0" width="0.1524" layer="94"/>
<wire x1="2.54" y1="0" x2="2.6924" y2="0.8382" width="0" layer="94" curve="-12"/>
<wire x1="2.6924" y1="0.8382" x2="3.81" y2="1.8542" width="0" layer="94" curve="-78"/>
<wire x1="3.81" y1="1.8542" x2="4.9022" y2="0.8382" width="0" layer="94" curve="-79"/>
<wire x1="4.9022" y1="0.8382" x2="5.08" y2="0.0762" width="0" layer="94" curve="-2"/>
<wire x1="0" y1="0" x2="0.1524" y2="0.8382" width="0" layer="94" curve="-12"/>
<wire x1="0.1524" y1="0.8382" x2="1.27" y2="1.8542" width="0" layer="94" curve="-78"/>
<wire x1="1.27" y1="1.8542" x2="2.3622" y2="0.8382" width="0" layer="94" curve="-79"/>
<wire x1="2.3622" y1="0.8382" x2="2.54" y2="-0.1778" width="0" layer="94" curve="-17"/>
<wire x1="-2.54" y1="0" x2="-2.3876" y2="0.8382" width="0" layer="94" curve="-12"/>
<wire x1="-2.3876" y1="0.8382" x2="-1.27" y2="1.8542" width="0" layer="94" curve="-78"/>
<wire x1="-1.27" y1="1.8542" x2="-0.1778" y2="0.8382" width="0" layer="94" curve="-79"/>
<wire x1="-0.1778" y1="0.8382" x2="0" y2="-0.1778" width="0" layer="94" curve="-17"/>
<wire x1="-5.08" y1="0" x2="-4.9276" y2="0.8382" width="0" layer="94" curve="-12"/>
<wire x1="-4.9276" y1="0.8382" x2="-3.81" y2="1.8542" width="0" layer="94" curve="-78"/>
<wire x1="-3.81" y1="1.8542" x2="-2.7178" y2="0.8382" width="0" layer="94" curve="-79"/>
<wire x1="-2.7178" y1="0.8382" x2="-2.54" y2="-0.1778" width="0" layer="94" curve="-17"/>
<wire x1="-2.54" y1="-0.1778" x2="-2.54" y2="0" width="0" layer="94" curve="-53"/>
<wire x1="0" y1="-0.1778" x2="0" y2="0" width="0" layer="94" curve="-53"/>
<wire x1="2.54" y1="-0.1778" x2="2.54" y2="0" width="0" layer="94" curve="-53"/>
<text x="-4.7244" y="4.6736" size="2.0828" layer="95" ratio="6" rot="SR0">&gt;NAME</text>
<text x="-5.6642" y="-1.0414" size="2.0828" layer="96" ratio="6" rot="SR0">&gt;VALUE</text>
</symbol>
<symbol name="WB_LM3478">
<pin name="ISEN" x="20.32" y="-5.08" length="short" direction="pas" rot="R180"/>
<pin name="COMP" x="-20.32" y="-5.08" length="short" direction="pas"/>
<pin name="FB" x="0" y="15.24" length="short" direction="pas" rot="R270"/>
<pin name="AGND" x="-10.16" y="-15.24" length="short" direction="pas" rot="R90"/>
<pin name="PGND" x="0" y="-15.24" length="short" direction="pas" rot="R90"/>
<pin name="DR" x="20.32" y="2.54" length="short" direction="pas" rot="R180"/>
<pin name="FA/SD" x="10.16" y="-15.24" length="short" direction="pas" rot="R90"/>
<pin name="VIN" x="-20.32" y="7.62" length="short" direction="pas"/>
<wire x1="-17.78" y1="12.7" x2="0" y2="12.7" width="0.1524" layer="94"/>
<wire x1="0" y1="12.7" x2="17.78" y2="12.7" width="0.1524" layer="94"/>
<wire x1="17.78" y1="12.7" x2="17.78" y2="2.54" width="0.1524" layer="94"/>
<wire x1="17.78" y1="2.54" x2="17.78" y2="-5.08" width="0.1524" layer="94"/>
<wire x1="17.78" y1="-5.08" x2="17.78" y2="-12.7" width="0.1524" layer="94"/>
<wire x1="17.78" y1="-12.7" x2="10.16" y2="-12.7" width="0.1524" layer="94"/>
<wire x1="10.16" y1="-12.7" x2="0" y2="-12.7" width="0.1524" layer="94"/>
<wire x1="0" y1="-12.7" x2="-10.16" y2="-12.7" width="0.1524" layer="94"/>
<wire x1="-10.16" y1="-12.7" x2="-17.78" y2="-12.7" width="0.1524" layer="94"/>
<wire x1="-17.78" y1="-12.7" x2="-17.78" y2="-5.08" width="0.1524" layer="94"/>
<wire x1="-17.78" y1="-5.08" x2="-17.78" y2="7.62" width="0.1524" layer="94"/>
<wire x1="-17.78" y1="7.62" x2="-17.78" y2="12.7" width="0.1524" layer="94"/>
<wire x1="20.32" y1="-5.08" x2="17.78" y2="-5.08" width="0.1524" layer="94"/>
<wire x1="-20.32" y1="-5.08" x2="-17.78" y2="-5.08" width="0.1524" layer="94"/>
<wire x1="0" y1="15.24" x2="0" y2="12.7" width="0.1524" layer="94"/>
<wire x1="-10.16" y1="-15.24" x2="-10.16" y2="-12.7" width="0.1524" layer="94"/>
<wire x1="0" y1="-15.24" x2="0" y2="-12.7" width="0.1524" layer="94"/>
<wire x1="20.32" y1="2.54" x2="17.78" y2="2.54" width="0.1524" layer="94"/>
<wire x1="10.16" y1="-15.24" x2="10.16" y2="-12.7" width="0.1524" layer="94"/>
<wire x1="-20.32" y1="7.62" x2="-17.78" y2="7.62" width="0.1524" layer="94"/>
<text x="-4.7244" y="1.4986" size="2.0828" layer="95" ratio="6" rot="SR0">&gt;NAME</text>
<text x="-5.6642" y="-1.0414" size="2.0828" layer="96" ratio="6" rot="SR0">&gt;VALUE</text>
</symbol>
<symbol name="WB_VOLTAGE_PROBE">
<pin name="1" x="0" y="0" length="short" direction="pas" rot="R90"/>
<wire x1="-2.54" y1="7.62" x2="2.54" y2="7.62" width="0.254" layer="94"/>
<wire x1="2.54" y1="7.62" x2="2.54" y2="2.667" width="0.254" layer="94"/>
<wire x1="2.54" y1="2.667" x2="-2.54" y2="2.667" width="0.254" layer="94"/>
<wire x1="-2.54" y1="2.667" x2="-2.54" y2="7.62" width="0.254" layer="94"/>
<wire x1="1.778" y1="6.858" x2="1.016" y2="5.588" width="0.508" layer="94"/>
<wire x1="1.016" y1="5.588" x2="0.762" y2="6.604" width="0.508" layer="94"/>
<wire x1="0.762" y1="6.604" x2="0" y2="4.572" width="0.508" layer="94"/>
<wire x1="0" y1="4.572" x2="-0.254" y2="5.588" width="0.508" layer="94"/>
<wire x1="-0.254" y1="5.588" x2="-1.27" y2="3.556" width="0.508" layer="94"/>
<wire x1="0" y1="0" x2="0" y2="2.54" width="0.508" layer="94"/>
<text x="0" y="0" size="2.54" layer="95" ratio="10" rot="SR0">&gt;NAME</text>
<text x="0" y="0" size="2.54" layer="96" ratio="10" rot="SR0">&gt;VALUE</text>
</symbol>
<symbol name="WB_BPFILTER_VERT">
<pin name="PIN_1" x="7.62" y="17.78" length="short" direction="pas" rot="R180"/>
<pin name="PIN_2" x="0" y="-22.86" length="short" direction="pas" rot="R180"/>
<text x="0" y="0" size="2.54" layer="95" ratio="10" rot="SR0">&gt;NAME</text>
<text x="0" y="0" size="2.54" layer="96" ratio="10" rot="SR0">&gt;VALUE</text>
</symbol>
<symbol name="WB_COMPENSATION_BLOCK_TYPE1_VE">
<pin name="PIN_1" x="7.62" y="17.78" length="short" direction="pas" rot="R180"/>
<pin name="PIN_2" x="0" y="-22.86" length="short" direction="pas" rot="R180"/>
<text x="0" y="0" size="2.54" layer="95" ratio="10" rot="SR0">&gt;NAME</text>
<text x="0" y="0" size="2.54" layer="96" ratio="10" rot="SR0">&gt;VALUE</text>
</symbol>
<symbol name="WB_COMPENSATION_BLOCK_TYPE2_VE">
<pin name="PIN_1" x="7.62" y="17.78" length="short" direction="pas" rot="R180"/>
<pin name="PIN_2" x="0" y="-22.86" length="short" direction="pas" rot="R180"/>
<text x="0" y="0" size="2.54" layer="95" ratio="10" rot="SR0">&gt;NAME</text>
<text x="0" y="0" size="2.54" layer="96" ratio="10" rot="SR0">&gt;VALUE</text>
</symbol>
<symbol name="WB_COUPLED_INDUCTORS_BLOCK">
<pin name="PIN_1" x="5.08" y="-5.08" length="short" direction="pas" rot="R180"/>
<pin name="PIN_2" x="33.02" y="-5.08" length="short" direction="pas" rot="R180"/>
<pin name="PIN_4" x="-33.02" y="-5.08" length="short" direction="pas" rot="R180"/>
<text x="0" y="0" size="2.54" layer="95" ratio="10" rot="SR0">&gt;NAME</text>
<text x="0" y="0" size="2.54" layer="96" ratio="10" rot="SR0">&gt;VALUE</text>
</symbol>
<symbol name="WB_INDUCTOR_COUPLED">
<pin name="1" x="-7.62" y="-5.08" length="short" direction="pas"/>
<pin name="2" x="7.62" y="-5.08" length="short" direction="pas" rot="R180"/>
<pin name="3" x="-7.62" y="5.08" length="short" direction="pas"/>
<pin name="4" x="7.62" y="5.08" length="short" direction="pas" rot="R180"/>
<wire x1="-5.08" y1="5.0038" x2="-7.62" y2="5.0038" width="0.508" layer="94"/>
<wire x1="7.62" y1="5.08" x2="5.08" y2="5.08" width="0.508" layer="94"/>
<wire x1="-6.858" y1="1.27" x2="6.858" y2="1.27" width="0.508" layer="94"/>
<wire x1="-6.858" y1="-1.27" x2="6.858" y2="-1.27" width="0.508" layer="94"/>
<wire x1="-5.08" y1="-5.0038" x2="-7.62" y2="-5.0038" width="0.508" layer="94"/>
<wire x1="7.62" y1="-4.826" x2="5.08" y2="-4.826" width="0.508" layer="94"/>
<wire x1="-2.54" y1="4.826" x2="-2.6924" y2="3.9878" width="0" layer="94" curve="-12"/>
<wire x1="-2.6924" y1="3.9878" x2="-3.81" y2="2.9718" width="0" layer="94" curve="-78"/>
<wire x1="-3.81" y1="2.9718" x2="-4.9022" y2="3.9878" width="0" layer="94" curve="-79"/>
<wire x1="-4.9022" y1="3.9878" x2="-5.08" y2="5.0038" width="0" layer="94" curve="-17"/>
<wire x1="0" y1="4.826" x2="-0.1524" y2="3.9878" width="0" layer="94" curve="-12"/>
<wire x1="-0.1524" y1="3.9878" x2="-1.27" y2="2.9718" width="0" layer="94" curve="-78"/>
<wire x1="-1.27" y1="2.9718" x2="-2.3622" y2="3.9878" width="0" layer="94" curve="-79"/>
<wire x1="-2.3622" y1="3.9878" x2="-2.54" y2="4.826" width="0" layer="94" curve="-5"/>
<wire x1="5.08" y1="5.08" x2="4.9276" y2="4.064" width="0" layer="94" curve="-15"/>
<wire x1="4.9276" y1="4.064" x2="3.81" y2="3.048" width="0" layer="94" curve="-78"/>
<wire x1="3.81" y1="3.048" x2="2.7178" y2="4.064" width="0" layer="94" curve="-79"/>
<wire x1="2.7178" y1="4.064" x2="2.54" y2="4.9022" width="0" layer="94" curve="-5"/>
<wire x1="2.54" y1="4.826" x2="2.3876" y2="3.9878" width="0" layer="94" curve="-12"/>
<wire x1="2.3876" y1="3.9878" x2="1.27" y2="2.9718" width="0" layer="94" curve="-78"/>
<wire x1="1.27" y1="2.9718" x2="0.1524" y2="3.9878" width="0" layer="94" curve="-78"/>
<wire x1="0.1524" y1="3.9878" x2="0" y2="4.826" width="0" layer="94" curve="-1"/>
<wire x1="2.54" y1="5.0038" x2="2.54" y2="4.826" width="0" layer="94" curve="-53"/>
<wire x1="0" y1="5.08" x2="0" y2="4.9022" width="0" layer="94" curve="-53"/>
<wire x1="-2.54" y1="5.0038" x2="-2.54" y2="4.826" width="0" layer="94" curve="-53"/>
<wire x1="-2.6924" y1="-3.9878" x2="-2.54" y2="-4.826" width="0" layer="94" curve="-12"/>
<wire x1="-3.81" y1="-2.9718" x2="-2.6924" y2="-3.9878" width="0" layer="94" curve="-78"/>
<wire x1="-4.9022" y1="-3.9878" x2="-3.81" y2="-2.9718" width="0" layer="94" curve="-79"/>
<wire x1="-5.08" y1="-5.0038" x2="-4.9022" y2="-3.9878" width="0" layer="94" curve="-17"/>
<wire x1="2.3876" y1="-3.9878" x2="2.54" y2="-4.826" width="0" layer="94" curve="-12"/>
<wire x1="1.27" y1="-2.9718" x2="2.3876" y2="-3.9878" width="0" layer="94" curve="-78"/>
<wire x1="0.1524" y1="-3.9878" x2="1.27" y2="-2.9718" width="0" layer="94" curve="-78"/>
<wire x1="0" y1="-4.826" x2="0.1524" y2="-3.9878" width="0" layer="94" curve="-1"/>
<wire x1="-0.1524" y1="-3.9878" x2="0" y2="-4.826" width="0" layer="94" curve="-12"/>
<wire x1="-1.27" y1="-2.9718" x2="-0.1524" y2="-3.9878" width="0" layer="94" curve="-78"/>
<wire x1="-2.3622" y1="-3.9878" x2="-1.27" y2="-2.9718" width="0" layer="94" curve="-79"/>
<wire x1="-2.54" y1="-4.826" x2="-2.3622" y2="-3.9878" width="0" layer="94" curve="-5"/>
<wire x1="4.9276" y1="-3.81" x2="5.08" y2="-4.826" width="0" layer="94" curve="-15"/>
<wire x1="3.81" y1="-2.794" x2="4.9276" y2="-3.81" width="0" layer="94" curve="-78"/>
<wire x1="2.7178" y1="-3.81" x2="3.81" y2="-2.794" width="0" layer="94" curve="-79"/>
<wire x1="2.54" y1="-4.6482" x2="2.7178" y2="-3.81" width="0" layer="94" curve="-5"/>
<wire x1="-2.54" y1="-4.826" x2="-2.54" y2="-5.0038" width="0" layer="94" curve="-53"/>
<wire x1="0" y1="-4.9022" x2="0" y2="-5.08" width="0" layer="94" curve="-53"/>
<wire x1="2.54" y1="-4.826" x2="2.54" y2="-5.0038" width="0" layer="94" curve="-53"/>
<text x="0" y="0" size="2.54" layer="95" ratio="10" rot="SR0">&gt;NAME</text>
<text x="0" y="0" size="2.54" layer="96" ratio="10" rot="SR0">&gt;VALUE</text>
</symbol>
<symbol name="WB_DAMP_BRANCH">
<pin name="1" x="-15.24" y="10.16" length="short" direction="pas" rot="R180"/>
<pin name="2" x="12.7" y="10.16" length="short" direction="pas" rot="R180"/>
<text x="0" y="0" size="2.54" layer="95" ratio="10" rot="SR0">&gt;NAME</text>
<text x="0" y="0" size="2.54" layer="96" ratio="10" rot="SR0">&gt;VALUE</text>
</symbol>
<symbol name="WB_PRIMITIVE_CAPACITOR">
<pin name="1" x="7.62" y="0" length="short" direction="pas" rot="R180"/>
<pin name="2" x="-7.62" y="0" length="short" direction="pas"/>
<wire x1="0.762" y1="-3.048" x2="0.762" y2="0" width="0.508" layer="94"/>
<wire x1="0.762" y1="0" x2="0.762" y2="3.048" width="0.508" layer="94"/>
<wire x1="-7.62" y1="0" x2="-0.762" y2="0" width="0.508" layer="94"/>
<wire x1="0.762" y1="0" x2="7.62" y2="0" width="0.508" layer="94"/>
<wire x1="-0.762" y1="-3.048" x2="-0.762" y2="3.048" width="0.508" layer="94"/>
<text x="0" y="0" size="2.54" layer="95" ratio="10" rot="SR0">&gt;NAME</text>
<text x="0" y="0" size="2.54" layer="96" ratio="10" rot="SR0">&gt;VALUE</text>
</symbol>
<symbol name="WB_NORBP_BLOCK">
<pin name="PIN_1" x="0" y="21.59" length="short" direction="pas" rot="R180"/>
<pin name="PIN_2" x="0" y="-21.59" length="short" direction="pas" rot="R180"/>
<text x="0" y="0" size="2.54" layer="95" ratio="10" rot="SR0">&gt;NAME</text>
<text x="0" y="0" size="2.54" layer="96" ratio="10" rot="SR0">&gt;VALUE</text>
</symbol>
<symbol name="WB_UNCOUPLED_INDUCTORS_BLOCK">
<pin name="PIN_1" x="5.08" y="-5.08" length="short" direction="pas" rot="R180"/>
<pin name="PIN_2" x="33.02" y="-5.08" length="short" direction="pas" rot="R180"/>
<pin name="PIN_4" x="-33.02" y="-5.08" length="short" direction="pas" rot="R180"/>
<text x="0" y="0" size="2.54" layer="95" ratio="10" rot="SR0">&gt;NAME</text>
<text x="0" y="0" size="2.54" layer="96" ratio="10" rot="SR0">&gt;VALUE</text>
</symbol>
<symbol name="WB_PRIMITIVE_BATTERY">
<pin name="+" x="-7.62" y="0" length="short" direction="pas"/>
<pin name="-" x="7.62" y="0" length="short" direction="pas" rot="R180"/>
<wire x1="-2.032" y1="0" x2="-7.62" y2="0" width="0.508" layer="94"/>
<wire x1="-1.778" y1="-3.048" x2="-1.778" y2="3.048" width="0.508" layer="94"/>
<wire x1="1.016" y1="-3.048" x2="1.016" y2="3.048" width="0.508" layer="94"/>
<wire x1="7.62" y1="0" x2="2.794" y2="0" width="0.508" layer="94"/>
<wire x1="-0.508" y1="-1.27" x2="-0.508" y2="1.27" width="0.508" layer="94"/>
<wire x1="-0.254" y1="-1.27" x2="-0.254" y2="1.27" width="0.508" layer="94"/>
<wire x1="-3.556" y1="2.286" x2="-3.556" y2="3.81" width="0.508" layer="94"/>
<wire x1="-2.794" y1="3.048" x2="-4.318" y2="3.048" width="0.508" layer="94"/>
<wire x1="3.302" y1="2.54" x2="3.302" y2="3.81" width="0.508" layer="94"/>
<wire x1="2.54" y1="-1.27" x2="2.54" y2="1.27" width="0.508" layer="94"/>
<wire x1="2.286" y1="-1.27" x2="2.286" y2="1.27" width="0.508" layer="94"/>
<text x="0" y="0" size="2.54" layer="95" ratio="10" rot="SR0">&gt;NAME</text>
<text x="0" y="0" size="2.54" layer="96" ratio="10" rot="SR0">&gt;VALUE</text>
</symbol>
<symbol name="WB_BATTERY">
<pin name="+" x="-7.62" y="0" visible="off" length="short" direction="pas"/>
<pin name="-" x="7.62" y="0" visible="off" length="short" direction="pas" rot="R180"/>
<wire x1="-2.032" y1="0" x2="-7.62" y2="0" width="0.1524" layer="94"/>
<wire x1="-1.778" y1="-3.048" x2="-1.778" y2="3.048" width="0.1524" layer="94"/>
<wire x1="1.016" y1="-3.048" x2="1.016" y2="3.048" width="0.1524" layer="94"/>
<wire x1="7.62" y1="0" x2="2.794" y2="0" width="0.1524" layer="94"/>
<wire x1="-0.508" y1="-1.27" x2="-0.508" y2="1.27" width="0.1524" layer="94"/>
<wire x1="-0.254" y1="-1.27" x2="-0.254" y2="1.27" width="0.1524" layer="94"/>
<wire x1="-3.556" y1="2.286" x2="-3.556" y2="3.81" width="0.1524" layer="94"/>
<wire x1="-2.794" y1="3.048" x2="-4.318" y2="3.048" width="0.1524" layer="94"/>
<wire x1="3.302" y1="2.54" x2="3.302" y2="3.81" width="0.1524" layer="94"/>
<wire x1="2.54" y1="-1.27" x2="2.54" y2="1.27" width="0.1524" layer="94"/>
<wire x1="2.286" y1="-1.27" x2="2.286" y2="1.27" width="0.1524" layer="94"/>
<text x="-4.7244" y="4.0386" size="2.0828" layer="95" ratio="6" rot="SR0">&gt;NAME</text>
<text x="-5.6642" y="-1.0414" size="2.0828" layer="96" ratio="6" rot="SR0">&gt;VALUE</text>
</symbol>
<symbol name="WB_LOAD_RESISTOR">
<pin name="1" x="7.62" y="0" visible="off" length="short" direction="pas" rot="R180"/>
<pin name="2" x="-7.62" y="0" visible="off" length="short" direction="pas"/>
<wire x1="7.62" y1="0" x2="5.08" y2="0" width="0.1524" layer="94"/>
<wire x1="5.08" y1="0" x2="3.81" y2="1.524" width="0.1524" layer="94"/>
<wire x1="3.81" y1="1.524" x2="1.905" y2="-1.524" width="0.1524" layer="94"/>
<wire x1="1.905" y1="-1.524" x2="0" y2="1.524" width="0.1524" layer="94"/>
<wire x1="0" y1="1.524" x2="-1.905" y2="-1.524" width="0.1524" layer="94"/>
<wire x1="-1.905" y1="-1.524" x2="-3.81" y2="1.524" width="0.1524" layer="94"/>
<wire x1="-3.81" y1="1.524" x2="-5.08" y2="0" width="0.1524" layer="94"/>
<wire x1="-5.08" y1="0" x2="-7.62" y2="0" width="0.1524" layer="94"/>
<text x="-4.7244" y="4.0386" size="2.0828" layer="95" ratio="6" rot="SR0">&gt;NAME</text>
<text x="-5.6642" y="-1.0414" size="2.0828" layer="96" ratio="6" rot="SR0">&gt;VALUE</text>
</symbol>
<symbol name="50WQ04FNPBF">
<pin name="A_2" x="7.62" y="0" length="short" direction="pas" rot="R180"/>
<pin name="K" x="-7.62" y="0" length="short" direction="pas"/>
<wire x1="-7.62" y1="0" x2="-2.032" y2="0" width="0.1524" layer="94"/>
<wire x1="-2.032" y1="0" x2="7.62" y2="0" width="0.1524" layer="94"/>
<wire x1="-2.032" y1="2.54" x2="-2.032" y2="0" width="0.1524" layer="94"/>
<wire x1="-2.032" y1="0" x2="-2.032" y2="-2.54" width="0.1524" layer="94"/>
<wire x1="-2.032" y1="2.54" x2="-2.54" y2="2.54" width="0.1524" layer="94"/>
<wire x1="-2.54" y1="2.54" x2="-2.54" y2="2.032" width="0.1524" layer="94"/>
<wire x1="-2.032" y1="-2.54" x2="-1.524" y2="-2.54" width="0.1524" layer="94"/>
<wire x1="-1.524" y1="-2.54" x2="-1.524" y2="-2.032" width="0.1524" layer="94"/>
<wire x1="2.032" y1="2.54" x2="-2.032" y2="0" width="0.1524" layer="94"/>
<wire x1="-2.032" y1="0" x2="2.032" y2="-2.54" width="0.1524" layer="94"/>
<wire x1="2.032" y1="-2.54" x2="2.032" y2="2.54" width="0.1524" layer="94"/>
<text x="-4.2672" y="7.9756" size="2.0828" layer="95" ratio="6" rot="SR0">&gt;NAME</text>
<text x="-5.6642" y="-1.0414" size="2.0828" layer="96" ratio="6" rot="SR0">&gt;VALUE</text>
</symbol>
<symbol name="BSZ058N03LS_G">
<pin name="DRAIN_2" x="3.81" y="7.62" visible="off" length="short" direction="pas" rot="R270"/>
<pin name="GATE" x="-3.81" y="0" visible="off" length="short" direction="pas"/>
<pin name="SOURCE_2" x="3.81" y="-7.62" visible="off" length="short" direction="pas" rot="R90"/>
<wire x1="-3.81" y1="0" x2="0" y2="0" width="0.1524" layer="94"/>
<wire x1="1.016" y1="2.032" x2="1.016" y2="0" width="0.1524" layer="94"/>
<wire x1="1.016" y1="0" x2="1.016" y2="-2.032" width="0.1524" layer="94"/>
<wire x1="1.016" y1="-2.032" x2="1.016" y2="-2.54" width="0.1524" layer="94"/>
<wire x1="3.81" y1="2.032" x2="1.016" y2="2.032" width="0.1524" layer="94"/>
<wire x1="2.286" y1="0" x2="3.81" y2="0" width="0.1524" layer="94"/>
<wire x1="1.27" y1="-2.032" x2="3.556" y2="-2.032" width="0.1524" layer="94"/>
<wire x1="1.016" y1="2.54" x2="1.016" y2="2.032" width="0.1524" layer="94"/>
<wire x1="1.016" y1="-2.032" x2="3.81" y2="-2.032" width="0.1524" layer="94"/>
<wire x1="1.016" y1="0" x2="2.286" y2="1.27" width="0.1524" layer="94"/>
<wire x1="2.286" y1="1.27" x2="2.286" y2="0" width="0.1524" layer="94"/>
<wire x1="2.286" y1="0" x2="2.286" y2="-1.27" width="0.1524" layer="94"/>
<wire x1="2.286" y1="-1.27" x2="1.016" y2="0" width="0.1524" layer="94"/>
<wire x1="3.81" y1="0" x2="3.81" y2="-2.032" width="0.1524" layer="94"/>
<wire x1="0" y1="-2.54" x2="0" y2="2.54" width="0.1524" layer="94"/>
<wire x1="3.81" y1="7.62" x2="3.81" y2="2.032" width="0.1524" layer="94"/>
<wire x1="3.81" y1="-2.032" x2="3.81" y2="-7.62" width="0.1524" layer="94"/>
<text x="-9.9314" y="6.4262" size="2.0828" layer="95" ratio="6" rot="SR0">&gt;NAME</text>
<text x="-11.176" y="3.7338" size="2.0828" layer="96" ratio="6" rot="SR0">&gt;VALUE</text>
</symbol>
</symbols>
<devicesets>
<deviceset name="GRM155R61C104KA88D">
<gates>
<gate name="A" symbol="WB_CAPACITOR" x="0" y="0"/>
</gates>
<devices>
<device name="" package="0402">
<connects>
<connect gate="A" pin="1" pad="1"/>
<connect gate="A" pin="2" pad="2"/>
</connects>
<technologies>
<technology name="">
<attribute name="CAP" value="1.0E-7" constant="no"/>
<attribute name="ESR" value="0.0" constant="no"/>
<attribute name="IRMS" value="0.0" constant="no"/>
<attribute name="MANUFACTURER_NAME" value="MuRata" constant="no"/>
<attribute name="MANUFACTURER_PART_NUMBER" value="GRM155R61C104KA88D" constant="no"/>
<attribute name="VDC" value="16.0" constant="no"/>
<attribute name="VENDOR" value="MuRata" constant="no"/>
</technology>
</technologies>
</device>
</devices>
</deviceset>
<deviceset name="12TPC10M">
<gates>
<gate name="A" symbol="WB_CAP_POLARIZED" x="0" y="0"/>
</gates>
<devices>
<device name="" package="CAPSMT_6_B1G">
<connects>
<connect gate="A" pin="+" pad="1"/>
<connect gate="A" pin="-" pad="2"/>
</connects>
<technologies>
<technology name="">
<attribute name="CAP" value="1.0E-5" constant="no"/>
<attribute name="DATASHEETURL" value="%20" constant="no"/>
<attribute name="ESR" value="0.08" constant="no"/>
<attribute name="IRMS" value="0.8" constant="no"/>
<attribute name="MANUFACTURER_NAME" value="Panasonic" constant="no"/>
<attribute name="MANUFACTURER_PART_NUMBER" value="12TPC10M" constant="no"/>
<attribute name="VDC" value="12.5" constant="no"/>
<attribute name="VENDOR" value="Panasonic" constant="no"/>
</technology>
</technologies>
</device>
</devices>
</deviceset>
<deviceset name="CC0805KRX7R9BB821">
<gates>
<gate name="A" symbol="WB_CAPACITOR" x="0" y="0"/>
</gates>
<devices>
<device name="" package="0805">
<connects>
<connect gate="A" pin="1" pad="1"/>
<connect gate="A" pin="2" pad="2"/>
</connects>
<technologies>
<technology name="">
<attribute name="CAP" value="8.2E-10" constant="no"/>
<attribute name="ESR" value="0.0" constant="no"/>
<attribute name="IRMS" value="0.0" constant="no"/>
<attribute name="MANUFACTURER_NAME" value="Yageo America" constant="no"/>
<attribute name="MANUFACTURER_PART_NUMBER" value="CC0805KRX7R9BB821" constant="no"/>
<attribute name="VDC" value="50.0" constant="no"/>
<attribute name="VENDOR" value="Yageo America" constant="no"/>
</technology>
</technologies>
</device>
</devices>
</deviceset>
<deviceset name="GRM21BR71A225MA01L">
<gates>
<gate name="A" symbol="WB_CAPACITOR" x="0" y="0"/>
</gates>
<devices>
<device name="" package="0805">
<connects>
<connect gate="A" pin="1" pad="1"/>
<connect gate="A" pin="2" pad="2"/>
</connects>
<technologies>
<technology name="">
<attribute name="CAP" value="2.2E-6" constant="no"/>
<attribute name="ESR" value="0.0060" constant="no"/>
<attribute name="IRMS" value="0.0" constant="no"/>
<attribute name="MANUFACTURER_NAME" value="MuRata" constant="no"/>
<attribute name="MANUFACTURER_PART_NUMBER" value="GRM21BR71A225MA01L" constant="no"/>
<attribute name="VDC" value="10.0" constant="no"/>
<attribute name="VENDOR" value="MuRata" constant="no"/>
</technology>
</technologies>
</device>
</devices>
</deviceset>
<deviceset name="50WQ04FNPBF">
<gates>
<gate name="A" symbol="50WQ04FNPBF" x="0" y="0"/>
</gates>
<devices>
<device name="" package="DPAK">
<connects>
<connect gate="A" pin="A_2" pad="1"/>
<connect gate="A" pin="K" pad="2"/>
</connects>
<technologies>
<technology name="">
<attribute name="DATASHEETURL" value="http://www.vishay.com/docs/94233/50wq04fn.pdf" constant="no"/>
<attribute name="IO" value="5.5" constant="no"/>
<attribute name="MANUFACTURER_NAME" value="Vishay-Semiconductor" constant="no"/>
<attribute name="MANUFACTURER_PART_NUMBER" value="50WQ04FNPBF" constant="no"/>
<attribute name="VENDOR" value="Vishay-Semiconductor" constant="no"/>
<attribute name="VFATIO" value="0.51" constant="no"/>
<attribute name="VRRM" value="40.0" constant="no"/>
</technology>
</technologies>
</device>
</devices>
</deviceset>
<deviceset name="CC0805KRX7R9BB272">
<gates>
<gate name="A" symbol="WB_CAPACITOR" x="0" y="0"/>
</gates>
<devices>
<device name="" package="0805">
<connects>
<connect gate="A" pin="1" pad="1"/>
<connect gate="A" pin="2" pad="2"/>
</connects>
<technologies>
<technology name="">
<attribute name="CAP" value="2.7E-9" constant="no"/>
<attribute name="ESR" value="0.0" constant="no"/>
<attribute name="IRMS" value="0.0" constant="no"/>
<attribute name="MANUFACTURER_NAME" value="Yageo America" constant="no"/>
<attribute name="MANUFACTURER_PART_NUMBER" value="CC0805KRX7R9BB272" constant="no"/>
<attribute name="VDC" value="50.0" constant="no"/>
<attribute name="VENDOR" value="Yageo America" constant="no"/>
</technology>
</technologies>
</device>
</devices>
</deviceset>
<deviceset name="BSZ058N03LS_G">
<gates>
<gate name="A" symbol="BSZ058N03LS_G" x="0" y="0"/>
</gates>
<devices>
<device name="" package="PG-TSDSON-8">
<connects>
<connect gate="A" pin="DRAIN_2" pad="5"/>
<connect gate="A" pin="GATE" pad="4"/>
<connect gate="A" pin="SOURCE_2" pad="1"/>
</connects>
<technologies>
<technology name="">
<attribute name="DATASHEETURL" value="http://www.infineon.com/dgdl/BSZ058N03LSG%5Frev2.0.pdf?folderId%3Ddb3a304313b8b5a60113cee8ed2a02db%26fileId%3Ddb3a304313b8b5a60113d3fa0a7e03f2" constant="no"/>
<attribute name="IDSMAX" value="40.0" constant="no"/>
<attribute name="MANUFACTURER_NAME" value="Infineon Technologies" constant="no"/>
<attribute name="MANUFACTURER_PART_NUMBER" value="BSZ058N03LS G" constant="no"/>
<attribute name="QGTYP" value="11.0" constant="no"/>
<attribute name="QUANTITY" value="1" constant="no"/>
<attribute name="RDSON45" value="0.0089" constant="no"/>
<attribute name="VDSMAX" value="30.0" constant="no"/>
<attribute name="VENDOR" value="Infineon Technologies" constant="no"/>
</technology>
</technologies>
</device>
</devices>
</deviceset>
<deviceset name="CRCW040241K2FKED">
<gates>
<gate name="A" symbol="WB_RESISTOR" x="0" y="0"/>
</gates>
<devices>
<device name="" package="0402">
<connects>
<connect gate="A" pin="1" pad="1"/>
<connect gate="A" pin="2" pad="2"/>
</connects>
<technologies>
<technology name="">
<attribute name="MANUFACTURER_NAME" value="Vishay-Dale" constant="no"/>
<attribute name="MANUFACTURER_PART_NUMBER" value="CRCW040241K2FKED" constant="no"/>
<attribute name="POWER" value="0.063" constant="no"/>
<attribute name="RESISTANCE" value="41200.0" constant="no"/>
<attribute name="TOLERANCE" value="1.0" constant="no"/>
<attribute name="VENDOR" value="Vishay-Dale" constant="no"/>
</technology>
</technologies>
</device>
</devices>
</deviceset>
<deviceset name="CRCW040210K0FKED">
<gates>
<gate name="A" symbol="WB_RESISTOR" x="0" y="0"/>
</gates>
<devices>
<device name="" package="0402">
<connects>
<connect gate="A" pin="1" pad="1"/>
<connect gate="A" pin="2" pad="2"/>
</connects>
<technologies>
<technology name="">
<attribute name="MANUFACTURER_NAME" value="Vishay-Dale" constant="no"/>
<attribute name="MANUFACTURER_PART_NUMBER" value="CRCW040210K0FKED" constant="no"/>
<attribute name="POWER" value="0.063" constant="no"/>
<attribute name="RESISTANCE" value="10000.0" constant="no"/>
<attribute name="TOLERANCE" value="1.0" constant="no"/>
<attribute name="VENDOR" value="Vishay-Dale" constant="no"/>
</technology>
</technologies>
</device>
</devices>
</deviceset>
<deviceset name="CRCW040229K4FKED">
<gates>
<gate name="A" symbol="WB_RESISTOR" x="0" y="0"/>
</gates>
<devices>
<device name="" package="0402">
<connects>
<connect gate="A" pin="1" pad="1"/>
<connect gate="A" pin="2" pad="2"/>
</connects>
<technologies>
<technology name="">
<attribute name="MANUFACTURER_NAME" value="Vishay-Dale" constant="no"/>
<attribute name="MANUFACTURER_PART_NUMBER" value="CRCW040229K4FKED" constant="no"/>
<attribute name="POWER" value="0.063" constant="no"/>
<attribute name="RESISTANCE" value="29400.0" constant="no"/>
<attribute name="TOLERANCE" value="1.0" constant="no"/>
<attribute name="VENDOR" value="Vishay-Dale" constant="no"/>
</technology>
</technologies>
</device>
</devices>
</deviceset>
<deviceset name="CRCW0402100RFKED">
<gates>
<gate name="A" symbol="WB_RESISTOR" x="0" y="0"/>
</gates>
<devices>
<device name="" package="0402">
<connects>
<connect gate="A" pin="1" pad="1"/>
<connect gate="A" pin="2" pad="2"/>
</connects>
<technologies>
<technology name="">
<attribute name="MANUFACTURER_NAME" value="Vishay-Dale" constant="no"/>
<attribute name="MANUFACTURER_PART_NUMBER" value="CRCW0402100RFKED" constant="no"/>
<attribute name="POWER" value="0.063" constant="no"/>
<attribute name="RESISTANCE" value="100.0" constant="no"/>
<attribute name="TOLERANCE" value="1.0" constant="no"/>
<attribute name="VENDOR" value="Vishay-Dale" constant="no"/>
</technology>
</technologies>
</device>
</devices>
</deviceset>
<deviceset name="PRL1632-R011-F-T1">
<gates>
<gate name="A" symbol="WB_RESISTOR" x="0" y="0"/>
</gates>
<devices>
<device name="" package="1206">
<connects>
<connect gate="A" pin="1" pad="1"/>
<connect gate="A" pin="2" pad="2"/>
</connects>
<technologies>
<technology name="">
<attribute name="MANUFACTURER_NAME" value="Susumu Co Ltd" constant="no"/>
<attribute name="MANUFACTURER_PART_NUMBER" value="PRL1632-R011-F-T1" constant="no"/>
<attribute name="POWER" value="1.0" constant="no"/>
<attribute name="RESISTANCE" value="0.011" constant="no"/>
<attribute name="TOLERANCE" value="1.0" constant="no"/>
<attribute name="VENDOR" value="Susumu Co Ltd" constant="no"/>
</technology>
</technologies>
</device>
</devices>
</deviceset>
<deviceset name="LM3478MM/NOPB">
<gates>
<gate name="A" symbol="WB_LM3478" x="0" y="0"/>
</gates>
<devices>
<device name="" package="MUA08A">
<connects>
<connect gate="A" pin="AGND" pad="4"/>
<connect gate="A" pin="COMP" pad="2"/>
<connect gate="A" pin="DR" pad="6"/>
<connect gate="A" pin="FA/SD" pad="7"/>
<connect gate="A" pin="FB" pad="3"/>
<connect gate="A" pin="ISEN" pad="1"/>
<connect gate="A" pin="PGND" pad="5"/>
<connect gate="A" pin="VIN" pad="8"/>
</connects>
<technologies>
<technology name="">
<attribute name="DATASHEETURL" value="http://www.ti.com/product/lm3478" constant="no"/>
<attribute name="FREQUENCY" value="1000000.0" constant="no"/>
<attribute name="IMAX" value="20.0" constant="no"/>
<attribute name="MANUFACTURER_NAME" value="Texas Instruments" constant="no"/>
<attribute name="MANUFACTURER_PART_NUMBER" value="LM3478MM/NOPB" constant="no"/>
<attribute name="MKTG_PACKAGE" value="NA" constant="no"/>
<attribute name="NSID" value="LM3478MM/NOPB" constant="no"/>
<attribute name="PACKAGE" value="NA" constant="no"/>
<attribute name="VENDOR" value="Texas Instruments" constant="no"/>
</technology>
</technologies>
</device>
</devices>
</deviceset>
<deviceset name="CRCW040220R0FKED">
<gates>
<gate name="A" symbol="WB_RESISTOR" x="0" y="0"/>
</gates>
<devices>
<device name="" package="0402">
<connects>
<connect gate="A" pin="1" pad="1"/>
<connect gate="A" pin="2" pad="2"/>
</connects>
<technologies>
<technology name="">
<attribute name="MANUFACTURER_NAME" value="Vishay-Dale" constant="no"/>
<attribute name="MANUFACTURER_PART_NUMBER" value="CRCW040220R0FKED" constant="no"/>
<attribute name="POWER" value="0.063" constant="no"/>
<attribute name="RESISTANCE" value="20.0" constant="no"/>
<attribute name="TOLERANCE" value="1.0" constant="no"/>
<attribute name="VENDOR" value="Vishay-Dale" constant="no"/>
</technology>
</technologies>
</device>
</devices>
</deviceset>
<deviceset name="GRM155R61A154KE19D">
<gates>
<gate name="A" symbol="WB_CAPACITOR" x="0" y="0"/>
</gates>
<devices>
<device name="" package="0402">
<connects>
<connect gate="A" pin="1" pad="1"/>
<connect gate="A" pin="2" pad="2"/>
</connects>
<technologies>
<technology name="">
<attribute name="CAP" value="1.5E-7" constant="no"/>
<attribute name="ESR" value="0.0" constant="no"/>
<attribute name="IRMS" value="0.0" constant="no"/>
<attribute name="MANUFACTURER_NAME" value="MuRata" constant="no"/>
<attribute name="MANUFACTURER_PART_NUMBER" value="GRM155R61A154KE19D" constant="no"/>
<attribute name="VDC" value="10.0" constant="no"/>
<attribute name="VENDOR" value="MuRata" constant="no"/>
</technology>
</technologies>
</device>
</devices>
</deviceset>
<deviceset name="CRCW0402976RFKED">
<gates>
<gate name="A" symbol="WB_RESISTOR" x="0" y="0"/>
</gates>
<devices>
<device name="" package="0402">
<connects>
<connect gate="A" pin="1" pad="1"/>
<connect gate="A" pin="2" pad="2"/>
</connects>
<technologies>
<technology name="">
<attribute name="MANUFACTURER_NAME" value="Vishay-Dale" constant="no"/>
<attribute name="MANUFACTURER_PART_NUMBER" value="CRCW0402976RFKED" constant="no"/>
<attribute name="POWER" value="0.063" constant="no"/>
<attribute name="RESISTANCE" value="976.0" constant="no"/>
<attribute name="TOLERANCE" value="1.0" constant="no"/>
<attribute name="VENDOR" value="Vishay-Dale" constant="no"/>
</technology>
</technologies>
</device>
</devices>
</deviceset>
<deviceset name="MSS1038-382NLB">
<gates>
<gate name="A" symbol="WB_INDUCTOR" x="0" y="0"/>
</gates>
<devices>
<device name="" package="MSS1038">
<connects>
<connect gate="A" pin="1" pad="1"/>
<connect gate="A" pin="2" pad="2"/>
</connects>
<technologies>
<technology name="">
<attribute name="DCR" value="0.01" constant="no"/>
<attribute name="IDC" value="6.05" constant="no"/>
<attribute name="L" value="3.8E-6" constant="no"/>
<attribute name="MANUFACTURER_NAME" value="Coilcraft" constant="no"/>
<attribute name="MANUFACTURER_PART_NUMBER" value="MSS1038-382NLB" constant="no"/>
<attribute name="VENDOR" value="Coilcraft" constant="no"/>
</technology>
</technologies>
</device>
</devices>
</deviceset>
<deviceset name="NPI34W220MTRF">
<gates>
<gate name="A" symbol="WB_INDUCTOR" x="0" y="0"/>
</gates>
<devices>
<device name="" package="IND_NPI34W">
<connects>
<connect gate="A" pin="1" pad="1"/>
<connect gate="A" pin="2" pad="2"/>
</connects>
<technologies>
<technology name="">
<attribute name="DCR" value="0.066" constant="no"/>
<attribute name="IDC" value="2.9" constant="no"/>
<attribute name="L" value="2.2E-5" constant="no"/>
<attribute name="MANUFACTURER_NAME" value="NIC Components" constant="no"/>
<attribute name="MANUFACTURER_PART_NUMBER" value="NPI34W220MTRF" constant="no"/>
<attribute name="VENDOR" value="NIC Components" constant="no"/>
</technology>
</technologies>
</device>
</devices>
</deviceset>
<deviceset name="APXE100ARA680ME61G">
<gates>
<gate name="A" symbol="WB_CAP_POLARIZED" x="0" y="0"/>
</gates>
<devices>
<device name="" package="CAPSMT_62_E61">
<connects>
<connect gate="A" pin="+" pad="1"/>
<connect gate="A" pin="-" pad="2"/>
</connects>
<technologies>
<technology name="">
<attribute name="CAP" value="6.8E-5" constant="no"/>
<attribute name="DATASHEETURL" value="http://www.chemi%2Dcon.co.jp/e/catalog/pdf/al%2De/al%2Dsepa%2De/002%2Dcp/al%2Dpxe%2De%2D110701.pdf" constant="no"/>
<attribute name="ESR" value="0.028" constant="no"/>
<attribute name="IRMS" value="2.31" constant="no"/>
<attribute name="MANUFACTURER_NAME" value="Chemi-Con" constant="no"/>
<attribute name="MANUFACTURER_PART_NUMBER" value="APXE100ARA680ME61G" constant="no"/>
<attribute name="VDC" value="10.0" constant="no"/>
<attribute name="VENDOR" value="Nippon Chemi-Con" constant="no"/>
</technology>
</technologies>
</device>
</devices>
</deviceset>
</devicesets>
</library>
</drawing>
</eagle>
