PCBNEW-LibModule-V1  Thu May  9 04:12:00 2013
# encoding utf-8
Units mm
$INDEX
SSD1963_320x240
$EndINDEX
$MODULE SSD1963_320x240
Po 0 0 0 15 518B21FF 00000000 ~~
Li SSD1963_320x240
Sc 0
AR /5189C624
Op 0 0 0
T0 22.72 -78.07 1.524 1.524 0 0.3048 N V 21 N "U1"
T1 22.86 -10.16 1.524 1.524 0 0.3048 N V 21 N "SSD1963_320X240"
DS 55.24 -88.68 55.24 -87.41 0.381 21
DS 55.24 -87.41 55.24 -74.1 0.381 21
DS 55.24 -74.1 55.24 -55.05 0.381 21
DS 55.24 -55.05 55.24 -44.88 0.381 21
DS 55.24 -44.88 55.21 -24.1 0.381 21
DS 55.21 -24.1 55.21 -1.12 0.381 21
DS 55.21 -1.12 55.26 2.25 0.381 21
DS 55.26 2.25 -8.52 2.17 0.381 21
DS -8.5 2.24 -8.55 -38.07 0.381 21
DS -8.55 -38.07 -8.55 -65.89 0.381 21
DS -8.55 -65.89 -8.55 -91.79 0.381 21
DS -8.55 -91.79 -8.55 -93.4 0.381 21
DS -8.55 -93.4 53.66 -93.39 0.381 21
DS 53.66 -93.39 54.81 -93.39 0.381 21
DS 54.81 -93.39 55.24 -93.39 0.381 21
DS 55.24 -93.39 55.24 -88.7 0.381 21
$PAD
Sh "21" C 1.6 1.6 0 0 0
Dr 1 0 0
At STD N 00E0FFFF
Ne 0 ""
Po 0.0006 -2.5485
$EndPAD
$PAD
Sh "22" C 1.6 1.6 0 0 0
Dr 1 0 0
At STD N 00E0FFFF
Ne 0 ""
Po 2.54 -2.54
$EndPAD
$PAD
Sh "24" C 1.6 1.6 0 0 0
Dr 1 0 0
At STD N 00E0FFFF
Ne 0 ""
Po 7.62 -2.55
$EndPAD
$PAD
Sh "23" C 1.6 1.6 0 0 0
Dr 1 0 0
At STD N 00E0FFFF
Ne 0 ""
Po 5.08 -2.54
$EndPAD
$PAD
Sh "28" C 1.6 1.6 0 0 0
Dr 1 0 0
At STD N 00E0FFFF
Ne 0 ""
Po 17.78 -2.55
$EndPAD
$PAD
Sh "26" C 1.6 1.6 0 0 0
Dr 1 0 0
At STD N 00E0FFFF
Ne 0 ""
Po 12.7 -2.55
$EndPAD
$PAD
Sh "27" C 1.6 1.6 0 0 0
Dr 1 0 0
At STD N 00E0FFFF
Ne 0 ""
Po 15.24 -2.55
$EndPAD
$PAD
Sh "25" C 1.6 1.6 0 0 0
Dr 1 0 0
At STD N 00E0FFFF
Ne 0 ""
Po 10.16 -2.54
$EndPAD
$PAD
Sh "34" C 1.6 1.6 0 0 0
Dr 1 0 0
At STD N 00E0FFFF
Ne 0 ""
Po 33.02 -2.54
$EndPAD
$PAD
Sh "36" C 1.6 1.6 0 0 0
Dr 1 0 0
At STD N 00E0FFFF
Ne 0 ""
Po 38.1 -2.54
$EndPAD
$PAD
Sh "37" C 1.6 1.6 0 0 0
Dr 1 0 0
At STD N 00E0FFFF
Ne 0 ""
Po 40.64 -2.54
$EndPAD
$PAD
Sh "35" C 1.6 1.6 0 0 0
Dr 1 0 0
At STD N 00E0FFFF
Ne 0 ""
Po 35.5606 -2.5485
$EndPAD
$PAD
Sh "33" C 1.6 1.6 0 0 0
Dr 1 0 0
At STD N 00E0FFFF
Ne 0 ""
Po 30.48 -2.55
$EndPAD
$PAD
Sh "32" C 1.6 1.6 0 0 0
Dr 1 0 0
At STD N 00E0FFFF
Ne 0 ""
Po 27.94 -2.54
$EndPAD
$PAD
Sh "30" C 1.6 1.6 0 0 0
Dr 1 0 0
At STD N 00E0FFFF
Ne 0 ""
Po 22.86 -2.54
$EndPAD
$PAD
Sh "31" C 1.6 1.6 0 0 0
Dr 1 0 0
At STD N 00E0FFFF
Ne 0 ""
Po 25.4 -2.55
$EndPAD
$PAD
Sh "29" C 1.6 1.6 0 0 0
Dr 1 0 0
At STD N 00E0FFFF
Ne 0 ""
Po 20.32 -2.54
$EndPAD
$PAD
Sh "40" C 1.6 1.6 0 0 0
Dr 1 0 0
At STD N 00E0FFFF
Ne 0 ""
Po 48.26 -2.55
$EndPAD
$PAD
Sh "38" C 1.6 1.6 0 0 0
Dr 1 0 0
At STD N 00E0FFFF
Ne 0 ""
Po 43.18 -2.54
$EndPAD
$PAD
Sh "39" C 1.6 1.6 0 0 0
Dr 1 0 0
At STD N 00E0FFFF
Ne 0 ""
Po 45.72 -2.54
$EndPAD
$PAD
Sh "18" C 1.6 1.6 0 0 0
Dr 1 0 0
At STD N 00E0FFFF
Ne 0 ""
Po 43.18 -0.01
$EndPAD
$PAD
Sh "20" C 1.6 1.6 0 0 0
Dr 1 0 0
At STD N 00E0FFFF
Ne 0 ""
Po 48.26 -0.01
$EndPAD
$PAD
Sh "19" C 1.6 1.6 0 0 0
Dr 1 0 0
At STD N 00E0FFFF
Ne 0 ""
Po 45.7206 -0.0085
$EndPAD
$PAD
Sh "10" C 1.6 1.6 0 0 0
Dr 1 0 0
At STD N 00E0FFFF
Ne 0 ""
Po 22.86 -0.01
$EndPAD
$PAD
Sh "12" C 1.6 1.6 0 0 0
Dr 1 0 0
At STD N 00E0FFFF
Ne 0 ""
Po 27.94 -0.01
$EndPAD
$PAD
Sh "11" C 1.6 1.6 0 0 0
Dr 1 0 0
At STD N 00E0FFFF
Ne 0 ""
Po 25.4006 -0.0085
$EndPAD
$PAD
Sh "17" C 1.6 1.6 0 0 0
Dr 1 0 0
At STD N 00E0FFFF
Ne 2 "/stamp/LCD_RESET"
Po 40.64 -0.01
$EndPAD
$PAD
Sh "16" C 1.6 1.6 0 0 0
Dr 1 0 0
At STD N 00E0FFFF
Ne 0 ""
Po 38.1 -0.01
$EndPAD
$PAD
Sh "14" C 1.6 1.6 0 0 0
Dr 1 0 0
At STD N 00E0FFFF
Ne 0 ""
Po 33.02 -0.01
$EndPAD
$PAD
Sh "15" C 1.6 1.6 0 0 0
Dr 1 0 0
At STD N 00E0FFFF
Ne 1 "/stamp/LCD_CS"
Po 35.56 -0.01
$EndPAD
$PAD
Sh "13" C 1.6 1.6 0 0 0
Dr 1 0 0
At STD N 00E0FFFF
Ne 0 ""
Po 30.4806 -0.0085
$EndPAD
$PAD
Sh "6" C 1.6 1.6 0 0 0
Dr 1 0 0
At STD N 00E0FFFF
Ne 5 "N-0000012"
Po 12.7 -0.01
$EndPAD
$PAD
Sh "8" C 1.6 1.6 0 0 0
Dr 1 0 0
At STD N 00E0FFFF
Ne 0 ""
Po 17.78 -0.01
$EndPAD
$PAD
Sh "9" C 1.6 1.6 0 0 0
Dr 1 0 0
At STD N 00E0FFFF
Ne 0 ""
Po 20.32 -0.01
$EndPAD
$PAD
Sh "7" C 1.6 1.6 0 0 0
Dr 1 0 0
At STD N 00E0FFFF
Ne 0 ""
Po 15.2406 -0.0085
$EndPAD
$PAD
Sh "5" C 1.6 1.6 0 0 0
Dr 1 0 0
At STD N 00E0FFFF
Ne 4 "/stamp/LCD_WR"
Po 10.16 -0.01
$EndPAD
$PAD
Sh "4" C 1.6 1.6 0 0 0
Dr 1 0 0
At STD N 00E0FFFF
Ne 3 "/stamp/LCD_RS"
Po 7.62 -0.01
$EndPAD
$PAD
Sh "2" C 1.6 1.6 0 0 0
Dr 1 0 0
At STD N 00E0FFFF
Ne 0 ""
Po 2.54 -0.01
$EndPAD
$PAD
Sh "3" C 1.6 1.6 0 0 0
Dr 1 0 0
At STD N 00E0FFFF
Ne 0 ""
Po 5.08 -0.01
$EndPAD
$PAD
Sh "H3" C 5 5 0 0 0
Dr 3 0 0
At STD N 00E0FFFF
Ne 0 ""
Po -5.3994 -3.8785
$EndPAD
$PAD
Sh "H4" C 5 5 0 0 0
Dr 3 0 0
At STD N 00E0FFFF
Ne 0 ""
Po 52.1006 -3.8785
$EndPAD
$PAD
Sh "H2" C 5 5 0 0 0
Dr 3 0 0
At STD N 00E0FFFF
Ne 0 ""
Po 52.1006 -89.2785
$EndPAD
$PAD
Sh "H1" C 5 5 0 0 0
Dr 3 0 0
At STD N 00E0FFFF
Ne 0 ""
Po -5.3994 -89.2785
$EndPAD
$PAD
Sh "1" C 1.6 1.6 0 0 0
Dr 1 0 0
At STD N 00E0FFFF
Ne 0 ""
Po 0.0006 -0.0085
$EndPAD
$EndMODULE SSD1963_320x240
$EndLIBRARY
