Digi-Key Part Number,Manufacturer,Manufacturer Part Number,Customer Reference,Quantity 1,Quantity 2,Quantity 3,Description,Comments,RoHS Status,Lead Free Status,REACH Status
490-1512-1-ND,MURATA ELECTRONICS (VA),GRM188R71H103KA01D,C22 C30 C36 C45,4,0,0,CAP CER 10000PF 50V 10% X7R 0603,Alternate Packaging Exists,RoHS Compliant,Lead free,Unaffected Jul-2011
"490-1532-1-ND	",MURATA ELECTRONICS (VA),GRM188R71C104KA01D,"C71,C70,C61,C62,C63,C67,C66,C65,C64,C68,C23,C32,C41,C24,C31,C37,C44,C46,C49,C47,C51,C60,C57,C409,C410,C40, c758,C401,C405,C404",30,0,0,CAP CER .1uF 16v 10% X7R 0603,Alternate Packaging Exists
P47KGCT-ND,PANASONIC ELECTRONIC COMPONENTS (VA),ERJ-3GEYJ473V,"R32 R7 R29 R23 R10 ",5,0,0,RES 47K OHM 1/10W 5% 0603 SMD,Alternate Packaging Exists,RoHS Compliant,Lead free,Not Available
P1.0GCT-ND,PANASONIC ELECTRONIC COMPONENTS (VA),ERJ-3GEYJ1R0V,R1,1,0,0,RES 1 OHM 1/10W 5% 0603 SMD,Alternate Packaging Exists
"A103277CT-ND	",TE Connectivity,6-1622824-1,R22 R23,2,0,0,RES 0.10 OHM 1/10W 5% 0603,Alternate Packaging Exists,RoHS Compliant,Lead free,Not Available
P1.5KGCT-ND,PANASONIC ELECTRONIC COMPONENTS (VA),ERJ-3GEYJ152V,R11 R12 R14,3,0,0,RES 1.5K OHM 1/10W 5% 0603 SMD,Alternate Packaging Exists,RoHS Compliant,Lead free,Not Available
P100KGCT-ND,PANASONIC ELECTRONIC COMPONENTS (VA),ERJ-3GEYJ104V,R6,1,0,0,RES 100K OHM 1/10W 5% 0603 SMD,Alternate Packaging Exists,RoHS Compliant,Lead free,Not Available
P10KGCT-ND,PANASONIC ELECTRONIC COMPONENTS (VA),ERJ-3GEYJ103V,R8 R51 R52,3,0,0,RES 10K OHM 1/10W 5% 0603 SMD,Alternate Packaging Exists,RoHS Compliant,Lead free,Not Available
"P11KGCT-ND	",PANASONIC ELECTRONIC COMPONENTS (VA),ERJ-3GEYJ113V,"R19,R17,R18,R15",4,0,0,RES 11K OHM 1/10W 5% 0603 SMD,Alternate Packaging Exists,RoHS Compliant,Lead free,Not Available
P110GCT-ND,PANASONIC ELECTRONIC COMPONENTS (VA),ERJ-3GEYJ111V,R22,1,0,0,RES 110 OHM 1/10W 5% 0603 SMD,Alternate Packaging Exists,RoHS Compliant,Lead free,Not Available
P100KGCT-ND,PANASONIC ELECTRONIC COMPONENTS (VA),ERJ-3GEYJ104V,R6,4,0,0,RES 100K OHM 1/10W 5% 0603 SMD,Alternate Packaging Exists,RoHS Compliant,Lead free,Not Available
535-10901-1-ND,ABRACON CORPORATION (VA),ABM8G-12.000MHZ-4Y-T3,X401,1,0,0,CRYSTAL 12.000MHZ 10PF SMD,Alternate Packaging Exists,RoHS Compliant,Lead free,Unaffected Jun-2012
445-6397-1-ND,TDK CORPORATION (VA),MLZ2012M150W,L1,1,0,0,INDUCTOR MULTILAYER 15UH 0805,Alternate Packaging Exists,RoHS Compliant,Lead free,Unaffected Apr-2011
P1.0KGCT-ND,PANASONIC ELECTRONIC COMPONENTS (VA),ERJ-3GEYJ102V,"R4, R5 R9 R13 R16 R24  R25 R28 R30 R31 R33",11,0,0,RES 1K OHM 1/10W 5% 0603 SMD,Alternate Packaging Exists,RoHS Compliant,Lead free,Not Available
"311-1372-1-ND	",TDK CORPORATION (VA),CC0603ZRY5V7BB105,C17 C25 C29 C38 C42 C43 C50 C69 C406 C411,10,0,0,CAP CER 1UF 16V Y5V 0603,"Part is obsolete, not recommended for new design",RoHS Compliant,Lead free,Unaffected Apr-2011
"490-1407-1-ND	",MURATA ELECTRONICS (VA),GRM1885C1H150JA01D,C402 C403,2,0,0,CAP CER 15PF 50V 5% NP0 0603,Alternate Packaging Exists,RoHS Compliant,Lead free,Unaffected Jul-2011
490-1410-1-ND,MURATA ELECTRONICS (VA),GRM1885C1H200JA01D,"C52 C53 ",2,0,0,CAP CER 20PF 50V 5% NP0 0603,Alternate Packaging Exists,RoHS Compliant,Lead free,Unaffected Jul-2011
535-10913-1-ND,ABRACON CORPORATION (VA),ABM8G-24.000MHZ-4Y-T3,X1,1,0,0,CRYSTAL 24.000MHZ 10PF SMD,Alternate Packaging Exists,RoHS Compliant,Lead free,Unaffected Jun-2012
399-1299-1-ND,KEMET (VA),C1206C106Z8VACTU,C27 C35 C39 C40 C48 C74 C76,7,0,0,CAP CER 10UF 10V Y5V 1206,Alternate Packaging Exists,RoHS Compliant,Lead free,Unaffected Jun-2012
445-1594-1-ND,TDK CORPORATION (VA),C3216Y5V1C475Z/0.85,C412 C407 C34,2,0,0,CAP CER 4.7UF 16V Y5V 1206,"Part is obsolete, not recommended for new design",RoHS Compliant,Lead free,Unaffected Apr-2011
P47KGCT-ND,PANASONIC ELECTRONIC COMPONENTS (VA),ERJ-3GEYJ473V,R7 R10 R23 R29 R32,5,0,0,RES 47K OHM 1/10W 5% 0603 SMD,Alternate Packaging Exists,RoHS Compliant,Lead free,Not Available
240-2398-1-ND,LAIRD-SIGNAL INTEGRITY PRODUCTS (VA),HZ0805D152R-10,L2 L8 L11 L12 L13,5,0,0,FERRITE CHIP SIGNAL 1500 OHM SMD,Alternate Packaging Exists,RoHS Compliant,Lead free,Unaffected Aug-2011
MCIMX233DAG4C-ND,FREESCALE SEMICONDUCTOR,MCIMX233DAG4C,IC1,1,0,0,MPU 32BIT I.MX233 128LQFP,,RoHS Compliant,Lead free,Unaffected Dec-2011
NCP1117ST33T3GOSCT-ND,ON SEMICONDUCTOR (VA),NCP1117ST33T3G,U11,1,0,0,IC REG LDO 3.3V 1A SOT223,Alternate Packaging Exists,RoHS Compliant,Lead free,Unaffected Jun-2012
M25P32-VMF6TPCT-ND,MICRON TECHNOLOGY INC (VA),M25P32-VMF6TP,U3,1,0,0,IC FLASH 32MBIT 75MHZ 16SO,No delivery date available,RoHS Compliant,Lead free,Unaffected Aug-2011
MMDT3904-FDICT-ND,DIODES INC (VA),MMDT3904-7-F,Q1,1,0,0,TRANS DUAL NPN 200MA 40V SOT363,Alternate Packaging Exists,RoHS Compliant,Lead free,Unaffected Jun-2012
557-1212-1-ND,MICRON TECHNOLOGY INC (VA),MT46V32M16P-5B:F TR,U2,1,0,0,IC DDR SDRAM 512MBIT 5NS 66TSOP,Alternate Packaging Exists,RoHS Compliant,Lead free,Unaffected Aug-2011
RSA5MGCT-ND,ROHM SEMICONDUCTOR(VA),RSA5MGTR,D6,1,0,0,TVS DIODE 200W 5V UNI SOD-123,Alternate Packaging Exists,RoHS Compliant,Lead free,Unaffected Jun-2012
"475-3016-1-ND	",OSRAM Opto Semiconductors Inc,LS Q971-KN-1,"D2, D3,D4,D5,D8,D9",6,0,0,LED POINTLED 628NM SUPER RED SMD,Alternate Packaging Exists
1N5819HW-7-F,Diodes Inc,1N5819HW-7-F,D1,1,0,0,DIODE SCHOTTKY 40V 1A SOD123
"ATSAM3N0AA-AU-ND	",Atmel,ATSAM3N0AA-AU,U401,1,0,0,IC MCU 32KB CORTEX-M3 48-LQFP
