EESchema Schematic File Version 2
LIBS:con-jack
LIBS:adm3101e
LIBS:microsd
LIBS:transistor-npn
LIBS:ipc-7351-transistor
LIBS:switch-misc
LIBS:power
LIBS:device
LIBS:transistors
LIBS:conn
LIBS:linear
LIBS:regul
LIBS:74xx
LIBS:cmos4000
LIBS:adc-dac
LIBS:memory
LIBS:xilinx
LIBS:special
LIBS:microcontrollers
LIBS:dsp
LIBS:microchip
LIBS:analog_switches
LIBS:motorola
LIBS:texas
LIBS:intel
LIBS:audio
LIBS:interface
LIBS:digital-audio
LIBS:philips
LIBS:display
LIBS:cypress
LIBS:siliconi
LIBS:opto
LIBS:atmel
LIBS:contrib
LIBS:valves
LIBS:micron_ddr_512Mb
LIBS:iMX23
LIBS:sdmmc
LIBS:usbconn
LIBS:fsusb20
LIBS:r_pack2
LIBS:pasives-connectors
LIBS:EEPROM
LIBS:PWR
LIBS:m25p32
LIBS:PROpendous-cache
LIBS:w_analog
LIBS:gl850g
LIBS:srf2012
LIBS:rclamp0502b
LIBS:mcp130
LIBS:ABM8G
LIBS:usb_a
LIBS:Reset
LIBS:stm32f100vxx
LIBS:lt1117cst
LIBS:zxmhc3f381n8
LIBS:fsusb43
LIBS:usb-mini
LIBS:atsam3n0aa-au
LIBS:xbeepro
LIBS:ba50dd0whfp
LIBS:mic29301
LIBS:sp481
LIBS:lm35
LIBS:enc28j60
LIBS:m-pad-2.1
LIBS:ds3231
LIBS:rj45_stamp
LIBS:stamp_mini_4_layers-cache
EELAYER 24 0
EELAYER END
$Descr A4 11693 8268
encoding utf-8
Sheet 5 7
Title ""
Date "11 sep 2014"
Rev ""
Comp ""
Comment1 ""
Comment2 ""
Comment3 ""
Comment4 ""
$EndDescr
$Comp
L ENC28J60 UETH1
U 1 1 540B9DAB
P 5400 3700
F 0 "UETH1" H 5800 4850 60  0000 L CNN
F 1 "ENC28J60" H 5750 2600 60  0000 L CNN
F 2 "-SSOP28" H 5400 3700 60  0001 C CNN
F 3 "" H 5400 3700 60  0000 C CNN
	1    5400 3700
	1    0    0    -1  
$EndComp
$Comp
L +3.3VP #PWR072
U 1 1 540BAB6A
P 5100 2150
F 0 "#PWR072" H 5150 2180 20  0001 C CNN
F 1 "+3.3VP" H 5100 2240 30  0000 C CNN
F 2 "" H 5100 2150 60  0001 C CNN
F 3 "" H 5100 2150 60  0001 C CNN
	1    5100 2150
	1    0    0    -1  
$EndComp
$Comp
L GND #PWR073
U 1 1 540BBA37
P 5450 5100
F 0 "#PWR073" H 5450 5100 30  0001 C CNN
F 1 "GND" H 5450 5030 30  0001 C CNN
F 2 "" H 5450 5100 60  0001 C CNN
F 3 "" H 5450 5100 60  0001 C CNN
	1    5450 5100
	1    0    0    -1  
$EndComp
$Comp
L RJ45_STAMP RJ45
U 1 1 540BADF3
P 9950 4700
F 0 "RJ45" H 9550 4950 60  0000 C CNN
F 1 "RJ45_STAMP" H 10350 6100 60  0000 C CNN
F 2 "rjld043tc1" H 9950 4700 60  0001 C CNN
F 3 "~" H 9950 4700 60  0000 C CNN
	1    9950 4700
	1    0    0    -1  
$EndComp
$Comp
L INDUCTOR LET1
U 1 1 540BC763
P 8200 2450
F 0 "LET1" V 8150 2450 40  0000 C CNN
F 1 "2A 120 ohm" V 8300 2450 40  0000 C CNN
F 2 "SM0805" H 8200 2450 60  0001 C CNN
F 3 "" H 8200 2450 60  0001 C CNN
	1    8200 2450
	0    -1   -1   0   
$EndComp
$Comp
L R RET1
U 1 1 540BDAC7
P 8600 2800
F 0 "RET1" V 8680 2800 50  0000 C CNN
F 1 "49.9" V 8600 2800 50  0000 C CNN
F 2 "SM0603" H 8600 2800 60  0001 C CNN
F 3 "" H 8600 2800 60  0001 C CNN
	1    8600 2800
	1    0    0    -1  
$EndComp
$Comp
L R RET2
U 1 1 540BDACD
P 8900 2800
F 0 "RET2" V 8980 2800 50  0000 C CNN
F 1 "49.9" V 8900 2800 50  0000 C CNN
F 2 "SM0603" H 8900 2800 60  0001 C CNN
F 3 "" H 8900 2800 60  0001 C CNN
	1    8900 2800
	1    0    0    -1  
$EndComp
$Comp
L C CET1
U 1 1 540BF3B4
P 9400 2450
F 0 "CET1" H 9450 2550 50  0000 L CNN
F 1 "100nF" H 9450 2350 50  0000 L CNN
F 2 "SM0603" H 9400 2450 60  0001 C CNN
F 3 "" H 9400 2450 60  0001 C CNN
	1    9400 2450
	0    -1   -1   0   
$EndComp
$Comp
L GND #PWR074
U 1 1 540BF82E
P 9700 2450
F 0 "#PWR074" H 9700 2450 30  0001 C CNN
F 1 "GND" H 9700 2380 30  0001 C CNN
F 2 "" H 9700 2450 60  0001 C CNN
F 3 "" H 9700 2450 60  0001 C CNN
	1    9700 2450
	0    -1   -1   0   
$EndComp
$Comp
L +3.3VP #PWR075
U 1 1 540C047D
P 7850 2450
F 0 "#PWR075" H 7900 2480 20  0001 C CNN
F 1 "+3.3VP" H 7850 2540 30  0000 C CNN
F 2 "" H 7850 2450 60  0001 C CNN
F 3 "" H 7850 2450 60  0001 C CNN
	1    7850 2450
	0    -1   -1   0   
$EndComp
$Comp
L R RET3
U 1 1 540C10A4
P 8050 4500
F 0 "RET3" V 8130 4500 50  0000 C CNN
F 1 "49.9" V 8050 4500 50  0000 C CNN
F 2 "SM0603" H 8050 4500 60  0001 C CNN
F 3 "" H 8050 4500 60  0001 C CNN
	1    8050 4500
	1    0    0    -1  
$EndComp
$Comp
L R RET4
U 1 1 540C10AA
P 8300 4500
F 0 "RET4" V 8380 4500 50  0000 C CNN
F 1 "49.9" V 8300 4500 50  0000 C CNN
F 2 "SM0603" H 8300 4500 60  0001 C CNN
F 3 "" H 8300 4500 60  0001 C CNN
	1    8300 4500
	1    0    0    -1  
$EndComp
$Comp
L R RET5
U 1 1 540C10B0
P 8550 4500
F 0 "RET5" V 8650 4500 50  0000 C CNN
F 1 "100" V 8550 4500 50  0000 C CNN
F 2 "SM0603" H 8550 4500 60  0001 C CNN
F 3 "" H 8550 4500 60  0001 C CNN
	1    8550 4500
	1    0    0    -1  
$EndComp
$Comp
L R RET6
U 1 1 540C14E1
P 8750 4500
F 0 "RET6" V 8850 4500 50  0000 C CNN
F 1 "100" V 8750 4500 50  0000 C CNN
F 2 "SM0603" H 8750 4500 60  0001 C CNN
F 3 "" H 8750 4500 60  0001 C CNN
	1    8750 4500
	1    0    0    -1  
$EndComp
$Comp
L GND #PWR076
U 1 1 540C1D99
P 8650 4900
F 0 "#PWR076" H 8650 4900 30  0001 C CNN
F 1 "GND" H 8650 4830 30  0001 C CNN
F 2 "" H 8650 4900 60  0001 C CNN
F 3 "" H 8650 4900 60  0001 C CNN
	1    8650 4900
	1    0    0    -1  
$EndComp
Text Label 6300 3000 0    60   ~ 0
TPOUT-
Text Label 6300 3100 0    60   ~ 0
TPOUT+
Text Label 6300 3250 0    60   ~ 0
TPIN-
Text Label 6300 3350 0    60   ~ 0
TPIN+
Text Label 6350 4250 0    60   ~ 0
LEDA
Text Label 6350 4150 0    60   ~ 0
LEDB
Text Label 7700 3500 0    60   ~ 0
TPOUT-
Text Label 7700 3300 0    60   ~ 0
TPOUT+
Text Label 7700 4200 0    60   ~ 0
TPIN-
Text Label 7700 4000 0    60   ~ 0
TPIN+
Text Label 7750 3600 0    60   ~ 0
LEDA
Text Label 7750 3800 0    60   ~ 0
LEDB
NoConn ~ 9150 4100
$Comp
L C CET2
U 1 1 540C63A4
P 8150 4950
F 0 "CET2" H 8200 5050 50  0000 L CNN
F 1 "10nF" H 8200 4850 50  0000 L CNN
F 2 "SM0603" H 8150 4950 60  0001 C CNN
F 3 "" H 8150 4950 60  0001 C CNN
	1    8150 4950
	1    0    0    -1  
$EndComp
$Comp
L GND #PWR077
U 1 1 540C63AA
P 8150 5250
F 0 "#PWR077" H 8150 5250 30  0001 C CNN
F 1 "GND" H 8150 5180 30  0001 C CNN
F 2 "" H 8150 5250 60  0001 C CNN
F 3 "" H 8150 5250 60  0001 C CNN
	1    8150 5250
	1    0    0    -1  
$EndComp
$Comp
L C CET3
U 1 1 540C6BB6
P 6350 2500
F 0 "CET3" H 6400 2600 50  0000 L CNN
F 1 "100nF" H 6400 2400 50  0000 L CNN
F 2 "SM0603" H 6350 2500 60  0001 C CNN
F 3 "" H 6350 2500 60  0001 C CNN
	1    6350 2500
	1    0    0    -1  
$EndComp
$Comp
L GND #PWR078
U 1 1 540C6BBC
P 6350 2800
F 0 "#PWR078" H 6350 2800 30  0001 C CNN
F 1 "GND" H 6350 2730 30  0001 C CNN
F 2 "" H 6350 2800 60  0001 C CNN
F 3 "" H 6350 2800 60  0001 C CNN
	1    6350 2800
	1    0    0    -1  
$EndComp
$Comp
L C CET4
U 1 1 540C6FC5
P 6650 2500
F 0 "CET4" H 6700 2600 50  0000 L CNN
F 1 "100nF" H 6700 2400 50  0000 L CNN
F 2 "SM0603" H 6650 2500 60  0001 C CNN
F 3 "" H 6650 2500 60  0001 C CNN
	1    6650 2500
	1    0    0    -1  
$EndComp
$Comp
L GND #PWR079
U 1 1 540C6FCB
P 6650 2800
F 0 "#PWR079" H 6650 2800 30  0001 C CNN
F 1 "GND" H 6650 2730 30  0001 C CNN
F 2 "" H 6650 2800 60  0001 C CNN
F 3 "" H 6650 2800 60  0001 C CNN
	1    6650 2800
	1    0    0    -1  
$EndComp
$Comp
L C CET5
U 1 1 540C6FD2
P 6950 2500
F 0 "CET5" H 7000 2600 50  0000 L CNN
F 1 "100nF" H 7000 2400 50  0000 L CNN
F 2 "SM0603" H 6950 2500 60  0001 C CNN
F 3 "" H 6950 2500 60  0001 C CNN
	1    6950 2500
	1    0    0    -1  
$EndComp
$Comp
L GND #PWR080
U 1 1 540C6FD8
P 6950 2800
F 0 "#PWR080" H 6950 2800 30  0001 C CNN
F 1 "GND" H 6950 2730 30  0001 C CNN
F 2 "" H 6950 2800 60  0001 C CNN
F 3 "" H 6950 2800 60  0001 C CNN
	1    6950 2800
	1    0    0    -1  
$EndComp
$Comp
L C CET6
U 1 1 540C6FDF
P 7250 2500
F 0 "CET6" H 7300 2600 50  0000 L CNN
F 1 "100nF" H 7300 2400 50  0000 L CNN
F 2 "SM0603" H 7250 2500 60  0001 C CNN
F 3 "" H 7250 2500 60  0001 C CNN
	1    7250 2500
	1    0    0    -1  
$EndComp
$Comp
L GND #PWR081
U 1 1 540C6FE5
P 7250 2800
F 0 "#PWR081" H 7250 2800 30  0001 C CNN
F 1 "GND" H 7250 2730 30  0001 C CNN
F 2 "" H 7250 2800 60  0001 C CNN
F 3 "" H 7250 2800 60  0001 C CNN
	1    7250 2800
	1    0    0    -1  
$EndComp
NoConn ~ 6250 3950
$Comp
L CAP CET8
U 1 1 540C8AF0
P 3950 4300
F 0 "CET8" H 3750 4400 50  0000 L CNN
F 1 "20 pF" H 3700 4200 50  0000 L CNN
F 2 "SM0603" H 3950 4300 60  0001 C CNN
F 3 "" H 3950 4300 60  0001 C CNN
	1    3950 4300
	0    -1   1    0   
$EndComp
$Comp
L CAP CET9
U 1 1 540C8AF6
P 3950 4900
F 0 "CET9" H 4000 5000 50  0000 L CNN
F 1 "20 pF" H 4000 4800 50  0000 L CNN
F 2 "SM0603" H 3950 4900 60  0001 C CNN
F 3 "" H 3950 4900 60  0001 C CNN
	1    3950 4900
	0    -1   1    0   
$EndComp
$Comp
L GND #PWR082
U 1 1 540C8AFC
P 3550 4650
F 0 "#PWR082" H 3550 4650 30  0001 C CNN
F 1 "GND" H 3550 4580 30  0001 C CNN
F 2 "" H 3550 4650 60  0001 C CNN
F 3 "" H 3550 4650 60  0001 C CNN
	1    3550 4650
	-1   0    0    -1  
$EndComp
$Comp
L ABM8G XET1
U 1 1 540C8B02
P 4250 4600
F 0 "XET1" H 4250 4750 60  0000 C CNN
F 1 "25MHz" H 4250 4450 60  0000 C CNN
F 2 "ABM8G" H 4250 4600 60  0001 C CNN
F 3 "" H 4250 4600 60  0001 C CNN
	1    4250 4600
	0    1    1    0   
$EndComp
$Comp
L C CET7
U 1 1 540C9B12
P 4250 3800
F 0 "CET7" V 4300 3900 50  0000 L CNN
F 1 "10uF" V 4300 3550 50  0000 L CNN
F 2 "SM1206" H 4250 3800 60  0001 C CNN
F 3 "" H 4250 3800 60  0001 C CNN
	1    4250 3800
	0    -1   -1   0   
$EndComp
$Comp
L GND #PWR083
U 1 1 540C9FA5
P 3850 3800
F 0 "#PWR083" H 3850 3800 30  0001 C CNN
F 1 "GND" H 3850 3730 30  0001 C CNN
F 2 "" H 3850 3800 60  0001 C CNN
F 3 "" H 3850 3800 60  0001 C CNN
	1    3850 3800
	0    1    1    0   
$EndComp
$Comp
L R RET7
U 1 1 540CA405
P 4100 4000
F 0 "RET7" V 4150 4300 50  0000 C CNN
F 1 "2.2K 1%" V 4150 3650 50  0000 C CNN
F 2 "SM0603" H 4100 4000 60  0001 C CNN
F 3 "" H 4100 4000 60  0001 C CNN
	1    4100 4000
	0    -1   -1   0   
$EndComp
$Comp
L GND #PWR084
U 1 1 540CA8B3
P 3650 4000
F 0 "#PWR084" H 3650 4000 30  0001 C CNN
F 1 "GND" H 3650 3930 30  0001 C CNN
F 2 "" H 3650 4000 60  0001 C CNN
F 3 "" H 3650 4000 60  0001 C CNN
	1    3650 4000
	0    1    1    0   
$EndComp
$Comp
L R RET8
U 1 1 540CB52E
P 4500 2600
F 0 "RET8" V 4580 2600 50  0000 C CNN
F 1 "47k" V 4500 2600 50  0000 C CNN
F 2 "SM0603" H 4500 2600 60  0001 C CNN
F 3 "" H 4500 2600 60  0001 C CNN
	1    4500 2600
	1    0    0    -1  
$EndComp
Text HLabel 6350 3600 2    60   Input ~ 0
SSP_DATA1
Text HLabel 4200 3200 0    60   Input ~ 0
SSP_DATA0
Text HLabel 4200 3300 0    60   Input ~ 0
SSP_CMD
Text HLabel 4200 3400 0    60   Input ~ 0
SSP_SCK
Text HLabel 3500 3500 0    60   Input ~ 0
SSP_DATA3
Text HLabel 4200 3000 0    60   Input ~ 0
SSP_DETECT
$Comp
L GND #PWR085
U 1 1 540D0035
P 4500 2250
F 0 "#PWR085" H 4500 2250 30  0001 C CNN
F 1 "GND" H 4500 2180 30  0001 C CNN
F 2 "" H 4500 2250 60  0001 C CNN
F 3 "" H 4500 2250 60  0001 C CNN
	1    4500 2250
	-1   0    0    1   
$EndComp
$Comp
L R RET9
U 1 1 540D2DDE
P 4350 2600
F 0 "RET9" V 4250 2600 50  0000 C CNN
F 1 "47k" V 4350 2600 50  0000 C CNN
F 2 "SM0603" H 4350 2600 60  0001 C CNN
F 3 "" H 4350 2600 60  0001 C CNN
	1    4350 2600
	1    0    0    -1  
$EndComp
$Comp
L +3.3VP #PWR086
U 1 1 540D408D
P 4350 2250
F 0 "#PWR086" H 4400 2280 20  0001 C CNN
F 1 "+3.3VP" H 4350 2340 30  0000 C CNN
F 2 "" H 4350 2250 60  0001 C CNN
F 3 "" H 4350 2250 60  0001 C CNN
	1    4350 2250
	1    0    0    -1  
$EndComp
Wire Wire Line
	5100 2300 7250 2300
Wire Wire Line
	5100 2300 5100 2150
Connection ~ 5700 2300
Connection ~ 5600 2300
Connection ~ 5500 2300
Connection ~ 5400 2300
Connection ~ 5300 2300
Wire Wire Line
	5450 5000 5450 5100
Wire Wire Line
	5250 5000 5650 5000
Connection ~ 5350 5000
Connection ~ 5450 5000
Connection ~ 5550 5000
Connection ~ 5650 5000
Connection ~ 5250 5000
Wire Wire Line
	7900 2450 7850 2450
Wire Wire Line
	7650 3300 9150 3300
Wire Wire Line
	8900 3300 8900 3050
Wire Wire Line
	8750 2450 8750 3400
Wire Wire Line
	8750 3400 9150 3400
Wire Wire Line
	8600 3050 8600 3500
Wire Wire Line
	7650 3500 9150 3500
Wire Wire Line
	8500 2450 9200 2450
Connection ~ 8750 2450
Wire Wire Line
	8900 2550 8900 2450
Connection ~ 8900 2450
Wire Wire Line
	8600 2550 8600 2450
Connection ~ 8600 2450
Wire Wire Line
	9600 2450 9700 2450
Wire Wire Line
	9150 3700 8550 3700
Wire Wire Line
	8550 3700 8550 4250
Wire Wire Line
	9150 3900 8750 3900
Wire Wire Line
	8750 3900 8750 4250
Wire Wire Line
	7650 4000 9150 4000
Wire Wire Line
	8050 4000 8050 4250
Wire Wire Line
	7650 4200 9150 4200
Wire Wire Line
	8300 4200 8300 4250
Wire Wire Line
	8650 4750 8650 4900
Connection ~ 8550 4750
Connection ~ 8650 4750
Wire Wire Line
	6600 3000 6250 3000
Wire Wire Line
	6600 3100 6250 3100
Wire Wire Line
	6600 3250 6250 3250
Wire Wire Line
	6600 3350 6250 3350
Wire Wire Line
	6350 3600 6250 3600
Wire Wire Line
	6600 4250 6250 4250
Wire Wire Line
	6600 4150 6250 4150
Wire Wire Line
	7650 3600 9150 3600
Wire Wire Line
	7650 3800 9150 3800
Connection ~ 8900 3300
Connection ~ 8600 3500
Connection ~ 8050 4000
Connection ~ 8300 4200
Wire Wire Line
	8550 4750 8750 4750
Wire Wire Line
	7600 4750 8300 4750
Wire Wire Line
	8150 5150 8150 5250
Wire Wire Line
	6350 2700 6350 2800
Wire Wire Line
	6650 2700 6650 2800
Wire Wire Line
	6950 2700 6950 2800
Wire Wire Line
	7250 2700 7250 2800
Connection ~ 6350 2300
Connection ~ 6650 2300
Connection ~ 6950 2300
Connection ~ 7250 2300
Connection ~ 4500 4900
Wire Wire Line
	4500 4900 4500 4400
Wire Wire Line
	4500 4400 4650 4400
Connection ~ 3750 4600
Connection ~ 3800 4600
Wire Wire Line
	3850 4300 3750 4300
Wire Wire Line
	3750 4300 3750 4900
Wire Wire Line
	3750 4900 3850 4900
Connection ~ 4250 4900
Connection ~ 4250 4300
Wire Wire Line
	3800 4650 3850 4650
Wire Wire Line
	3800 4550 3800 4650
Wire Wire Line
	3800 4550 3850 4550
Wire Wire Line
	3550 4600 3800 4600
Wire Wire Line
	3550 4600 3550 4650
Wire Wire Line
	4050 4300 4650 4300
Wire Wire Line
	4050 4900 4500 4900
Wire Wire Line
	4450 3800 4650 3800
Wire Wire Line
	4050 3800 3850 3800
Wire Wire Line
	4350 4000 4650 4000
Wire Wire Line
	3850 4000 3650 4000
Wire Wire Line
	4500 2250 4500 2350
Wire Wire Line
	10450 4550 10450 4350
Wire Wire Line
	10150 4550 10600 4550
Wire Wire Line
	10350 4350 10350 4550
Connection ~ 10350 4550
Wire Wire Line
	10250 4350 10250 4550
Connection ~ 10300 4550
Wire Wire Line
	10150 4350 10150 4550
Connection ~ 10250 4550
Wire Wire Line
	4200 3200 4650 3200
Wire Wire Line
	4200 3300 4650 3300
Wire Wire Line
	4200 3400 4650 3400
Wire Wire Line
	4200 3500 4650 3500
Wire Wire Line
	4200 3000 4650 3000
Wire Wire Line
	4350 2850 4350 3500
Connection ~ 4350 3500
Wire Wire Line
	4500 2850 4500 3000
Connection ~ 4500 3000
Wire Wire Line
	4350 2250 4350 2350
$Comp
L R RET10
U 1 1 540D5515
P 3950 3500
F 0 "RET10" V 3900 3800 50  0000 C CNN
F 1 "47k" V 3900 3200 50  0000 C CNN
F 2 "SM0603" H 3950 3500 60  0001 C CNN
F 3 "" H 3950 3500 60  0001 C CNN
	1    3950 3500
	0    -1   -1   0   
$EndComp
Wire Wire Line
	3700 3500 3500 3500
Text Notes 10000 3150 0    60   ~ 0
rjld043tc1
Text Notes 5100 5300 0    60   ~ 0
ENC28J60-I/SS-ND
Connection ~ 8150 4750
Text Notes 4200 5050 0    60   ~ 0
535-10275-1-ND
Text GLabel 10600 4550 2    60   BiDi ~ 0
GND_CASE
Connection ~ 10450 4550
Text Label 8700 2450 0    60   ~ 0
ETH_PWR
Text Label 7600 4750 0    60   ~ 0
ETH_PWR
Connection ~ 8050 4750
$EndSCHEMATC
