EESchema Schematic File Version 2
LIBS:con-jack
LIBS:adm3101e
LIBS:microsd
LIBS:transistor-npn
LIBS:ipc-7351-transistor
LIBS:switch-misc
LIBS:power
LIBS:device
LIBS:transistors
LIBS:conn
LIBS:linear
LIBS:regul
LIBS:74xx
LIBS:cmos4000
LIBS:adc-dac
LIBS:memory
LIBS:xilinx
LIBS:special
LIBS:microcontrollers
LIBS:dsp
LIBS:microchip
LIBS:analog_switches
LIBS:motorola
LIBS:texas
LIBS:intel
LIBS:audio
LIBS:interface
LIBS:digital-audio
LIBS:philips
LIBS:display
LIBS:cypress
LIBS:siliconi
LIBS:opto
LIBS:atmel
LIBS:contrib
LIBS:valves
LIBS:micron_ddr_512Mb
LIBS:iMX23
LIBS:sdmmc
LIBS:usbconn
LIBS:fsusb20
LIBS:r_pack2
LIBS:pasives-connectors
LIBS:EEPROM
LIBS:PWR
LIBS:m25p32
LIBS:PROpendous-cache
LIBS:w_analog
LIBS:gl850g
LIBS:srf2012
LIBS:rclamp0502b
LIBS:mcp130
LIBS:ABM8G
LIBS:usb_a
LIBS:Reset
LIBS:stm32f100vxx
LIBS:lt1117cst
LIBS:zxmhc3f381n8
LIBS:fsusb43
LIBS:usb-mini
LIBS:atsam3n0aa-au
LIBS:xbeepro
LIBS:ba50dd0whfp
LIBS:mic29301
LIBS:sp481
LIBS:lm35
LIBS:enc28j60
LIBS:m-pad-2.1
LIBS:ds3231
LIBS:rj45_stamp
LIBS:stamp_mini_4_layers-cache
EELAYER 24 0
EELAYER END
$Descr A4 11693 8268
encoding utf-8
Sheet 6 7
Title "noname.sch"
Date "11 sep 2014"
Rev ""
Comp ""
Comment1 ""
Comment2 ""
Comment3 ""
Comment4 ""
$EndDescr
$Comp
L VDD5V #PWR035
U 1 1 51C87C98
P 4950 2000
F 0 "#PWR035" H 4950 2100 30  0001 C CNN
F 1 "VDD5V" H 4950 2100 30  0000 C CNN
F 2 "" H 4950 2000 60  0001 C CNN
F 3 "" H 4950 2000 60  0001 C CNN
	1    4950 2000
	1    0    0    -1  
$EndComp
$Comp
L +5VL #PWR53
U 1 1 51C87C9E
P 6800 1950
F 0 "#PWR53" H 6800 2080 20  0001 C CNN
F 1 "+5VL" H 6800 2050 30  0000 C CNN
F 2 "" H 6800 1950 60  0000 C CNN
F 3 "" H 6800 1950 60  0000 C CNN
	1    6800 1950
	1    0    0    -1  
$EndComp
Wire Wire Line
	4500 1850 4500 2050
Wire Wire Line
	4500 2000 4950 2000
Wire Wire Line
	4400 1850 4400 1950
$Comp
L GND #PWR036
U 1 1 51C87CAD
P 4400 1950
F 0 "#PWR036" H 4400 1950 30  0001 C CNN
F 1 "GND" H 4400 1880 30  0001 C CNN
F 2 "" H 4400 1950 60  0001 C CNN
F 3 "" H 4400 1950 60  0001 C CNN
	1    4400 1950
	1    0    0    -1  
$EndComp
Wire Wire Line
	6900 900  6900 1000
$Comp
L GND #PWR037
U 1 1 51C87CB4
P 6900 1000
F 0 "#PWR037" H 6900 1000 30  0001 C CNN
F 1 "GND" H 6900 930 30  0001 C CNN
F 2 "" H 6900 1000 60  0001 C CNN
F 3 "" H 6900 1000 60  0001 C CNN
	1    6900 1000
	1    0    0    -1  
$EndComp
Wire Wire Line
	6350 900  6900 900 
Wire Wire Line
	4300 1900 4300 1850
Wire Wire Line
	3200 1900 4300 1900
Wire Wire Line
	4200 1850 4200 2050
$Comp
L MIC29301 REG3
U 1 1 51C87CBE
P 7000 1400
F 0 "REG3" H 7000 1500 60  0000 C CNN
F 1 "MIC29301" H 7000 1400 60  0000 C CNN
F 2 "mic29301" H 7000 1400 60  0001 C CNN
F 3 "" H 7000 1400 60  0000 C CNN
	1    7000 1400
	1    0    0    -1  
$EndComp
Wire Wire Line
	6450 1900 6450 2000
Wire Wire Line
	6450 2000 7050 2000
Wire Wire Line
	6800 2000 6800 1950
Wire Wire Line
	6350 1900 6350 2000
$Comp
L GND #PWR038
U 1 1 51C87CC8
P 6350 2000
F 0 "#PWR038" H 6350 2000 30  0001 C CNN
F 1 "GND" H 6350 1930 30  0001 C CNN
F 2 "" H 6350 2000 60  0001 C CNN
F 3 "" H 6350 2000 60  0001 C CNN
	1    6350 2000
	1    0    0    -1  
$EndComp
$Comp
L C CRE20
U 1 1 51C87CCE
P 4200 2250
F 0 "CRE20" H 4250 2350 50  0000 L CNN
F 1 "10uF" H 4200 2150 50  0000 L CNN
F 2 "SM1206" H 4200 2250 60  0001 C CNN
F 3 "" H 4200 2250 60  0001 C CNN
	1    4200 2250
	1    0    0    -1  
$EndComp
$Comp
L C CRE21
U 1 1 51C87CD4
P 4500 2250
F 0 "CRE21" H 4550 2350 50  0000 L CNN
F 1 "22uF" H 4500 2150 50  0000 L CNN
F 2 "SM1206" H 4500 2250 60  0001 C CNN
F 3 "" H 4500 2250 60  0001 C CNN
	1    4500 2250
	1    0    0    -1  
$EndComp
$Comp
L C CRE25
U 1 1 51C87CDA
P 6250 2350
F 0 "CRE25" H 6300 2450 50  0000 L CNN
F 1 "10uF" H 6250 2250 50  0000 L CNN
F 2 "SM1206" H 6250 2350 60  0001 C CNN
F 3 "" H 6250 2350 60  0001 C CNN
	1    6250 2350
	1    0    0    -1  
$EndComp
$Comp
L C CRE27
U 1 1 51C87CE0
P 6650 2350
F 0 "CRE27" H 6700 2450 50  0000 L CNN
F 1 "22uF" H 6650 2250 50  0000 L CNN
F 2 "SM1206" H 6650 2350 60  0001 C CNN
F 3 "" H 6650 2350 60  0001 C CNN
	1    6650 2350
	1    0    0    -1  
$EndComp
$Comp
L GND #PWR039
U 1 1 51C87CE6
P 4200 2550
F 0 "#PWR039" H 4200 2550 30  0001 C CNN
F 1 "GND" H 4200 2480 30  0001 C CNN
F 2 "" H 4200 2550 60  0001 C CNN
F 3 "" H 4200 2550 60  0001 C CNN
	1    4200 2550
	1    0    0    -1  
$EndComp
$Comp
L GND #PWR040
U 1 1 51C87CEC
P 4500 2550
F 0 "#PWR040" H 4500 2550 30  0001 C CNN
F 1 "GND" H 4500 2480 30  0001 C CNN
F 2 "" H 4500 2550 60  0001 C CNN
F 3 "" H 4500 2550 60  0001 C CNN
	1    4500 2550
	1    0    0    -1  
$EndComp
$Comp
L GND #PWR041
U 1 1 51C87CF2
P 6250 2650
F 0 "#PWR041" H 6250 2650 30  0001 C CNN
F 1 "GND" H 6250 2580 30  0001 C CNN
F 2 "" H 6250 2650 60  0001 C CNN
F 3 "" H 6250 2650 60  0001 C CNN
	1    6250 2650
	1    0    0    -1  
$EndComp
$Comp
L GND #PWR042
U 1 1 51C87CF8
P 6650 2650
F 0 "#PWR042" H 6650 2650 30  0001 C CNN
F 1 "GND" H 6650 2580 30  0001 C CNN
F 2 "" H 6650 2650 60  0001 C CNN
F 3 "" H 6650 2650 60  0001 C CNN
	1    6650 2650
	1    0    0    -1  
$EndComp
Wire Wire Line
	6650 2550 6650 2650
Wire Wire Line
	6250 2550 6250 2650
Wire Wire Line
	4500 2450 4500 2550
Wire Wire Line
	4200 2450 4200 2550
Connection ~ 4500 2000
Wire Wire Line
	6250 1900 6250 2150
Wire Wire Line
	6650 2150 6650 2000
Connection ~ 6650 2000
Connection ~ 4200 1900
$Comp
L GND #PWR043
U 1 1 51C87D07
P 5200 950
F 0 "#PWR043" H 5200 950 30  0001 C CNN
F 1 "GND" H 5200 880 30  0001 C CNN
F 2 "" H 5200 950 60  0001 C CNN
F 3 "" H 5200 950 60  0001 C CNN
	1    5200 950 
	1    0    0    -1  
$EndComp
Wire Wire Line
	4400 850  5200 850 
Wire Wire Line
	5200 850  5200 950 
Wire Wire Line
	6150 1900 6150 2000
Wire Wire Line
	6150 2000 5650 2000
Wire Wire Line
	6250 2100 5650 2100
Connection ~ 6250 2100
Text Label 3750 1900 0    60   ~ 0
VMAIN
Text Label 5750 2100 0    60   ~ 0
VMAIN
Text Label 5750 2000 0    60   ~ 0
EN_PWR
Text HLabel 5650 2000 0    60   BiDi ~ 0
EN_PWR
$Comp
L BA50DD0WHFP REG2
U 1 1 51D3593A
P 4850 1000
F 0 "REG2" H 4800 800 60  0000 C CNN
F 1 "BA50DD0WHFP" H 5050 700 60  0000 C CNN
F 2 "ba50dd0whfp" H 4850 1000 60  0001 C CNN
F 3 "" H 4850 1000 60  0000 C CNN
	1    4850 1000
	1    0    0    -1  
$EndComp
$Comp
L JACK-PLUG0 JPW?
U 1 1 52DACAC3
P 3000 2000
AR Path="/52DAC516/52DACAC3" Ref="JPW?"  Part="1" 
AR Path="/52DA0E0C/52DACAC3" Ref="JPWR1"  Part="1" 
F 0 "JPWR1" H 2700 2200 50  0000 L BNN
F 1 "JACK-PLUG0" H 2700 1800 50  0000 L BNN
F 2 "J5" H 3000 2150 50  0001 C CNN
F 3 "" H 3000 2000 60  0000 C CNN
	1    3000 2000
	1    0    0    -1  
$EndComp
$Comp
L GND #PWR044
U 1 1 52DACAC9
P 3500 2100
F 0 "#PWR044" H 3500 2100 30  0001 C CNN
F 1 "GND" H 3500 2030 30  0001 C CNN
F 2 "" H 3500 2100 60  0001 C CNN
F 3 "" H 3500 2100 60  0001 C CNN
	1    3500 2100
	1    0    0    -1  
$EndComp
Wire Wire Line
	3500 2000 3500 2100
Wire Wire Line
	3200 2000 3500 2000
$Comp
L C CRE1
U 1 1 52E34718
P 3700 2100
F 0 "CRE1" H 3750 2200 50  0000 L CNN
F 1 "0.1uF" H 3750 2000 50  0000 L CNN
F 2 "SM0603" H 3700 2100 60  0001 C CNN
F 3 "" H 3700 2100 60  0001 C CNN
	1    3700 2100
	1    0    0    -1  
$EndComp
Connection ~ 4850 2000
$Comp
L C CRE2
U 1 1 52E34720
P 4850 2200
F 0 "CRE2" H 4900 2300 50  0000 L CNN
F 1 "0.1uF" H 4900 2100 50  0000 L CNN
F 2 "SM0603" H 4850 2200 60  0001 C CNN
F 3 "" H 4850 2200 60  0001 C CNN
	1    4850 2200
	1    0    0    -1  
$EndComp
Connection ~ 5700 2100
$Comp
L C CRE3
U 1 1 52E34728
P 5700 2300
F 0 "CRE3" H 5750 2400 50  0000 L CNN
F 1 "0.1uF" H 5750 2200 50  0000 L CNN
F 2 "SM0603" H 5700 2300 60  0001 C CNN
F 3 "" H 5700 2300 60  0001 C CNN
	1    5700 2300
	1    0    0    -1  
$EndComp
Connection ~ 7050 2150
$Comp
L C CRE4
U 1 1 52E34730
P 7050 2350
F 0 "CRE4" H 7100 2450 50  0000 L CNN
F 1 "0.1uF" H 7100 2250 50  0000 L CNN
F 2 "SM0603" H 7050 2350 60  0001 C CNN
F 3 "" H 7050 2350 60  0001 C CNN
	1    7050 2350
	1    0    0    -1  
$EndComp
$Comp
L GND #PWR045
U 1 1 52E34740
P 3700 2400
F 0 "#PWR045" H 3700 2400 30  0001 C CNN
F 1 "GND" H 3700 2330 30  0001 C CNN
F 2 "" H 3700 2400 60  0001 C CNN
F 3 "" H 3700 2400 60  0001 C CNN
	1    3700 2400
	1    0    0    -1  
$EndComp
Wire Wire Line
	3700 2300 3700 2400
$Comp
L GND #PWR046
U 1 1 52E34747
P 4850 2500
F 0 "#PWR046" H 4850 2500 30  0001 C CNN
F 1 "GND" H 4850 2430 30  0001 C CNN
F 2 "" H 4850 2500 60  0001 C CNN
F 3 "" H 4850 2500 60  0001 C CNN
	1    4850 2500
	1    0    0    -1  
$EndComp
Wire Wire Line
	4850 2400 4850 2500
Wire Wire Line
	7050 2000 7050 2150
Connection ~ 6800 2000
$Comp
L GND #PWR047
U 1 1 52E35A7B
P 5700 2600
F 0 "#PWR047" H 5700 2600 30  0001 C CNN
F 1 "GND" H 5700 2530 30  0001 C CNN
F 2 "" H 5700 2600 60  0001 C CNN
F 3 "" H 5700 2600 60  0001 C CNN
	1    5700 2600
	1    0    0    -1  
$EndComp
Wire Wire Line
	5700 2500 5700 2600
$Comp
L GND #PWR048
U 1 1 52E35A82
P 7050 2650
F 0 "#PWR048" H 7050 2650 30  0001 C CNN
F 1 "GND" H 7050 2580 30  0001 C CNN
F 2 "" H 7050 2650 60  0001 C CNN
F 3 "" H 7050 2650 60  0001 C CNN
	1    7050 2650
	1    0    0    -1  
$EndComp
Wire Wire Line
	7050 2550 7050 2650
Connection ~ 3700 1900
$EndSCHEMATC
