EESchema Schematic File Version 2
LIBS:con-jack
LIBS:adm3101e
LIBS:microsd
LIBS:transistor-npn
LIBS:ipc-7351-transistor
LIBS:switch-misc
LIBS:power
LIBS:device
LIBS:transistors
LIBS:conn
LIBS:linear
LIBS:regul
LIBS:74xx
LIBS:cmos4000
LIBS:adc-dac
LIBS:memory
LIBS:xilinx
LIBS:special
LIBS:microcontrollers
LIBS:dsp
LIBS:microchip
LIBS:analog_switches
LIBS:motorola
LIBS:texas
LIBS:intel
LIBS:audio
LIBS:interface
LIBS:digital-audio
LIBS:philips
LIBS:display
LIBS:cypress
LIBS:siliconi
LIBS:opto
LIBS:atmel
LIBS:contrib
LIBS:valves
LIBS:micron_ddr_512Mb
LIBS:iMX23
LIBS:sdmmc
LIBS:usbconn
LIBS:fsusb20
LIBS:r_pack2
LIBS:pasives-connectors
LIBS:EEPROM
LIBS:PWR
LIBS:m25p32
LIBS:PROpendous-cache
LIBS:w_analog
LIBS:gl850g
LIBS:srf2012
LIBS:rclamp0502b
LIBS:mcp130
LIBS:ABM8G
LIBS:usb_a
LIBS:Reset
LIBS:stm32f100vxx
LIBS:lt1117cst
LIBS:zxmhc3f381n8
LIBS:fsusb43
LIBS:usb-mini
LIBS:atsam3n0aa-au
LIBS:xbeepro
LIBS:ba50dd0whfp
LIBS:mic29301
LIBS:sp481
LIBS:lm35
LIBS:enc28j60
LIBS:m-pad-2.1
LIBS:ds3231
LIBS:rj45_stamp
LIBS:stamp_mini_4_layers-cache
EELAYER 24 0
EELAYER END
$Descr User 12000 10000
encoding utf-8
Sheet 2 7
Title ""
Date "11 sep 2014"
Rev ""
Comp ""
Comment1 ""
Comment2 ""
Comment3 ""
Comment4 ""
$EndDescr
Text Label 2350 5200 0    60   ~ 0
GND
$Comp
L VDD5V #PWR01
U 1 1 516F461B
P 1250 5200
F 0 "#PWR01" H 1250 5300 30  0001 C CNN
F 1 "VDD5V" H 1150 5200 30  0000 C CNN
F 2 "" H 1250 5200 60  0001 C CNN
F 3 "" H 1250 5200 60  0001 C CNN
	1    1250 5200
	1    0    0    -1  
$EndComp
Text Label 5250 4800 0    60   ~ 0
LED
Text Label 2400 5900 0    60   ~ 0
PA11
Text Label 1300 5800 0    60   ~ 0
PA12
Text Label 2400 5800 0    60   ~ 0
PA13
Text Label 1300 5700 0    60   ~ 0
PA14
Text Label 2400 5700 0    60   ~ 0
PA15
Text Label 1300 5600 0    60   ~ 0
PA16
Text Label 2400 5600 0    60   ~ 0
PA20
Text Label 1300 5500 0    60   ~ 0
PA19
Text Label 2400 5500 0    60   ~ 0
PA18
Text Label 1200 5400 0    60   ~ 0
PA17
Text Label 2300 5300 0    60   ~ 0
ADVREF
Text Label 2300 5400 0    60   ~ 0
PB1
Text Label 10000 3650 0    60   ~ 0
PB0
Text Label 8450 5350 0    60   ~ 0
GPIO2
Text Label 8450 5250 0    60   ~ 0
GPIO3
Text Label 8450 5450 0    60   ~ 0
GPIO1
Text Label 8450 4350 0    60   ~ 0
PA11
Text Label 8450 4250 0    60   ~ 0
PA12
Text Label 8450 4450 0    60   ~ 0
RXZBEE
Text Label 8450 4550 0    60   ~ 0
TXZBEE
Text Label 8450 4650 0    60   ~ 0
GPIO4
Text Label 8450 3950 0    60   ~ 0
PA15
Text Label 8450 3850 0    60   ~ 0
PA16
Text Label 8450 4050 0    60   ~ 0
PA14
Text Label 8450 4150 0    60   ~ 0
PA13
Text Label 8450 3750 0    60   ~ 0
PA17
Text Label 8450 3650 0    60   ~ 0
PA18
Text Label 8450 3450 0    60   ~ 0
PA20
Text Label 8450 3550 0    60   ~ 0
PA19
Text Label 5250 5200 0    60   ~ 0
PB0
Text Label 5250 5100 0    60   ~ 0
PB1
Text Label 5250 5400 0    60   ~ 0
ADVREF
Text HLabel 5250 5000 0    60   Output ~ 0
SAM_RX
Text HLabel 5250 4900 0    60   Output ~ 0
SAM_TX
$Comp
L +1.8V #PWR02
U 1 1 516D634E
P 7300 2800
F 0 "#PWR02" H 7300 2940 20  0001 C CNN
F 1 "+1.8V" H 7300 2910 30  0000 C CNN
F 2 "" H 7300 2800 60  0001 C CNN
F 3 "" H 7300 2800 60  0001 C CNN
	1    7300 2800
	1    0    0    -1  
$EndComp
$Comp
L +1.8V #PWR03
U 1 1 516D632A
P 10850 6650
F 0 "#PWR03" H 10850 6790 20  0001 C CNN
F 1 "+1.8V" H 10850 6760 30  0000 C CNN
F 2 "" H 10850 6650 60  0001 C CNN
F 3 "" H 10850 6650 60  0001 C CNN
	1    10850 6650
	1    0    0    -1  
$EndComp
$Comp
L C C409
U 1 1 516D62FA
P 10300 7000
F 0 "C409" H 10350 7100 50  0000 L CNN
F 1 "0.1uF" H 10350 6900 50  0000 L CNN
F 2 "SM0603" H 10300 7000 60  0001 C CNN
F 3 "" H 10300 7000 60  0001 C CNN
	1    10300 7000
	1    0    0    -1  
$EndComp
$Comp
L C C410
U 1 1 516D62F9
P 10650 7000
F 0 "C410" H 10700 7100 50  0000 L CNN
F 1 "0.1uF" H 10700 6900 50  0000 L CNN
F 2 "SM0603" H 10650 7000 60  0001 C CNN
F 3 "" H 10650 7000 60  0001 C CNN
	1    10650 7000
	1    0    0    -1  
$EndComp
$Comp
L C C411
U 1 1 516D62F8
P 11000 7000
F 0 "C411" H 11050 7100 50  0000 L CNN
F 1 "1uF" H 11050 6900 50  0000 L CNN
F 2 "SM0603" H 11000 7000 60  0001 C CNN
F 3 "" H 11000 7000 60  0001 C CNN
	1    11000 7000
	1    0    0    -1  
$EndComp
$Comp
L C C412
U 1 1 516D62F7
P 11350 7000
F 0 "C412" H 11400 7100 50  0000 L CNN
F 1 "4.7uF" H 11400 6900 50  0000 L CNN
F 2 "SM1206" H 11350 7000 60  0001 C CNN
F 3 "" H 11350 7000 60  0001 C CNN
	1    11350 7000
	1    0    0    -1  
$EndComp
$Comp
L GND #PWR04
U 1 1 516D62F6
P 10850 7300
F 0 "#PWR04" H 10850 7300 30  0001 C CNN
F 1 "GND" H 10850 7230 30  0001 C CNN
F 2 "" H 10850 7300 60  0001 C CNN
F 3 "" H 10850 7300 60  0001 C CNN
	1    10850 7300
	1    0    0    -1  
$EndComp
$Comp
L C C408
U 1 1 516D62F5
P 9950 7000
F 0 "C408" H 10000 7100 50  0000 L CNN
F 1 "0.1uF" H 10000 6900 50  0000 L CNN
F 2 "SM0603" H 9950 7000 60  0001 C CNN
F 3 "" H 9950 7000 60  0001 C CNN
	1    9950 7000
	1    0    0    -1  
$EndComp
$Comp
L +3.3VP #PWR05
U 1 1 516D62A0
P 8150 900
F 0 "#PWR05" H 8200 930 20  0001 C CNN
F 1 "+3.3VP" H 8150 990 30  0000 C CNN
F 2 "" H 8150 900 60  0001 C CNN
F 3 "" H 8150 900 60  0001 C CNN
	1    8150 900 
	1    0    0    -1  
$EndComp
$Comp
L +3.3VP #PWR06
U 1 1 516D629C
P 8750 1000
F 0 "#PWR06" H 8800 1030 20  0001 C CNN
F 1 "+3.3VP" H 8750 1090 30  0000 C CNN
F 2 "" H 8750 1000 60  0001 C CNN
F 3 "" H 8750 1000 60  0001 C CNN
	1    8750 1000
	1    0    0    -1  
$EndComp
$Comp
L +3.3VP #PWR07
U 1 1 516D625C
P 9050 6650
F 0 "#PWR07" H 9100 6680 20  0001 C CNN
F 1 "+3.3VP" H 9050 6740 30  0000 C CNN
F 2 "" H 9050 6650 60  0001 C CNN
F 3 "" H 9050 6650 60  0001 C CNN
	1    9050 6650
	1    0    0    -1  
$EndComp
$Comp
L +3.3VP #PWR08
U 1 1 516D624A
P 6600 2850
F 0 "#PWR08" H 6650 2880 20  0001 C CNN
F 1 "+3.3VP" H 6600 2940 30  0000 C CNN
F 2 "" H 6600 2850 60  0001 C CNN
F 3 "" H 6600 2850 60  0001 C CNN
	1    6600 2850
	1    0    0    -1  
$EndComp
$Comp
L C C401
U 1 1 516D60B5
P 8150 7000
F 0 "C401" H 8200 7100 50  0000 L CNN
F 1 "0.1uF" H 8200 6900 50  0000 L CNN
F 2 "SM0603" H 8150 7000 60  0001 C CNN
F 3 "" H 8150 7000 60  0001 C CNN
	1    8150 7000
	1    0    0    -1  
$EndComp
$Comp
L GND #PWR09
U 1 1 516D6095
P 9050 7300
F 0 "#PWR09" H 9050 7300 30  0001 C CNN
F 1 "GND" H 9050 7230 30  0001 C CNN
F 2 "" H 9050 7300 60  0001 C CNN
F 3 "" H 9050 7300 60  0001 C CNN
	1    9050 7300
	1    0    0    -1  
$EndComp
$Comp
L C C407
U 1 1 516D6094
P 9550 7000
F 0 "C407" H 9600 7100 50  0000 L CNN
F 1 "4.7uF" H 9600 6900 50  0000 L CNN
F 2 "SM1206" H 9550 7000 60  0001 C CNN
F 3 "" H 9550 7000 60  0001 C CNN
	1    9550 7000
	1    0    0    -1  
$EndComp
$Comp
L C C406
U 1 1 516D6093
P 9200 7000
F 0 "C406" H 9250 7100 50  0000 L CNN
F 1 "1uF" H 9250 6900 50  0000 L CNN
F 2 "SM0603" H 9200 7000 60  0001 C CNN
F 3 "" H 9200 7000 60  0001 C CNN
	1    9200 7000
	1    0    0    -1  
$EndComp
$Comp
L C C405
U 1 1 516D6092
P 8850 7000
F 0 "C405" H 8900 7100 50  0000 L CNN
F 1 "0.1uF" H 8900 6900 50  0000 L CNN
F 2 "SM0603" H 8850 7000 60  0001 C CNN
F 3 "" H 8850 7000 60  0001 C CNN
	1    8850 7000
	1    0    0    -1  
$EndComp
$Comp
L C C404
U 1 1 516D6091
P 8500 7000
F 0 "C404" H 8550 7100 50  0000 L CNN
F 1 "0.1uF" H 8550 6900 50  0000 L CNN
F 2 "SM0603" H 8500 7000 60  0001 C CNN
F 3 "" H 8500 7000 60  0001 C CNN
	1    8500 7000
	1    0    0    -1  
$EndComp
NoConn ~ 5550 3450
NoConn ~ 5550 4050
Text HLabel 5350 3950 0    60   Input ~ 0
JNRST
Text HLabel 5350 3850 0    60   Input ~ 0
JTCK
Text HLabel 5350 3750 0    60   Input ~ 0
JTMS
Text HLabel 5350 3650 0    60   Input ~ 0
JTDO
Text HLabel 5350 3550 0    60   Input ~ 0
JTDI
$Comp
L GND #PWR010
U 1 1 516D5EEC
P 6950 6100
F 0 "#PWR010" H 6950 6100 30  0001 C CNN
F 1 "GND" H 6950 6030 30  0001 C CNN
F 2 "" H 6950 6100 60  0001 C CNN
F 3 "" H 6950 6100 60  0001 C CNN
	1    6950 6100
	-1   0    0    -1  
$EndComp
$Comp
L CAP C402
U 1 1 516D5EBD
P 4150 4200
F 0 "C402" H 3950 4300 50  0000 L CNN
F 1 "20 pF" H 3900 4100 50  0000 L CNN
F 2 "SM0603" H 4150 4200 60  0001 C CNN
F 3 "" H 4150 4200 60  0001 C CNN
	1    4150 4200
	0    -1   1    0   
$EndComp
$Comp
L CAP C403
U 1 1 516D5EBC
P 4150 4800
F 0 "C403" H 4200 4900 50  0000 L CNN
F 1 "20 pF" H 4200 4700 50  0000 L CNN
F 2 "SM0603" H 4150 4800 60  0001 C CNN
F 3 "" H 4150 4800 60  0001 C CNN
	1    4150 4800
	0    -1   1    0   
$EndComp
$Comp
L GND #PWR011
U 1 1 516D5EBB
P 3750 4550
F 0 "#PWR011" H 3750 4550 30  0001 C CNN
F 1 "GND" H 3750 4480 30  0001 C CNN
F 2 "" H 3750 4550 60  0001 C CNN
F 3 "" H 3750 4550 60  0001 C CNN
	1    3750 4550
	-1   0    0    -1  
$EndComp
$Comp
L ABM8G X401
U 1 1 516D5EBA
P 4450 4500
F 0 "X401" H 4450 4650 60  0000 C CNN
F 1 "12MHz" H 4450 4350 60  0000 C CNN
F 2 "ABM8G" H 4450 4500 60  0001 C CNN
F 3 "" H 4450 4500 60  0001 C CNN
	1    4450 4500
	0    1    1    0   
$EndComp
$Comp
L ATSAM3N0AA-AU U401
U 1 1 516D4EFC
P 7000 4550
F 0 "U401" H 7300 3100 60  0000 C CNN
F 1 "ATSAM3N0AA-AU" H 7600 3250 60  0000 C CNN
F 2 "" H 7000 4550 60  0001 C CNN
F 3 "" H 7000 4550 60  0001 C CNN
	1    7000 4550
	1    0    0    -1  
$EndComp
$Comp
L VDD5V #PWR012
U 1 1 4E7B5061
P 6700 1000
F 0 "#PWR012" H 6700 1100 30  0001 C CNN
F 1 "VDD5V" H 6700 1100 30  0000 C CNN
F 2 "" H 6700 1000 60  0001 C CNN
F 3 "" H 6700 1000 60  0001 C CNN
	1    6700 1000
	1    0    0    -1  
$EndComp
$Comp
L GND #PWR013
U 1 1 4E7B4E89
P 6700 1650
F 0 "#PWR013" H 6700 1650 30  0001 C CNN
F 1 "GND" H 6700 1580 30  0001 C CNN
F 2 "" H 6700 1650 60  0001 C CNN
F 3 "" H 6700 1650 60  0001 C CNN
	1    6700 1650
	1    0    0    -1  
$EndComp
$Comp
L GND #PWR014
U 1 1 4E7B4E84
P 8150 1650
F 0 "#PWR014" H 8150 1650 30  0001 C CNN
F 1 "GND" H 8150 1580 30  0001 C CNN
F 2 "" H 8150 1650 60  0001 C CNN
F 3 "" H 8150 1650 60  0001 C CNN
	1    8150 1650
	1    0    0    -1  
$EndComp
$Comp
L C C76
U 1 1 4E7B4A85
P 8150 1350
F 0 "C76" H 8200 1450 50  0000 L CNN
F 1 "33uF" H 8200 1250 50  0000 L CNN
F 2 "SM1206" H 8150 1350 60  0001 C CNN
F 3 "" H 8150 1350 60  0001 C CNN
	1    8150 1350
	1    0    0    -1  
$EndComp
$Comp
L C C74
U 1 1 4E7B4A81
P 6700 1350
F 0 "C74" H 6750 1450 50  0000 L CNN
F 1 "33uF" H 6750 1250 50  0000 L CNN
F 2 "SM1206" H 6700 1350 60  0001 C CNN
F 3 "" H 6700 1350 60  0001 C CNN
	1    6700 1350
	1    0    0    -1  
$EndComp
$Comp
L GND #PWR015
U 1 1 4E7B44BE
P 7750 1650
F 0 "#PWR015" H 7750 1650 30  0001 C CNN
F 1 "GND" H 7750 1580 30  0001 C CNN
F 2 "" H 7750 1650 60  0001 C CNN
F 3 "" H 7750 1650 60  0001 C CNN
	1    7750 1650
	1    0    0    -1  
$EndComp
$Comp
L GND #PWR016
U 1 1 4E7B44A2
P 6900 1250
F 0 "#PWR016" H 6900 1250 30  0001 C CNN
F 1 "GND" H 6900 1180 30  0001 C CNN
F 2 "" H 6900 1250 60  0001 C CNN
F 3 "" H 6900 1250 60  0001 C CNN
	1    6900 1250
	1    0    0    -1  
$EndComp
$Comp
L LT1117CST U11
U 1 1 4E7B41E9
P 7350 1250
F 0 "U11" H 7200 1550 60  0000 C CNN
F 1 "LT1117CST-3.3" H 7350 1250 40  0000 C CNN
F 2 "LT1117" H 7350 1250 60  0001 C CNN
F 3 "" H 7350 1250 60  0001 C CNN
	1    7350 1250
	1    0    0    -1  
$EndComp
$Comp
L C C75
U 1 1 4E7B41E8
P 7750 1350
F 0 "C75" H 7800 1450 50  0000 L CNN
F 1 "100n" H 7800 1250 50  0000 L CNN
F 2 "SM0603" H 7750 1350 60  0001 C CNN
F 3 "" H 7750 1350 60  0001 C CNN
	1    7750 1350
	1    0    0    -1  
$EndComp
$Comp
L R R33
U 1 1 4E188E50
P 10150 1500
F 0 "R33" V 10230 1500 50  0000 C CNN
F 1 "1k" V 10150 1500 50  0000 C CNN
F 2 "SM0603" H 10150 1500 60  0001 C CNN
F 3 "" H 10150 1500 60  0001 C CNN
	1    10150 1500
	0    1    1    0   
$EndComp
$Comp
L LED D9
U 1 1 4E188E4F
P 10150 1200
F 0 "D9" H 10150 1300 50  0000 C CNN
F 1 "LED" H 10150 1100 50  0000 C CNN
F 2 "SM0603" H 10150 1200 60  0001 C CNN
F 3 "" H 10150 1200 60  0001 C CNN
	1    10150 1200
	-1   0    0    1   
$EndComp
$Comp
L GND #PWR017
U 1 1 4E188E4E
P 10550 1500
F 0 "#PWR017" H 10550 1500 30  0001 C CNN
F 1 "GND" H 10550 1430 30  0001 C CNN
F 2 "" H 10550 1500 60  0001 C CNN
F 3 "" H 10550 1500 60  0001 C CNN
	1    10550 1500
	0    -1   1    0   
$EndComp
Text Label 9900 1000 0    60   ~ 0
LED
$Comp
L GND #PWR018
U 1 1 4E186DEB
P 9250 1500
F 0 "#PWR018" H 9250 1500 30  0001 C CNN
F 1 "GND" H 9250 1430 30  0001 C CNN
F 2 "" H 9250 1500 60  0001 C CNN
F 3 "" H 9250 1500 60  0001 C CNN
	1    9250 1500
	0    -1   1    0   
$EndComp
$Comp
L LED D8
U 1 1 4DCDB178
P 8850 1200
F 0 "D8" H 8850 1300 50  0000 C CNN
F 1 "LED" H 8850 1100 50  0000 C CNN
F 2 "SM0603" H 8850 1200 60  0001 C CNN
F 3 "" H 8850 1200 60  0001 C CNN
	1    8850 1200
	-1   0    0    1   
$EndComp
$Comp
L R R5
U 1 1 4DCDB177
P 8850 1500
F 0 "R5" V 8930 1500 50  0000 C CNN
F 1 "1k" V 8850 1500 50  0000 C CNN
F 2 "SM0603" H 8850 1500 60  0001 C CNN
F 3 "" H 8850 1500 60  0001 C CNN
	1    8850 1500
	0    1    1    0   
$EndComp
Text Notes 9600 750  0    60   ~ 0
LEDS
Text Label 5150 4500 0    60   ~ 0
Erase
$Comp
L CONN_10 PCH1
U 1 1 52E025DE
P 2200 4000
F 0 "PCH1" V 2150 4000 60  0000 C CNN
F 1 "CONN_10" V 2250 4000 60  0000 C CNN
F 2 "ENG_CD_10" H 2200 4000 60  0001 C CNN
F 3 "" H 2200 4000 60  0000 C CNN
	1    2200 4000
	1    0    0    -1  
$EndComp
$Comp
L VDD5V #PWR019
U 1 1 52E025E4
P 1550 3500
F 0 "#PWR019" H 1550 3600 30  0001 C CNN
F 1 "VDD5V" H 1550 3600 30  0000 C CNN
F 2 "" H 1550 3500 60  0001 C CNN
F 3 "" H 1550 3500 60  0001 C CNN
	1    1550 3500
	1    0    0    -1  
$EndComp
Text Label 1500 3750 0    60   ~ 0
TX_CON
Text Label 1500 3850 0    60   ~ 0
RX_CON
Text Label 1450 4250 0    60   ~ 0
GPIO1
Text Label 1450 4150 0    60   ~ 0
GPIO2
Text Label 1450 4050 0    60   ~ 0
GPIO3
Text Label 1450 3950 0    60   ~ 0
GPIO4
Text Label 10500 4850 0    60   ~ 0
485_A
Text Label 10500 5000 0    60   ~ 0
485_B
$Comp
L GND #PWR020
U 1 1 52E025FC
P 1300 3750
F 0 "#PWR020" H 1300 3750 30  0001 C CNN
F 1 "GND" H 1300 3680 30  0001 C CNN
F 2 "" H 1300 3750 60  0001 C CNN
F 3 "" H 1300 3750 60  0001 C CNN
	1    1300 3750
	1    0    0    -1  
$EndComp
$Comp
L XBEEPRO XB1
U 1 1 52E03A69
P 2600 1850
F 0 "XB1" H 2600 2350 60  0000 C CNN
F 1 "XBEEPRO" H 2600 2200 60  0000 C CNN
F 2 "xbeepro" H 2600 1850 60  0000 C CNN
F 3 "" H 2600 1850 60  0000 C CNN
	1    2600 1850
	1    0    0    -1  
$EndComp
$Comp
L R RZB1
U 1 1 52E15418
P 4600 2000
F 0 "RZB1" V 4680 2000 50  0000 C CNN
F 1 "470R" V 4600 2000 50  0000 C CNN
F 2 "SM0603" H 4600 2000 60  0001 C CNN
F 3 "" H 4600 2000 60  0001 C CNN
	1    4600 2000
	0    1    1    0   
$EndComp
$Comp
L GND #PWR021
U 1 1 52E1541E
P 4950 2100
F 0 "#PWR021" H 4950 2100 30  0001 C CNN
F 1 "GND" H 4950 2030 30  0001 C CNN
F 2 "" H 4950 2100 60  0001 C CNN
F 3 "" H 4950 2100 60  0001 C CNN
	1    4950 2100
	1    0    0    -1  
$EndComp
$Comp
L LED DZB1
U 1 1 52E15426
P 4050 2000
F 0 "DZB1" H 4050 2100 50  0000 C CNN
F 1 "LED" H 4050 1900 50  0000 C CNN
F 2 "SM0603" H 4050 2000 60  0001 C CNN
F 3 "" H 4050 2000 60  0000 C CNN
	1    4050 2000
	1    0    0    -1  
$EndComp
$Comp
L +3.3VP #PWR022
U 1 1 52E15F8C
P 1400 1250
F 0 "#PWR022" H 1450 1280 20  0001 C CNN
F 1 "+3.3VP" H 1400 1340 30  0000 C CNN
F 2 "" H 1400 1250 60  0001 C CNN
F 3 "" H 1400 1250 60  0001 C CNN
	1    1400 1250
	1    0    0    -1  
$EndComp
Text Label 1200 1700 0    60   ~ 0
RXZBEE
Text Label 1200 1600 0    60   ~ 0
TXZBEE
$Comp
L GND #PWR023
U 1 1 52E1748B
P 1250 2550
F 0 "#PWR023" H 1250 2550 30  0001 C CNN
F 1 "GND" H 1250 2480 30  0001 C CNN
F 2 "" H 1250 2550 60  0001 C CNN
F 3 "" H 1250 2550 60  0001 C CNN
	1    1250 2550
	1    0    0    -1  
$EndComp
Wire Wire Line
	2300 5200 2600 5200
Wire Wire Line
	5250 4800 5550 4800
Wire Wire Line
	5250 5100 5550 5100
Wire Wire Line
	8350 5150 8800 5150
Wire Wire Line
	5250 5000 5550 5000
Connection ~ 10300 6800
Wire Wire Line
	9950 6800 11350 6800
Connection ~ 10850 6800
Wire Wire Line
	10850 6800 10850 6650
Connection ~ 10650 6800
Connection ~ 10650 7200
Connection ~ 11000 7200
Connection ~ 11000 6800
Wire Wire Line
	10850 7200 10850 7300
Connection ~ 10850 7200
Wire Wire Line
	9950 7200 11350 7200
Connection ~ 10300 7200
Connection ~ 8500 7200
Wire Wire Line
	8150 7200 9550 7200
Connection ~ 9050 7200
Wire Wire Line
	9050 7200 9050 7300
Connection ~ 9200 6800
Connection ~ 9200 7200
Connection ~ 8850 7200
Connection ~ 8850 6800
Wire Wire Line
	9050 6800 9050 6650
Connection ~ 9050 6800
Wire Wire Line
	5350 3950 5550 3950
Wire Wire Line
	5350 3750 5550 3750
Wire Wire Line
	5350 3550 5550 3550
Wire Wire Line
	6900 5950 7000 5950
Connection ~ 4700 4800
Wire Wire Line
	4700 4800 4700 4300
Wire Wire Line
	4700 4300 5550 4300
Connection ~ 3950 4500
Connection ~ 4000 4500
Wire Wire Line
	4050 4200 3950 4200
Wire Wire Line
	3950 4200 3950 4800
Wire Wire Line
	3950 4800 4050 4800
Connection ~ 4450 4800
Connection ~ 4450 4200
Wire Wire Line
	4000 4550 4050 4550
Wire Wire Line
	4000 4450 4000 4550
Wire Wire Line
	4000 4450 4050 4450
Wire Wire Line
	3750 4500 4000 4500
Wire Wire Line
	3750 4500 3750 4550
Connection ~ 6900 2850
Wire Wire Line
	6900 2850 6900 2950
Wire Wire Line
	6600 2950 6600 2850
Wire Wire Line
	6600 2850 7000 2850
Wire Wire Line
	7000 2850 7000 2950
Connection ~ 7200 2800
Wire Wire Line
	7200 2800 7200 2950
Connection ~ 6700 1050
Wire Wire Line
	6700 1000 6700 1150
Wire Wire Line
	6700 1550 6700 1650
Wire Wire Line
	8150 1550 8150 1650
Wire Wire Line
	7750 1050 7750 1150
Wire Wire Line
	7000 1150 6900 1150
Wire Wire Line
	6900 1150 6900 1250
Wire Wire Line
	9950 1200 9800 1200
Wire Wire Line
	9800 1200 9800 1500
Wire Wire Line
	9800 1500 9900 1500
Wire Wire Line
	10550 1500 10400 1500
Wire Wire Line
	9900 1000 10500 1000
Wire Wire Line
	10500 1000 10500 1200
Wire Wire Line
	10500 1200 10350 1200
Wire Wire Line
	9050 1200 9200 1200
Wire Wire Line
	9200 1200 9200 1000
Wire Wire Line
	9250 1500 9100 1500
Wire Wire Line
	8600 1500 8500 1500
Wire Wire Line
	8500 1500 8500 1200
Wire Wire Line
	8500 1200 8650 1200
Wire Wire Line
	9200 1000 8750 1000
Wire Wire Line
	7750 1150 7650 1150
Wire Wire Line
	8150 900  8150 1150
Connection ~ 7750 1150
Connection ~ 7750 1050
Wire Wire Line
	7750 1550 7750 1650
Wire Wire Line
	7650 1050 8150 1050
Connection ~ 8150 1050
Wire Wire Line
	7000 1050 6700 1050
Wire Wire Line
	6700 2950 6700 2800
Wire Wire Line
	6700 2800 7300 2800
Wire Wire Line
	7300 2800 7300 2950
Wire Wire Line
	7100 2800 7100 2950
Connection ~ 7100 2800
Wire Wire Line
	6800 2850 6800 2950
Connection ~ 6800 2850
Wire Wire Line
	4250 4200 5550 4200
Wire Wire Line
	4250 4800 4700 4800
Wire Wire Line
	6950 6100 6950 5950
Connection ~ 6950 5950
Wire Wire Line
	5350 3650 5550 3650
Wire Wire Line
	5350 3850 5550 3850
Wire Wire Line
	8150 6800 9550 6800
Connection ~ 8500 6800
Wire Wire Line
	5250 4900 5550 4900
Wire Wire Line
	8350 5050 8800 5050
Wire Wire Line
	5150 5400 5550 5400
Wire Wire Line
	5250 5200 5550 5200
Wire Wire Line
	8350 3550 8650 3550
Wire Wire Line
	8350 3450 8650 3450
Wire Wire Line
	8350 3650 8650 3650
Wire Wire Line
	8350 3750 8650 3750
Wire Wire Line
	8350 4150 8650 4150
Wire Wire Line
	8350 4050 8650 4050
Wire Wire Line
	8350 3850 8650 3850
Wire Wire Line
	8350 3950 8650 3950
Wire Wire Line
	8350 4750 9350 4750
Wire Wire Line
	8350 4650 8650 4650
Wire Wire Line
	8350 4850 9100 4850
Wire Wire Line
	8350 4550 8800 4550
Wire Wire Line
	8350 4450 8800 4450
Wire Wire Line
	8350 4250 8650 4250
Wire Wire Line
	8350 4350 8650 4350
Wire Wire Line
	8350 5450 8650 5450
Wire Wire Line
	8350 5250 8650 5250
Wire Wire Line
	8350 5350 8650 5350
Wire Wire Line
	9950 3650 10250 3650
Wire Wire Line
	2300 5400 2600 5400
Wire Wire Line
	2600 5300 2300 5300
Wire Wire Line
	1200 5400 1500 5400
Wire Wire Line
	2300 5500 2600 5500
Wire Wire Line
	1200 5500 1500 5500
Wire Wire Line
	2300 5600 2600 5600
Wire Wire Line
	1200 5600 1500 5600
Wire Wire Line
	2300 5700 2600 5700
Wire Wire Line
	1200 5700 1500 5700
Wire Wire Line
	2300 5800 2600 5800
Wire Wire Line
	1200 5800 1500 5800
Wire Wire Line
	2300 5900 2600 5900
Wire Wire Line
	1250 5200 1500 5200
Wire Wire Line
	5150 4500 5550 4500
Wire Wire Line
	1850 3750 1450 3750
Wire Wire Line
	1850 3850 1450 3850
Wire Wire Line
	1850 4250 1450 4250
Wire Wire Line
	1850 4150 1450 4150
Wire Wire Line
	1850 4050 1450 4050
Wire Wire Line
	1450 3950 1850 3950
Wire Wire Line
	10500 4850 10900 4850
Wire Wire Line
	10500 5000 10900 5000
Wire Wire Line
	1850 3550 1550 3550
Wire Wire Line
	1550 3550 1550 3500
Wire Wire Line
	1300 3650 1300 3750
Wire Wire Line
	1300 3650 1850 3650
Wire Wire Line
	4950 2000 4950 2100
Wire Wire Line
	4850 2000 4950 2000
Wire Wire Line
	4250 2000 4350 2000
Wire Wire Line
	3850 2000 3700 2000
Wire Wire Line
	1400 1250 1400 1500
Wire Wire Line
	1400 1500 1550 1500
Wire Wire Line
	1100 1600 1550 1600
Wire Wire Line
	1100 1700 1550 1700
Wire Wire Line
	1250 2400 1250 2550
Wire Wire Line
	1250 2400 1550 2400
$Comp
L SP481 US485
U 1 1 52DFF1F2
P 10350 4800
F 0 "US485" H 9600 5350 60  0000 C CNN
F 1 "SP481" H 9950 5350 60  0000 C CNN
F 2 "-SOIC8" H 10350 4800 60  0001 C CNN
F 3 "" H 10350 4800 60  0000 C CNN
	1    10350 4800
	1    0    0    1   
$EndComp
Wire Wire Line
	9100 4850 9100 4650
Wire Wire Line
	9100 4650 9350 4650
Wire Wire Line
	9250 4750 9250 5050
Wire Wire Line
	9250 5050 9350 5050
Connection ~ 9250 4750
Wire Wire Line
	9100 4950 9100 5150
Wire Wire Line
	9100 5150 9350 5150
$Comp
L GND #PWR024
U 1 1 52E02B15
P 10800 4650
F 0 "#PWR024" H 10800 4650 30  0001 C CNN
F 1 "GND" H 10800 4580 30  0001 C CNN
F 2 "" H 10800 4650 60  0001 C CNN
F 3 "" H 10800 4650 60  0001 C CNN
	1    10800 4650
	0    -1   1    0   
$EndComp
Wire Wire Line
	10500 4650 10800 4650
$Comp
L VDD5V #PWR025
U 1 1 52E02FAC
P 10800 5200
F 0 "#PWR025" H 10800 5300 30  0001 C CNN
F 1 "VDD5V" H 10800 5300 30  0000 C CNN
F 2 "" H 10800 5200 60  0001 C CNN
F 3 "" H 10800 5200 60  0001 C CNN
	1    10800 5200
	1    0    0    -1  
$EndComp
Wire Wire Line
	10500 5200 10800 5200
$Comp
L R RS1
U 1 1 52E0475D
P 8800 4950
F 0 "RS1" V 8750 5200 50  0000 C CNN
F 1 "680R" V 8850 5200 50  0000 C CNN
F 2 "SM0603" H 8800 4950 60  0001 C CNN
F 3 "" H 8800 4950 60  0001 C CNN
	1    8800 4950
	0    1    1    0   
$EndComp
Wire Wire Line
	8350 4950 8550 4950
Wire Wire Line
	9050 4950 9100 4950
Text Label 1450 4350 0    60   ~ 0
485_A
Text Label 1450 4450 0    60   ~ 0
485_B
Wire Wire Line
	1450 4350 1850 4350
Wire Wire Line
	1450 4450 1850 4450
$Comp
L +3.3VP #PWR026
U 1 1 52E06EF5
P 1400 5900
F 0 "#PWR026" H 1450 5930 20  0001 C CNN
F 1 "+3.3VP" V 1400 6100 30  0000 C CNN
F 2 "" H 1400 5900 60  0001 C CNN
F 3 "" H 1400 5900 60  0001 C CNN
	1    1400 5900
	0    -1   -1   0   
$EndComp
Wire Wire Line
	1500 5900 1400 5900
$Comp
L CONN_10X2 P4
U 1 1 52E09FE9
P 1900 5650
F 0 "P4" H 1900 6200 60  0000 C CNN
F 1 "CONN_10X2" V 1900 5550 50  0000 C CNN
F 2 "pin_array_10x2" H 1900 5650 60  0001 C CNN
F 3 "" H 1900 5650 60  0000 C CNN
	1    1900 5650
	1    0    0    -1  
$EndComp
Wire Wire Line
	2750 6000 2300 6000
Text Label 2300 6000 0    60   ~ 0
I2C_SDA
Wire Wire Line
	1500 6000 1100 6000
Text Label 1100 6000 0    60   ~ 0
I2C_SCL
Wire Wire Line
	2300 6100 2750 6100
Wire Wire Line
	1100 6100 1500 6100
Text Label 2350 6100 0    60   ~ 0
TX_CON
Text Label 1200 6100 0    60   ~ 0
RX_CON
Text HLabel 1100 6000 0    60   BiDi ~ 0
I2C_SCL
Text HLabel 2750 6000 2    60   BiDi ~ 0
I2C_SDA
Text HLabel 1100 6100 0    60   BiDi ~ 0
RX_CON
Text HLabel 2750 6100 2    60   BiDi ~ 0
TX_CON
Text Label 8450 5150 0    60   ~ 0
I2C_SDA
Text Label 8450 5050 0    60   ~ 0
I2C_SCL
$Comp
L LM35 TS1
U 1 1 52EB308F
P 9550 3650
F 0 "TS1" H 9300 3950 60  0000 C CNN
F 1 "LM35" V 9350 3700 60  0000 C CNN
F 2 "TO92" H 9550 3650 60  0001 C CNN
F 3 "" H 9550 3650 60  0000 C CNN
	1    9550 3650
	1    0    0    -1  
$EndComp
$Comp
L VDD5V #PWR027
U 1 1 52EB346A
P 9550 3250
F 0 "#PWR027" H 9550 3350 30  0001 C CNN
F 1 "VDD5V" H 9550 3350 30  0000 C CNN
F 2 "" H 9550 3250 60  0001 C CNN
F 3 "" H 9550 3250 60  0001 C CNN
	1    9550 3250
	1    0    0    -1  
$EndComp
$Comp
L GND #PWR028
U 1 1 52EB3470
P 9550 4100
F 0 "#PWR028" H 9550 4100 30  0001 C CNN
F 1 "GND" H 9550 4030 30  0001 C CNN
F 2 "" H 9550 4100 60  0001 C CNN
F 3 "" H 9550 4100 60  0001 C CNN
	1    9550 4100
	1    0    0    -1  
$EndComp
Wire Wire Line
	9550 4000 9550 4100
Wire Wire Line
	9550 3250 9550 3300
$Comp
L +3.3VP #PWR029
U 1 1 52EB4443
P 5150 5400
F 0 "#PWR029" H 5200 5430 20  0001 C CNN
F 1 "+3.3VP" H 5150 5490 30  0000 C CNN
F 2 "" H 5150 5400 60  0001 C CNN
F 3 "" H 5150 5400 60  0001 C CNN
	1    5150 5400
	1    0    0    -1  
$EndComp
Wire Wire Line
	1350 5200 1350 5300
Wire Wire Line
	1350 5300 1500 5300
Connection ~ 1350 5200
$Comp
L DS3231 RTC1
U 1 1 5411C05D
P 4550 7850
F 0 "RTC1" H 4550 7850 60  0000 C CNN
F 1 "DS3231" H 4550 7600 60  0000 C CNN
F 2 "SOIC16_Wide_RW16" H 4550 7850 60  0001 C CNN
F 3 "~" H 4550 7850 60  0000 C CNN
	1    4550 7850
	1    0    0    -1  
$EndComp
Wire Wire Line
	3650 8000 3550 8000
Wire Wire Line
	3550 8000 3550 8850
Wire Wire Line
	3550 8100 3650 8100
Wire Wire Line
	3550 8200 3650 8200
Connection ~ 3550 8100
Wire Wire Line
	3550 8300 3650 8300
Connection ~ 3550 8200
Wire Wire Line
	3550 8850 6000 8850
Wire Wire Line
	4550 8750 4550 8950
Connection ~ 3550 8300
Wire Wire Line
	5550 8850 5550 8000
Wire Wire Line
	5550 8300 5450 8300
Connection ~ 4550 8850
Wire Wire Line
	5550 8200 5450 8200
Connection ~ 5550 8300
Wire Wire Line
	5550 8100 5450 8100
Connection ~ 5550 8200
Wire Wire Line
	5550 8000 5450 8000
Connection ~ 5550 8100
$Comp
L +3.3VP #PWR030
U 1 1 5411CB1F
P 4550 7100
F 0 "#PWR030" H 4600 7130 20  0001 C CNN
F 1 "+3.3VP" H 4550 7190 30  0000 C CNN
F 2 "" H 4550 7100 60  0001 C CNN
F 3 "" H 4550 7100 60  0001 C CNN
	1    4550 7100
	1    0    0    -1  
$EndComp
$Comp
L GND #PWR031
U 1 1 5411CB25
P 4550 8950
F 0 "#PWR031" H 4550 8950 30  0001 C CNN
F 1 "GND" H 4550 8880 30  0001 C CNN
F 2 "" H 4550 8950 60  0001 C CNN
F 3 "" H 4550 8950 60  0001 C CNN
	1    4550 8950
	1    0    0    -1  
$EndComp
Wire Wire Line
	4550 7100 4550 7150
Wire Wire Line
	3100 7600 3650 7600
Text Label 3250 7600 0    60   ~ 0
I2C_SCL
Wire Wire Line
	2900 7700 3650 7700
Text Label 3200 7700 0    60   ~ 0
I2C_SDA
$Comp
L R RRTC2
U 1 1 5411E712
P 3100 7200
F 0 "RRTC2" V 3250 7250 50  0000 C CNN
F 1 "4.7k" V 3100 7200 50  0000 C CNN
F 2 "SM0603" H 3100 7200 60  0001 C CNN
F 3 "" H 3100 7200 60  0001 C CNN
	1    3100 7200
	1    0    0    -1  
$EndComp
$Comp
L R RRTC1
U 1 1 5411E718
P 2900 7200
F 0 "RRTC1" V 2800 7200 50  0000 C CNN
F 1 "4.7k" V 2900 7200 50  0000 C CNN
F 2 "SM0603" H 2900 7200 60  0001 C CNN
F 3 "" H 2900 7200 60  0001 C CNN
	1    2900 7200
	1    0    0    -1  
$EndComp
Wire Wire Line
	3100 7600 3100 7450
Wire Wire Line
	2900 7700 2900 7450
Wire Wire Line
	2900 6950 2900 6850
Wire Wire Line
	2900 6850 3100 6850
Wire Wire Line
	3100 6850 3100 6950
$Comp
L +3.3VP #PWR032
U 1 1 5411EE0B
P 3000 6800
F 0 "#PWR032" H 3050 6830 20  0001 C CNN
F 1 "+3.3VP" H 3000 6890 30  0000 C CNN
F 2 "" H 3000 6800 60  0001 C CNN
F 3 "" H 3000 6800 60  0001 C CNN
	1    3000 6800
	1    0    0    -1  
$EndComp
Wire Wire Line
	3000 6800 3000 6850
Connection ~ 3000 6850
$Comp
L R RRTC4
U 1 1 5411F251
P 6000 7150
F 0 "RRTC4" V 6150 7200 50  0000 C CNN
F 1 "4.7k" V 6000 7150 50  0000 C CNN
F 2 "SM0603" H 6000 7150 60  0001 C CNN
F 3 "" H 6000 7150 60  0001 C CNN
	1    6000 7150
	1    0    0    -1  
$EndComp
$Comp
L R RRTC3
U 1 1 5411F257
P 5800 7150
F 0 "RRTC3" V 5700 7150 50  0000 C CNN
F 1 "4.7k" V 5800 7150 50  0000 C CNN
F 2 "SM0603" H 5800 7150 60  0001 C CNN
F 3 "" H 5800 7150 60  0001 C CNN
	1    5800 7150
	1    0    0    -1  
$EndComp
Wire Wire Line
	5800 6900 5800 6800
Wire Wire Line
	5800 6800 6400 6800
Wire Wire Line
	6000 6800 6000 6900
$Comp
L +3.3VP #PWR033
U 1 1 5411F261
P 5900 6750
F 0 "#PWR033" H 5950 6780 20  0001 C CNN
F 1 "+3.3VP" H 5900 6840 30  0000 C CNN
F 2 "" H 5900 6750 60  0001 C CNN
F 3 "" H 5900 6750 60  0001 C CNN
	1    5900 6750
	1    0    0    -1  
$EndComp
Wire Wire Line
	5900 6750 5900 6800
Connection ~ 5900 6800
Wire Wire Line
	5800 7400 5800 7600
Wire Wire Line
	5800 7600 5450 7600
Wire Wire Line
	6000 7400 6000 7700
Wire Wire Line
	6000 7700 5450 7700
$Comp
L C CRTC1
U 1 1 54120096
P 6400 7100
F 0 "CRTC1" H 6450 7200 50  0000 L CNN
F 1 "0.1uF" H 6450 7000 50  0000 L CNN
F 2 "SM0603" H 6400 7100 60  0001 C CNN
F 3 "" H 6400 7100 60  0001 C CNN
	1    6400 7100
	1    0    0    -1  
$EndComp
Wire Wire Line
	6400 7300 6400 7500
$Comp
L GND #PWR034
U 1 1 5412009D
P 6400 7500
F 0 "#PWR034" H 6400 7500 30  0001 C CNN
F 1 "GND" H 6400 7430 30  0001 C CNN
F 2 "" H 6400 7500 60  0001 C CNN
F 3 "" H 6400 7500 60  0001 C CNN
	1    6400 7500
	1    0    0    -1  
$EndComp
Connection ~ 6400 7300
Wire Wire Line
	6400 6800 6400 6900
Connection ~ 6000 6800
$Comp
L BATTERY BAT1
U 1 1 54120DCB
P 6000 8350
F 0 "BAT1" H 6000 8550 50  0000 C CNN
F 1 "BATTERY" H 6000 8160 50  0000 C CNN
F 2 "1059" H 6000 8350 60  0001 C CNN
F 3 "~" H 6000 8350 60  0000 C CNN
	1    6000 8350
	0    -1   -1   0   
$EndComp
Wire Wire Line
	5450 7800 6000 7800
Wire Wire Line
	6000 7800 6000 8050
Wire Wire Line
	6000 8850 6000 8650
Connection ~ 5550 8850
Text Notes 6350 8550 1    60   ~ 0
1059K-ND
$EndSCHEMATC
