EESchema Schematic File Version 2
LIBS:con-jack
LIBS:adm3101e
LIBS:microsd
LIBS:transistor-npn
LIBS:ipc-7351-transistor
LIBS:switch-misc
LIBS:power
LIBS:device
LIBS:transistors
LIBS:conn
LIBS:linear
LIBS:regul
LIBS:74xx
LIBS:cmos4000
LIBS:adc-dac
LIBS:memory
LIBS:xilinx
LIBS:special
LIBS:microcontrollers
LIBS:dsp
LIBS:microchip
LIBS:analog_switches
LIBS:motorola
LIBS:texas
LIBS:intel
LIBS:audio
LIBS:interface
LIBS:digital-audio
LIBS:philips
LIBS:display
LIBS:cypress
LIBS:siliconi
LIBS:opto
LIBS:atmel
LIBS:contrib
LIBS:valves
LIBS:micron_ddr_512Mb
LIBS:iMX23
LIBS:sdmmc
LIBS:usbconn
LIBS:fsusb20
LIBS:r_pack2
LIBS:pasives-connectors
LIBS:EEPROM
LIBS:PWR
LIBS:m25p32
LIBS:PROpendous-cache
LIBS:w_analog
LIBS:gl850g
LIBS:srf2012
LIBS:rclamp0502b
LIBS:mcp130
LIBS:ABM8G
LIBS:usb_a
LIBS:Reset
LIBS:stm32f100vxx
LIBS:lt1117cst
LIBS:zxmhc3f381n8
LIBS:fsusb43
LIBS:usb-mini
LIBS:atsam3n0aa-au
LIBS:xbeepro
LIBS:ba50dd0whfp
LIBS:mic29301
LIBS:sp481
LIBS:lm35
LIBS:enc28j60
LIBS:m-pad-2.1
LIBS:ds3231
LIBS:rj45_stamp
LIBS:stamp_mini_4_layers-cache
EELAYER 24 0
EELAYER END
$Descr A4 11693 8268
encoding utf-8
Sheet 1 7
Title ""
Date "11 sep 2014"
Rev ""
Comp ""
Comment1 ""
Comment2 ""
Comment3 ""
Comment4 ""
$EndDescr
$Sheet
S 4350 1250 1350 1250
U 4E78AF25
F0 "SAM3M" 60
F1 "SAM3N.sch" 60
F2 "JNRST" B R 5700 1550 60 
F3 "JTMS" B R 5700 1950 60 
F4 "JTCK" B R 5700 1850 60 
F5 "JTDO" B R 5700 1650 60 
F6 "JTDI" B R 5700 1750 60 
F7 "SAM_RX" O R 5700 1450 60 
F8 "SAM_TX" O R 5700 1350 60 
F9 "I2C_SCL" B R 5700 2250 60 
F10 "I2C_SDA" B R 5700 2350 60 
F11 "RX_CON" B R 5700 2150 60 
F12 "TX_CON" B R 5700 2050 60 
$EndSheet
Wire Wire Line
	5700 1450 5950 1450
Wire Wire Line
	5700 1750 5950 1750
Wire Wire Line
	5700 1550 5950 1550
Wire Bus Line
	8050 1900 7550 1900
Wire Wire Line
	7550 2950 8050 2950
Wire Wire Line
	8050 2700 7550 2700
Wire Wire Line
	7550 2450 8050 2450
Wire Wire Line
	7550 3550 8050 3550
Wire Wire Line
	7550 3300 8050 3300
Wire Wire Line
	7550 3100 8050 3100
Wire Wire Line
	7550 2350 8050 2350
Wire Wire Line
	7550 2250 8050 2250
Wire Wire Line
	7550 2150 8050 2150
Wire Wire Line
	7550 3200 8050 3200
Wire Wire Line
	7550 3450 8050 3450
Wire Wire Line
	7550 2600 8050 2600
Wire Wire Line
	8050 2850 7550 2850
Wire Bus Line
	7550 2000 8050 2000
Wire Wire Line
	5700 1650 5950 1650
Wire Wire Line
	5700 1850 5950 1850
Wire Wire Line
	5700 1950 5950 1950
Wire Wire Line
	5700 1350 5950 1350
Wire Wire Line
	5950 3500 4750 3500
$Comp
L JUMPER JPE1
U 1 1 52E0647C
P 5300 2850
F 0 "JPE1" H 5050 3000 60  0000 C CNN
F 1 "JUMPER" H 5550 3000 40  0000 C CNN
F 2 "PIN_ARRAY_2X1" H 5300 2850 60  0001 C CNN
F 3 "" H 5300 2850 60  0001 C CNN
	1    5300 2850
	1    0    0    -1  
$EndComp
$Comp
L JUMPER JPE2
U 1 1 52E06533
P 5300 3100
F 0 "JPE2" H 5100 3000 60  0000 C CNN
F 1 "JUMPER" H 5500 3000 40  0000 C CNN
F 2 "PIN_ARRAY_2X1" H 5300 3100 60  0001 C CNN
F 3 "" H 5300 3100 60  0001 C CNN
	1    5300 3100
	1    0    0    -1  
$EndComp
Wire Wire Line
	5600 3100 5950 3100
Wire Wire Line
	5800 3000 5950 3000
Wire Wire Line
	5800 2600 5800 3000
Wire Wire Line
	5800 2850 5600 2850
Wire Wire Line
	4750 2850 5000 2850
Wire Wire Line
	4750 3100 5000 3100
Wire Wire Line
	5700 2050 5950 2050
Wire Wire Line
	5700 2150 5950 2150
$Sheet
S 3800 3750 950  300 
U 52DA0E0C
F0 "power" 50
F1 "power2.sch" 50
F2 "EN_PWR" B R 4750 3900 60 
$EndSheet
Wire Wire Line
	4750 3900 5950 3900
$Comp
L R JUSB2
U 1 1 52E3AF99
P 5300 2600
F 0 "JUSB2" V 5380 2600 50  0000 C CNN
F 1 "0.1" V 5300 2600 50  0001 C CNN
F 2 "SM0603" H 5300 2600 60  0001 C CNN
F 3 "" H 5300 2600 60  0001 C CNN
	1    5300 2600
	0    -1   -1   0   
$EndComp
$Comp
L R JUSB1
U 1 1 52E3B05F
P 5300 3400
F 0 "JUSB1" V 5380 3400 50  0000 C CNN
F 1 "0.1" V 5300 3400 50  0001 C CNN
F 2 "SM0603" H 5300 3400 60  0001 C CNN
F 3 "" H 5300 3400 60  0001 C CNN
	1    5300 3400
	0    -1   -1   0   
$EndComp
Wire Wire Line
	5550 2600 5800 2600
Connection ~ 5800 2850
Wire Wire Line
	5050 2600 4850 2600
Wire Wire Line
	4850 2600 4850 2850
Connection ~ 4850 2850
Wire Wire Line
	5550 3400 5800 3400
Wire Wire Line
	5800 3400 5800 3100
Connection ~ 5800 3100
Wire Wire Line
	5050 3400 4850 3400
Wire Wire Line
	4850 3400 4850 3100
Connection ~ 4850 3100
$Sheet
S 3500 2700 1250 850 
U 52DA0C17
F0 "USB" 50
F1 "usb.sch" 50
F2 "USB_reset" B R 4750 3500 60 
F3 "USB_DP0" T R 4750 2850 60 
F4 "USB_DM0" T R 4750 3100 60 
F5 "DM4" B L 3500 2950 60 
F6 "DP4" B L 3500 2850 60 
F7 "DM1" B L 3500 3150 60 
F8 "DP1" B L 3500 3050 60 
$EndSheet
$Sheet
S 8000 4100 1300 800 
U 540BA1CB
F0 "ethernet" 50
F1 "ethernet.sch" 50
F2 "SSP_DATA1" I L 8000 4250 60 
F3 "SSP_DATA0" I L 8000 4350 60 
F4 "SSP_CMD" I L 8000 4450 60 
F5 "SSP_SCK" I L 8000 4550 60 
F6 "SSP_DATA3" I L 8000 4650 60 
F7 "SSP_DETECT" I L 8000 4750 60 
$EndSheet
$Sheet
S 8050 1100 1150 2500
U 4D30B991
F0 "DDR" 60
F1 "DDR1.sch" 60
F2 "DDR_A[0..12]" I L 8050 1900 60 
F3 "DDR_DQ[0..15]" B L 8050 2000 60 
F4 "DDR_BA0" I L 8050 3450 60 
F5 "DDR_BA1" I L 8050 3550 60 
F6 "DDR_CE0" I L 8050 2150 60 
F7 "DDR_CASN" I L 8050 2350 60 
F8 "DDR_CKE" I L 8050 3300 60 
F9 "DDR_CLKN" I L 8050 3200 60 
F10 "DDR_CLK" I L 8050 3100 60 
F11 "DDR_DQM0" I L 8050 2850 60 
F12 "DDR_DQM1" I L 8050 2950 60 
F13 "DDR_DQS0" I L 8050 2600 60 
F14 "DDR_DQS1" I L 8050 2700 60 
F15 "DDR_RASN" I L 8050 2450 60 
F16 "DDR_WEN" I L 8050 2250 60 
$EndSheet
$Sheet
S 5950 1100 1600 4000
U 4D30AC69
F0 "i.MX233" 60
F1 "i.MX233.sch" 60
F2 "DDR_A[0..12]" O R 7550 1900 60 
F3 "DDR_DQ[0..15]" B R 7550 2000 60 
F4 "DDR_WEN" O R 7550 2250 60 
F5 "DDR_RASN" O R 7550 2450 60 
F6 "DDR_DQS1" O R 7550 2700 60 
F7 "DDR_DQS0" O R 7550 2600 60 
F8 "DDR_DQM1" O R 7550 2950 60 
F9 "DDR_DQM0" O R 7550 2850 60 
F10 "DDR_CLK" O R 7550 3100 60 
F11 "DDR_CLKN" O R 7550 3200 60 
F12 "DDR_CKE" O R 7550 3300 60 
F13 "DDR_CASN" O R 7550 2350 60 
F14 "DDR_CE0" O R 7550 2150 60 
F15 "DDR_BA1" O R 7550 3550 60 
F16 "DDR_BA0" O R 7550 3450 60 
F17 "I2C_SCL" B L 5950 2250 60 
F18 "I2C_SDA" B L 5950 2350 60 
F19 "AUART_TX" B L 5950 1450 60 
F20 "AUART_RX" B L 5950 1350 60 
F21 "GPMI_RDN" O L 5950 1750 60 
F22 "GPMI_D06" O L 5950 1550 60 
F23 "GPMI_CLE" O L 5950 1850 60 
F24 "GPMI_D04" O L 5950 1650 60 
F25 "GPMI_ALE" O L 5950 1950 60 
F26 "USB_DM" B L 5950 3100 60 
F27 "USB_DP" B L 5950 3000 60 
F28 "GPMI_CE0N" B L 5950 3500 60 
F29 "RX_CON" B L 5950 2150 60 
F30 "TX_CON" B L 5950 2050 60 
F31 "GPMI_WPN" B L 5950 3900 60 
F32 "SSP_DATA0" I R 7550 4350 60 
F33 "SSP_CMD" I R 7550 4450 60 
F34 "SSP_SCK" I R 7550 4550 60 
F35 "SSP_DATA3" I R 7550 4650 60 
F36 "SSP_DETECT" I R 7550 4750 60 
F37 "SSP_DATA1" I R 7550 4250 60 
$EndSheet
Wire Wire Line
	7550 4250 8000 4250
Wire Wire Line
	7550 4350 8000 4350
Wire Wire Line
	7550 4450 8000 4450
Wire Wire Line
	7550 4550 8000 4550
Wire Wire Line
	7550 4650 8000 4650
Wire Wire Line
	7550 4750 8000 4750
$EndSCHEMATC
