EESchema Schematic File Version 2  date Sat Feb  2 12:48:02 2013
LIBS:con-jack
LIBS:adm3101e
LIBS:microsd
LIBS:transistor-npn
LIBS:ipc-7351-transistor
LIBS:switch-misc
LIBS:power
LIBS:device
LIBS:transistors
LIBS:conn
LIBS:linear
LIBS:regul
LIBS:74xx
LIBS:cmos4000
LIBS:adc-dac
LIBS:memory
LIBS:xilinx
LIBS:special
LIBS:microcontrollers
LIBS:dsp
LIBS:microchip
LIBS:analog_switches
LIBS:motorola
LIBS:texas
LIBS:intel
LIBS:audio
LIBS:interface
LIBS:digital-audio
LIBS:philips
LIBS:display
LIBS:cypress
LIBS:siliconi
LIBS:opto
LIBS:atmel
LIBS:contrib
LIBS:valves
LIBS:micron_ddr_512Mb
LIBS:iMX23
LIBS:sdmmc
LIBS:usbconn
LIBS:fsusb20
LIBS:r_pack2
LIBS:pasives-connectors
LIBS:EEPROM
LIBS:PWR
LIBS:m25p32
LIBS:PROpendous-cache
LIBS:w_analog
LIBS:gl850g
LIBS:srf2012
LIBS:rclamp0502b
LIBS:mcp130
LIBS:ABM8G
LIBS:usb_a
LIBS:Reset
LIBS:stm32f100vxx
LIBS:lt1117cst
LIBS:zxmhc3f381n8
LIBS:fsusb43
LIBS:usb-mini
LIBS:i.mx233stamp-cache
EELAYER 25  0
EELAYER END
$Descr A3 16535 11700
encoding utf-8
Sheet 2 5
Title ""
Date "2 feb 2013"
Rev ""
Comp ""
Comment1 ""
Comment2 ""
Comment3 ""
Comment4 ""
$EndDescr
Text Label 8950 8200 0    60   ~ 0
D03
Wire Wire Line
	8750 8900 8550 8900
Wire Wire Line
	14350 8150 14550 8150
Wire Notes Line
	8400 6300 8400 9250
Wire Wire Line
	8950 8200 9550 8200
Wire Wire Line
	11750 8650 11250 8650
Wire Wire Line
	11750 8450 11250 8450
Wire Wire Line
	12000 8200 12300 8200
Wire Wire Line
	12300 8200 12300 8250
Wire Wire Line
	9550 8900 9550 8650
Wire Wire Line
	9550 8650 10100 8650
Wire Wire Line
	9600 8450 10100 8450
Wire Wire Line
	9600 8550 10100 8550
Wire Wire Line
	11400 8150 11400 8350
Connection ~ 11400 8350
Wire Wire Line
	11250 8350 11600 8350
Wire Wire Line
	11600 8350 11600 8200
Wire Wire Line
	11750 8550 11250 8550
Wire Wire Line
	9850 8250 9850 8350
Connection ~ 9850 8350
Wire Wire Line
	10100 8350 9550 8350
Wire Wire Line
	9550 8350 9550 8200
Wire Wire Line
	9150 2800 9700 2800
Wire Wire Line
	10000 4750 9500 4750
Connection ~ 11050 6900
Wire Wire Line
	10450 6900 11050 6900
Wire Wire Line
	11050 7300 11050 6800
Wire Wire Line
	11050 6800 10450 6800
Connection ~ 15300 9000
Wire Wire Line
	15350 9000 15300 9000
Wire Wire Line
	11425 1000 11535 1000
Wire Wire Line
	14350 4150 14850 4150
Wire Wire Line
	15300 4850 15300 4800
Wire Wire Line
	13550 3950 13300 3950
Wire Wire Line
	15050 3050 14350 3050
Wire Wire Line
	13300 4700 13600 4700
Wire Wire Line
	14400 4600 14600 4600
Wire Wire Line
	9400 10300 8700 10300
Connection ~ 14600 9100
Wire Wire Line
	14400 8800 14600 8800
Wire Wire Line
	14600 8800 14600 9500
Wire Wire Line
	14650 9300 14600 9300
Wire Wire Line
	14600 9500 14650 9500
Connection ~ 15300 9100
Wire Wire Line
	15300 9300 15250 9300
Wire Wire Line
	15300 9100 15250 9100
Wire Wire Line
	12850 5750 12850 5700
Connection ~ 2550 10550
Wire Wire Line
	3600 10550 2250 10550
Wire Notes Line
	12000 550  10050 550 
Wire Notes Line
	12000 550  12000 1450
Wire Notes Line
	12000 1450 10050 1450
Wire Notes Line
	10050 1450 10050 550 
Wire Wire Line
	10575 1200 10625 1200
Wire Wire Line
	11525 1100 11425 1100
Wire Wire Line
	15350 8750 15300 8750
Wire Wire Line
	15350 8550 15300 8550
Wire Wire Line
	900  1850 900  1800
Wire Wire Line
	900  1800 1150 1800
Wire Wire Line
	1200 1750 1150 1750
Wire Wire Line
	1150 1750 1150 1850
Wire Wire Line
	1150 1850 1200 1850
Wire Wire Line
	4000 8250 4600 8250
Wire Wire Line
	4900 8050 4900 8150
Wire Wire Line
	15150 5600 14400 5600
Wire Wire Line
	1800 7500 2550 7500
Wire Wire Line
	1800 7300 2550 7300
Wire Wire Line
	1800 7100 2550 7100
Wire Wire Line
	6850 7350 6050 7350
Wire Wire Line
	6850 7100 6050 7100
Wire Wire Line
	6850 6850 6050 6850
Wire Wire Line
	6850 6600 6050 6600
Wire Wire Line
	9400 10550 8700 10550
Wire Wire Line
	15050 3850 14350 3850
Wire Wire Line
	15050 3650 14350 3650
Wire Wire Line
	12850 3850 13550 3850
Wire Wire Line
	12850 3650 13550 3650
Wire Wire Line
	15150 5400 14400 5400
Wire Wire Line
	15150 5100 14400 5100
Wire Wire Line
	15150 4900 14400 4900
Wire Wire Line
	12850 5600 13600 5600
Wire Wire Line
	12850 5400 13600 5400
Wire Wire Line
	12850 5100 13600 5100
Wire Wire Line
	12850 4900 13600 4900
Wire Wire Line
	12850 4800 13600 4800
Wire Wire Line
	1950 3900 2550 3900
Wire Wire Line
	1950 3300 2550 3300
Wire Wire Line
	1950 3400 2550 3400
Wire Wire Line
	1950 3600 2550 3600
Wire Wire Line
	1950 3500 2550 3500
Wire Wire Line
	1950 3100 2550 3100
Wire Wire Line
	1950 3200 2550 3200
Wire Wire Line
	1950 3000 2550 3000
Wire Wire Line
	1950 2900 2550 2900
Wire Wire Line
	6050 7500 6600 7500
Wire Wire Line
	6600 7500 6600 7650
Wire Wire Line
	8400 10000 8400 9550
Wire Wire Line
	14400 5700 15000 5700
Wire Notes Line
	11700 6250 11700 3650
Wire Wire Line
	14150 1850 14100 1850
Wire Wire Line
	12800 1850 12950 1850
Wire Wire Line
	14650 1850 14850 1850
Wire Wire Line
	13450 1850 13500 1850
Wire Wire Line
	14100 1850 14100 1700
Wire Wire Line
	14100 1700 14900 1700
Wire Wire Line
	12850 1100 13300 1100
Wire Wire Line
	14900 1350 14100 1350
Wire Wire Line
	14100 1350 14100 1500
Wire Wire Line
	14150 2200 14100 2200
Wire Wire Line
	12800 2200 12950 2200
Wire Wire Line
	14650 2200 14850 2200
Wire Wire Line
	13450 2200 13500 2200
Wire Wire Line
	13450 1500 13500 1500
Wire Wire Line
	14650 1500 14850 1500
Wire Wire Line
	12800 1500 12950 1500
Wire Wire Line
	14100 1500 14150 1500
Wire Wire Line
	13300 900  12850 900 
Wire Wire Line
	13800 650  13800 700 
Wire Wire Line
	13300 700  12850 700 
Wire Wire Line
	8550 6800 8550 6750
Wire Notes Line
	11350 7900 16000 7900
Wire Notes Line
	11350 7900 11350 7600
Wire Notes Line
	11350 7600 11200 7600
Wire Notes Line
	11200 7600 11200 6300
Wire Notes Line
	11200 6300 11750 6300
Wire Notes Line
	11750 6300 11750 6200
Wire Notes Line
	11750 6200 16000 6200
Wire Notes Line
	16000 6200 16000 7900
Wire Notes Line
	550  8400 550  550 
Wire Notes Line
	550  8400 8350 8400
Wire Notes Line
	11700 6250 8400 6250
Wire Notes Line
	8400 6300 11150 6300
Wire Wire Line
	2150 2800 2550 2800
Wire Wire Line
	9400 9650 8700 9650
Wire Wire Line
	15350 10550 15350 10400
Wire Wire Line
	6100 1500 6000 1500
Connection ~ 5400 1500
Wire Wire Line
	10550 4750 10400 4750
Wire Wire Line
	14750 7250 15150 7250
Connection ~ 15400 7500
Wire Wire Line
	15400 7500 15750 7500
Wire Wire Line
	15750 7500 15750 6950
Wire Wire Line
	15150 7350 14750 7350
Wire Wire Line
	15400 7050 14750 7050
Wire Wire Line
	15000 6950 14750 6950
Wire Wire Line
	13350 7150 12750 7150
Wire Wire Line
	13350 6950 13150 6950
Wire Wire Line
	9200 7250 9350 7250
Wire Wire Line
	9350 6650 9000 6650
Connection ~ 11050 7250
Wire Wire Line
	11050 7250 10100 7250
Wire Wire Line
	1200 9650 2250 9650
Wire Wire Line
	6600 10100 7100 10100
Connection ~ 10100 7250
Wire Wire Line
	8550 6750 9350 6750
Wire Wire Line
	9000 6950 9350 6950
Connection ~ 4150 1600
Wire Wire Line
	4050 1600 4250 1600
Wire Wire Line
	4250 1600 4250 1750
Wire Wire Line
	4050 1450 4050 1750
Wire Wire Line
	10950 4300 10950 4250
Wire Wire Line
	1900 6400 2550 6400
Connection ~ 3150 1650
Wire Wire Line
	3150 1650 3250 1650
Wire Wire Line
	3250 1650 3250 1750
Wire Wire Line
	1950 6000 2550 6000
Wire Wire Line
	1950 5800 2550 5800
Connection ~ 5150 1600
Wire Wire Line
	4950 1600 5250 1600
Wire Wire Line
	5250 1600 5250 1750
Wire Wire Line
	3550 1750 3550 1100
Wire Wire Line
	3550 1100 3750 1100
Connection ~ 4300 8250
Connection ~ 4350 8250
Wire Wire Line
	4350 8250 4350 8050
Connection ~ 4150 8250
Wire Wire Line
	1950 3800 2550 3800
Wire Wire Line
	4400 1450 4400 1750
Wire Wire Line
	2250 10550 2250 10400
Connection ~ 4400 10950
Wire Wire Line
	4050 10950 4750 10950
Connection ~ 4600 10950
Wire Wire Line
	4600 11050 4600 10950
Connection ~ 1250 10550
Wire Wire Line
	1250 10550 1250 10400
Connection ~ 1050 10550
Connection ~ 1050 10950
Wire Wire Line
	700  10950 1750 10950
Wire Wire Line
	7100 9750 7100 10250
Connection ~ 6600 8950
Wire Wire Line
	7100 9350 7100 8950
Wire Wire Line
	6600 8950 6600 9050
Wire Wire Line
	3750 10050 5550 10050
Connection ~ 5200 8950
Wire Wire Line
	5550 8950 3750 8950
Wire Wire Line
	5550 8950 5550 9300
Connection ~ 4500 8950
Wire Wire Line
	4850 8950 4850 9300
Connection ~ 4850 10050
Wire Wire Line
	5200 9700 5200 10050
Connection ~ 4500 10050
Connection ~ 4150 10050
Wire Wire Line
	4150 10050 4150 10150
Wire Wire Line
	4500 9500 4500 9650
Wire Wire Line
	4500 8950 4500 9000
Connection ~ 3000 9250
Wire Wire Line
	3000 9150 3000 9250
Wire Wire Line
	2800 9800 2650 9800
Wire Wire Line
	2650 9250 3350 9250
Wire Wire Line
	750  9250 750  9150
Wire Wire Line
	750  9800 750  9650
Wire Wire Line
	3350 9750 3350 9800
Wire Wire Line
	3350 9800 3200 9800
Wire Wire Line
	2650 9650 2650 9950
Connection ~ 2650 9800
Wire Wire Line
	3750 8950 3750 9000
Connection ~ 4050 8950
Wire Wire Line
	3750 10050 3750 9600
Wire Wire Line
	4050 8850 4050 8950
Wire Wire Line
	4850 10050 4850 9700
Wire Wire Line
	5550 10050 5550 9700
Connection ~ 5200 10050
Wire Wire Line
	5200 8950 5200 9300
Connection ~ 4850 8950
Wire Wire Line
	6600 9700 6600 9550
Wire Wire Line
	5900 8950 5750 8950
Wire Wire Line
	5750 8950 5750 8800
Connection ~ 7100 10100
Connection ~ 7100 8950
Wire Wire Line
	6800 8800 6800 8950
Connection ~ 6800 8950
Connection ~ 1400 10950
Wire Wire Line
	700  10550 1750 10550
Connection ~ 1400 10550
Wire Wire Line
	1250 10950 1250 11050
Connection ~ 1250 10950
Connection ~ 1750 9650
Wire Wire Line
	1750 9650 1750 9750
Connection ~ 1550 9650
Connection ~ 1550 9250
Wire Wire Line
	1750 9250 1750 9100
Connection ~ 1750 9250
Connection ~ 3100 10550
Wire Wire Line
	3100 10550 3100 10400
Connection ~ 2900 10550
Connection ~ 2900 10950
Connection ~ 3250 10950
Connection ~ 3250 10550
Wire Wire Line
	3100 10950 3100 11050
Connection ~ 3100 10950
Wire Wire Line
	4400 10400 4400 10550
Wire Wire Line
	5250 10400 5250 10550
Wire Wire Line
	5250 10950 5600 10950
Wire Wire Line
	5250 10550 5600 10550
Wire Wire Line
	5450 11050 5450 10950
Connection ~ 5450 10950
Wire Wire Line
	4050 10550 4750 10550
Connection ~ 4400 10550
Wire Wire Line
	2400 10950 2400 11050
Wire Wire Line
	2550 7800 1900 7800
Wire Wire Line
	2550 6700 1950 6700
Wire Wire Line
	13000 5300 13600 5300
Connection ~ 11250 3350
Wire Wire Line
	11250 3350 11250 3450
Wire Wire Line
	10800 2900 10800 2800
Wire Wire Line
	10450 2850 10450 2800
Connection ~ 11350 3350
Wire Wire Line
	10800 3350 10800 3300
Wire Wire Line
	11650 2150 11650 1900
Wire Wire Line
	7900 10500 7900 10850
Connection ~ 8150 10850
Wire Wire Line
	8150 10950 8150 10850
Connection ~ 7900 9550
Wire Wire Line
	1900 2300 2550 2300
Connection ~ 1600 1500
Wire Wire Line
	1400 1500 2150 1500
Connection ~ 1600 2100
Wire Wire Line
	1400 2100 2550 2100
Wire Wire Line
	2150 1500 2150 2000
Wire Wire Line
	2150 2000 2550 2000
Connection ~ 5400 1600
Wire Wire Line
	5400 1600 5500 1600
Wire Wire Line
	5500 1600 5500 1750
Connection ~ 5050 1600
Wire Wire Line
	5150 1750 5150 1600
Wire Wire Line
	4950 1450 4950 1750
Wire Wire Line
	3400 1450 3400 1750
Wire Notes Line
	8400 6250 8400 3650
Wire Wire Line
	7250 2400 6050 2400
Wire Wire Line
	7250 2200 6050 2200
Wire Wire Line
	7250 2500 6050 2500
Wire Wire Line
	7250 2700 6050 2700
Wire Wire Line
	7250 2900 6050 2900
Wire Wire Line
	7250 3100 6050 3100
Wire Wire Line
	7250 3200 6050 3200
Wire Wire Line
	7250 6250 6050 6250
Wire Wire Line
	7250 6050 6050 6050
Wire Wire Line
	7250 5850 6050 5850
Wire Wire Line
	7250 5650 6050 5650
Wire Wire Line
	7250 5450 6050 5450
Wire Wire Line
	7250 5250 6050 5250
Wire Wire Line
	7250 5050 6050 5050
Wire Wire Line
	7250 4850 6050 4850
Wire Wire Line
	6050 3750 6650 3750
Wire Wire Line
	15000 5300 14400 5300
Wire Wire Line
	2550 4800 1950 4800
Wire Wire Line
	2550 4700 1950 4700
Wire Wire Line
	2550 4500 1950 4500
Wire Wire Line
	6050 3850 6650 3850
Wire Wire Line
	6050 3650 6650 3650
Wire Wire Line
	6050 4500 6650 4500
Wire Wire Line
	6050 4300 6650 4300
Wire Wire Line
	6050 4400 6650 4400
Wire Wire Line
	6050 4600 6650 4600
Wire Wire Line
	6050 3950 6650 3950
Wire Wire Line
	6050 4200 6650 4200
Wire Wire Line
	6050 4100 6650 4100
Wire Wire Line
	6050 3550 6650 3550
Wire Wire Line
	6050 3400 6650 3400
Wire Wire Line
	6050 3300 6650 3300
Wire Wire Line
	13550 3250 12850 3250
Wire Wire Line
	13550 3450 12850 3450
Wire Wire Line
	13550 3150 12850 3150
Wire Wire Line
	15050 3450 14350 3450
Wire Wire Line
	13550 3350 12850 3350
Wire Wire Line
	15050 3250 14350 3250
Wire Wire Line
	15050 3350 14350 3350
Wire Wire Line
	1950 4100 2550 4100
Wire Wire Line
	1950 4300 2550 4300
Wire Wire Line
	1950 4000 2550 4000
Wire Wire Line
	1950 3700 2550 3700
Wire Wire Line
	2150 2600 2550 2600
Wire Bus Line
	7500 4450 7350 4450
Wire Bus Line
	7500 1700 7350 1700
Wire Bus Line
	7350 4450 7350 6150
Wire Wire Line
	2550 4900 1950 4900
Wire Wire Line
	2550 5000 1950 5000
Wire Wire Line
	2550 5200 1950 5200
Wire Wire Line
	2550 5100 1950 5100
Wire Wire Line
	2550 5500 1950 5500
Wire Wire Line
	2550 5600 1950 5600
Wire Wire Line
	2550 5400 1950 5400
Wire Wire Line
	2550 5300 1950 5300
Wire Wire Line
	2150 2500 2550 2500
Wire Wire Line
	7250 4750 6050 4750
Wire Wire Line
	7250 4950 6050 4950
Wire Wire Line
	7250 5150 6050 5150
Wire Wire Line
	7250 5350 6050 5350
Wire Wire Line
	7250 5550 6050 5550
Wire Wire Line
	7250 5750 6050 5750
Wire Wire Line
	7250 5950 6050 5950
Wire Wire Line
	7250 6150 6050 6150
Wire Bus Line
	7350 1700 7350 3100
Wire Wire Line
	7250 3000 6050 3000
Wire Wire Line
	7250 2800 6050 2800
Wire Wire Line
	7250 2600 6050 2600
Wire Wire Line
	7250 2000 6050 2000
Wire Wire Line
	7250 2100 6050 2100
Wire Wire Line
	7250 2300 6050 2300
Wire Notes Line
	550  550  8350 550 
Connection ~ 4400 1600
Wire Wire Line
	3900 1450 3900 1750
Wire Wire Line
	4650 1450 4650 1750
Wire Wire Line
	5050 1600 5050 1750
Connection ~ 4950 1600
Wire Wire Line
	5400 1450 5400 1750
Wire Wire Line
	3150 1450 3150 1750
Wire Wire Line
	4800 1450 4800 1750
Wire Wire Line
	1200 2100 1100 2100
Wire Wire Line
	1100 2100 1100 1500
Wire Wire Line
	1100 1500 1200 1500
Wire Wire Line
	7900 10850 8400 10850
Wire Wire Line
	7900 10100 7900 9550
Wire Wire Line
	8400 10850 8400 10500
Wire Wire Line
	11350 2150 11350 1900
Wire Wire Line
	12200 2800 12200 3350
Connection ~ 11650 3350
Wire Wire Line
	12200 3350 10450 3350
Connection ~ 10800 3350
Wire Wire Line
	10800 2800 10200 2800
Connection ~ 10450 2800
Wire Wire Line
	2550 6800 1950 6800
Wire Notes Line
	550  11150 550  8450
Wire Wire Line
	4000 8250 4000 8050
Wire Wire Line
	4250 8250 4250 8050
Connection ~ 4250 8250
Wire Wire Line
	4500 8050 4500 8250
Connection ~ 4500 8250
Wire Wire Line
	3750 1750 3750 1700
Wire Wire Line
	4500 1750 4500 1600
Wire Wire Line
	4500 1600 4400 1600
Wire Wire Line
	1950 5700 2550 5700
Wire Wire Line
	1950 5900 2550 5900
Wire Wire Line
	1950 6100 2550 6100
Wire Wire Line
	13550 4050 12950 4050
Wire Wire Line
	1900 6300 2550 6300
Wire Wire Line
	1900 6500 2550 6500
Wire Wire Line
	8950 4300 8950 4250
Wire Wire Line
	10700 4300 10700 4250
Wire Wire Line
	4150 1750 4150 1600
Connection ~ 4050 1600
Wire Wire Line
	9000 6900 9350 6900
Wire Wire Line
	9000 6800 9350 6800
Wire Wire Line
	9000 6700 9350 6700
Wire Wire Line
	9350 6850 8800 6850
Wire Wire Line
	8800 6850 8800 6500
Wire Wire Line
	7100 8950 6300 8950
Wire Wire Line
	1200 9250 2250 9250
Wire Wire Line
	4150 8250 4150 8050
Wire Wire Line
	4600 8250 4600 8050
Wire Wire Line
	10000 7550 10000 7250
Wire Wire Line
	9350 7000 9000 7000
Wire Wire Line
	10000 7250 9850 7250
Wire Wire Line
	13350 6850 13350 6550
Wire Wire Line
	13350 6550 13150 6550
Wire Wire Line
	12750 6750 13000 6750
Wire Wire Line
	13000 6750 13000 7050
Wire Wire Line
	13000 7050 13350 7050
Wire Wire Line
	14750 6850 14750 6550
Wire Wire Line
	15400 7450 15400 7600
Wire Wire Line
	14050 7850 14050 7750
Wire Wire Line
	14750 6550 15750 6550
Connection ~ 15000 6550
Wire Wire Line
	13350 7250 12950 7250
Wire Wire Line
	6750 1650 6750 1500
Wire Wire Line
	6750 1500 6600 1500
Wire Wire Line
	5600 1500 5400 1500
Wire Wire Line
	15150 9900 15350 9900
Wire Wire Line
	12200 6850 12200 6800
Wire Wire Line
	11750 7350 13350 7350
Connection ~ 12200 7350
Wire Notes Line
	8400 3650 11700 3650
Wire Notes Line
	8400 1800 8400 3600
Wire Notes Line
	8400 1800 12300 1800
Wire Notes Line
	12300 1800 12300 3600
Wire Notes Line
	12300 3600 8400 3600
Wire Notes Line
	8350 550  8350 8400
Wire Wire Line
	4300 8250 4300 8300
Wire Notes Line
	12550 2600 12550 500 
Wire Notes Line
	12550 2600 16000 2600
Wire Notes Line
	12550 500  16000 500 
Wire Wire Line
	9500 4750 9500 4700
Wire Wire Line
	4900 8150 4950 8150
Wire Wire Line
	13800 900  14050 900 
Wire Wire Line
	14100 2200 14100 2050
Wire Wire Line
	14100 2050 14900 2050
Wire Wire Line
	13800 1100 14050 1100
Wire Wire Line
	14050 1100 14050 1150
Wire Wire Line
	7250 8100 7250 8200
Wire Wire Line
	2550 4200 1950 4200
Wire Wire Line
	8700 9750 9400 9750
Wire Wire Line
	12850 5000 13600 5000
Wire Wire Line
	12850 5200 13600 5200
Wire Wire Line
	12850 5500 13600 5500
Wire Wire Line
	9400 9850 8700 9850
Wire Wire Line
	15150 5000 14400 5000
Wire Wire Line
	15150 5200 14400 5200
Wire Wire Line
	15150 5500 14400 5500
Wire Wire Line
	12850 3550 13550 3550
Wire Wire Line
	12850 3750 13550 3750
Wire Wire Line
	8700 10450 9400 10450
Wire Wire Line
	15050 3550 14350 3550
Wire Wire Line
	15050 3750 14350 3750
Wire Wire Line
	15050 3950 14350 3950
Wire Wire Line
	6850 6450 6050 6450
Wire Wire Line
	6850 6700 6050 6700
Wire Wire Line
	6850 6950 6050 6950
Wire Wire Line
	6850 7200 6050 7200
Wire Wire Line
	1800 7000 2550 7000
Wire Wire Line
	1800 7200 2550 7200
Wire Wire Line
	1800 7400 2550 7400
Wire Wire Line
	1800 7600 2550 7600
Wire Wire Line
	12850 5700 13600 5700
Wire Wire Line
	6200 8150 5550 8150
Wire Wire Line
	6600 8050 6600 8100
Wire Wire Line
	6600 8100 6650 8100
Connection ~ 1150 1800
Connection ~ 1100 1800
Wire Wire Line
	10575 1100 10625 1100
Wire Wire Line
	11425 1200 11525 1200
Connection ~ 1900 9250
Connection ~ 1900 9650
Wire Wire Line
	2250 10950 3600 10950
Connection ~ 2550 10950
Connection ~ 2400 10950
Wire Wire Line
	11550 1300 11425 1300
Wire Wire Line
	10625 1300 10525 1300
Connection ~ 15300 8750
Wire Wire Line
	15250 9500 15300 9500
Wire Wire Line
	15300 9500 15300 8550
Connection ~ 15300 9300
Wire Wire Line
	14600 9100 14650 9100
Connection ~ 14600 9300
Wire Wire Line
	15300 8900 15350 8900
Connection ~ 15300 8900
Wire Wire Line
	13550 3050 13350 3050
Wire Wire Line
	13600 4600 13400 4600
Wire Wire Line
	14400 4700 14700 4700
Wire Wire Line
	8700 10150 9400 10150
Wire Wire Line
	15050 3150 14350 3150
Wire Wire Line
	15300 4800 14400 4800
Wire Wire Line
	13050 4150 13550 4150
Wire Wire Line
	12950 4050 12950 4200
Wire Wire Line
	10625 1000 10570 1000
Wire Wire Line
	14750 9900 14225 9900
Wire Wire Line
	10450 6850 11050 6850
Connection ~ 11050 6850
Wire Wire Line
	15050 4050 14350 4050
Wire Notes Line
	8400 9250 12500 9250
Wire Notes Line
	11300 7950 12500 7950
Wire Notes Line
	11300 7950 11300 7650
Wire Notes Line
	11300 7650 11150 7650
Wire Notes Line
	11150 7650 11150 6300
Wire Notes Line
	12500 7950 12500 9250
Wire Wire Line
	14350 8350 14450 8350
Wire Bus Line
	550  8450 7350 8450
Wire Bus Line
	7350 8450 7350 11150
Wire Bus Line
	7350 11150 550  11150
Wire Wire Line
	7900 9550 7450 9550
Wire Wire Line
	14350 8250 14850 8250
Wire Wire Line
	14850 8250 14850 8400
Wire Wire Line
	12100 8950 12250 8950
Text Label 12100 8950 0    60   ~ 0
GPMI_D02
Text Label 8550 8900 0    60   ~ 0
GPMI_D00
$Comp
L R R52
U 1 1 50512E74
P 12100 8700
F 0 "R52" V 12180 8700 50  0000 C CNN
F 1 "10k" V 12100 8700 50  0000 C CNN
	1    12100 8700
	1    0    0    -1  
$EndComp
$Comp
L VDDIO_3V3 #PWR01
U 1 1 50512E73
P 12100 8450
F 0 "#PWR01" H 12100 8550 30  0001 C CNN
F 1 "VDDIO_3V3" H 12100 8550 30  0000 C CNN
	1    12100 8450
	1    0    0    -1  
$EndComp
$Comp
L VDDIO_3V3 #PWR02
U 1 1 50512E6C
P 8550 8400
F 0 "#PWR02" H 8550 8500 30  0001 C CNN
F 1 "VDDIO_3V3" H 8550 8500 30  0000 C CNN
	1    8550 8400
	1    0    0    -1  
$EndComp
$Comp
L R R51
U 1 1 50512E6B
P 8550 8650
F 0 "R51" V 8630 8650 50  0000 C CNN
F 1 "10k" V 8550 8650 50  0000 C CNN
	1    8550 8650
	1    0    0    -1  
$EndComp
$Comp
L VDD5V #PWR03
U 1 1 50088BAF
P 14550 8150
F 0 "#PWR03" H 14550 8250 30  0001 C CNN
F 1 "VDD5V" H 14650 8150 30  0000 C CNN
	1    14550 8150
	1    0    0    -1  
$EndComp
Text HLabel 1950 6000 0    60   BiDi ~ 0
BOOT_MODE
Text Notes 9000 9100 0    60   ~ 12
Para hacer boot por la SD soldar R48, R49 no se solda\nPara hacer boot por la memoria SPI soldar R49, R48 no se solda\n
Text Label 1950 5900 0    60   ~ 0
GPMI_RDY1
Text Label 2000 6100 0    60   ~ 0
GPMI_WRN
Text Label 2000 5100 0    60   ~ 0
GPMI_D02
Text Label 2000 5000 0    60   ~ 0
GPMI_D01
Text Label 2000 4900 0    60   ~ 0
GPMI_D00
Text Label 2000 5300 0    60   ~ 0
GPMI_D04
Text Label 11300 8650 0    60   ~ 0
GPMI_RDY1
Text Label 11300 8550 0    60   ~ 0
GPMI_WRN
Text Label 11300 8450 0    60   ~ 0
GPMI_D02
Text Label 9650 8550 0    60   ~ 0
GPMI_D01
Text Label 9650 8450 0    60   ~ 0
GPMI_D00
$Comp
L M25P32 U3
U 1 1 4F3FC78E
P 10700 8400
F 0 "U3" H 10550 8550 60  0000 C CNN
F 1 "M25P32" H 10500 8650 60  0000 C CNN
F 2 "SO16W" H 10700 8400 60  0001 C CNN
	1    10700 8400
	1    0    0    -1  
$EndComp
$Comp
L GND #PWR04
U 1 1 4F3FC78D
P 9550 8900
F 0 "#PWR04" H 9550 8900 30  0001 C CNN
F 1 "GND" H 9550 8830 30  0001 C CNN
	1    9550 8900
	1    0    0    -1  
$EndComp
$Comp
L VDDIO_3V3 #PWR05
U 1 1 4F3FC78C
P 11400 8150
F 0 "#PWR05" H 11400 8250 30  0001 C CNN
F 1 "VDDIO_3V3" H 11400 8250 30  0000 C CNN
	1    11400 8150
	1    0    0    -1  
$EndComp
$Comp
L C C68
U 1 1 4F3FC78B
P 11800 8200
F 0 "C68" V 11850 8350 50  0000 L CNN
F 1 "0.1uF" V 11750 8350 50  0000 L CNN
	1    11800 8200
	0    1    1    0   
$EndComp
$Comp
L GND #PWR06
U 1 1 4F3FC78A
P 12300 8250
F 0 "#PWR06" H 12300 8250 30  0001 C CNN
F 1 "GND" H 12300 8180 30  0001 C CNN
	1    12300 8250
	1    0    0    -1  
$EndComp
$Comp
L R R8
U 1 1 4F3FC789
P 9850 8000
F 0 "R8" V 9930 8000 50  0000 C CNN
F 1 "10k" V 9850 8000 50  0000 C CNN
	1    9850 8000
	1    0    0    -1  
$EndComp
$Comp
L VDDIO_3V3 #PWR07
U 1 1 4F3FC788
P 9850 7750
F 0 "#PWR07" H 9850 7850 30  0001 C CNN
F 1 "VDDIO_3V3" H 9850 7850 30  0000 C CNN
	1    9850 7750
	1    0    0    -1  
$EndComp
Text Label 14450 4050 0    60   ~ 0
RESET_PB
Text Label 9250 2800 0    60   ~ 0
RESET_PB
Text HLabel 1900 6500 0    60   BiDi ~ 0
PWM2
Text HLabel 1950 6800 0    60   BiDi ~ 0
AUART_TX
Text HLabel 1950 6700 0    60   BiDi ~ 0
AUART_RX
Text Label 13050 5000 0    60   ~ 0
GND
$Comp
L 3V3 #PWR08
U 1 1 4E8B06C9
P 14600 4600
F 0 "#PWR08" H 14600 4700 30  0001 C CNN
F 1 "3V3" H 14600 4710 30  0000 C CNN
	1    14600 4600
	1    0    0    -1  
$EndComp
$Comp
L 3V3 #PWR09
U 1 1 4E8B06C5
P 13400 4600
F 0 "#PWR09" H 13400 4700 30  0001 C CNN
F 1 "3V3" H 13400 4710 30  0000 C CNN
	1    13400 4600
	1    0    0    -1  
$EndComp
Text Label 14600 5300 0    60   ~ 0
GND
Text Label 13000 5300 0    60   ~ 0
GND
$Comp
L CONN_1 P10
U 1 1 4E85FA6B
P 15500 9000
F 0 "P10" H 15580 9000 40  0000 L CNN
F 1 "CONN_1" H 15500 9055 30  0001 C CNN
F 2 "MHOLE" H 15500 9000 60  0001 C CNN
	1    15500 9000
	1    0    0    -1  
$EndComp
Text Label 14285 9900 0    60   ~ 0
GPMI_D07
Text Label 2105 5200 0    60   ~ 0
D03
Text HLabel 11535 1000 2    60   BiDi ~ 0
USM_P2
Text HLabel 10570 1000 0    60   BiDi ~ 0
USB_M2
$Comp
L GND #PWR010
U 1 1 4E831A55
P 15300 4850
F 0 "#PWR010" H 15300 4850 30  0001 C CNN
F 1 "GND" H 15300 4780 30  0001 C CNN
	1    15300 4850
	1    0    0    -1  
$EndComp
Text Label 14450 3050 0    60   ~ 0
GPMI_D07
Text Label 14450 3150 0    60   ~ 0
GPMI_D05
Text Label 9200 10150 2    60   ~ 0
SSPI_DATA3
Text HLabel 9400 10550 2    60   BiDi ~ 0
I2C_SCL
Text HLabel 9400 10450 2    60   BiDi ~ 0
I2C_SDA
Text HLabel 9400 9850 2    60   BiDi ~ 0
GPMI_CE0N
Text HLabel 9400 10300 2    60   BiDi ~ 0
SSPI_DETECT
Text HLabel 9400 9750 2    60   BiDi ~ 0
GPMI_CE1N
Text HLabel 9400 9650 2    60   BiDi ~ 0
GPMI_D06
Text HLabel 9400 10150 2    60   BiDi ~ 0
SSPI_DATA3
$Comp
L 3V3 #PWR011
U 1 1 4E81E170
P 13300 4700
F 0 "#PWR011" H 13300 4800 30  0001 C CNN
F 1 "3V3" H 13300 4810 30  0000 C CNN
	1    13300 4700
	1    0    0    -1  
$EndComp
$Comp
L 3V3 #PWR012
U 1 1 4E81E168
P 14700 4700
F 0 "#PWR012" H 14700 4800 30  0001 C CNN
F 1 "3V3" H 14700 4810 30  0000 C CNN
	1    14700 4700
	1    0    0    -1  
$EndComp
$Comp
L VDD5V #PWR013
U 1 1 4E81DF50
P 13300 3950
F 0 "#PWR013" H 13300 4050 30  0001 C CNN
F 1 "VDD5V" H 13200 3950 30  0000 C CNN
	1    13300 3950
	1    0    0    -1  
$EndComp
$Comp
L GND #PWR014
U 1 1 4E4D03B1
P 14400 8800
F 0 "#PWR014" H 14400 8800 30  0001 C CNN
F 1 "GND" H 14400 8730 30  0001 C CNN
	1    14400 8800
	0    1    1    0   
$EndComp
$Comp
L INDUCTOR L13
U 1 1 4E4D033C
P 14950 9500
F 0 "L13" V 14900 9500 40  0000 C CNN
F 1 "HZ0805D152R-10 (1500 ohm)" V 14800 9650 40  0000 C CNN
F 2 "SM0805" H 14950 9500 60  0001 C CNN
	1    14950 9500
	0    1    -1   0   
$EndComp
$Comp
L INDUCTOR L12
U 1 1 4E4D0338
P 14950 9300
F 0 "L12" V 14900 9300 40  0000 C CNN
F 1 "HZ0805D152R-10 (1500 ohm)" V 14800 9450 40  0000 C CNN
F 2 "SM0805" H 14950 9300 60  0001 C CNN
	1    14950 9300
	0    1    -1   0   
$EndComp
$Comp
L INDUCTOR L11
U 1 1 4E4D0325
P 14950 9100
F 0 "L11" V 14900 9100 40  0000 C CNN
F 1 "HZ0805D152R-10 (1500 ohm)" V 14800 9250 40  0000 C CNN
F 2 "SM0805" H 14950 9100 60  0001 C CNN
	1    14950 9100
	0    1    -1   0   
$EndComp
Text GLabel 15300 8750 0    60   Input ~ 0
GND_CASE
$Comp
L CONN_1 P7
U 1 1 4E4BC769
P 15500 8900
F 0 "P7" H 15580 8900 40  0000 L CNN
F 1 "CONN_1" H 15500 8955 30  0001 C CNN
F 2 "MHOLE" H 15500 8900 60  0001 C CNN
	1    15500 8900
	1    0    0    -1  
$EndComp
$Comp
L GND #PWR015
U 1 1 4E48679E
P 12850 5750
F 0 "#PWR015" H 12850 5750 30  0001 C CNN
F 1 "GND" H 12850 5680 30  0001 C CNN
	1    12850 5750
	1    0    0    -1  
$EndComp
$Comp
L VDD5V #PWR016
U 1 1 4E48670D
P 10525 1300
F 0 "#PWR016" H 10525 1400 30  0001 C CNN
F 1 "VDD5V" H 10525 1400 30  0000 C CNN
	1    10525 1300
	0    -1   -1   0   
$EndComp
$Comp
L CONN_4X2 P4
U 1 1 4DA8A543
P 11025 1150
F 0 "P4" H 11025 1400 50  0000 C CNN
F 1 "CONN_4X2" V 11025 1150 40  0000 C CNN
	1    11025 1150
	1    0    0    -1  
$EndComp
Text HLabel 10575 1100 0    60   BiDi ~ 0
USB_M3
Text HLabel 11525 1100 2    60   BiDi ~ 0
USM_P3
Text HLabel 10575 1200 0    60   BiDi ~ 0
USB_M4
Text HLabel 11525 1200 2    60   BiDi ~ 0
USB_P4
Text Label 15300 8700 0    60   ~ 0
GND_CASE
$Comp
L CONN_1 P5
U 1 1 4E434391
P 15500 8750
F 0 "P5" H 15580 8750 40  0000 L CNN
F 1 "CONN_1" H 15500 8805 30  0001 C CNN
F 2 "MHOLE" H 15500 8750 60  0001 C CNN
	1    15500 8750
	1    0    0    -1  
$EndComp
$Comp
L CONN_1 P3
U 1 1 4E4341F9
P 15500 8550
F 0 "P3" H 15580 8550 40  0000 L CNN
F 1 "CONN_1" H 15500 8605 30  0001 C CNN
F 2 "MHOLE" H 15500 8550 60  0001 C CNN
	1    15500 8550
	1    0    0    -1  
$EndComp
$Comp
L ABM8G X1
U 1 1 4E431143
P 1600 1800
F 0 "X1" H 1600 1950 60  0000 C CNN
F 1 "24MHz" H 1600 1650 60  0000 C CNN
F 2 "ABM8G" H 1600 1800 60  0001 C CNN
	1    1600 1800
	0    1    1    0   
$EndComp
$Comp
L INDUCTOR L8
U 1 1 4E40541F
P 6950 8100
F 0 "L8" V 6900 8100 40  0000 C CNN
F 1 "HZ0805D152R-10 (1500 ohm)" V 7050 8350 40  0000 C CNN
	1    6950 8100
	0    1    -1   0   
$EndComp
Text Label 5650 8150 0    60   ~ 0
HP_VGND
Text Label 14600 5400 0    60   ~ 0
HP_VGND
Text Label 13000 5600 0    60   ~ 0
MIC
Text Label 15000 5700 2    60   ~ 0
PSWITCH
Text Label 13000 5500 0    60   ~ 0
LINE1_INR
Text Label 14600 5600 0    60   ~ 0
LINE1_INL
$Comp
L GND #PWR017
U 1 1 4E4054A0
P 7250 8200
F 0 "#PWR017" H 7250 8200 30  0001 C CNN
F 1 "GND" H 7250 8130 30  0001 C CNN
	1    7250 8200
	1    0    0    -1  
$EndComp
$Comp
L C C17
U 1 1 4E405384
P 6600 7850
F 0 "C17" H 6650 7950 50  0000 L CNN
F 1 "1uF" H 6650 7750 50  0000 L CNN
	1    6600 7850
	1    0    0    -1  
$EndComp
Text Label 6250 6450 0    60   ~ 0
MIC
Text Label 14600 5500 0    60   ~ 0
HPL
Text Label 13000 5400 0    60   ~ 0
HPR
Text Label 14600 5100 0    60   ~ 0
VDAC1
Text Label 6250 7350 0    60   ~ 0
VDAC1
Text Label 6250 7100 0    60   ~ 0
HPR
Text Label 6250 7200 0    60   ~ 0
HPL
$Comp
L CONN_12X2 P1
U 1 1 4E3D723D
P 14000 5150
F 0 "P1" H 14000 5800 60  0000 C CNN
F 1 "CONN_12X2" V 14000 5150 50  0000 C CNN
	1    14000 5150
	1    0    0    -1  
$EndComp
Text HLabel 2150 2600 0    60   BiDi ~ 0
USB_DM
Text HLabel 2150 2500 0    60   BiDi ~ 0
USB_DP
$Comp
L GND #PWR018
U 1 1 4DAF6E45
P 12800 1850
F 0 "#PWR018" H 12800 1850 30  0001 C CNN
F 1 "GND" H 12800 1780 30  0001 C CNN
	1    12800 1850
	1    0    0    -1  
$EndComp
$Comp
L JUMPER JP2
U 1 1 4DAF6E3C
P 13800 1850
F 0 "JP2" H 13800 2000 60  0000 C CNN
F 1 "JUMPER" H 13800 1770 40  0000 C CNN
	1    13800 1850
	1    0    0    -1  
$EndComp
$Comp
L R R18
U 1 1 4DAF6E3B
P 14400 1850
F 0 "R18" V 14350 1650 50  0000 C CNN
F 1 "11k" V 14400 1850 50  0000 C CNN
	1    14400 1850
	0    -1   -1   0   
$EndComp
$Comp
L R R12
U 1 1 4DAF6E3A
P 13200 1850
F 0 "R12" V 13150 1650 50  0000 C CNN
F 1 "1.5k" V 13200 1850 50  0000 C CNN
	1    13200 1850
	0    -1   -1   0   
$EndComp
$Comp
L GND #PWR019
U 1 1 4DAF6A94
P 12800 2200
F 0 "#PWR019" H 12800 2200 30  0001 C CNN
F 1 "GND" H 12800 2130 30  0001 C CNN
	1    12800 2200
	1    0    0    -1  
$EndComp
$Comp
L JUMPER JP3
U 1 1 4DAF62ED
P 13800 2200
F 0 "JP3" H 13800 2350 60  0000 C CNN
F 1 "JUMPER" H 13800 2120 40  0000 C CNN
	1    13800 2200
	1    0    0    -1  
$EndComp
$Comp
L R R19
U 1 1 4DAF62EC
P 14400 2200
F 0 "R19" V 14350 2000 50  0000 C CNN
F 1 "11k" V 14400 2200 50  0000 C CNN
	1    14400 2200
	0    -1   -1   0   
$EndComp
$Comp
L R R14
U 1 1 4DAF62EB
P 13200 2200
F 0 "R14" V 13150 2000 50  0000 C CNN
F 1 "1.5k" V 13200 2200 50  0000 C CNN
	1    13200 2200
	0    -1   -1   0   
$EndComp
$Comp
L VDDIO_3V3 #PWR020
U 1 1 4DAF62EA
P 14850 2200
F 0 "#PWR020" H 14850 2300 30  0001 C CNN
F 1 "VDDIO_3V3" H 14850 2300 30  0000 C CNN
	1    14850 2200
	1    0    0    -1  
$EndComp
$Comp
L GND #PWR021
U 1 1 4DAF62DA
P 14850 1500
F 0 "#PWR021" H 14850 1500 30  0001 C CNN
F 1 "GND" H 14850 1430 30  0001 C CNN
	1    14850 1500
	1    0    0    -1  
$EndComp
$Comp
L VDDIO_3V3 #PWR022
U 1 1 4DAF62D9
P 12800 1500
F 0 "#PWR022" H 12800 1600 30  0001 C CNN
F 1 "VDDIO_3V3" H 12800 1600 30  0000 C CNN
	1    12800 1500
	1    0    0    -1  
$EndComp
$Comp
L R R11
U 1 1 4DAF62D8
P 13200 1500
F 0 "R11" V 13150 1300 50  0000 C CNN
F 1 "1.5k" V 13200 1500 50  0000 C CNN
	1    13200 1500
	0    -1   -1   0   
$EndComp
$Comp
L R R17
U 1 1 4DAF62D7
P 14400 1500
F 0 "R17" V 14300 1350 50  0000 C CNN
F 1 "11k" V 14400 1500 50  0000 C CNN
	1    14400 1500
	0    -1   -1   0   
$EndComp
$Comp
L JUMPER JP1
U 1 1 4DAF62D6
P 13800 1500
F 0 "JP1" H 13800 1650 60  0000 C CNN
F 1 "JUMPER" H 13800 1420 40  0000 C CNN
	1    13800 1500
	1    0    0    -1  
$EndComp
$Comp
L R R15
U 1 1 4DAF627D
P 13550 1100
F 0 "R15" V 13500 900 50  0000 C CNN
F 1 "11k" V 13550 1100 50  0000 C CNN
	1    13550 1100
	0    -1   -1   0   
$EndComp
Text Label 12850 900  0    60   ~ 0
LCD_D5
$Comp
L VDDIO_3V3 #PWR023
U 1 1 4DAF615F
P 14850 1850
F 0 "#PWR023" H 14850 1950 30  0001 C CNN
F 1 "VDDIO_3V3" H 14850 1950 30  0000 C CNN
	1    14850 1850
	1    0    0    -1  
$EndComp
Text Label 9000 6950 0    40   ~ 0
D03
$Comp
L R R32
U 1 1 4DA85DCD
P 13550 900
F 0 "R32" V 13500 700 50  0000 C CNN
F 1 "47k" V 13550 900 50  0000 C CNN
	1    13550 900 
	0    -1   -1   0   
$EndComp
$Comp
L GND #PWR024
U 1 1 4DA85DCC
P 14050 900
F 0 "#PWR024" H 14050 900 30  0001 C CNN
F 1 "GND" H 14050 830 30  0001 C CNN
	1    14050 900 
	1    0    0    -1  
$EndComp
$Comp
L INDUCTOR L2
U 1 1 4DA85BBA
P 5250 8150
F 0 "L2" V 5200 8150 40  0000 C CNN
F 1 "HZ0805D152R-10 (1500 ohm)" V 5100 8300 40  0000 C CNN
	1    5250 8150
	0    1    -1   0   
$EndComp
Text Notes 11600 7750 0    60   ~ 0
ADM3101E CIRCUIT
Text Notes 10700 825  0    60   ~ 0
UART CONNECTOR
$Comp
L C C2
U 1 1 4D7EAC88
P 15000 6750
F 0 "C2" H 15050 6850 50  0000 L CNN
F 1 "0.1uF" H 15050 6650 50  0000 L CNN
	1    15000 6750
	-1   0    0    1   
$EndComp
$Comp
L C C5
U 1 1 4D7EAC84
P 15400 7250
F 0 "C5" H 15450 7350 50  0000 L CNN
F 1 "0.1uF" H 15450 7150 50  0000 L CNN
	1    15400 7250
	1    0    0    -1  
$EndComp
$Comp
L C C3
U 1 1 4D7EAC82
P 15750 6750
F 0 "C3" H 15800 6850 50  0000 L CNN
F 1 "0.1uF" H 15800 6650 50  0000 L CNN
	1    15750 6750
	1    0    0    -1  
$EndComp
$Comp
L C C1
U 1 1 4D7EAC7D
P 13150 6750
F 0 "C1" H 13200 6850 50  0000 L CNN
F 1 "0.1uF" H 13200 6650 50  0000 L CNN
	1    13150 6750
	1    0    0    -1  
$EndComp
$Comp
L C C4
U 1 1 4D7EAC77
P 12750 6950
F 0 "C4" H 12800 7050 50  0000 L CNN
F 1 ".1uF" H 12800 6850 50  0000 L CNN
	1    12750 6950
	1    0    0    -1  
$EndComp
Text Label 13350 4150 0    60   ~ 0
RX
Text Label 14450 4150 0    60   ~ 0
TX
$Comp
L GND #PWR025
U 1 1 4D7E9F48
P 12950 4200
F 0 "#PWR025" H 12950 4200 30  0001 C CNN
F 1 "GND" H 12950 4130 30  0001 C CNN
	1    12950 4200
	1    0    0    -1  
$EndComp
$Comp
L VDDIO_3V3 #PWR026
U 1 1 4D7E9F02
P 12200 6400
F 0 "#PWR026" H 12200 6500 30  0001 C CNN
F 1 "VDDIO_3V3" H 12200 6500 30  0000 C CNN
	1    12200 6400
	1    0    0    -1  
$EndComp
$Comp
L LED D5
U 1 1 4D7E9EF6
P 12200 6600
F 0 "D5" H 12200 6700 50  0000 C CNN
F 1 "LED" H 12200 6500 50  0000 C CNN
	1    12200 6600
	0    1    1    0   
$EndComp
$Comp
L R R31
U 1 1 4D7E9EED
P 12200 7100
F 0 "R31" V 12280 7100 50  0000 C CNN
F 1 "1k" V 12200 7100 50  0000 C CNN
	1    12200 7100
	1    0    0    -1  
$EndComp
$Comp
L GND #PWR027
U 1 1 4D7E9E07
P 15350 10550
F 0 "#PWR027" H 15350 10550 30  0001 C CNN
F 1 "GND" H 15350 10480 30  0001 C CNN
	1    15350 10550
	1    0    0    -1  
$EndComp
$Comp
L R R28
U 1 1 4D7E9E03
P 15350 10150
F 0 "R28" V 15430 10150 50  0000 C CNN
F 1 "1k" V 15350 10150 50  0000 C CNN
	1    15350 10150
	1    0    0    -1  
$EndComp
$Comp
L LED D3
U 1 1 4D7E9DFD
P 14950 9900
F 0 "D3" H 14950 10000 50  0000 C CNN
F 1 "LED" H 14950 9800 50  0000 C CNN
	1    14950 9900
	1    0    0    1   
$EndComp
$Comp
L R R9
U 1 1 4D7E9D93
P 6350 1500
F 0 "R9" V 6430 1500 50  0000 C CNN
F 1 "1k" V 6350 1500 50  0000 C CNN
	1    6350 1500
	0    1    1    0   
$EndComp
$Comp
L LED D2
U 1 1 4D7E9D8D
P 5800 1500
F 0 "D2" H 5800 1600 50  0000 C CNN
F 1 "LED" H 5800 1400 50  0000 C CNN
	1    5800 1500
	1    0    0    -1  
$EndComp
$Comp
L GND #PWR028
U 1 1 4D7E9D70
P 6750 1650
F 0 "#PWR028" H 6750 1650 30  0001 C CNN
F 1 "GND" H 6750 1580 30  0001 C CNN
	1    6750 1650
	1    0    0    -1  
$EndComp
$Comp
L GND #PWR029
U 1 1 4D7E9CCE
P 11050 4750
F 0 "#PWR029" H 11050 4750 30  0001 C CNN
F 1 "GND" H 11050 4680 30  0001 C CNN
	1    11050 4750
	1    0    0    -1  
$EndComp
$Comp
L R R30
U 1 1 4D7E9CC8
P 10800 4750
F 0 "R30" V 10880 4750 50  0000 C CNN
F 1 "1k" V 10800 4750 50  0000 C CNN
	1    10800 4750
	0    1    1    0   
$EndComp
$Comp
L LED D4
U 1 1 4D7E9C51
P 10200 4750
F 0 "D4" H 10200 4850 50  0000 C CNN
F 1 "LED" H 10200 4650 50  0000 C CNN
	1    10200 4750
	1    0    0    -1  
$EndComp
Text Label 15150 7250 2    60   ~ 0
TX
Text Label 15050 7350 0    60   ~ 0
RX
Text Label 11750 7350 0    60   ~ 0
PWM1
Text Label 12950 7250 0    60   ~ 0
PWM0
NoConn ~ 13900 6450
NoConn ~ 14000 6450
NoConn ~ 14100 6450
NoConn ~ 14200 6450
$Comp
L GND #PWR030
U 1 1 4D7E9762
P 14050 7850
F 0 "#PWR030" H 14050 7850 30  0001 C CNN
F 1 "GND" H 14050 7780 30  0001 C CNN
	1    14050 7850
	1    0    0    -1  
$EndComp
$Comp
L GND #PWR031
U 1 1 4D7E9743
P 15400 7600
F 0 "#PWR031" H 15400 7600 30  0001 C CNN
F 1 "GND" H 15400 7530 30  0001 C CNN
	1    15400 7600
	1    0    0    -1  
$EndComp
$Comp
L VDDIO_3V3 #PWR032
U 1 1 4D7E970F
P 15000 6550
F 0 "#PWR032" H 15000 6650 30  0001 C CNN
F 1 "VDDIO_3V3" H 15000 6650 30  0000 C CNN
	1    15000 6550
	1    0    0    -1  
$EndComp
$Comp
L ADM3101E U1
U 1 1 4D7E9426
P 14050 7150
F 0 "U1" H 14050 7300 60  0000 C CNN
F 1 "ADM3101E" H 14350 6750 60  0000 C CNN
F 2 "QSOP16" H 14050 7150 60  0001 C CNN
	1    14050 7150
	1    0    0    -1  
$EndComp
$Comp
L VDDIO_3V3 #PWR033
U 1 1 4D7E765F
P 9200 7250
F 0 "#PWR033" H 9200 7350 30  0001 C CNN
F 1 "VDDIO_3V3" H 9200 7350 30  0000 C CNN
	1    9200 7250
	1    0    0    -1  
$EndComp
$Comp
L R R29
U 1 1 4D7E7656
P 9600 7250
F 0 "R29" V 9680 7250 50  0000 C CNN
F 1 "47k" V 9600 7250 50  0000 C CNN
	1    9600 7250
	0    1    1    0   
$EndComp
Text HLabel 9000 7000 0    30   Input ~ 0
GPMI_D02
Text HLabel 9000 6650 0    30   Input ~ 0
GPMI_D01
Text Label 10000 7550 1    30   Italic 0
GPMI_RDY0
$Comp
L GND #PWR034
U 1 1 4D59B301
P 11050 7300
F 0 "#PWR034" H 11050 7300 30  0001 C CNN
F 1 "GND" H 11050 7230 30  0001 C CNN
	1    11050 7300
	1    0    0    -1  
$EndComp
$Comp
L MICROSD J1
U 1 1 4D59B1E9
P 9100 7200
F 0 "J1" H 9550 7850 60  0000 C CNN
F 1 "MICROSD" H 9500 7300 60  0000 C CNN
	1    9100 7200
	1    0    0    -1  
$EndComp
NoConn ~ 2550 4600
$Comp
L CONN_12X2 P2
U 1 1 4D52FF9F
P 13950 3600
F 0 "P2" H 13950 4250 60  0000 C CNN
F 1 "CONN_12X2" V 13950 3600 50  0000 C CNN
F 2 "CONN_12X2" H 13950 3600 60  0001 C CNN
	1    13950 3600
	1    0    0    -1  
$EndComp
Text Notes 8850 6150 0    60   ~ 0
Power Supply
$Comp
L VDD5V #PWR035
U 1 1 4D4AB9B5
P 9500 4700
F 0 "#PWR035" H 9500 4800 30  0001 C CNN
F 1 "VDD5V" H 9500 4800 30  0000 C CNN
	1    9500 4700
	1    0    0    -1  
$EndComp
NoConn ~ 1950 5700
Text Notes 9650 6450 0    60   ~ 0
MICRO_SD
Text Label 15000 5000 2    60   ~ 0
SSPI_SCK
Text Label 15100 4900 2    60   ~ 0
SSPI_DATA0
Text Label 13550 4900 2    60   ~ 0
SSPI_DATA3
Text Label 13450 4800 2    60   ~ 0
SSPI_CMD
Text Label 2350 7000 2    60   ~ 0
SSPI_CMD
Text Label 2450 7100 2    60   ~ 0
SSPI_DATA0
Text Label 2300 7600 2    60   ~ 0
SSPI_SCK
Text HLabel 1950 4900 0    60   Output ~ 0
GPMI_D00
Text HLabel 1950 5100 0    60   Output ~ 0
GPMI_D02
Text HLabel 1950 5300 0    60   Output ~ 0
GPMI_D04
Text HLabel 1950 6100 0    60   Output ~ 0
GPMI_WRN
Text HLabel 1950 5900 0    60   Output ~ 0
GPMI_RDY1
Text HLabel 1950 5000 0    60   Output ~ 0
GPMI_D01
Text HLabel 9000 6700 0    30   Input ~ 0
GPMI_D00
Text HLabel 9000 6800 0    30   Input ~ 0
GPMI_WRN
Text HLabel 9000 6900 0    30   Input ~ 0
GPMI_RDY1
Text Notes 10725 750  0    60   ~ 0
USB CONNECTOR
Text Label 2450 7400 2    60   ~ 0
SSPI_DATA3
$Comp
L VDDIO_3V3 #PWR036
U 1 1 4D4719C5
P 8800 6500
F 0 "#PWR036" H 8800 6600 30  0001 C CNN
F 1 "VDDIO_3V3" H 8800 6600 30  0000 C CNN
	1    8800 6500
	1    0    0    -1  
$EndComp
$Comp
L GND #PWR037
U 1 1 4D4719BC
P 8550 6800
F 0 "#PWR037" H 8550 6800 30  0001 C CNN
F 1 "GND" H 8550 6730 30  0001 C CNN
	1    8550 6800
	1    0    0    -1  
$EndComp
Text Label 1950 6000 0    60   ~ 0
GPMI_WPN
Text Label 1950 5800 0    60   ~ 0
GPMI_RDY0
Text Label 1950 5700 0    60   ~ 0
GPMI_RDN
$Comp
L iMX233 IC1
U 1 1 4D42FBDD
P 4300 4900
F 0 "IC1" H 2800 1850 60  0000 C CNN
F 1 "iMX233" H 2875 7950 60  0000 C CNN
	1    4300 4900
	1    0    0    -1  
$EndComp
$Comp
L PWR_FLAG #FLG038
U 1 1 4D42EB33
P 10950 4300
F 0 "#FLG038" H 10950 4570 30  0001 C CNN
F 1 "PWR_FLAG" H 10950 4530 30  0000 C CNN
	1    10950 4300
	-1   0    0    1   
$EndComp
$Comp
L VDDA #PWR039
U 1 1 4D42EB32
P 10950 4250
F 0 "#PWR039" H 10950 4350 30  0001 C CNN
F 1 "VDDA" H 10950 4350 30  0000 C CNN
	1    10950 4250
	1    0    0    -1  
$EndComp
$Comp
L VDDD #PWR040
U 1 1 4D42EAA2
P 10700 4250
F 0 "#PWR040" H 10700 4350 30  0001 C CNN
F 1 "VDDD" H 10700 4350 30  0000 C CNN
	1    10700 4250
	1    0    0    -1  
$EndComp
$Comp
L PWR_FLAG #FLG041
U 1 1 4D42EAA1
P 10700 4300
F 0 "#FLG041" H 10700 4570 30  0001 C CNN
F 1 "PWR_FLAG" H 10700 4530 30  0000 C CNN
	1    10700 4300
	-1   0    0    1   
$EndComp
$Comp
L VBUS_HOST #PWR042
U 1 1 4D42E9D1
P 8700 4250
F 0 "#PWR042" H 8700 4350 30  0001 C CNN
F 1 "VBUS_HOST" H 8700 4350 30  0000 C CNN
	1    8700 4250
	1    0    0    -1  
$EndComp
$Comp
L PWR_FLAG #FLG043
U 1 1 4D42E9D0
P 8700 4250
F 0 "#FLG043" H 8700 4520 30  0001 C CNN
F 1 "PWR_FLAG" H 8700 4480 30  0000 C CNN
	1    8700 4250
	-1   0    0    1   
$EndComp
$Comp
L PWR_FLAG #FLG044
U 1 1 4D42E9A9
P 8950 4300
F 0 "#FLG044" H 8950 4570 30  0001 C CNN
F 1 "PWR_FLAG" H 8950 4530 30  0000 C CNN
	1    8950 4300
	-1   0    0    1   
$EndComp
$Comp
L VDDM_2V5 #PWR045
U 1 1 4D42E9A8
P 8950 4250
F 0 "#PWR045" H 8950 4350 30  0001 C CNN
F 1 "VDDM_2V5" H 8950 4350 30  0000 C CNN
	1    8950 4250
	1    0    0    -1  
$EndComp
$Comp
L PWR_FLAG #FLG046
U 1 1 4D42E923
P 10200 4250
F 0 "#FLG046" H 10200 4520 30  0001 C CNN
F 1 "PWR_FLAG" H 10200 4480 30  0000 C CNN
	1    10200 4250
	-1   0    0    1   
$EndComp
$Comp
L VDD4P2 #PWR047
U 1 1 4D42E922
P 10200 4250
F 0 "#PWR047" H 10200 4350 30  0001 C CNN
F 1 "VDD4P2" H 10200 4350 30  0000 C CNN
	1    10200 4250
	1    0    0    -1  
$EndComp
$Comp
L VDD_BATT #PWR048
U 1 1 4D42E913
P 9950 4250
F 0 "#PWR048" H 9950 4350 30  0001 C CNN
F 1 "VDD_BATT" H 9950 4350 30  0000 C CNN
	1    9950 4250
	1    0    0    -1  
$EndComp
$Comp
L VDD_XTAL #PWR049
U 1 1 4D42E910
P 9700 4250
F 0 "#PWR049" H 9700 4350 30  0001 C CNN
F 1 "VDD_XTAL" H 9700 4350 30  0000 C CNN
	1    9700 4250
	1    0    0    -1  
$EndComp
$Comp
L VBUS #PWR050
U 1 1 4D42E90C
P 9450 4250
F 0 "#PWR050" H 9450 4350 30  0001 C CNN
F 1 "VBUS" H 9450 4350 30  0000 C CNN
	1    9450 4250
	1    0    0    -1  
$EndComp
$Comp
L VDD5V #PWR051
U 1 1 4D42E904
P 9200 4250
F 0 "#PWR051" H 9200 4350 30  0001 C CNN
F 1 "VDD5V" H 9200 4350 30  0000 C CNN
	1    9200 4250
	1    0    0    -1  
$EndComp
$Comp
L PWR_FLAG #FLG052
U 1 1 4D42E8AE
P 9950 4250
F 0 "#FLG052" H 9950 4520 30  0001 C CNN
F 1 "PWR_FLAG" H 9950 4480 30  0000 C CNN
	1    9950 4250
	-1   0    0    1   
$EndComp
$Comp
L PWR_FLAG #FLG053
U 1 1 4D42E8AA
P 9700 4250
F 0 "#FLG053" H 9700 4520 30  0001 C CNN
F 1 "PWR_FLAG" H 9700 4480 30  0000 C CNN
	1    9700 4250
	-1   0    0    1   
$EndComp
$Comp
L PWR_FLAG #FLG054
U 1 1 4D42E8A3
P 9450 4250
F 0 "#FLG054" H 9450 4520 30  0001 C CNN
F 1 "PWR_FLAG" H 9450 4480 30  0000 C CNN
	1    9450 4250
	-1   0    0    1   
$EndComp
$Comp
L PWR_FLAG #FLG055
U 1 1 4D42E8A0
P 9200 4250
F 0 "#FLG055" H 9200 4520 30  0001 C CNN
F 1 "PWR_FLAG" H 9200 4480 30  0000 C CNN
	1    9200 4250
	-1   0    0    1   
$EndComp
Text Notes 650  700  0    60   ~ 0
IMX233 PROCESSOR
Text Notes 900  8650 0    60   ~ 0
POWER SUPPLY AND DECOUPLING
Text Label 9250 10300 2    60   ~ 0
SSPI_DETECT
Text Notes 14450 800  0    60   ~ 0
BOOT MODES
Text Notes 8600 2000 0    60   ~ 0
RESET CIRCUIT
$Comp
L VDD_XTAL #PWR056
U 1 1 4D42D64F
P 750 9150
F 0 "#PWR056" H 750 9250 30  0001 C CNN
F 1 "VDD_XTAL" H 750 9250 30  0000 C CNN
	1    750  9150
	1    0    0    -1  
$EndComp
$Comp
L C C23
U 1 1 4D42D64E
P 750 9450
F 0 "C23" H 800 9550 50  0000 L CNN
F 1 "0.1uF" H 800 9350 50  0000 L CNN
	1    750  9450
	1    0    0    -1  
$EndComp
$Comp
L GND #PWR057
U 1 1 4D42D64D
P 750 9800
F 0 "#PWR057" H 750 9800 30  0001 C CNN
F 1 "GND" H 750 9730 30  0001 C CNN
	1    750  9800
	1    0    0    -1  
$EndComp
$Comp
L C C29
U 1 1 4D42D64A
P 1900 9450
F 0 "C29" H 1950 9550 50  0000 L CNN
F 1 "1uF" H 1950 9350 50  0000 L CNN
	1    1900 9450
	1    0    0    -1  
$EndComp
$Comp
L VDD5V #PWR058
U 1 1 4D42D648
P 3000 9150
F 0 "#PWR058" H 3000 9250 30  0001 C CNN
F 1 "VDD5V" H 3000 9250 30  0000 C CNN
	1    3000 9150
	1    0    0    -1  
$EndComp
$Comp
L C C32
U 1 1 4D42D647
P 2650 9450
F 0 "C32" H 2700 9550 50  0000 L CNN
F 1 "0.1uF" H 2700 9350 50  0000 L CNN
	1    2650 9450
	1    0    0    -1  
$EndComp
$Comp
L C C34
U 1 1 4D42D646
P 3000 9800
F 0 "C34" H 3050 9900 50  0000 L CNN
F 1 "4.7uF" H 3050 9700 50  0000 L CNN
	1    3000 9800
	0    1    1    0   
$EndComp
$Comp
L R R1
U 1 1 4D42D645
P 3350 9500
F 0 "R1" V 3430 9500 50  0000 C CNN
F 1 "1" V 3350 9500 50  0000 C CNN
	1    3350 9500
	1    0    0    -1  
$EndComp
$Comp
L GND #PWR059
U 1 1 4D42D644
P 2650 9950
F 0 "#PWR059" H 2650 9950 30  0001 C CNN
F 1 "GND" H 2650 9880 30  0001 C CNN
	1    2650 9950
	1    0    0    -1  
$EndComp
$Comp
L BATTERY BT1
U 1 1 4D42D643
P 3750 9300
F 0 "BT1" H 3750 9500 50  0000 C CNN
F 1 "BATTERY" H 3750 9110 50  0000 C CNN
	1    3750 9300
	0    1    1    0   
$EndComp
$Comp
L VDD_BATT #PWR060
U 1 1 4D42D642
P 4050 8850
F 0 "#PWR060" H 4050 8950 30  0001 C CNN
F 1 "VDD_BATT" H 4050 8950 30  0000 C CNN
	1    4050 8850
	1    0    0    -1  
$EndComp
$Comp
L R R2
U 1 1 4D42D641
P 4500 9250
F 0 "R2" V 4580 9250 50  0000 C CNN
F 1 "0.1" V 4500 9250 50  0000 C CNN
	1    4500 9250
	1    0    0    -1  
$EndComp
$Comp
L CP1 C40
U 1 1 4D42D640
P 4500 9850
F 0 "C40" H 4550 9950 50  0000 L CNN
F 1 "33uF Ceramic" H 3900 9850 50  0000 L CNN
	1    4500 9850
	1    0    0    -1  
$EndComp
$Comp
L GND #PWR061
U 1 1 4D42D63F
P 4150 10150
F 0 "#PWR061" H 4150 10150 30  0001 C CNN
F 1 "GND" H 4150 10080 30  0001 C CNN
	1    4150 10150
	1    0    0    -1  
$EndComp
$Comp
L C C41
U 1 1 4D42D63E
P 4850 9500
F 0 "C41" H 4900 9600 50  0000 L CNN
F 1 "0.1uF" H 4900 9400 50  0000 L CNN
	1    4850 9500
	1    0    0    -1  
$EndComp
$Comp
L C C43
U 1 1 4D42D63D
P 5200 9500
F 0 "C43" H 5250 9600 50  0000 L CNN
F 1 "1uF" H 5250 9400 50  0000 L CNN
	1    5200 9500
	1    0    0    -1  
$EndComp
$Comp
L C C45
U 1 1 4D42D63C
P 5550 9500
F 0 "C45" H 5600 9600 50  0000 L CNN
F 1 "0.01uF" H 5600 9400 50  0000 L CNN
	1    5550 9500
	1    0    0    -1  
$EndComp
$Comp
L VDD_BATT #PWR062
U 1 1 4D42D63B
P 5750 8800
F 0 "#PWR062" H 5750 8900 30  0001 C CNN
F 1 "VDD_BATT" H 5750 8900 30  0000 C CNN
	1    5750 8800
	1    0    0    -1  
$EndComp
$Comp
L DIODESCH D1
U 1 1 4D42D63A
P 6100 8950
F 0 "D1" H 6100 9050 40  0000 C CNN
F 1 "10BQ015" H 6100 8850 40  0000 C CNN
F 2 "SOD123" H 6100 8950 60  0001 C CNN
	1    6100 8950
	1    0    0    -1  
$EndComp
$Comp
L R R3
U 1 1 4D42D639
P 6600 9300
F 0 "R3" V 6680 9300 50  0000 C CNN
F 1 "0.1" V 6600 9300 50  0000 C CNN
	1    6600 9300
	1    0    0    -1  
$EndComp
$Comp
L CP1 C48
U 1 1 4D42D638
P 6600 9900
F 0 "C48" H 6650 10000 50  0000 L CNN
F 1 "33uF Ceramic" H 6000 9900 50  0000 L CNN
	1    6600 9900
	1    0    0    -1  
$EndComp
$Comp
L C C50
U 1 1 4D42D637
P 7100 9550
F 0 "C50" H 7150 9650 50  0000 L CNN
F 1 "1uF" H 7150 9450 50  0000 L CNN
	1    7100 9550
	1    0    0    -1  
$EndComp
$Comp
L GND #PWR063
U 1 1 4D42D635
P 7100 10250
F 0 "#PWR063" H 7100 10250 30  0001 C CNN
F 1 "GND" H 7100 10180 30  0001 C CNN
	1    7100 10250
	1    0    0    -1  
$EndComp
$Comp
L VDD4P2 #PWR064
U 1 1 4D42D634
P 6800 8800
F 0 "#PWR064" H 6800 8900 30  0001 C CNN
F 1 "VDD4P2" H 6800 8900 30  0000 C CNN
	1    6800 8800
	1    0    0    -1  
$EndComp
$Comp
L VDDIO_3V3 #PWR065
U 1 1 4D42D633
P 1250 10400
F 0 "#PWR065" H 1250 10500 30  0001 C CNN
F 1 "VDDIO_3V3" H 1250 10500 30  0000 C CNN
	1    1250 10400
	1    0    0    -1  
$EndComp
$Comp
L C C22
U 1 1 4D42D632
P 700 10750
F 0 "C22" H 750 10850 50  0000 L CNN
F 1 "0.01uF" H 750 10650 50  0000 L CNN
	1    700  10750
	1    0    0    -1  
$EndComp
$Comp
L C C24
U 1 1 4D42D631
P 1050 10750
F 0 "C24" H 1100 10850 50  0000 L CNN
F 1 "0.1uF" H 1100 10650 50  0000 L CNN
	1    1050 10750
	1    0    0    -1  
$EndComp
$Comp
L C C25
U 1 1 4D42D630
P 1400 10750
F 0 "C25" H 1450 10850 50  0000 L CNN
F 1 "1uF" H 1450 10650 50  0000 L CNN
	1    1400 10750
	1    0    0    -1  
$EndComp
$Comp
L C C27
U 1 1 4D42D62F
P 1750 10750
F 0 "C27" H 1800 10850 50  0000 L CNN
F 1 "33uF" H 1800 10650 50  0000 L CNN
	1    1750 10750
	1    0    0    -1  
$EndComp
$Comp
L GND #PWR066
U 1 1 4D42D62E
P 1250 11050
F 0 "#PWR066" H 1250 11050 30  0001 C CNN
F 1 "GND" H 1250 10980 30  0001 C CNN
	1    1250 11050
	1    0    0    -1  
$EndComp
$Comp
L GND #PWR067
U 1 1 4D42D62D
P 1750 9750
F 0 "#PWR067" H 1750 9750 30  0001 C CNN
F 1 "GND" H 1750 9680 30  0001 C CNN
	1    1750 9750
	1    0    0    -1  
$EndComp
$Comp
L C C35
U 1 1 4D42D62C
P 2250 9450
F 0 "C35" H 2300 9550 50  0000 L CNN
F 1 "33uF" H 2300 9350 50  0000 L CNN
	1    2250 9450
	1    0    0    -1  
$EndComp
$Comp
L C C31
U 1 1 4D42D62A
P 1550 9450
F 0 "C31" H 1600 9550 50  0000 L CNN
F 1 "0.1uF" H 1600 9350 50  0000 L CNN
	1    1550 9450
	1    0    0    -1  
$EndComp
$Comp
L C C30
U 1 1 4D42D629
P 1200 9450
F 0 "C30" H 1250 9550 50  0000 L CNN
F 1 "0.01uF" H 1250 9350 50  0000 L CNN
	1    1200 9450
	1    0    0    -1  
$EndComp
$Comp
L VDDA #PWR068
U 1 1 4D42D628
P 1750 9100
F 0 "#PWR068" H 1750 9200 30  0001 C CNN
F 1 "VDDA" H 1750 9200 30  0000 C CNN
	1    1750 9100
	1    0    0    -1  
$EndComp
$Comp
L VDDD #PWR069
U 1 1 4D42D627
P 3100 10400
F 0 "#PWR069" H 3100 10500 30  0001 C CNN
F 1 "VDDD" H 3100 10500 30  0000 C CNN
	1    3100 10400
	1    0    0    -1  
$EndComp
$Comp
L C C36
U 1 1 4D42D626
P 2550 10750
F 0 "C36" H 2600 10850 50  0000 L CNN
F 1 "0.01uF" H 2600 10650 50  0000 L CNN
	1    2550 10750
	1    0    0    -1  
$EndComp
$Comp
L C C37
U 1 1 4D42D625
P 2900 10750
F 0 "C37" H 2950 10850 50  0000 L CNN
F 1 "0.1uF" H 2950 10650 50  0000 L CNN
	1    2900 10750
	1    0    0    -1  
$EndComp
$Comp
L C C38
U 1 1 4D42D624
P 3250 10750
F 0 "C38" H 3300 10850 50  0000 L CNN
F 1 "1uF" H 3300 10650 50  0000 L CNN
	1    3250 10750
	1    0    0    -1  
$EndComp
$Comp
L C C39
U 1 1 4D42D623
P 3600 10750
F 0 "C39" H 3650 10850 50  0000 L CNN
F 1 "33uF" H 3650 10650 50  0000 L CNN
	1    3600 10750
	1    0    0    -1  
$EndComp
$Comp
L GND #PWR070
U 1 1 4D42D622
P 3100 11050
F 0 "#PWR070" H 3100 11050 30  0001 C CNN
F 1 "GND" H 3100 10980 30  0001 C CNN
	1    3100 11050
	1    0    0    -1  
$EndComp
$Comp
L VDDM_2V5 #PWR071
U 1 1 4D42D621
P 4400 10400
F 0 "#PWR071" H 4400 10500 30  0001 C CNN
F 1 "VDDM_2V5" H 4400 10500 30  0000 C CNN
	1    4400 10400
	1    0    0    -1  
$EndComp
$Comp
L C C44
U 1 1 4D42D620
P 4400 10750
F 0 "C44" H 4450 10850 50  0000 L CNN
F 1 "0.1uF" H 4450 10650 50  0000 L CNN
	1    4400 10750
	1    0    0    -1  
$EndComp
$Comp
L C C46
U 1 1 4D42D61F
P 4750 10750
F 0 "C46" H 4800 10850 50  0000 L CNN
F 1 "0.1uF" H 4800 10650 50  0000 L CNN
	1    4750 10750
	1    0    0    -1  
$EndComp
$Comp
L GND #PWR072
U 1 1 4D42D61E
P 4600 11050
F 0 "#PWR072" H 4600 11050 30  0001 C CNN
F 1 "GND" H 4600 10980 30  0001 C CNN
	1    4600 11050
	1    0    0    -1  
$EndComp
$Comp
L GND #PWR073
U 1 1 4D42D61D
P 5450 11050
F 0 "#PWR073" H 5450 11050 30  0001 C CNN
F 1 "GND" H 5450 10980 30  0001 C CNN
	1    5450 11050
	1    0    0    -1  
$EndComp
$Comp
L C C49
U 1 1 4D42D61C
P 5600 10750
F 0 "C49" H 5650 10850 50  0000 L CNN
F 1 "0.1uF" H 5650 10650 50  0000 L CNN
	1    5600 10750
	1    0    0    -1  
$EndComp
$Comp
L C C47
U 1 1 4D42D61B
P 5250 10750
F 0 "C47" H 5300 10850 50  0000 L CNN
F 1 "0.1uF" H 5300 10650 50  0000 L CNN
	1    5250 10750
	1    0    0    -1  
$EndComp
$Comp
L VDDIO_3V3 #PWR074
U 1 1 4D42D61A
P 5250 10400
F 0 "#PWR074" H 5250 10500 30  0001 C CNN
F 1 "VDDIO_3V3" H 5250 10500 30  0000 C CNN
	1    5250 10400
	1    0    0    -1  
$EndComp
$Comp
L C C42
U 1 1 4D42D619
P 4050 10750
F 0 "C42" H 4100 10850 50  0000 L CNN
F 1 "1uF" H 4100 10650 50  0000 L CNN
	1    4050 10750
	1    0    0    -1  
$EndComp
$Comp
L VDDD #PWR075
U 1 1 4D42D618
P 2250 10400
F 0 "#PWR075" H 2250 10500 30  0001 C CNN
F 1 "VDDD" H 2250 10500 30  0000 C CNN
	1    2250 10400
	1    0    0    -1  
$EndComp
$Comp
L C C51
U 1 1 4D42D617
P 2250 10750
F 0 "C51" H 2300 10850 50  0000 L CNN
F 1 "0.1uF" H 2300 10650 50  0000 L CNN
	1    2250 10750
	1    0    0    -1  
$EndComp
$Comp
L GND #PWR076
U 1 1 4D42D615
P 2400 11050
F 0 "#PWR076" H 2400 11050 30  0001 C CNN
F 1 "GND" H 2400 10980 30  0001 C CNN
	1    2400 11050
	1    0    0    -1  
$EndComp
Text Label 12850 700  0    60   ~ 0
LCD_RS
Text Label 14900 2050 0    60   ~ 0
LCD_D3
Text Label 12850 1100 0    60   ~ 0
LCD_D2
Text Label 14900 1700 0    60   ~ 0
LCD_D1
Text Label 14900 1350 0    60   ~ 0
LCD_D0
$Comp
L GND #PWR077
U 1 1 4D41D7C9
P 14050 1150
F 0 "#PWR077" H 14050 1150 30  0001 C CNN
F 1 "GND" H 14050 1080 30  0001 C CNN
	1    14050 1150
	1    0    0    -1  
$EndComp
$Comp
L R R10
U 1 1 4D41D6E1
P 13550 700
F 0 "R10" V 13630 700 50  0000 C CNN
F 1 "47K" V 13550 700 50  0000 C CNN
	1    13550 700 
	0    1    1    0   
$EndComp
$Comp
L VDDIO_3V3 #PWR078
U 1 1 4D41D6C0
P 13800 650
F 0 "#PWR078" H 13800 750 30  0001 C CNN
F 1 "VDDIO_3V3" H 13800 750 30  0000 C CNN
	1    13800 650 
	1    0    0    -1  
$EndComp
Text Label 2500 7500 2    60   ~ 0
SSPI_DETECT
Text Label 1900 7800 0    50   ~ 0
SERIAL_JTAG
$Comp
L INDUCTOR L1
U 1 1 4D41A28D
P 3750 1400
F 0 "L1" V 3700 1400 40  0000 C CNN
F 1 "15uH" V 3850 1400 40  0000 C CNN
	1    3750 1400
	-1   0    0    -1  
$EndComp
Text Label 8700 10550 0    60   ~ 0
I2C_SCL
Text Label 8700 10450 0    60   ~ 0
I2C_SDA
Text Label 1950 7200 0    60   ~ 0
I2C_SCL
Text Label 1950 7300 0    60   ~ 0
I2C_SDA
Text Label 6250 6950 0    60   ~ 0
LINE1_INL
Text Label 6250 6850 0    60   ~ 0
LINE1_INR
Text Label 14600 5200 0    60   ~ 0
LRADC0
Text Label 13000 5200 0    60   ~ 0
LRADC1
Text Label 6250 6700 0    60   ~ 0
LRADC0
Text Label 6250 6600 0    60   ~ 0
LRADC1
$Comp
L GND #PWR079
U 1 1 4D40878D
P 11250 3450
F 0 "#PWR079" H 11250 3450 30  0001 C CNN
F 1 "GND" H 11250 3380 30  0001 C CNN
	1    11250 3450
	1    0    0    -1  
$EndComp
$Comp
L R R13
U 1 1 4D408680
P 9950 2800
F 0 "R13" V 10030 2800 50  0000 C CNN
F 1 "1k" V 9950 2800 50  0000 C CNN
	1    9950 2800
	0    1    1    0   
$EndComp
$Comp
L R R16
U 1 1 4D40866C
P 10450 3100
F 0 "R16" V 10530 3100 50  0000 C CNN
F 1 "1k" V 10450 3100 50  0000 C CNN
	1    10450 3100
	1    0    0    -1  
$EndComp
$Comp
L C C60
U 1 1 4D40865C
P 10800 3100
F 0 "C60" H 10850 3200 50  0000 L CNN
F 1 "0.1uF" H 10850 3000 50  0000 L CNN
	1    10800 3100
	1    0    0    -1  
$EndComp
Text Label 11650 1900 0    60   ~ 0
XTAL0
Text Label 11350 1900 2    60   ~ 0
XTALI
Text Label 2150 2000 0    60   ~ 0
XTAL0
Text Label 2168 2100 0    60   ~ 0
XTALI
$Comp
L MMDT3904 Q1
U 1 1 4D408387
P 11500 2800
F 0 "Q1" H 10900 3200 50  0000 L BNN
F 1 "MMDT3904" H 11750 3200 50  0000 L BNN
F 2 "SOT363_PHILIPS" H 11500 2800 60  0001 C CNN
	1    11500 2800
	1    0    0    -1  
$EndComp
$Comp
L C C57
U 1 1 4D40783C
P 7900 10300
F 0 "C57" H 7950 10400 50  0000 L CNN
F 1 "0.1uF" H 7950 10200 50  0000 L CNN
	1    7900 10300
	1    0    0    -1  
$EndComp
$Comp
L R R6
U 1 1 4D407830
P 8400 10250
F 0 "R6" V 8480 10250 50  0000 C CNN
F 1 "100K" V 8400 10250 50  0000 C CNN
	1    8400 10250
	1    0    0    -1  
$EndComp
$Comp
L R R4
U 1 1 4D407823
P 8150 9550
F 0 "R4" V 8230 9550 50  0000 C CNN
F 1 "1K" V 8150 9550 50  0000 C CNN
	1    8150 9550
	0    1    1    0   
$EndComp
Text Label 7450 9550 0    60   ~ 0
PSWITCH
$Comp
L GND #PWR080
U 1 1 4D405EB6
P 8150 10950
F 0 "#PWR080" H 8150 10950 30  0001 C CNN
F 1 "GND" H 8150 10880 30  0001 C CNN
	1    8150 10950
	1    0    0    -1  
$EndComp
Text Label 1900 2300 0    60   ~ 0
PSWITCH
Text Label 1900 6300 0    60   ~ 0
PWM0
Text Label 1900 6400 0    60   ~ 0
PWM1
Text Label 6250 7500 0    60   ~ 0
VAG
$Comp
L GND #PWR081
U 1 1 4D4050B1
P 900 1850
F 0 "#PWR081" H 900 1850 30  0001 C CNN
F 1 "GND" H 900 1780 30  0001 C CNN
	1    900  1850
	-1   0    0    -1  
$EndComp
$Comp
L CAP C53
U 1 1 4D404D44
P 1300 2100
F 0 "C53" H 1350 2200 50  0000 L CNN
F 1 "20 pF" H 1350 2000 50  0000 L CNN
	1    1300 2100
	0    -1   1    0   
$EndComp
$Comp
L CAP C52
U 1 1 4D404D35
P 1300 1500
F 0 "C52" H 1100 1600 50  0000 L CNN
F 1 "20 pF" H 1050 1400 50  0000 L CNN
	1    1300 1500
	0    -1   1    0   
$EndComp
$Comp
L VDD_XTAL #PWR082
U 1 1 4D404845
P 4800 1450
F 0 "#PWR082" H 4800 1550 30  0001 C CNN
F 1 "VDD_XTAL" V 4800 1650 30  0000 C CNN
	1    4800 1450
	1    0    0    -1  
$EndComp
$Comp
L VDD_BATT #PWR083
U 1 1 4D404817
P 3150 1450
F 0 "#PWR083" H 3150 1550 30  0001 C CNN
F 1 "VDD_BATT" V 3150 1650 30  0000 C CNN
	1    3150 1450
	1    0    0    -1  
$EndComp
$Comp
L VDDIO_3V3 #PWR084
U 1 1 4D40473A
P 5400 1450
F 0 "#PWR084" H 5400 1550 30  0001 C CNN
F 1 "VDDIO_3V3" V 5400 1650 30  0000 C CNN
	1    5400 1450
	1    0    0    -1  
$EndComp
$Comp
L VDDM_2V5 #PWR085
U 1 1 4D40410F
P 4950 1450
F 0 "#PWR085" H 4950 1550 30  0001 C CNN
F 1 "VDDM_2V5" V 4950 1650 30  0000 C CNN
	1    4950 1450
	1    0    0    -1  
$EndComp
$Comp
L VDD5V #PWR086
U 1 1 4D403BF5
P 4650 1450
F 0 "#PWR086" H 4650 1550 30  0001 C CNN
F 1 "VDD5V" V 4650 1600 30  0000 C CNN
	1    4650 1450
	1    0    0    -1  
$EndComp
$Comp
L VDD4P2 #PWR087
U 1 1 4D403BD0
P 3400 1450
F 0 "#PWR087" H 3400 1550 30  0001 C CNN
F 1 "VDD4P2" V 3400 1650 30  0000 C CNN
	1    3400 1450
	1    0    0    -1  
$EndComp
$Comp
L VDDIO_3V3 #PWR088
U 1 1 4D403B8A
P 3900 1450
F 0 "#PWR088" H 3900 1550 30  0001 C CNN
F 1 "VDDIO_3V3" V 3900 1650 30  0000 C CNN
	1    3900 1450
	1    0    0    -1  
$EndComp
$Comp
L VDDD #PWR089
U 1 1 4D403A55
P 4050 1450
F 0 "#PWR089" H 4050 1550 30  0001 C CNN
F 1 "VDDD" V 4050 1600 30  0000 C CNN
	1    4050 1450
	1    0    0    -1  
$EndComp
$Comp
L VDDA #PWR090
U 1 1 4D4039D7
P 4400 1450
F 0 "#PWR090" H 4400 1550 30  0001 C CNN
F 1 "VDDA" V 4400 1600 30  0000 C CNN
	1    4400 1450
	1    0    0    -1  
$EndComp
Text HLabel 6650 3850 2    60   Output ~ 0
DDR_WEN
Text HLabel 6650 3650 2    60   Output ~ 0
DDR_RASN
Text HLabel 6650 4600 2    60   Output ~ 0
DDR_DQS1
Text HLabel 6650 4500 2    60   Output ~ 0
DDR_DQS0
Text HLabel 6650 4400 2    60   Output ~ 0
DDR_DQM1
Text HLabel 6650 4300 2    60   Output ~ 0
DDR_DQM0
Text HLabel 6650 4100 2    60   Output ~ 0
DDR_CLK
Text HLabel 6650 4200 2    60   Output ~ 0
DDR_CLKN
Text HLabel 6650 3950 2    60   Output ~ 0
DDR_CKE
Text HLabel 6650 3550 2    60   Output ~ 0
DDR_CASN
Text HLabel 6650 3750 2    60   Output ~ 0
DDR_CE0
Text HLabel 6650 3400 2    60   Output ~ 0
DDR_BA1
Text HLabel 6650 3300 2    60   Output ~ 0
DDR_BA0
Text Label 8700 9750 0    60   ~ 0
GPMI_CE1N
Text Label 8700 9850 0    60   ~ 0
GPMI_CE0N
Text Label 1950 4500 0    60   ~ 0
GPMI_ALE
Text Label 1950 4700 0    60   ~ 0
GPMI_CE0N
Text Label 1950 4800 0    60   ~ 0
GPMI_CE1N
Text Label 14450 3950 0    60   ~ 0
LCD_D0
Text Label 12850 3850 0    60   ~ 0
LCD_D1
Text Label 12850 3750 0    60   ~ 0
LCD_D3
Text Label 14450 3850 0    60   ~ 0
LCD_D2
Text Label 12850 3650 0    60   ~ 0
LCD_D5
Text Label 14450 3750 0    60   ~ 0
LCD_D4
Text Label 14450 3650 0    60   ~ 0
LCD_D6
Text Label 12850 3550 0    60   ~ 0
LCD_D7
Text Label 14450 3550 0    60   ~ 0
LCD_CS
Text Label 12850 3250 0    60   ~ 0
LCD_HSYNC
Text Label 12850 3450 0    60   ~ 0
LCD_ENABLE
Text Label 12850 3150 0    60   ~ 0
LCD_DOTCK
Text Label 14450 3450 0    60   ~ 0
LCD_RESET
Text Label 14450 3350 0    60   ~ 0
LCD_RS
Text Label 12850 3350 0    60   ~ 0
LCD_WR
Text Label 14450 3250 0    60   ~ 0
LCD_VSYNC
Text Label 1950 4200 0    60   ~ 0
LCD_VSYNC
Text Label 1950 4300 0    60   ~ 0
LCD_WR
Text Label 1950 4100 0    60   ~ 0
LCD_RS
Text Label 1950 4000 0    60   ~ 0
LCD_RESET
Text Label 1950 3700 0    50   ~ 0
LCD_DOTCK
Text Label 1950 3800 0    50   ~ 0
LCD_ENABLE
Text Label 1950 3900 0    50   ~ 0
LCD_HSYNC
Text Label 2150 2800 0    60   ~ 0
LCD_CS
Text Label 1950 3200 0    60   ~ 0
LCD_D3
Text Label 1950 3100 0    60   ~ 0
LCD_D2
Text Label 1950 2900 0    60   ~ 0
LCD_D0
Text Label 1950 3000 0    60   ~ 0
LCD_D1
Text Label 1950 3400 0    60   ~ 0
LCD_D5
Text Label 1950 3300 0    60   ~ 0
LCD_D4
Text Label 1950 3500 0    60   ~ 0
LCD_D6
Text Label 1950 3600 0    60   ~ 0
LCD_D7
Text Label 2150 2600 0    60   ~ 0
USB_DM
Text Label 2150 2500 0    60   ~ 0
USB_DP
$Comp
L GND #PWR091
U 1 1 4D3356ED
P 4300 8300
F 0 "#PWR091" H 4300 8300 30  0001 C CNN
F 1 "GND" H 4300 8230 30  0001 C CNN
	1    4300 8300
	1    0    0    -1  
$EndComp
Text Label 8700 9650 0    60   ~ 0
GPMI_D06
Text Label 1950 5400 0    60   ~ 0
GPMI_D05
Text Label 1950 5600 0    60   ~ 0
GPMI_D07
Text Label 1950 5500 0    60   ~ 0
GPMI_D06
Text Label 6244 4750 0    60   ~ 0
DDR_DQ0
Text Label 6244 4850 0    60   ~ 0
DDR_DQ1
Text Label 6244 4950 0    60   ~ 0
DDR_DQ2
Text Label 6244 5050 0    60   ~ 0
DDR_DQ3
Text Label 6244 5150 0    60   ~ 0
DDR_DQ4
Text Label 6244 5650 0    60   ~ 0
DDR_DQ9
Text Label 6244 5550 0    60   ~ 0
DDR_DQ8
Text Label 6244 5450 0    60   ~ 0
DDR_DQ7
Text Label 6244 5350 0    60   ~ 0
DDR_DQ6
Text Label 6244 5250 0    60   ~ 0
DDR_DQ5
Text Label 6188 5850 0    60   ~ 0
DDR_DQ11
Text Label 6188 5950 0    60   ~ 0
DDR_DQ12
Text Label 6188 6050 0    60   ~ 0
DDR_DQ13
Text Label 6188 6150 0    60   ~ 0
DDR_DQ14
Text Label 6188 6250 0    60   ~ 0
DDR_DQ15
Text Label 6188 5750 0    60   ~ 0
DDR_DQ10
Entry Wire Line
	7350 6150 7250 6250
Entry Wire Line
	7350 6050 7250 6150
Entry Wire Line
	7350 5950 7250 6050
Entry Wire Line
	7350 4650 7250 4750
Entry Wire Line
	7350 4750 7250 4850
Entry Wire Line
	7350 4950 7250 5050
Entry Wire Line
	7350 4850 7250 4950
Entry Wire Line
	7350 5250 7250 5350
Entry Wire Line
	7350 5350 7250 5450
Entry Wire Line
	7350 5150 7250 5250
Entry Wire Line
	7350 5050 7250 5150
Entry Wire Line
	7350 5450 7250 5550
Entry Wire Line
	7350 5550 7250 5650
Entry Wire Line
	7350 5750 7250 5850
Entry Wire Line
	7350 5650 7250 5750
Entry Wire Line
	7350 5850 7250 5950
Text HLabel 7500 4450 2    60   BiDi ~ 0
DDR_DQ[0..15]
Text Label 6316 2000 0    60   ~ 0
DDR_A0
Text Label 6316 2100 0    60   ~ 0
DDR_A1
Text Label 6316 2300 0    60   ~ 0
DDR_A3
Text Label 6316 2200 0    60   ~ 0
DDR_A2
Text Label 6316 2600 0    60   ~ 0
DDR_A6
Text Label 6316 2700 0    60   ~ 0
DDR_A7
Text Label 6316 2500 0    60   ~ 0
DDR_A5
Text Label 6316 2400 0    60   ~ 0
DDR_A4
Text Label 6316 2800 0    60   ~ 0
DDR_A8
Text Label 6316 2900 0    60   ~ 0
DDR_A9
Text Label 6260 3100 0    60   ~ 0
DDR_A11
Text Label 6260 3000 0    60   ~ 0
DDR_A10
Text Label 6260 3200 0    60   ~ 0
DDR_A12
Text HLabel 7500 1700 2    60   Output ~ 0
DDR_A[0..12]
Entry Wire Line
	7350 3100 7250 3200
Entry Wire Line
	7350 2900 7250 3000
Entry Wire Line
	7350 3000 7250 3100
Entry Wire Line
	7350 2800 7250 2900
Entry Wire Line
	7350 2700 7250 2800
Entry Wire Line
	7350 2300 7250 2400
Entry Wire Line
	7350 2400 7250 2500
Entry Wire Line
	7350 2600 7250 2700
Entry Wire Line
	7350 2500 7250 2600
Entry Wire Line
	7350 2100 7250 2200
Entry Wire Line
	7350 2200 7250 2300
Entry Wire Line
	7350 2000 7250 2100
Entry Wire Line
	7350 1900 7250 2000
Text HLabel 1950 4500 0    60   Output ~ 0
GPMI_ALE
$Comp
L JACK-PLUG0 J5
U 1 1 502BE9DF
P 14150 8250
F 0 "J5" H 13850 8450 50  0000 L BNN
F 1 "JACK-PLUG" H 14200 8450 50  0000 L BNN
F 2 "DC_JACK" H 14150 8400 50  0001 C CNN
	1    14150 8250
	1    0    0    -1  
$EndComp
$Comp
L VDD5V #PWR092
U 1 1 4E8B06D9
P 13350 3050
F 0 "#PWR092" H 13350 3150 30  0001 C CNN
F 1 "VDD5V" H 13250 3050 30  0000 C CNN
	1    13350 3050
	1    0    0    -1  
$EndComp
Text Label 11550 1300 0    60   ~ 0
GND_BP
Text Label 14450 8350 0    60   ~ 0
GND_BP
$Comp
L GND #PWR093
U 1 1 50088B85
P 14850 8400
F 0 "#PWR093" H 14850 8400 30  0001 C CNN
F 1 "GND" H 14850 8330 30  0001 C CNN
	1    14850 8400
	1    0    0    -1  
$EndComp
$EndSCHEMATC
