EESchema Schematic File Version 2
LIBS:con-jack
LIBS:adm3101e
LIBS:microsd
LIBS:transistor-npn
LIBS:ipc-7351-transistor
LIBS:switch-misc
LIBS:power
LIBS:device
LIBS:transistors
LIBS:conn
LIBS:linear
LIBS:regul
LIBS:74xx
LIBS:cmos4000
LIBS:adc-dac
LIBS:memory
LIBS:xilinx
LIBS:special
LIBS:microcontrollers
LIBS:dsp
LIBS:microchip
LIBS:analog_switches
LIBS:motorola
LIBS:texas
LIBS:intel
LIBS:audio
LIBS:interface
LIBS:digital-audio
LIBS:philips
LIBS:display
LIBS:cypress
LIBS:siliconi
LIBS:opto
LIBS:atmel
LIBS:contrib
LIBS:valves
LIBS:micron_ddr_512Mb
LIBS:iMX23
LIBS:sdmmc
LIBS:usbconn
LIBS:fsusb20
LIBS:r_pack2
LIBS:pasives-connectors
LIBS:EEPROM
LIBS:PWR
LIBS:m25p32
LIBS:PROpendous-cache
LIBS:w_analog
LIBS:gl850g
LIBS:srf2012
LIBS:rclamp0502b
LIBS:mcp130
LIBS:ABM8G
LIBS:usb_a
LIBS:Reset
LIBS:stm32f100vxx
LIBS:lt1117cst
LIBS:zxmhc3f381n8
LIBS:fsusb43
LIBS:usb-mini
LIBS:ba50dd0whfp
LIBS:mic29301
LIBS:xbeepro
LIBS:tps2400
LIBS:lm3478
LIBS:mcp73812
LIBS:ftdichip
LIBS:sp481
LIBS:ref-packages
LIBS:crystal
LIBS:template_mini-cache
EELAYER 24 0
EELAYER END
$Descr A4 11693 8268
encoding utf-8
Sheet 4 5
Title "noname.sch"
Date "22 aug 2012"
Rev ""
Comp ""
Comment1 ""
Comment2 ""
Comment3 ""
Comment4 ""
$EndDescr
$Comp
L DGND #PWR040
U 1 1 4F97251F
P 5350 7050
F 0 "#PWR040" H 5350 7050 40  0001 C CNN
F 1 "DGND" H 5350 6980 40  0000 C CNN
F 2 "" H 5350 7050 60  0001 C CNN
F 3 "" H 5350 7050 60  0001 C CNN
	1    5350 7050
	1    0    0    -1  
$EndComp
$Comp
L CP1 C22
U 1 1 4F95A856
P 5050 4350
F 0 "C22" H 5100 4450 50  0000 L CNN
F 1 "100u/10V" H 5100 4250 50  0000 L CNN
F 2 "SM1206" H 5050 4350 60  0001 C CNN
F 3 "" H 5050 4350 60  0001 C CNN
	1    5050 4350
	1    0    0    -1  
$EndComp
$Comp
L DGND #PWR041
U 1 1 4E64E770
P 3700 4850
F 0 "#PWR041" H 3700 4850 40  0001 C CNN
F 1 "DGND" H 3700 4780 40  0000 C CNN
F 2 "" H 3700 4850 60  0001 C CNN
F 3 "" H 3700 4850 60  0001 C CNN
	1    3700 4850
	1    0    0    -1  
$EndComp
$Comp
L R R6
U 1 1 4E64E75D
P 3700 4450
F 0 "R6" V 3780 4450 50  0000 C CNN
F 1 "1meg" V 3700 4450 50  0000 C CNN
F 2 "SM0603" H 3700 4450 60  0001 C CNN
F 3 "" H 3700 4450 60  0001 C CNN
	1    3700 4450
	1    0    0    -1  
$EndComp
Text Label 8800 5250 1    60   ~ 0
ISENR
Text Notes 10300 4650 0    40   ~ 0
APXE100ARA470ME61G\n
Text Label 8050 3300 0    60   ~ 0
TPPSU0
$Comp
L MOSFET_P Q1
U 1 1 4E5E1D58
P 3700 3400
F 0 "Q1" V 3900 3400 60  0000 R CNN
F 1 "AO3401A" H 3700 3220 60  0000 R CNN
F 2 "SOT23GDS" H 3700 3400 60  0001 C CNN
F 3 "" H 3700 3400 60  0001 C CNN
	1    3700 3400
	0    1    -1   0   
$EndComp
Text HLabel 4200 4350 3    60   Output Italic 12
VDC
$Comp
L R R5
U 1 1 4E5E1F90
P 1800 4750
F 0 "R5" V 1880 4750 50  0000 C CNN
F 1 "2K" V 1800 4750 50  0000 C CNN
F 2 "SM0603" H 1800 4750 60  0001 C CNN
F 3 "" H 1800 4750 60  0001 C CNN
	1    1800 4750
	1    0    0    -1  
$EndComp
$Comp
L DGND #PWR042
U 1 1 4E5E1F04
P 1500 5200
F 0 "#PWR042" H 1500 5200 40  0001 C CNN
F 1 "DGND" H 1500 5130 40  0000 C CNN
F 2 "" H 1500 5200 60  0001 C CNN
F 3 "" H 1500 5200 60  0001 C CNN
	1    1500 5200
	1    0    0    -1  
$EndComp
$Comp
L C C19
U 1 1 4E5E1ED3
P 1500 4750
F 0 "C19" H 1550 4850 50  0000 L CNN
F 1 "1uF" H 1550 4650 50  0000 L CNN
F 2 "SM0805" H 1500 4750 60  0001 C CNN
F 3 "" H 1500 4750 60  0001 C CNN
	1    1500 4750
	1    0    0    -1  
$EndComp
$Comp
L BATTERY BT1
U 1 1 4E5E1EC4
P 1100 4700
F 0 "BT1" H 1100 4900 50  0000 C CNN
F 1 "BATTERY" H 1100 4510 50  0000 C CNN
F 2 "PIN_ARRAY_2X1" H 1100 4700 60  0001 C CNN
F 3 "" H 1100 4700 60  0001 C CNN
	1    1100 4700
	0    1    1    0   
$EndComp
$Comp
L DIODESCH D4
U 1 1 4E5E1D80
P 4200 3750
F 0 "D4" H 4200 3850 40  0000 C CNN
F 1 "DIODESCH" H 4200 3650 40  0000 C CNN
F 2 "SOD123W" H 4200 3750 60  0001 C CNN
F 3 "" H 4200 3750 60  0001 C CNN
	1    4200 3750
	0    -1   -1   0   
$EndComp
$Comp
L MCP73812 U7
U 1 1 4E5DB1D8
P 2650 4450
F 0 "U7" H 2350 4800 60  0000 C CNN
F 1 "MCP73812" H 2600 4050 60  0000 C CNN
F 2 "SOT23-5" H 2650 4450 60  0001 C CNN
F 3 "" H 2650 4450 60  0001 C CNN
	1    2650 4450
	-1   0    0    -1  
$EndComp
$Comp
L LM3478 U10
U 1 1 4E5DACA8
P 7250 4600
F 0 "U10" H 7150 4750 60  0000 C CNN
F 1 "LM3478" H 7250 4600 60  0000 C CNN
F 2 "SO8E" H 7250 4600 60  0001 C CNN
F 3 "" H 7250 4600 60  0001 C CNN
	1    7250 4600
	1    0    0    -1  
$EndComp
$Comp
L MOSFET_N Q2
U 1 1 4E5DAC4A
P 8700 4350
F 0 "Q2" H 8710 4520 60  0000 R CNN
F 1 "IPD30N03S4L-09" V 8900 4350 60  0000 R CNN
F 2 "TO252" H 8700 4350 60  0001 C CNN
F 3 "" H 8700 4350 60  0001 C CNN
	1    8700 4350
	1    0    0    -1  
$EndComp
$Comp
L INDUCTOR L9
U 1 1 4E5DAA1E
P 7200 3300
F 0 "L9" V 7150 3300 40  0000 C CNN
F 1 "3.3uH/DCR=30mOhm" V 7300 3300 40  0000 C CNN
F 2 "VLC5020" H 7200 3300 60  0001 C CNN
F 3 "" H 7200 3300 60  0001 C CNN
	1    7200 3300
	0    1    1    0   
$EndComp
$Comp
L C C31
U 1 1 4E5DAA0B
P 9000 3300
F 0 "C31" H 9050 3400 50  0000 L CNN
F 1 "4.7uF" H 9050 3200 50  0000 L CNN
F 2 "SM1206" H 9000 3300 60  0001 C CNN
F 3 "" H 9000 3300 60  0001 C CNN
	1    9000 3300
	0    1    1    0   
$EndComp
$Comp
L DIODESCH D5
U 1 1 4E5DA975
P 9450 3300
F 0 "D5" H 9450 3400 40  0000 C CNN
F 1 "DIODESCH" H 9450 3200 40  0000 C CNN
F 2 "SOD123W" H 9450 3300 60  0001 C CNN
F 3 "" H 9450 3300 60  0001 C CNN
	1    9450 3300
	1    0    0    -1  
$EndComp
$Comp
L CP1 C32
U 1 1 4E5DA954
P 10250 4400
F 0 "C32" H 10300 4500 50  0000 L CNN
F 1 "100u/10V" H 10300 4300 50  0000 L CNN
F 2 "SM1206" H 10250 4400 60  0001 C CNN
F 3 "" H 10250 4400 60  0001 C CNN
	1    10250 4400
	1    0    0    -1  
$EndComp
$Comp
L C C30
U 1 1 4E5DA886
P 8250 5400
F 0 "C30" H 8300 5500 50  0000 L CNN
F 1 "750pF/50V" H 8300 5300 50  0000 L CNN
F 2 "SM0603" H 8250 5400 60  0001 C CNN
F 3 "" H 8250 5400 60  0001 C CNN
	1    8250 5400
	1    0    0    -1  
$EndComp
$Comp
L R R10
U 1 1 4E5DA855
P 8550 4850
F 0 "R10" V 8630 4850 50  0000 C CNN
F 1 "100" V 8550 4850 50  0000 C CNN
F 2 "SM1206" H 8550 4850 60  0001 C CNN
F 3 "" H 8550 4850 60  0001 C CNN
	1    8550 4850
	0    -1   -1   0   
$EndComp
$Comp
L C C23
U 1 1 4E5D6380
P 5450 5100
F 0 "C23" H 5500 5200 50  0000 L CNN
F 1 "100nF" H 5500 5000 50  0000 L CNN
F 2 "SM0603" H 5450 5100 60  0001 C CNN
F 3 "" H 5450 5100 60  0001 C CNN
	1    5450 5100
	1    0    0    -1  
$EndComp
$Comp
L R R9
U 1 1 4E5D0DB8
P 7600 5600
F 0 "R9" V 7680 5600 50  0000 C CNN
F 1 "35.7k" V 7600 5600 50  0000 C CNN
F 2 "SM0603" H 7600 5600 60  0001 C CNN
F 3 "" H 7600 5600 60  0001 C CNN
	1    7600 5600
	1    0    0    -1  
$EndComp
$Comp
L C C26
U 1 1 4E5D0DB1
P 6300 5550
F 0 "C26" H 6350 5650 50  0000 L CNN
F 1 "120nF" H 6350 5450 50  0000 L CNN
F 2 "SM0603" H 6300 5550 60  0001 C CNN
F 3 "" H 6300 5550 60  0001 C CNN
	1    6300 5550
	1    0    0    -1  
$EndComp
$Comp
L C C24
U 1 1 4E5D0C1C
P 5850 5100
F 0 "C24" H 5900 5200 50  0000 L CNN
F 1 "3.3nF" H 5900 5000 50  0000 L CNN
F 2 "SM0603" H 5850 5100 60  0001 C CNN
F 3 "" H 5850 5100 60  0001 C CNN
	1    5850 5100
	1    0    0    -1  
$EndComp
$Comp
L DGND #PWR043
U 1 1 4E5D0BE1
P 7400 6100
F 0 "#PWR043" H 7400 6100 40  0001 C CNN
F 1 "DGND" H 7400 6030 40  0000 C CNN
F 2 "" H 7400 6100 60  0001 C CNN
F 3 "" H 7400 6100 60  0001 C CNN
	1    7400 6100
	1    0    0    -1  
$EndComp
$Comp
L DGND #PWR044
U 1 1 4E5D0BE0
P 8000 3100
F 0 "#PWR044" H 8000 3100 40  0001 C CNN
F 1 "DGND" H 8000 3030 40  0000 C CNN
F 2 "" H 8000 3100 60  0001 C CNN
F 3 "" H 8000 3100 60  0001 C CNN
	1    8000 3100
	1    0    0    -1  
$EndComp
$Comp
L R R13
U 1 1 4E5D0B99
P 9700 5000
F 0 "R13" V 9780 5000 50  0000 C CNN
F 1 "10k" V 9700 5000 50  0000 C CNN
F 2 "SM0603" H 9700 5000 60  0001 C CNN
F 3 "" H 9700 5000 60  0001 C CNN
	1    9700 5000
	-1   0    0    1   
$EndComp
$Comp
L R R8
U 1 1 4E5D0B8F
P 6300 5050
F 0 "R8" V 6380 5050 50  0000 C CNN
F 1 "845" V 6300 5050 50  0000 C CNN
F 2 "SM0603" H 6300 5050 60  0001 C CNN
F 3 "" H 6300 5050 60  0001 C CNN
	1    6300 5050
	1    0    0    -1  
$EndComp
$Comp
L R R11
U 1 1 4E5D0AD0
P 8800 5550
F 0 "R11" V 8880 5550 50  0000 C CNN
F 1 "11m/1W" V 8950 5550 50  0000 C CNN
F 2 "RL3720" H 8800 5550 60  0001 C CNN
F 3 "" H 8800 5550 60  0001 C CNN
	1    8800 5550
	1    0    0    -1  
$EndComp
$Comp
L R R12
U 1 1 4E5D0AA6
P 9700 3600
F 0 "R12" V 9780 3600 50  0000 C CNN
F 1 "29.4k" V 9700 3600 50  0000 C CNN
F 2 "SM0603" H 9700 3600 60  0001 C CNN
F 3 "" H 9700 3600 60  0001 C CNN
	1    9700 3600
	1    0    0    -1  
$EndComp
$Comp
L R R7
U 1 1 4E5D0A69
P 5450 3950
F 0 "R7" V 5530 3950 50  0000 C CNN
F 1 "20" V 5450 3950 50  0000 C CNN
F 2 "SM0603" H 5450 3950 60  0001 C CNN
F 3 "" H 5450 3950 60  0001 C CNN
	1    5450 3950
	1    0    0    -1  
$EndComp
$Comp
L INDUCTOR L10
U 1 1 4E5D09C4
P 8400 3050
F 0 "L10" V 8350 3050 40  0000 C CNN
F 1 "15uH/DCR=80mOhm" V 8300 3100 40  0000 C CNN
F 2 "SDR100" H 8400 3050 60  0001 C CNN
F 3 "" H 8400 3050 60  0001 C CNN
	1    8400 3050
	0    1    1    0   
$EndComp
Wire Wire Line
	5050 5950 10250 5950
Wire Wire Line
	5050 3300 5050 4150
Connection ~ 3700 4200
Wire Wire Line
	3700 4200 3700 3600
Wire Wire Line
	1100 4400 1100 4200
Wire Wire Line
	1500 4950 1500 5200
Wire Wire Line
	1500 4200 1500 4550
Connection ~ 1800 5100
Wire Wire Line
	1800 5100 1800 5000
Connection ~ 1500 4200
Connection ~ 1950 4200
Wire Wire Line
	1100 4200 2050 4200
Connection ~ 4200 3300
Wire Wire Line
	4200 3550 4200 3300
Connection ~ 8800 3300
Wire Wire Line
	7500 3300 8800 3300
Wire Wire Line
	8800 3300 8800 4150
Wire Wire Line
	8700 3050 9250 3050
Wire Wire Line
	7250 3900 9700 3900
Wire Wire Line
	8500 4350 8200 4350
Wire Wire Line
	8250 5600 8250 5950
Connection ~ 10250 3300
Connection ~ 9700 5950
Wire Wire Line
	10250 5950 10250 4600
Connection ~ 5450 3300
Connection ~ 9700 3300
Wire Wire Line
	9700 3850 9700 4750
Wire Wire Line
	5450 4200 5450 4900
Connection ~ 8250 5950
Connection ~ 8250 4850
Connection ~ 5450 5950
Wire Wire Line
	6850 5300 6850 5950
Connection ~ 6850 5950
Wire Wire Line
	6300 5300 6300 5300
Connection ~ 5850 5950
Wire Wire Line
	5850 5300 5850 5950
Connection ~ 6300 4650
Wire Wire Line
	5850 4650 6350 4650
Wire Wire Line
	6300 4650 6300 4800
Wire Wire Line
	5450 5950 5450 5300
Connection ~ 6300 5950
Connection ~ 7250 5950
Wire Wire Line
	7250 5300 7250 5950
Wire Wire Line
	7600 5350 7600 5300
Wire Wire Line
	6300 5750 6300 5950
Wire Wire Line
	5850 4650 5850 4900
Wire Wire Line
	8200 4850 8300 4850
Wire Wire Line
	8800 5950 8800 5800
Connection ~ 9700 3900
Wire Wire Line
	9700 5950 9700 5250
Connection ~ 8800 5950
Wire Wire Line
	9700 3300 9700 3350
Wire Wire Line
	7400 6100 7400 5950
Connection ~ 7400 5950
Wire Wire Line
	8100 3050 8000 3050
Wire Wire Line
	8000 3050 8000 3100
Wire Wire Line
	10250 3300 10250 4200
Wire Wire Line
	7600 5850 7600 5950
Connection ~ 7600 5950
Wire Wire Line
	8250 4850 8250 5200
Wire Wire Line
	8800 4550 8800 5300
Connection ~ 8800 4850
Wire Wire Line
	9650 3300 10600 3300
Wire Wire Line
	3900 3300 6900 3300
Connection ~ 5050 3300
Wire Wire Line
	3300 4200 4200 4200
Wire Wire Line
	4200 3950 4200 4350
Wire Wire Line
	3500 3300 1950 3300
Wire Wire Line
	1950 3300 1950 4200
Connection ~ 1500 5100
Wire Wire Line
	2050 4450 1800 4450
Wire Wire Line
	1800 4450 1800 4500
Wire Wire Line
	1100 5100 2050 5100
Wire Wire Line
	2050 5100 2050 4700
Wire Wire Line
	1100 5100 1100 5000
Wire Wire Line
	3350 4700 3300 4700
Wire Notes Line
	4400 5300 4400 3100
Wire Notes Line
	4400 5300 750  5300
Wire Notes Line
	750  5300 750  3100
Wire Notes Line
	750  3100 4400 3100
Wire Wire Line
	3700 4700 3700 4850
Wire Wire Line
	5050 5950 5050 4550
Wire Wire Line
	5350 6900 5350 7050
Connection ~ 4200 4200
Wire Wire Line
	3350 4700 3350 4200
Connection ~ 3350 4200
$Comp
L GND #PWR045
U 1 1 51C86C11
P 5100 7050
F 0 "#PWR045" H 5100 7050 30  0001 C CNN
F 1 "GND" H 5100 6980 30  0001 C CNN
F 2 "" H 5100 7050 60  0001 C CNN
F 3 "" H 5100 7050 60  0001 C CNN
	1    5100 7050
	1    0    0    -1  
$EndComp
Wire Wire Line
	5100 6900 5100 7050
Wire Wire Line
	5350 6900 5100 6900
$Comp
L VDD5V #PWR046
U 1 1 51C87C98
P 4950 2000
F 0 "#PWR046" H 4950 2100 30  0001 C CNN
F 1 "VDD5V" H 4950 2100 30  0000 C CNN
F 2 "" H 4950 2000 60  0001 C CNN
F 3 "" H 4950 2000 60  0001 C CNN
	1    4950 2000
	1    0    0    -1  
$EndComp
$Comp
L +5VL #PWR53
U 1 1 51C87C9E
P 6800 1950
F 0 "#PWR53" H 6800 2080 20  0001 C CNN
F 1 "+5VL" H 6800 2050 30  0000 C CNN
F 2 "" H 6800 1950 60  0000 C CNN
F 3 "" H 6800 1950 60  0000 C CNN
	1    6800 1950
	1    0    0    -1  
$EndComp
Wire Wire Line
	4500 1850 4500 2050
Wire Wire Line
	4500 2000 4950 2000
Wire Wire Line
	4400 1850 4400 1950
$Comp
L GND #PWR047
U 1 1 51C87CAD
P 4400 1950
F 0 "#PWR047" H 4400 1950 30  0001 C CNN
F 1 "GND" H 4400 1880 30  0001 C CNN
F 2 "" H 4400 1950 60  0001 C CNN
F 3 "" H 4400 1950 60  0001 C CNN
	1    4400 1950
	1    0    0    -1  
$EndComp
Wire Wire Line
	6900 900  6900 1000
$Comp
L GND #PWR048
U 1 1 51C87CB4
P 6900 1000
F 0 "#PWR048" H 6900 1000 30  0001 C CNN
F 1 "GND" H 6900 930 30  0001 C CNN
F 2 "" H 6900 1000 60  0001 C CNN
F 3 "" H 6900 1000 60  0001 C CNN
	1    6900 1000
	1    0    0    -1  
$EndComp
Wire Wire Line
	6350 900  6900 900 
Wire Wire Line
	4300 1900 4300 1850
Wire Wire Line
	3650 1900 4300 1900
Wire Wire Line
	4200 1850 4200 2050
$Comp
L MIC29301 U9
U 1 1 51C87CBE
P 7000 1400
F 0 "U9" H 7000 1500 60  0000 C CNN
F 1 "MIC29301" H 7000 1400 60  0000 C CNN
F 2 "mic29301" H 7000 1400 60  0001 C CNN
F 3 "" H 7000 1400 60  0000 C CNN
	1    7000 1400
	1    0    0    -1  
$EndComp
Wire Wire Line
	6450 1900 6450 2000
Wire Wire Line
	6450 2000 6800 2000
Wire Wire Line
	6800 2000 6800 1950
Wire Wire Line
	6350 1900 6350 2000
$Comp
L GND #PWR049
U 1 1 51C87CC8
P 6350 2000
F 0 "#PWR049" H 6350 2000 30  0001 C CNN
F 1 "GND" H 6350 1930 30  0001 C CNN
F 2 "" H 6350 2000 60  0001 C CNN
F 3 "" H 6350 2000 60  0001 C CNN
	1    6350 2000
	1    0    0    -1  
$EndComp
$Comp
L C C20
U 1 1 51C87CCE
P 4200 2250
F 0 "C20" H 4250 2350 50  0000 L CNN
F 1 "10uF" H 4200 2150 50  0000 L CNN
F 2 "SM1206" H 4200 2250 60  0001 C CNN
F 3 "" H 4200 2250 60  0001 C CNN
	1    4200 2250
	1    0    0    -1  
$EndComp
$Comp
L C C21
U 1 1 51C87CD4
P 4500 2250
F 0 "C21" H 4550 2350 50  0000 L CNN
F 1 "22uF" H 4500 2150 50  0000 L CNN
F 2 "SM1206" H 4500 2250 60  0001 C CNN
F 3 "" H 4500 2250 60  0001 C CNN
	1    4500 2250
	1    0    0    -1  
$EndComp
$Comp
L C C25
U 1 1 51C87CDA
P 6250 2350
F 0 "C25" H 6300 2450 50  0000 L CNN
F 1 "10uF" H 6250 2250 50  0000 L CNN
F 2 "SM1206" H 6250 2350 60  0001 C CNN
F 3 "" H 6250 2350 60  0001 C CNN
	1    6250 2350
	1    0    0    -1  
$EndComp
$Comp
L C C27
U 1 1 51C87CE0
P 6650 2350
F 0 "C27" H 6700 2450 50  0000 L CNN
F 1 "22uF" H 6650 2250 50  0000 L CNN
F 2 "SM1206" H 6650 2350 60  0001 C CNN
F 3 "" H 6650 2350 60  0001 C CNN
	1    6650 2350
	1    0    0    -1  
$EndComp
$Comp
L GND #PWR050
U 1 1 51C87CE6
P 4200 2550
F 0 "#PWR050" H 4200 2550 30  0001 C CNN
F 1 "GND" H 4200 2480 30  0001 C CNN
F 2 "" H 4200 2550 60  0001 C CNN
F 3 "" H 4200 2550 60  0001 C CNN
	1    4200 2550
	1    0    0    -1  
$EndComp
$Comp
L GND #PWR051
U 1 1 51C87CEC
P 4500 2550
F 0 "#PWR051" H 4500 2550 30  0001 C CNN
F 1 "GND" H 4500 2480 30  0001 C CNN
F 2 "" H 4500 2550 60  0001 C CNN
F 3 "" H 4500 2550 60  0001 C CNN
	1    4500 2550
	1    0    0    -1  
$EndComp
$Comp
L GND #PWR052
U 1 1 51C87CF2
P 6250 2650
F 0 "#PWR052" H 6250 2650 30  0001 C CNN
F 1 "GND" H 6250 2580 30  0001 C CNN
F 2 "" H 6250 2650 60  0001 C CNN
F 3 "" H 6250 2650 60  0001 C CNN
	1    6250 2650
	1    0    0    -1  
$EndComp
$Comp
L GND #PWR053
U 1 1 51C87CF8
P 6650 2650
F 0 "#PWR053" H 6650 2650 30  0001 C CNN
F 1 "GND" H 6650 2580 30  0001 C CNN
F 2 "" H 6650 2650 60  0001 C CNN
F 3 "" H 6650 2650 60  0001 C CNN
	1    6650 2650
	1    0    0    -1  
$EndComp
Wire Wire Line
	6650 2550 6650 2650
Wire Wire Line
	6250 2550 6250 2650
Wire Wire Line
	4500 2450 4500 2550
Wire Wire Line
	4200 2450 4200 2550
Connection ~ 4500 2000
Wire Wire Line
	6250 1900 6250 2150
Wire Wire Line
	6650 2150 6650 2000
Connection ~ 6650 2000
Connection ~ 4200 1900
$Comp
L GND #PWR054
U 1 1 51C87D07
P 5200 950
F 0 "#PWR054" H 5200 950 30  0001 C CNN
F 1 "GND" H 5200 880 30  0001 C CNN
F 2 "" H 5200 950 60  0001 C CNN
F 3 "" H 5200 950 60  0001 C CNN
	1    5200 950 
	1    0    0    -1  
$EndComp
Wire Wire Line
	4400 850  5200 850 
Wire Wire Line
	5200 850  5200 950 
Wire Wire Line
	6150 1900 6150 2000
Wire Wire Line
	6150 2000 5650 2000
Wire Wire Line
	6250 2100 5650 2100
Connection ~ 6250 2100
Text Label 3750 1900 0    60   ~ 0
VMAIN
Text Label 5750 2100 0    60   ~ 0
VMAIN
Text Label 5750 2000 0    60   ~ 0
EN_PWR
Text Label 10300 3300 0    60   ~ 0
VMAIN
Text HLabel 5650 2000 0    60   BiDi ~ 0
EN_PWR
$Comp
L BA50DD0WHFP U12
U 1 1 51D3593A
P 4850 1000
F 0 "U12" H 4800 800 60  0000 C CNN
F 1 "BA50DD0WHFP" H 5050 700 60  0000 C CNN
F 2 "ba50dd0whfp" H 4850 1000 60  0001 C CNN
F 3 "" H 4850 1000 60  0000 C CNN
	1    4850 1000
	1    0    0    -1  
$EndComp
Wire Wire Line
	5450 3300 5450 3700
Wire Wire Line
	6350 4350 5450 4350
Connection ~ 5450 4350
Wire Wire Line
	6300 5300 6300 5350
Wire Wire Line
	9200 3300 9250 3300
Wire Wire Line
	9250 3300 9250 3050
$EndSCHEMATC
