EESchema Schematic File Version 2
LIBS:con-jack
LIBS:adm3101e
LIBS:microsd
LIBS:transistor-npn
LIBS:ipc-7351-transistor
LIBS:switch-misc
LIBS:power
LIBS:device
LIBS:transistors
LIBS:conn
LIBS:linear
LIBS:regul
LIBS:74xx
LIBS:cmos4000
LIBS:adc-dac
LIBS:memory
LIBS:xilinx
LIBS:special
LIBS:microcontrollers
LIBS:dsp
LIBS:microchip
LIBS:analog_switches
LIBS:motorola
LIBS:texas
LIBS:intel
LIBS:audio
LIBS:interface
LIBS:digital-audio
LIBS:philips
LIBS:display
LIBS:cypress
LIBS:siliconi
LIBS:opto
LIBS:atmel
LIBS:contrib
LIBS:valves
LIBS:micron_ddr_512Mb
LIBS:iMX23
LIBS:sdmmc
LIBS:usbconn
LIBS:fsusb20
LIBS:r_pack2
LIBS:pasives-connectors
LIBS:EEPROM
LIBS:PWR
LIBS:m25p32
LIBS:PROpendous-cache
LIBS:w_analog
LIBS:gl850g
LIBS:srf2012
LIBS:rclamp0502b
LIBS:mcp130
LIBS:ABM8G
LIBS:usb_a
LIBS:Reset
LIBS:stm32f100vxx
LIBS:lt1117cst
LIBS:zxmhc3f381n8
LIBS:fsusb43
LIBS:usb-mini
LIBS:ba50dd0whfp
LIBS:mic29301
LIBS:xbeepro
LIBS:tps2400
LIBS:lm3478
LIBS:mcp73812
LIBS:ftdichip
LIBS:sp481
LIBS:ref-packages
LIBS:crystal
LIBS:template_mini-cache
EELAYER 24 0
EELAYER END
$Descr A3 16535 11693
encoding utf-8
Sheet 5 5
Title ""
Date "9 aug 2012"
Rev ""
Comp ""
Comment1 ""
Comment2 ""
Comment3 ""
Comment4 ""
$EndDescr
Connection ~ 3600 6550
Wire Wire Line
	6650 4900 6800 4900
Wire Wire Line
	1700 4100 1200 4100
Wire Wire Line
	6650 4700 6900 4700
Wire Wire Line
	5000 5100 5000 6100
Wire Wire Line
	5000 5100 5500 5100
Wire Wire Line
	5500 5200 5200 5200
Wire Wire Line
	5200 5200 5200 4800
Wire Wire Line
	5200 4800 4900 4800
Wire Wire Line
	5450 3300 4900 3300
Connection ~ 1050 5000
Wire Wire Line
	1050 5000 950  5000
Wire Wire Line
	950  5000 950  5100
Connection ~ 1600 5300
Wire Wire Line
	1450 5300 1850 5300
Wire Wire Line
	2900 5200 1850 5200
Wire Wire Line
	1850 5200 1850 5300
Connection ~ 4000 6550
Wire Wire Line
	3600 6550 4100 6550
Wire Wire Line
	4100 6550 4100 6400
Connection ~ 3800 6550
Wire Wire Line
	3900 6550 3900 6400
Wire Wire Line
	5450 3200 4900 3200
Wire Wire Line
	4900 6000 5050 6000
Wire Wire Line
	5550 6000 5600 6000
Wire Wire Line
	5550 4500 5600 4500
Wire Wire Line
	2900 5600 2750 5600
Wire Wire Line
	2350 3200 2350 3250
Wire Wire Line
	2250 4600 2900 4600
Wire Wire Line
	1750 1550 1750 1600
Connection ~ 3800 2650
Wire Wire Line
	3900 2900 3900 2650
Wire Wire Line
	3900 2650 3800 2650
Wire Wire Line
	3600 2900 3600 2100
Wire Wire Line
	3600 2100 3200 2100
Wire Wire Line
	2650 5500 2900 5500
Wire Wire Line
	2900 3500 2800 3500
Connection ~ 2250 4100
Wire Wire Line
	2250 4400 2250 4100
Wire Wire Line
	2200 3800 2900 3800
Wire Notes Line
	1050 500  550  500 
Wire Wire Line
	2200 4100 2900 4100
Wire Wire Line
	2750 4400 2900 4400
Wire Wire Line
	3200 2500 3200 2550
Wire Wire Line
	2000 5400 2000 5500
Wire Wire Line
	2000 5500 2150 5500
Wire Wire Line
	3800 1600 3800 2900
Wire Wire Line
	4000 2900 4000 2700
Wire Wire Line
	4000 2700 4100 2700
Wire Wire Line
	4100 2700 4100 2900
Wire Wire Line
	1750 2000 1750 2050
Wire Wire Line
	1600 1600 1850 1600
Wire Wire Line
	2550 2050 2550 2100
Wire Wire Line
	2550 1600 2550 1650
Connection ~ 2550 1600
Wire Wire Line
	2450 1600 3800 1600
Connection ~ 3200 1600
Connection ~ 2950 1600
Wire Wire Line
	2350 2800 2800 2800
Wire Wire Line
	2800 2800 2800 3500
Wire Wire Line
	2750 5600 2750 5650
Wire Wire Line
	4900 4500 5050 4500
Wire Wire Line
	3600 6400 3600 6600
Wire Wire Line
	3800 6550 3800 6400
Wire Wire Line
	4000 6400 4000 6550
Connection ~ 3900 6550
Wire Wire Line
	2900 4900 1850 4900
Wire Wire Line
	1850 4900 1850 4700
Wire Wire Line
	1850 4700 1450 4700
Connection ~ 1600 4700
Wire Wire Line
	1050 4700 1050 5300
Wire Wire Line
	5000 6100 4900 6100
Wire Wire Line
	4900 4700 5500 4700
Wire Wire Line
	5500 4800 5300 4800
Wire Wire Line
	5300 4800 5300 5600
Wire Wire Line
	5300 5600 4900 5600
Wire Wire Line
	6650 5250 6900 5250
Wire Wire Line
	6900 4700 6900 4800
Wire Wire Line
	1700 3800 1200 3800
Wire Wire Line
	6650 5050 6800 5050
$Comp
L CRYSTAL X2
U 1 1 4FCEC5B6
P 1600 5000
F 0 "X2" H 1600 5150 60  0000 C CNN
F 1 "6MHz" H 1550 4800 60  0000 C CNN
F 2 "crystal-HC49UP" H 1600 5000 60  0001 C CNN
F 3 "" H 1600 5000 60  0001 C CNN
	1    1600 5000
	0    1    1    0   
$EndComp
$Comp
L GND #PWR055
U 1 1 4FCD180C
P 6900 4800
F 0 "#PWR055" H 6900 4800 30  0001 C CNN
F 1 "GND" H 6900 4730 30  0001 C CNN
F 2 "" H 6900 4800 60  0001 C CNN
F 3 "" H 6900 4800 60  0001 C CNN
	1    6900 4800
	1    0    0    -1  
$EndComp
$Comp
L +5V #PWR056
U 1 1 4FCD1804
P 6900 5250
F 0 "#PWR056" H 6900 5340 20  0001 C CNN
F 1 "+5V" H 6900 5340 30  0000 C CNN
F 2 "" H 6900 5250 60  0001 C CNN
F 3 "" H 6900 5250 60  0001 C CNN
	1    6900 5250
	1    0    0    -1  
$EndComp
$Comp
L SP481 U11
U 1 1 4FCD1687
P 6500 4850
F 0 "U11" H 5750 5400 60  0000 C CNN
F 1 "SP481" H 6100 5400 60  0000 C CNN
F 2 "-SOIC8" H 6500 4850 60  0001 C CNN
F 3 "" H 6500 4850 60  0001 C CNN
	1    6500 4850
	1    0    0    1   
$EndComp
$Comp
L GND #PWR057
U 1 1 4FC6CFCA
P 3600 6600
F 0 "#PWR057" H 3600 6600 30  0001 C CNN
F 1 "GND" H 3600 6530 30  0001 C CNN
F 2 "" H 3600 6600 60  0001 C CNN
F 3 "" H 3600 6600 60  0001 C CNN
	1    3600 6600
	1    0    0    -1  
$EndComp
$Comp
L GND #PWR058
U 1 1 4FC6CFB6
P 950 5100
F 0 "#PWR058" H 950 5100 30  0001 C CNN
F 1 "GND" H 950 5030 30  0001 C CNN
F 2 "" H 950 5100 60  0001 C CNN
F 3 "" H 950 5100 60  0001 C CNN
	1    950  5100
	1    0    0    -1  
$EndComp
$Comp
L C C33
U 1 1 4FC6CF8D
P 1250 4700
F 0 "C33" H 1300 4800 50  0000 L CNN
F 1 "47pF" V 1350 4450 50  0000 L CNN
F 2 "SM0603" H 1250 4700 60  0001 C CNN
F 3 "" H 1250 4700 60  0001 C CNN
	1    1250 4700
	0    -1   -1   0   
$EndComp
$Comp
L C C34
U 1 1 4FC6CF5C
P 1250 5300
F 0 "C34" H 1300 5400 50  0000 L CNN
F 1 "47pF" V 1350 5050 50  0000 L CNN
F 2 "SM0603" H 1250 5300 60  0001 C CNN
F 3 "" H 1250 5300 60  0001 C CNN
	1    1250 5300
	0    -1   -1   0   
$EndComp
Text Label 4950 3300 0    60   ~ 0
RX_ZBEE
Text Label 4950 3200 0    60   ~ 0
TXD_ZBEE
$Comp
L R R20
U 1 1 4FC6C4A3
P 5300 6000
F 0 "R20" V 5380 6000 50  0000 C CNN
F 1 "10k" V 5300 6000 50  0000 C CNN
F 2 "SM0603" H 5300 6000 60  0001 C CNN
F 3 "" H 5300 6000 60  0001 C CNN
	1    5300 6000
	0    -1   -1   0   
$EndComp
$Comp
L +3.3V #PWR059
U 1 1 4FC6C4A2
P 5600 6000
F 0 "#PWR059" H 5600 5950 20  0001 C CNN
F 1 "+3.3V" H 5600 6100 30  0000 C CNN
F 2 "" H 5600 6000 60  0001 C CNN
F 3 "" H 5600 6000 60  0001 C CNN
	1    5600 6000
	1    0    0    -1  
$EndComp
$Comp
L +3.3V #PWR060
U 1 1 4FC6C462
P 5600 4500
F 0 "#PWR060" H 5600 4450 20  0001 C CNN
F 1 "+3.3V" H 5600 4600 30  0000 C CNN
F 2 "" H 5600 4500 60  0001 C CNN
F 3 "" H 5600 4500 60  0001 C CNN
	1    5600 4500
	1    0    0    -1  
$EndComp
$Comp
L R R19
U 1 1 4FC6C443
P 5300 4500
F 0 "R19" V 5380 4500 50  0000 C CNN
F 1 "10k" V 5300 4500 50  0000 C CNN
F 2 "SM0603" H 5300 4500 60  0001 C CNN
F 3 "" H 5300 4500 60  0001 C CNN
	1    5300 4500
	0    -1   -1   0   
$EndComp
$Comp
L GND #PWR061
U 1 1 4FC6C3D8
P 2750 5650
F 0 "#PWR061" H 2750 5650 30  0001 C CNN
F 1 "GND" H 2750 5580 30  0001 C CNN
F 2 "" H 2750 5650 60  0001 C CNN
F 3 "" H 2750 5650 60  0001 C CNN
	1    2750 5650
	1    0    0    -1  
$EndComp
$Comp
L C C36
U 1 1 4FC6C3C0
P 2350 3000
F 0 "C36" H 2400 3100 50  0000 L CNN
F 1 "33nF" H 2400 2900 50  0000 L CNN
F 2 "SM0603" H 2350 3000 60  0001 C CNN
F 3 "" H 2350 3000 60  0001 C CNN
	1    2350 3000
	1    0    0    -1  
$EndComp
$Comp
L GND #PWR062
U 1 1 4FC6C3BF
P 2350 3250
F 0 "#PWR062" H 2350 3250 30  0001 C CNN
F 1 "GND" H 2350 3180 30  0001 C CNN
F 2 "" H 2350 3250 60  0001 C CNN
F 3 "" H 2350 3250 60  0001 C CNN
	1    2350 3250
	1    0    0    -1  
$EndComp
$Comp
L +5VA #PWR063
U 1 1 4FC6C374
P 2250 4600
F 0 "#PWR063" H 2250 4730 20  0001 C CNN
F 1 "+5VA" H 2250 4700 30  0000 C CNN
F 2 "" H 2250 4600 60  0001 C CNN
F 3 "" H 2250 4600 60  0001 C CNN
	1    2250 4600
	1    0    0    -1  
$EndComp
$Comp
L +5V #PWR064
U 1 1 4FC6C320
P 1750 1550
F 0 "#PWR064" H 1750 1640 20  0001 C CNN
F 1 "+5V" H 1750 1640 30  0000 C CNN
F 2 "" H 1750 1550 60  0001 C CNN
F 3 "" H 1750 1550 60  0001 C CNN
	1    1750 1550
	1    0    0    -1  
$EndComp
$Comp
L GND #PWR065
U 1 1 4FC6C2CD
P 2550 2100
F 0 "#PWR065" H 2550 2100 30  0001 C CNN
F 1 "GND" H 2550 2030 30  0001 C CNN
F 2 "" H 2550 2100 60  0001 C CNN
F 3 "" H 2550 2100 60  0001 C CNN
	1    2550 2100
	1    0    0    -1  
$EndComp
$Comp
L INDUCTOR L11
U 1 1 4FC6C26A
P 2150 1600
F 0 "L11" V 2100 1600 40  0000 C CNN
F 1 "HZ0805D152R-10" V 2250 1600 40  0000 C CNN
F 2 "SM0805" H 2150 1600 60  0001 C CNN
F 3 "" H 2150 1600 60  0001 C CNN
	1    2150 1600
	0    -1   -1   0   
$EndComp
$Comp
L C C37
U 1 1 4FC6C1A7
P 2550 1850
F 0 "C37" H 2600 1950 50  0000 L CNN
F 1 "10uF" H 2600 1750 50  0000 L CNN
F 2 "SM1206" H 2550 1850 60  0001 C CNN
F 3 "" H 2550 1850 60  0001 C CNN
	1    2550 1850
	1    0    0    -1  
$EndComp
$Comp
L +5VA #PWR066
U 1 1 4FC6C137
P 2950 1600
F 0 "#PWR066" H 2950 1730 20  0001 C CNN
F 1 "+5VA" H 2950 1700 30  0000 C CNN
F 2 "" H 2950 1600 60  0001 C CNN
F 3 "" H 2950 1600 60  0001 C CNN
	1    2950 1600
	1    0    0    -1  
$EndComp
$Comp
L GND #PWR067
U 1 1 4FC6C11B
P 1750 2050
F 0 "#PWR067" H 1750 2050 30  0001 C CNN
F 1 "GND" H 1750 1980 30  0001 C CNN
F 2 "" H 1750 2050 60  0001 C CNN
F 3 "" H 1750 2050 60  0001 C CNN
	1    1750 2050
	1    0    0    -1  
$EndComp
$Comp
L +3.3V #PWR068
U 1 1 4FC6C10C
P 4100 2700
F 0 "#PWR068" H 4100 2650 20  0001 C CNN
F 1 "+3.3V" H 4100 2800 30  0000 C CNN
F 2 "" H 4100 2700 60  0001 C CNN
F 3 "" H 4100 2700 60  0001 C CNN
	1    4100 2700
	1    0    0    -1  
$EndComp
$Comp
L R R18
U 1 1 4FC6BECA
P 3200 1850
F 0 "R18" V 3280 1850 50  0000 C CNN
F 1 "470R" V 3200 1850 50  0000 C CNN
F 2 "SM0603" H 3200 1850 60  0001 C CNN
F 3 "" H 3200 1850 60  0001 C CNN
	1    3200 1850
	-1   0    0    1   
$EndComp
$Comp
L C C38
U 1 1 4FC6BE12
P 3200 2300
F 0 "C38" H 3250 2400 50  0000 L CNN
F 1 "100nF" H 3250 2200 50  0000 L CNN
F 2 "SM0603" H 3200 2300 60  0001 C CNN
F 3 "" H 3200 2300 60  0001 C CNN
	1    3200 2300
	1    0    0    -1  
$EndComp
$Comp
L +5VA #PWR069
U 1 1 4FC6BDF3
P 2000 5400
F 0 "#PWR069" H 2000 5530 20  0001 C CNN
F 1 "+5VA" H 2000 5500 30  0000 C CNN
F 2 "" H 2000 5400 60  0001 C CNN
F 3 "" H 2000 5400 60  0001 C CNN
	1    2000 5400
	1    0    0    -1  
$EndComp
$Comp
L R R16
U 1 1 4FC6BD44
P 2400 5500
F 0 "R16" V 2480 5500 50  0000 C CNN
F 1 "10K" V 2400 5500 50  0000 C CNN
F 2 "SM0603" H 2400 5500 60  0001 C CNN
F 3 "" H 2400 5500 60  0001 C CNN
	1    2400 5500
	0    -1   -1   0   
$EndComp
$Comp
L C C35
U 1 1 4FC6BCE9
P 1750 1800
F 0 "C35" H 1800 1900 50  0000 L CNN
F 1 "10nF" H 1800 1700 50  0000 L CNN
F 2 "SM0603" H 1750 1800 60  0001 C CNN
F 3 "" H 1750 1800 60  0001 C CNN
	1    1750 1800
	1    0    0    -1  
$EndComp
$Comp
L GND #PWR070
U 1 1 4FC6BCE8
P 3200 2550
F 0 "#PWR070" H 3200 2550 30  0001 C CNN
F 1 "GND" H 3200 2480 30  0001 C CNN
F 2 "" H 3200 2550 60  0001 C CNN
F 3 "" H 3200 2550 60  0001 C CNN
	1    3200 2550
	1    0    0    -1  
$EndComp
$Comp
L +3.3V #PWR071
U 1 1 4FC6BCE7
P 2350 2800
F 0 "#PWR071" H 2350 2750 20  0001 C CNN
F 1 "+3.3V" H 2350 2900 30  0000 C CNN
F 2 "" H 2350 2800 60  0001 C CNN
F 3 "" H 2350 2800 60  0001 C CNN
	1    2350 2800
	1    0    0    -1  
$EndComp
$Comp
L R R17
U 1 1 4FC6BC62
P 2500 4400
F 0 "R17" V 2580 4400 50  0000 C CNN
F 1 "1K5" V 2500 4400 50  0000 C CNN
F 2 "SM0603" H 2500 4400 60  0001 C CNN
F 3 "" H 2500 4400 60  0001 C CNN
	1    2500 4400
	0    -1   -1   0   
$EndComp
$Comp
L R R15
U 1 1 4FC6BC59
P 1950 4100
F 0 "R15" V 2030 4100 50  0000 C CNN
F 1 "27R" V 1950 4100 50  0000 C CNN
F 2 "SM0603" H 1950 4100 60  0001 C CNN
F 3 "" H 1950 4100 60  0001 C CNN
	1    1950 4100
	0    -1   -1   0   
$EndComp
$Comp
L R R14
U 1 1 4FC6BC34
P 1950 3800
F 0 "R14" V 2030 3800 50  0000 C CNN
F 1 "27R" V 1950 3800 50  0000 C CNN
F 2 "SM0603" H 1950 3800 60  0001 C CNN
F 3 "" H 1950 3800 60  0001 C CNN
	1    1950 3800
	0    -1   -1   0   
$EndComp
$Comp
L FT2232L IC1
U 1 1 4FC6BAB1
P 3900 4600
F 0 "IC1" H 3900 4700 50  0000 C CNN
F 1 "FT2232L" H 3900 4600 50  0000 C CNN
F 2 "ftdichip-2-LQFP48" H 3900 4750 50  0001 C CNN
F 3 "" H 3900 4600 60  0001 C CNN
	1    3900 4600
	1    0    0    -1  
$EndComp
$Comp
L VDD5V #PWR072
U 1 1 51CC37E0
P 1600 1550
F 0 "#PWR072" H 1600 1650 30  0001 C CNN
F 1 "VDD5V" H 1600 1650 30  0000 C CNN
F 2 "" H 1600 1550 60  0001 C CNN
F 3 "" H 1600 1550 60  0001 C CNN
	1    1600 1550
	1    0    0    -1  
$EndComp
Wire Wire Line
	1600 1550 1600 1600
Connection ~ 1750 1600
Text HLabel 1200 3800 0    60   BiDi ~ 0
DM2
Text HLabel 1200 4100 0    60   BiDi ~ 0
DP2
Text HLabel 5450 3200 2    60   BiDi ~ 0
TXD_ZBEE
Text HLabel 5450 3300 2    60   BiDi ~ 0
RX_ZBEE
Text HLabel 6800 4900 2    60   BiDi ~ 0
485_A
Text HLabel 6800 5050 2    60   BiDi ~ 0
485_B
Wire Wire Line
	5400 3300 5400 2950
$Comp
L R R21
U 1 1 51CD787E
P 5400 2700
F 0 "R21" V 5480 2700 50  0000 C CNN
F 1 "15K" V 5400 2700 50  0000 C CNN
F 2 "SM0603" H 5400 2700 60  0001 C CNN
F 3 "" H 5400 2700 60  0001 C CNN
	1    5400 2700
	1    0    0    -1  
$EndComp
Connection ~ 5400 3300
$Comp
L +3.3V #PWR073
U 1 1 51CD7AF5
P 5400 2400
F 0 "#PWR073" H 5400 2350 20  0001 C CNN
F 1 "+3.3V" H 5400 2500 30  0000 C CNN
F 2 "" H 5400 2400 60  0001 C CNN
F 3 "" H 5400 2400 60  0001 C CNN
	1    5400 2400
	1    0    0    -1  
$EndComp
Wire Wire Line
	5400 2400 5400 2450
$EndSCHEMATC
