EESchema Schematic File Version 2
LIBS:con-jack
LIBS:adm3101e
LIBS:microsd
LIBS:transistor-npn
LIBS:ipc-7351-transistor
LIBS:switch-misc
LIBS:power
LIBS:device
LIBS:transistors
LIBS:conn
LIBS:linear
LIBS:regul
LIBS:74xx
LIBS:cmos4000
LIBS:adc-dac
LIBS:memory
LIBS:xilinx
LIBS:special
LIBS:microcontrollers
LIBS:dsp
LIBS:microchip
LIBS:analog_switches
LIBS:motorola
LIBS:texas
LIBS:intel
LIBS:audio
LIBS:interface
LIBS:digital-audio
LIBS:philips
LIBS:display
LIBS:cypress
LIBS:siliconi
LIBS:opto
LIBS:atmel
LIBS:contrib
LIBS:valves
LIBS:micron_ddr_512Mb
LIBS:iMX23
LIBS:sdmmc
LIBS:usbconn
LIBS:fsusb20
LIBS:r_pack2
LIBS:pasives-connectors
LIBS:EEPROM
LIBS:PWR
LIBS:m25p32
LIBS:PROpendous-cache
LIBS:w_analog
LIBS:gl850g
LIBS:srf2012
LIBS:rclamp0502b
LIBS:mcp130
LIBS:ABM8G
LIBS:usb_a
LIBS:Reset
LIBS:stm32f100vxx
LIBS:lt1117cst
LIBS:zxmhc3f381n8
LIBS:fsusb43
LIBS:usb-mini
LIBS:ba50dd0whfp
LIBS:mic29301
LIBS:xbeepro
LIBS:tps2400
LIBS:lm3478
LIBS:mcp73812
LIBS:ftdichip
LIBS:sp481
LIBS:ref-packages
LIBS:crystal
LIBS:template_mini-cache
EELAYER 24 0
EELAYER END
$Descr A4 11693 8268
encoding utf-8
Sheet 2 5
Title ""
Date "25 apr 2013"
Rev ""
Comp ""
Comment1 ""
Comment2 ""
Comment3 ""
Comment4 ""
$EndDescr
$Comp
L VDD5V #PWR08
U 1 1 5179434E
P 7550 1450
F 0 "#PWR08" H 7550 1550 30  0001 C CNN
F 1 "VDD5V" H 7450 1450 30  0000 C CNN
F 2 "" H 7550 1450 60  0001 C CNN
F 3 "" H 7550 1450 60  0001 C CNN
	1    7550 1450
	1    0    0    -1  
$EndComp
Text Label 8650 1650 0    60   ~ 0
LCD_VSYNC
Text Label 7050 1750 0    60   ~ 0
LCD_WR
Text Label 8650 1750 0    60   ~ 0
LCD_RS
Text Label 8650 1850 0    60   ~ 0
LCD_RESET
Text Label 7050 1550 0    60   ~ 0
LCD_DOTCK
Text Label 7050 1850 0    60   ~ 0
LCD_ENABLE
Text Label 7050 1650 0    60   ~ 0
LCD_HSYNC
Text Label 8650 1950 0    60   ~ 0
LCD_CS
Text Label 7050 1950 0    60   ~ 0
LCD_D7
Text Label 8650 2050 0    60   ~ 0
LCD_D6
Text Label 8650 2150 0    60   ~ 0
LCD_D4
Text Label 7050 2050 0    60   ~ 0
LCD_D5
Text Label 8650 2250 0    60   ~ 0
LCD_D2
Text Label 7050 2150 0    60   ~ 0
LCD_D3
Text Label 7050 2250 0    60   ~ 0
LCD_D1
Text Label 8650 2350 0    60   ~ 0
LCD_D0
Text Label 7200 3600 0    60   ~ 0
LRADC1
Text Label 8800 3600 0    60   ~ 0
LRADC0
Text Label 7650 3200 2    60   ~ 0
SSPI_CMD
Text Label 7750 3300 2    60   ~ 0
SSPI_DATA3
Text Label 9300 3300 2    60   ~ 0
SSPI_DATA0
Text Label 9200 3400 2    60   ~ 0
SSPI_SCK
$Comp
L CONN_12X2 P2
U 1 1 5179434D
P 8150 2000
F 0 "P2" H 8150 2650 60  0000 C CNN
F 1 "CONN_12X2" V 8150 2000 50  0000 C CNN
F 2 "CONN_12X2" H 8150 2000 60  0001 C CNN
F 3 "" H 8150 2000 60  0001 C CNN
	1    8150 2000
	1    0    0    -1  
$EndComp
Text Label 8650 2450 0    60   ~ 0
TX
Text Label 7050 2450 0    60   ~ 0
RX
$Comp
L CONN_12X2 P1
U 1 1 5179434C
P 8200 3550
F 0 "P1" H 8200 4200 60  0000 C CNN
F 1 "CONN_12X2" V 8200 3550 50  0000 C CNN
F 2 "" H 8200 3550 60  0001 C CNN
F 3 "" H 8200 3550 60  0001 C CNN
	1    8200 3550
	1    0    0    -1  
$EndComp
Text Label 8800 3500 0    60   ~ 0
VDAC1
Text Label 7200 3800 0    60   ~ 0
HPR
Text Label 8800 3900 0    60   ~ 0
HPL
Text Label 8800 4000 0    60   ~ 0
LINE1_INL
Text Label 7200 3900 0    60   ~ 0
LINE1_INR
Text Label 9200 4100 2    60   ~ 0
PSWITCH
Text Label 7200 4000 0    60   ~ 0
MIC
Text Label 8800 3800 0    60   ~ 0
HP_VGND
$Comp
L CONN_1 P10
U 1 1 5179434B
P 10250 5450
F 0 "P10" H 10330 5450 40  0000 L CNN
F 1 "CONN_1" H 10250 5505 30  0001 C CNN
F 2 "MHOLE" H 10250 5450 60  0001 C CNN
F 3 "" H 10250 5450 60  0001 C CNN
	1    10250 5450
	1    0    0    -1  
$EndComp
$Comp
L CONN_1 P5
U 1 1 5179434A
P 10250 5650
F 0 "P5" H 10330 5650 40  0000 L CNN
F 1 "CONN_1" H 10250 5705 30  0001 C CNN
F 2 "MHOLE" H 10250 5650 60  0001 C CNN
F 3 "" H 10250 5650 60  0001 C CNN
	1    10250 5650
	1    0    0    -1  
$EndComp
Text Label 9850 5450 0    60   ~ 0
GND_CASE
$Comp
L GND #PWR09
U 1 1 51794349
P 7050 4150
F 0 "#PWR09" H 7050 4150 30  0001 C CNN
F 1 "GND" H 7050 4080 30  0001 C CNN
F 2 "" H 7050 4150 60  0001 C CNN
F 3 "" H 7050 4150 60  0001 C CNN
	1    7050 4150
	1    0    0    -1  
$EndComp
$Comp
L CONN_1 P3
U 1 1 51794348
P 10250 5800
F 0 "P3" H 10330 5800 40  0000 L CNN
F 1 "CONN_1" H 10250 5855 30  0001 C CNN
F 2 "MHOLE" H 10250 5800 60  0001 C CNN
F 3 "" H 10250 5800 60  0001 C CNN
	1    10250 5800
	1    0    0    -1  
$EndComp
Text Label 8650 1550 0    60   ~ 0
GPMI_D05
Text Label 8650 1450 0    60   ~ 0
GPMI_D07
$Comp
L GND #PWR010
U 1 1 51794347
P 9500 3250
F 0 "#PWR010" H 9500 3250 30  0001 C CNN
F 1 "GND" H 9500 3180 30  0001 C CNN
F 2 "" H 9500 3250 60  0001 C CNN
F 3 "" H 9500 3250 60  0001 C CNN
	1    9500 3250
	1    0    0    -1  
$EndComp
$Comp
L CONN_1 P7
U 1 1 51794346
P 10250 5900
F 0 "P7" H 10330 5900 40  0000 L CNN
F 1 "CONN_1" H 10250 5955 30  0001 C CNN
F 2 "MHOLE" H 10250 5900 60  0001 C CNN
F 3 "" H 10250 5900 60  0001 C CNN
	1    10250 5900
	1    0    0    -1  
$EndComp
Text Label 7200 3700 0    60   ~ 0
GND
Text Label 8800 3700 0    60   ~ 0
GND
Text Label 7250 3400 0    60   ~ 0
GND
Text Label 7050 2350 0    60   ~ 0
RESET_PB
Wire Wire Line
	8550 2450 9250 2450
Wire Wire Line
	9500 3250 9500 3200
Wire Wire Line
	9250 1450 8550 1450
Wire Wire Line
	8600 3000 8800 3000
Wire Wire Line
	7050 4150 7050 4100
Wire Wire Line
	9350 4000 8600 4000
Wire Wire Line
	9250 2250 8550 2250
Wire Wire Line
	9250 2050 8550 2050
Wire Wire Line
	7050 2250 7750 2250
Wire Wire Line
	7050 2050 7750 2050
Wire Wire Line
	9350 3800 8600 3800
Wire Wire Line
	9350 3500 8600 3500
Wire Wire Line
	9350 3300 8600 3300
Wire Wire Line
	7050 4000 7800 4000
Wire Wire Line
	7050 3800 7800 3800
Wire Wire Line
	7050 3500 7800 3500
Wire Wire Line
	7050 3300 7800 3300
Wire Wire Line
	7050 3200 7800 3200
Wire Wire Line
	8600 4100 9200 4100
Wire Wire Line
	7200 3700 7800 3700
Wire Wire Line
	9200 3700 8600 3700
Wire Wire Line
	7750 1650 7050 1650
Wire Wire Line
	7750 1850 7050 1850
Wire Wire Line
	7750 1550 7050 1550
Wire Wire Line
	9250 1850 8550 1850
Wire Wire Line
	7750 1750 7050 1750
Wire Wire Line
	9250 1650 8550 1650
Wire Wire Line
	9250 1750 8550 1750
Wire Wire Line
	7050 3400 7800 3400
Wire Wire Line
	7050 3600 7800 3600
Wire Wire Line
	7050 3900 7800 3900
Wire Wire Line
	9350 3400 8600 3400
Wire Wire Line
	9350 3600 8600 3600
Wire Wire Line
	9350 3900 8600 3900
Wire Wire Line
	7050 1950 7750 1950
Wire Wire Line
	7050 2150 7750 2150
Wire Wire Line
	9250 1950 8550 1950
Wire Wire Line
	9250 2150 8550 2150
Wire Wire Line
	9250 2350 8550 2350
Wire Wire Line
	7050 4100 7800 4100
Wire Wire Line
	7750 1450 7550 1450
Wire Wire Line
	7800 3000 7600 3000
Wire Wire Line
	9250 1550 8550 1550
Wire Wire Line
	9500 3200 8600 3200
Wire Wire Line
	7050 2450 7750 2450
Wire Wire Line
	7750 2350 7050 2350
Wire Wire Line
	7050 2550 7750 2550
Wire Wire Line
	8550 2550 9250 2550
Text Label 8650 2550 0    60   ~ 0
USB_DM
Text Label 7050 2550 0    60   ~ 0
USB_DP
Wire Wire Line
	7800 3100 7050 3100
Text Label 7200 3100 0    60   ~ 0
GPMI_CE0N
Text Label 7200 3500 0    60   ~ 0
PWM2
Wire Wire Line
	8600 3100 9350 3100
Text Label 9350 3100 2    60   ~ 0
SSPI_DETECT
$Comp
L JUMPER JP4
U 1 1 51794343
P 8150 2700
F 0 "JP4" H 8150 2850 60  0000 C CNN
F 1 "J" H 8150 2620 40  0000 C CNN
F 2 "PIN_ARRAY_2X1" H 8150 2700 60  0001 C CNN
F 3 "" H 8150 2700 60  0001 C CNN
	1    8150 2700
	1    0    0    -1  
$EndComp
Wire Wire Line
	7100 2700 7850 2700
Wire Wire Line
	8450 2700 9200 2700
Text Label 7250 2700 0    60   ~ 0
I2C_SCL
Text Label 8600 2700 0    60   ~ 0
I2C_SDA
$Comp
L CONN_12X2 P4
U 1 1 517942CF
P 4950 3450
F 0 "P4" H 4950 4100 60  0000 C CNN
F 1 "CONN_12X2" V 4950 3450 50  0000 C CNN
F 2 "pin_array_12x2" H 4950 3450 60  0001 C CNN
F 3 "" H 4950 3450 60  0001 C CNN
	1    4950 3450
	1    0    0    -1  
$EndComp
Text Label 4250 3000 0    60   ~ 0
PB0
Text Label 5350 3100 0    60   ~ 0
PB1
Text Label 5350 3000 0    60   ~ 0
ADVREF
Text Label 4250 3100 0    60   ~ 0
PA17
Text Label 5450 3200 0    60   ~ 0
PA18
Text Label 4350 3200 0    60   ~ 0
PA19
Text Label 5450 3300 0    60   ~ 0
PA20
Text Label 4350 3300 0    60   ~ 0
PA16
Text Label 5450 3400 0    60   ~ 0
PA15
Text Label 4350 3400 0    60   ~ 0
PA14
Text Label 5450 3500 0    60   ~ 0
PA13
Text Label 4350 3500 0    60   ~ 0
PA12
Text Label 5450 3600 0    60   ~ 0
PA11
Text Label 4350 3600 0    60   ~ 0
PA10
Text Label 5450 3700 0    60   ~ 0
PA9
Text Label 4350 3700 0    60   ~ 0
PA8
Text Label 4350 3800 0    60   ~ 0
PA7
Text Label 5450 3800 0    60   ~ 0
PA6
Text Label 4350 3900 0    60   ~ 0
PA5
Text Label 5450 3900 0    60   ~ 0
PA2
Text Label 4350 4000 0    60   ~ 0
PA1
Text Label 5450 4000 0    60   ~ 0
PA0
$Comp
L VDD5V #PWR011
U 1 1 517942CE
P 4300 2900
F 0 "#PWR011" H 4300 3000 30  0001 C CNN
F 1 "VDD5V" H 4200 2900 30  0000 C CNN
F 2 "" H 4300 2900 60  0001 C CNN
F 3 "" H 4300 2900 60  0001 C CNN
	1    4300 2900
	1    0    0    -1  
$EndComp
Wire Wire Line
	4550 2900 4300 2900
Wire Wire Line
	5350 4000 5650 4000
Wire Wire Line
	4250 4000 4550 4000
Wire Wire Line
	5350 3900 5650 3900
Wire Wire Line
	4250 3900 4550 3900
Wire Wire Line
	5350 3800 5650 3800
Wire Wire Line
	4250 3800 4550 3800
Wire Wire Line
	4250 3700 4550 3700
Wire Wire Line
	5350 3700 5650 3700
Wire Wire Line
	4250 3600 4550 3600
Wire Wire Line
	5350 3600 5650 3600
Wire Wire Line
	4250 3500 4550 3500
Wire Wire Line
	5350 3500 5650 3500
Wire Wire Line
	4250 3400 4550 3400
Wire Wire Line
	5350 3400 5650 3400
Wire Wire Line
	4250 3300 4550 3300
Wire Wire Line
	5350 3300 5650 3300
Wire Wire Line
	4250 3200 4550 3200
Wire Wire Line
	5350 3200 5650 3200
Wire Wire Line
	4250 3100 4550 3100
Wire Wire Line
	5650 3000 5350 3000
Wire Wire Line
	5350 3100 5650 3100
Wire Wire Line
	4250 3000 4550 3000
Wire Wire Line
	5350 2900 5650 2900
Text Label 5400 2900 0    60   ~ 0
GND
$Comp
L VDDIO_3V3 #PWR012
U 1 1 51B97ED4
P 7600 3000
F 0 "#PWR012" H 7600 3100 30  0001 C CNN
F 1 "VDDIO_3V3" H 7600 3100 30  0000 C CNN
F 2 "" H 7600 3000 60  0001 C CNN
F 3 "" H 7600 3000 60  0001 C CNN
	1    7600 3000
	1    0    0    -1  
$EndComp
$Comp
L VDDIO_3V3 #PWR013
U 1 1 51B97EDA
P 8800 3000
F 0 "#PWR013" H 8800 3100 30  0001 C CNN
F 1 "VDDIO_3V3" H 8800 3100 30  0000 C CNN
F 2 "" H 8800 3000 60  0001 C CNN
F 3 "" H 8800 3000 60  0001 C CNN
	1    8800 3000
	1    0    0    -1  
$EndComp
Wire Wire Line
	9700 5450 10100 5450
Wire Wire Line
	9850 5450 9850 5900
Wire Wire Line
	9850 5900 10100 5900
Wire Wire Line
	10100 5800 9850 5800
Connection ~ 9850 5800
Wire Wire Line
	10100 5650 9850 5650
Connection ~ 9850 5650
Text HLabel 7050 2450 0    60   BiDi ~ 0
RX
Text HLabel 7050 2550 0    60   BiDi ~ 0
USB_DP
Text HLabel 9250 2450 2    60   BiDi ~ 0
TX
Text HLabel 9250 2550 2    60   BiDi ~ 0
USB_DM
Text HLabel 7050 3100 0    60   BiDi ~ 0
RESET_HUB
Text HLabel 7050 3500 0    60   BiDi ~ 0
EN_PWR
Text HLabel 5650 3700 2    60   Input ~ 0
RX_SAM3
Text HLabel 4250 3600 0    60   Input ~ 0
TX_SAM3
Text HLabel 4250 3200 0    60   Input ~ 0
GPIO1
Text HLabel 5650 3300 2    60   Input ~ 0
GPIO2
Text GLabel 9700 5450 0    60   BiDi ~ 0
GND_CASE
Connection ~ 9850 5450
$EndSCHEMATC
