EESchema Schematic File Version 2
LIBS:con-jack
LIBS:adm3101e
LIBS:microsd
LIBS:transistor-npn
LIBS:ipc-7351-transistor
LIBS:switch-misc
LIBS:power
LIBS:device
LIBS:transistors
LIBS:conn
LIBS:linear
LIBS:regul
LIBS:74xx
LIBS:cmos4000
LIBS:adc-dac
LIBS:memory
LIBS:xilinx
LIBS:special
LIBS:microcontrollers
LIBS:dsp
LIBS:microchip
LIBS:analog_switches
LIBS:motorola
LIBS:texas
LIBS:intel
LIBS:audio
LIBS:interface
LIBS:digital-audio
LIBS:philips
LIBS:display
LIBS:cypress
LIBS:siliconi
LIBS:opto
LIBS:atmel
LIBS:contrib
LIBS:valves
LIBS:micron_ddr_512Mb
LIBS:iMX23
LIBS:sdmmc
LIBS:usbconn
LIBS:fsusb20
LIBS:r_pack2
LIBS:pasives-connectors
LIBS:EEPROM
LIBS:PWR
LIBS:m25p32
LIBS:PROpendous-cache
LIBS:w_analog
LIBS:gl850g
LIBS:srf2012
LIBS:rclamp0502b
LIBS:mcp130
LIBS:ABM8G
LIBS:usb_a
LIBS:Reset
LIBS:stm32f100vxx
LIBS:lt1117cst
LIBS:zxmhc3f381n8
LIBS:fsusb43
LIBS:usb-mini
LIBS:ba50dd0whfp
LIBS:mic29301
LIBS:xbeepro
LIBS:tps2400
LIBS:lm3478
LIBS:mcp73812
LIBS:ftdichip
LIBS:sp481
LIBS:ref-packages
LIBS:crystal
LIBS:template_mini-cache
EELAYER 24 0
EELAYER END
$Descr A4 11693 8268
encoding utf-8
Sheet 1 5
Title ""
Date "25 apr 2013"
Rev ""
Comp ""
Comment1 ""
Comment2 ""
Comment3 ""
Comment4 ""
$EndDescr
$Sheet
S 6650 1850 1650 1250
U 5179429A
F0 "stamp" 60
F1 "stamp_mini_4.sch" 60
F2 "RX" B R 8300 2200 60 
F3 "USB_DP" B L 6650 2150 60 
F4 "TX" B R 8300 2100 60 
F5 "USB_DM" B L 6650 2050 60 
F6 "RESET_HUB" B L 6650 2400 60 
F7 "EN_PWR" B L 6650 2550 60 
F8 "RX_SAM3" I R 8300 2600 60 
F9 "TX_SAM3" I R 8300 2700 60 
F10 "GPIO1" I R 8300 2500 60 
F11 "GPIO2" I R 8300 2400 60 
$EndSheet
$Sheet
S 4950 1850 1150 700 
U 51B8E16A
F0 "USB" 50
F1 "usb.sch" 50
F2 "USB_reset" B R 6100 2400 60 
F3 "USB_DP0" T R 6100 2150 60 
F4 "USB_DM0" T R 6100 2050 60 
F5 "DM4" B L 4950 2100 60 
F6 "DP4" B L 4950 2200 60 
$EndSheet
$Comp
L VDDIO_3V3 #PWR01
U 1 1 51B947E9
P 5700 750
F 0 "#PWR01" H 5700 850 30  0001 C CNN
F 1 "VDDIO_3V3" H 5700 850 30  0000 C CNN
F 2 "" H 5700 750 60  0001 C CNN
F 3 "" H 5700 750 60  0001 C CNN
	1    5700 750 
	1    0    0    -1  
$EndComp
Wire Wire Line
	6100 2050 6650 2050
Wire Wire Line
	6100 2150 6650 2150
Wire Wire Line
	6100 2400 6650 2400
Wire Wire Line
	6200 2550 6650 2550
Text Label 6250 2550 0    60   ~ 0
EN_PWR
$Comp
L XBEEPRO U1
U 1 1 51BF17B0
P 7500 3950
F 0 "U1" H 7500 4450 60  0000 C CNN
F 1 "XBEEPRO" H 7500 4300 60  0000 C CNN
F 2 "xbeepro" H 7500 3950 60  0000 C CNN
F 3 "" H 7500 3950 60  0000 C CNN
	1    7500 3950
	1    0    0    -1  
$EndComp
$Comp
L VDDIO_3V3 #PWR02
U 1 1 51BF1CD6
P 6100 3550
F 0 "#PWR02" H 6100 3650 30  0001 C CNN
F 1 "VDDIO_3V3" H 6100 3650 30  0000 C CNN
F 2 "" H 6100 3550 60  0001 C CNN
F 3 "" H 6100 3550 60  0001 C CNN
	1    6100 3550
	1    0    0    -1  
$EndComp
Wire Wire Line
	6450 3600 6100 3600
Wire Wire Line
	6100 3600 6100 3550
$Comp
L GND #PWR03
U 1 1 51BF209B
P 6200 4600
F 0 "#PWR03" H 6200 4600 30  0001 C CNN
F 1 "GND" H 6200 4530 30  0001 C CNN
F 2 "" H 6200 4600 60  0001 C CNN
F 3 "" H 6200 4600 60  0001 C CNN
	1    6200 4600
	1    0    0    -1  
$EndComp
Wire Wire Line
	6200 4500 6200 4600
Wire Wire Line
	6450 4500 6200 4500
$Sheet
S 3100 1850 900  400 
U 51BF3047
F0 "power" 50
F1 "power.sch" 50
F2 "VDC" O L 3100 1950 60 
F3 "EN_PWR" B R 4000 2000 60 
$EndSheet
Wire Wire Line
	5250 3700 6450 3700
Wire Wire Line
	5250 3800 6450 3800
Wire Wire Line
	4600 2100 4950 2100
Wire Wire Line
	4600 2200 4950 2200
Text Label 4600 2100 0    60   ~ 0
DM_SER
Text Label 4600 2200 0    60   ~ 0
DP_SER
Wire Wire Line
	4000 2000 4450 2000
Text Label 4050 2000 0    60   ~ 0
EN_PWR
$Sheet
S 3400 3500 1850 700 
U 51CB1EA7
F0 "serial_interface" 50
F1 "serial_interface.sch" 50
F2 "DM2" B L 3400 3700 60 
F3 "DP2" B L 3400 3800 60 
F4 "TXD_ZBEE" B R 5250 3800 60 
F5 "RX_ZBEE" B R 5250 3700 60 
F6 "485_A" B R 5250 3900 60 
F7 "485_B" B R 5250 4000 60 
$EndSheet
Wire Wire Line
	3050 3700 3400 3700
Wire Wire Line
	3050 3800 3400 3800
Text Label 3050 3700 0    60   ~ 0
DM_SER
Text Label 3050 3800 0    60   ~ 0
DP_SER
$Comp
L CONN_10 P6
U 1 1 51D32B60
P 9900 2800
F 0 "P6" V 9850 2800 60  0000 C CNN
F 1 "CONN_10" V 9950 2800 60  0000 C CNN
F 2 "ENG_CD_10" H 9900 2800 60  0001 C CNN
F 3 "" H 9900 2800 60  0000 C CNN
	1    9900 2800
	1    0    0    -1  
$EndComp
Wire Wire Line
	5600 3900 5250 3900
Wire Wire Line
	5600 4000 5250 4000
$Comp
L VDD5V #PWR04
U 1 1 51D35B28
P 9250 2300
F 0 "#PWR04" H 9250 2400 30  0001 C CNN
F 1 "VDD5V" H 9250 2400 30  0000 C CNN
F 2 "" H 9250 2300 60  0001 C CNN
F 3 "" H 9250 2300 60  0001 C CNN
	1    9250 2300
	1    0    0    -1  
$EndComp
Wire Wire Line
	8700 2100 8300 2100
Wire Wire Line
	8700 2200 8300 2200
Wire Wire Line
	8700 2400 8300 2400
Wire Wire Line
	8700 2500 8300 2500
Wire Wire Line
	8700 2600 8300 2600
Wire Wire Line
	8300 2700 8700 2700
Text Label 5300 3900 0    60   ~ 0
485_A
Text Label 5300 4000 0    60   ~ 0
485_B
Text Label 8350 2100 0    60   ~ 0
TX_CON
Text Label 8350 2200 0    60   ~ 0
RX_CON
Text Label 8400 2400 0    60   ~ 0
GPIO1
Text Label 8400 2500 0    60   ~ 0
GPIO2
Text Label 8400 2600 0    60   ~ 0
GPIO3
Text Label 8400 2700 0    60   ~ 0
GPIO4
Wire Wire Line
	9550 2550 9150 2550
Wire Wire Line
	9550 2650 9150 2650
Wire Wire Line
	9550 2850 9150 2850
Wire Wire Line
	9550 2750 9150 2750
Wire Wire Line
	9550 3050 9150 3050
Wire Wire Line
	9150 2950 9550 2950
Text Label 9200 2550 0    60   ~ 0
TX_CON
Text Label 9200 2650 0    60   ~ 0
RX_CON
Text Label 9150 2850 0    60   ~ 0
GPIO1
Text Label 9150 2750 0    60   ~ 0
GPIO2
Text Label 9150 3050 0    60   ~ 0
GPIO3
Text Label 9150 2950 0    60   ~ 0
GPIO4
Wire Wire Line
	9150 3150 9550 3150
Wire Wire Line
	9150 3250 9550 3250
Text Label 9150 3150 0    60   ~ 0
485_A
Text Label 9150 3250 0    60   ~ 0
485_B
Wire Wire Line
	9550 2350 9250 2350
Wire Wire Line
	9250 2350 9250 2300
$Comp
L GND #PWR05
U 1 1 51D3932C
P 9000 2550
F 0 "#PWR05" H 9000 2550 30  0001 C CNN
F 1 "GND" H 9000 2480 30  0001 C CNN
F 2 "" H 9000 2550 60  0001 C CNN
F 3 "" H 9000 2550 60  0001 C CNN
	1    9000 2550
	1    0    0    -1  
$EndComp
Wire Wire Line
	9000 2450 9000 2550
Wire Wire Line
	9000 2450 9550 2450
$Comp
L JACK-PLUG0 JPW1
U 1 1 51D65712
P 2450 2050
F 0 "JPW1" H 2150 2250 50  0000 L BNN
F 1 "JACK-PLUG0" H 2150 1850 50  0000 L BNN
F 2 "J5" H 2450 2200 50  0001 C CNN
F 3 "" H 2450 2050 60  0000 C CNN
	1    2450 2050
	1    0    0    -1  
$EndComp
$Comp
L GND #PWR06
U 1 1 51D664DE
P 2950 2150
F 0 "#PWR06" H 2950 2150 30  0001 C CNN
F 1 "GND" H 2950 2080 30  0001 C CNN
F 2 "" H 2950 2150 60  0001 C CNN
F 3 "" H 2950 2150 60  0001 C CNN
	1    2950 2150
	1    0    0    -1  
$EndComp
Wire Wire Line
	2950 2050 2950 2150
Wire Wire Line
	2650 2050 2950 2050
Wire Wire Line
	2650 1950 3100 1950
$Comp
L R R22
U 1 1 520C5523
P 9500 4100
F 0 "R22" V 9580 4100 50  0000 C CNN
F 1 "470R" V 9500 4100 50  0000 C CNN
F 2 "SM0603" H 9500 4100 60  0001 C CNN
F 3 "" H 9500 4100 60  0001 C CNN
	1    9500 4100
	0    1    1    0   
$EndComp
$Comp
L GND #PWR07
U 1 1 520C5EB6
P 9850 4200
F 0 "#PWR07" H 9850 4200 30  0001 C CNN
F 1 "GND" H 9850 4130 30  0001 C CNN
F 2 "" H 9850 4200 60  0001 C CNN
F 3 "" H 9850 4200 60  0001 C CNN
	1    9850 4200
	1    0    0    -1  
$EndComp
Wire Wire Line
	9850 4100 9850 4200
Wire Wire Line
	9750 4100 9850 4100
$Comp
L LED D3
U 1 1 520C6EE4
P 8950 4100
F 0 "D3" H 8950 4200 50  0000 C CNN
F 1 "LED" H 8950 4000 50  0000 C CNN
F 2 "SM0603" H 8950 4100 60  0001 C CNN
F 3 "" H 8950 4100 60  0000 C CNN
	1    8950 4100
	1    0    0    -1  
$EndComp
Wire Wire Line
	9150 4100 9250 4100
Wire Wire Line
	8750 4100 8600 4100
$EndSCHEMATC
