EESchema Schematic File Version 2
LIBS:con-jack
LIBS:adm3101e
LIBS:microsd
LIBS:transistor-npn
LIBS:ipc-7351-transistor
LIBS:switch-misc
LIBS:power
LIBS:device
LIBS:transistors
LIBS:conn
LIBS:linear
LIBS:regul
LIBS:74xx
LIBS:cmos4000
LIBS:adc-dac
LIBS:memory
LIBS:xilinx
LIBS:special
LIBS:microcontrollers
LIBS:dsp
LIBS:microchip
LIBS:analog_switches
LIBS:motorola
LIBS:texas
LIBS:intel
LIBS:audio
LIBS:interface
LIBS:digital-audio
LIBS:philips
LIBS:display
LIBS:cypress
LIBS:siliconi
LIBS:opto
LIBS:atmel
LIBS:contrib
LIBS:valves
LIBS:micron_ddr_512Mb
LIBS:iMX23
LIBS:sdmmc
LIBS:usbconn
LIBS:fsusb20
LIBS:r_pack2
LIBS:pasives-connectors
LIBS:EEPROM
LIBS:PWR
LIBS:m25p32
LIBS:PROpendous-cache
LIBS:w_analog
LIBS:gl850g
LIBS:srf2012
LIBS:rclamp0502b
LIBS:mcp130
LIBS:ABM8G
LIBS:usb_a
LIBS:Reset
LIBS:stm32f100vxx
LIBS:lt1117cst
LIBS:zxmhc3f381n8
LIBS:fsusb43
LIBS:usb-mini
LIBS:atsam3n0aa-au
LIBS:drv8835
LIBS:stamp_mini_4_layers-cache
EELAYER 25 0
EELAYER END
$Descr User 12000 10000
encoding utf-8
Sheet 2 6
Title ""
Date "9 may 2013"
Rev ""
Comp ""
Comment1 ""
Comment2 ""
Comment3 ""
Comment4 ""
$EndDescr
$Comp
L VDD5V #PWR01
U 1 1 516F461B
P 800 8750
F 0 "#PWR01" H 800 8850 30  0001 C CNN
F 1 "VDD5V" H 700 8750 30  0000 C CNN
F 2 "" H 800 8750 60  0001 C CNN
F 3 "" H 800 8750 60  0001 C CNN
	1    800  8750
	1    0    0    -1  
$EndComp
Text Label 13850 5650 0    60   ~ 0
LED
Text Label 13850 6250 0    60   ~ 0
ADVREF
Text HLabel 5900 4000 2    60   Output ~ 0
SAM_RX
Text HLabel 5900 4100 2    60   Output ~ 0
SAM_TX
$Comp
L C C410
U 1 1 516D62F9
P 4600 8150
F 0 "C410" H 4650 8250 50  0000 L CNN
F 1 "0.1uF" H 4650 8050 50  0000 L CNN
F 2 "SM0603" H 4600 8150 60  0001 C CNN
F 3 "" H 4600 8150 60  0001 C CNN
	1    4600 8150
	1    0    0    -1  
$EndComp
$Comp
L C C411
U 1 1 516D62F8
P 4950 8150
F 0 "C411" H 5000 8250 50  0000 L CNN
F 1 "1uF" H 5000 8050 50  0000 L CNN
F 2 "SM0603" H 4950 8150 60  0001 C CNN
F 3 "" H 4950 8150 60  0001 C CNN
	1    4950 8150
	1    0    0    -1  
$EndComp
$Comp
L GND #PWR02
U 1 1 516D62F6
P 4800 8450
F 0 "#PWR02" H 4800 8450 30  0001 C CNN
F 1 "GND" H 4800 8380 30  0001 C CNN
F 2 "" H 4800 8450 60  0001 C CNN
F 3 "" H 4800 8450 60  0001 C CNN
	1    4800 8450
	1    0    0    -1  
$EndComp
$Comp
L +3.3VP #PWR03
U 1 1 516D62A0
P 8150 900
F 0 "#PWR03" H 8200 930 20  0001 C CNN
F 1 "+3.3VP" H 8150 990 30  0000 C CNN
F 2 "" H 8150 900 60  0001 C CNN
F 3 "" H 8150 900 60  0001 C CNN
	1    8150 900 
	1    0    0    -1  
$EndComp
$Comp
L +3.3VP #PWR04
U 1 1 516D629C
P 8750 1000
F 0 "#PWR04" H 8800 1030 20  0001 C CNN
F 1 "+3.3VP" H 8750 1090 30  0000 C CNN
F 2 "" H 8750 1000 60  0001 C CNN
F 3 "" H 8750 1000 60  0001 C CNN
	1    8750 1000
	1    0    0    -1  
$EndComp
$Comp
L +3.3VP #PWR05
U 1 1 516D625C
P 2700 7800
F 0 "#PWR05" H 2750 7830 20  0001 C CNN
F 1 "+3.3VP" H 2700 7890 30  0000 C CNN
F 2 "" H 2700 7800 60  0001 C CNN
F 3 "" H 2700 7800 60  0001 C CNN
	1    2700 7800
	1    0    0    -1  
$EndComp
$Comp
L C C401
U 1 1 516D60B5
P 1800 8150
F 0 "C401" H 1850 8250 50  0000 L CNN
F 1 "0.1uF" H 1850 8050 50  0000 L CNN
F 2 "SM0603" H 1800 8150 60  0001 C CNN
F 3 "" H 1800 8150 60  0001 C CNN
	1    1800 8150
	1    0    0    -1  
$EndComp
$Comp
L GND #PWR06
U 1 1 516D6095
P 2700 8450
F 0 "#PWR06" H 2700 8450 30  0001 C CNN
F 1 "GND" H 2700 8380 30  0001 C CNN
F 2 "" H 2700 8450 60  0001 C CNN
F 3 "" H 2700 8450 60  0001 C CNN
	1    2700 8450
	1    0    0    -1  
$EndComp
$Comp
L C C407
U 1 1 516D6094
P 3200 8150
F 0 "C407" H 3250 8250 50  0000 L CNN
F 1 "4.7uF" H 3250 8050 50  0000 L CNN
F 2 "SM1206" H 3200 8150 60  0001 C CNN
F 3 "" H 3200 8150 60  0001 C CNN
	1    3200 8150
	1    0    0    -1  
$EndComp
$Comp
L C C406
U 1 1 516D6093
P 2850 8150
F 0 "C406" H 2900 8250 50  0000 L CNN
F 1 "1uF" H 2900 8050 50  0000 L CNN
F 2 "SM0603" H 2850 8150 60  0001 C CNN
F 3 "" H 2850 8150 60  0001 C CNN
	1    2850 8150
	1    0    0    -1  
$EndComp
$Comp
L C C405
U 1 1 516D6092
P 2500 8150
F 0 "C405" H 2550 8250 50  0000 L CNN
F 1 "0.1uF" H 2550 8050 50  0000 L CNN
F 2 "SM0603" H 2500 8150 60  0001 C CNN
F 3 "" H 2500 8150 60  0001 C CNN
	1    2500 8150
	1    0    0    -1  
$EndComp
$Comp
L C C404
U 1 1 516D6091
P 2150 8150
F 0 "C404" H 2200 8250 50  0000 L CNN
F 1 "0.1uF" H 2200 8050 50  0000 L CNN
F 2 "SM0603" H 2150 8150 60  0001 C CNN
F 3 "" H 2150 8150 60  0001 C CNN
	1    2150 8150
	1    0    0    -1  
$EndComp
$Comp
L GND #PWR07
U 1 1 516D5EBB
P 900 1650
F 0 "#PWR07" H 900 1650 30  0001 C CNN
F 1 "GND" H 900 1580 30  0001 C CNN
F 2 "" H 900 1650 60  0001 C CNN
F 3 "" H 900 1650 60  0001 C CNN
	1    900  1650
	-1   0    0    1   
$EndComp
$Comp
L VDD5V #PWR08
U 1 1 4E7B5061
P 6700 1000
F 0 "#PWR08" H 6700 1100 30  0001 C CNN
F 1 "VDD5V" H 6700 1100 30  0000 C CNN
F 2 "" H 6700 1000 60  0001 C CNN
F 3 "" H 6700 1000 60  0001 C CNN
	1    6700 1000
	1    0    0    -1  
$EndComp
$Comp
L GND #PWR09
U 1 1 4E7B4E84
P 8150 1650
F 0 "#PWR09" H 8150 1650 30  0001 C CNN
F 1 "GND" H 8150 1580 30  0001 C CNN
F 2 "" H 8150 1650 60  0001 C CNN
F 3 "" H 8150 1650 60  0001 C CNN
	1    8150 1650
	1    0    0    -1  
$EndComp
$Comp
L C C76
U 1 1 4E7B4A85
P 8150 1350
F 0 "C76" H 8200 1450 50  0000 L CNN
F 1 "33uF" H 8200 1250 50  0000 L CNN
F 2 "SM1206" H 8150 1350 60  0001 C CNN
F 3 "" H 8150 1350 60  0001 C CNN
	1    8150 1350
	1    0    0    -1  
$EndComp
$Comp
L C C74
U 1 1 4E7B4A81
P 6700 1350
F 0 "C74" H 6750 1450 50  0000 L CNN
F 1 "33uF" H 6750 1250 50  0000 L CNN
F 2 "SM1206" H 6700 1350 60  0001 C CNN
F 3 "" H 6700 1350 60  0001 C CNN
	1    6700 1350
	1    0    0    -1  
$EndComp
$Comp
L GND #PWR010
U 1 1 4E7B44BE
P 7750 1650
F 0 "#PWR010" H 7750 1650 30  0001 C CNN
F 1 "GND" H 7750 1580 30  0001 C CNN
F 2 "" H 7750 1650 60  0001 C CNN
F 3 "" H 7750 1650 60  0001 C CNN
	1    7750 1650
	1    0    0    -1  
$EndComp
$Comp
L GND #PWR011
U 1 1 4E7B44A2
P 6900 1250
F 0 "#PWR011" H 6900 1250 30  0001 C CNN
F 1 "GND" H 6900 1180 30  0001 C CNN
F 2 "" H 6900 1250 60  0001 C CNN
F 3 "" H 6900 1250 60  0001 C CNN
	1    6900 1250
	1    0    0    -1  
$EndComp
$Comp
L LT1117CST U11
U 1 1 4E7B41E9
P 7350 1250
F 0 "U11" H 7200 1550 60  0000 C CNN
F 1 "LT1117CST-3.3" H 7350 1250 40  0000 C CNN
F 2 "LT1117" H 7350 1250 60  0001 C CNN
F 3 "" H 7350 1250 60  0001 C CNN
	1    7350 1250
	1    0    0    -1  
$EndComp
$Comp
L C C75
U 1 1 4E7B41E8
P 7750 1350
F 0 "C75" H 7800 1450 50  0000 L CNN
F 1 "100n" H 7800 1250 50  0000 L CNN
F 2 "SM0603" H 7750 1350 60  0001 C CNN
F 3 "" H 7750 1350 60  0001 C CNN
	1    7750 1350
	1    0    0    -1  
$EndComp
$Comp
L R R33
U 1 1 4E188E50
P 1400 3650
F 0 "R33" V 1480 3650 50  0000 C CNN
F 1 "1k" V 1400 3650 50  0000 C CNN
F 2 "SM0603" H 1400 3650 60  0001 C CNN
F 3 "" H 1400 3650 60  0001 C CNN
	1    1400 3650
	0    1    1    0   
$EndComp
$Comp
L LED D9
U 1 1 4E188E4F
P 1400 3350
F 0 "D9" H 1400 3450 50  0000 C CNN
F 1 "LED" H 1400 3250 50  0000 C CNN
F 2 "SM0603" H 1400 3350 60  0001 C CNN
F 3 "" H 1400 3350 60  0001 C CNN
	1    1400 3350
	-1   0    0    1   
$EndComp
$Comp
L GND #PWR012
U 1 1 4E188E4E
P 1800 3650
F 0 "#PWR012" H 1800 3650 30  0001 C CNN
F 1 "GND" H 1800 3580 30  0001 C CNN
F 2 "" H 1800 3650 60  0001 C CNN
F 3 "" H 1800 3650 60  0001 C CNN
	1    1800 3650
	0    -1   1    0   
$EndComp
$Comp
L GND #PWR013
U 1 1 4E186DEB
P 9250 1500
F 0 "#PWR013" H 9250 1500 30  0001 C CNN
F 1 "GND" H 9250 1430 30  0001 C CNN
F 2 "" H 9250 1500 60  0001 C CNN
F 3 "" H 9250 1500 60  0001 C CNN
	1    9250 1500
	0    -1   1    0   
$EndComp
$Comp
L LED D8
U 1 1 4DCDB178
P 8850 1200
F 0 "D8" H 8850 1300 50  0000 C CNN
F 1 "LED" H 8850 1100 50  0000 C CNN
F 2 "SM0603" H 8850 1200 60  0001 C CNN
F 3 "" H 8850 1200 60  0001 C CNN
	1    8850 1200
	-1   0    0    1   
$EndComp
$Comp
L R R5
U 1 1 4DCDB177
P 8850 1500
F 0 "R5" V 8930 1500 50  0000 C CNN
F 1 "1k" V 8850 1500 50  0000 C CNN
F 2 "SM0603" H 8850 1500 60  0001 C CNN
F 3 "" H 8850 1500 60  0001 C CNN
	1    8850 1500
	0    1    1    0   
$EndComp
Text Label 13750 5550 0    60   ~ 0
Erase
$Comp
L +3.3VP #PWR014
U 1 1 52EB05DD
P 13750 6250
F 0 "#PWR014" H 13800 6280 20  0001 C CNN
F 1 "+3.3VP" H 13750 6340 30  0000 C CNN
F 2 "" H 13750 6250 60  0001 C CNN
F 3 "" H 13750 6250 60  0001 C CNN
	1    13750 6250
	1    0    0    -1  
$EndComp
$Comp
L DRV8835 UHB1
U 1 1 5344D7DB
P 9150 6000
F 0 "UHB1" H 8950 6650 60  0000 C CNN
F 1 "DRV8835" H 9100 6550 60  0000 C CNN
F 2 "drv8835" H 9150 6000 60  0001 C CNN
F 3 "" H 9150 6000 60  0000 C CNN
	1    9150 6000
	-1   0    0    -1  
$EndComp
$Comp
L +3.3VP #PWR015
U 1 1 5344E1D7
P 8350 5550
F 0 "#PWR015" H 8400 5580 20  0001 C CNN
F 1 "+3.3VP" H 8350 5640 30  0000 C CNN
F 2 "" H 8350 5550 60  0001 C CNN
F 3 "" H 8350 5550 60  0001 C CNN
	1    8350 5550
	1    0    0    -1  
$EndComp
$Comp
L C CHB1
U 1 1 5344E995
P 1150 8100
F 0 "CHB1" H 1200 8200 50  0000 L CNN
F 1 "0.1uF" H 1200 8000 50  0000 L CNN
F 2 "SM0603" H 1150 8100 60  0001 C CNN
F 3 "" H 1150 8100 60  0001 C CNN
	1    1150 8100
	1    0    0    -1  
$EndComp
$Comp
L GND #PWR016
U 1 1 5344E9A6
P 1150 8400
F 0 "#PWR016" H 1150 8400 30  0001 C CNN
F 1 "GND" H 1150 8330 30  0001 C CNN
F 2 "" H 1150 8400 60  0001 C CNN
F 3 "" H 1150 8400 60  0001 C CNN
	1    1150 8400
	1    0    0    -1  
$EndComp
$Comp
L +3.3VP #PWR017
U 1 1 5344E9B7
P 1150 7750
F 0 "#PWR017" H 1200 7780 20  0001 C CNN
F 1 "+3.3VP" H 1150 7840 30  0000 C CNN
F 2 "" H 1150 7750 60  0001 C CNN
F 3 "" H 1150 7750 60  0001 C CNN
	1    1150 7750
	1    0    0    -1  
$EndComp
$Comp
L GND #PWR018
U 1 1 5344F399
P 9950 6200
F 0 "#PWR018" H 9950 6200 30  0001 C CNN
F 1 "GND" H 9950 6130 30  0001 C CNN
F 2 "" H 9950 6200 60  0001 C CNN
F 3 "" H 9950 6200 60  0001 C CNN
	1    9950 6200
	1    0    0    -1  
$EndComp
Text Label 8250 5800 0    60   ~ 0
DIR_M0
Text Label 8250 6000 0    60   ~ 0
DIR_M1
Text Label 8250 5900 0    60   ~ 0
SP_M0
Text Label 8250 6100 0    60   ~ 0
SP_M1
$Comp
L JUMPER JP4
U 1 1 53453E8C
P 9000 3650
F 0 "JP4" H 8600 3700 60  0000 C CNN
F 1 "J" H 9300 3700 40  0000 C CNN
F 2 "Sockets_MOLEX_KK-System:Socket_MOLEX-KK-RM2-54mm_Lock_2pin_straight" H 9000 3650 60  0001 C CNN
F 3 "" H 9000 3650 60  0001 C CNN
	1    9000 3650
	1    0    0    -1  
$EndComp
$Comp
L GND #PWR019
U 1 1 53453E92
P 8350 3650
F 0 "#PWR019" H 8350 3650 30  0001 C CNN
F 1 "GND" H 8350 3580 30  0001 C CNN
F 2 "" H 8350 3650 60  0001 C CNN
F 3 "" H 8350 3650 60  0001 C CNN
	1    8350 3650
	0    1    1    0   
$EndComp
$Comp
L JUMPER JM0
U 1 1 53453E99
P 9000 3800
F 0 "JM0" H 8600 3850 60  0000 C CNN
F 1 "J" H 9300 3850 40  0000 C CNN
F 2 "Sockets_MOLEX_KK-System:Socket_MOLEX-KK-RM2-54mm_Lock_2pin_straight" H 9000 3800 60  0001 C CNN
F 3 "" H 9000 3800 60  0001 C CNN
	1    9000 3800
	1    0    0    -1  
$EndComp
$Comp
L JUMPER JM1
U 1 1 53453E9F
P 9000 3950
F 0 "JM1" H 8600 4000 60  0000 C CNN
F 1 "J" H 9300 4000 40  0000 C CNN
F 2 "Sockets_MOLEX_KK-System:Socket_MOLEX-KK-RM2-54mm_Lock_2pin_straight" H 9000 3950 60  0001 C CNN
F 3 "" H 9000 3950 60  0001 C CNN
	1    9000 3950
	1    0    0    -1  
$EndComp
Text Label 9400 3650 0    60   ~ 0
VM
Text Label 9400 3800 0    60   ~ 0
M0B
Text Label 8350 3800 0    60   ~ 0
M0A
Text Label 8350 3950 0    60   ~ 0
M1A
Text Label 9400 3950 0    60   ~ 0
M1B
Text Label 9950 6000 0    60   ~ 0
M0B
Text Label 9950 5800 0    60   ~ 0
M1B
Text Label 9950 5900 0    60   ~ 0
M0A
Text Label 9950 5700 0    60   ~ 0
M1A
Text Label 10000 5600 0    60   ~ 0
VM
$Comp
L C CHB2
U 1 1 53459780
P 850 8100
F 0 "CHB2" H 900 8200 50  0000 L CNN
F 1 "0.1uF" H 900 8000 50  0000 L CNN
F 2 "SM0603" H 850 8100 60  0001 C CNN
F 3 "" H 850 8100 60  0001 C CNN
	1    850  8100
	1    0    0    -1  
$EndComp
$Comp
L GND #PWR020
U 1 1 53459787
P 850 8400
F 0 "#PWR020" H 850 8400 30  0001 C CNN
F 1 "GND" H 850 8330 30  0001 C CNN
F 2 "" H 850 8400 60  0001 C CNN
F 3 "" H 850 8400 60  0001 C CNN
	1    850  8400
	1    0    0    -1  
$EndComp
Text Label 850  7900 1    60   ~ 0
VM
$Comp
L C C403
U 1 1 541B3A98
P 1350 1400
F 0 "C403" H 1400 1500 50  0000 L CNN
F 1 "22pF" H 1400 1300 50  0000 L CIN
F 2 "SM0603" H 1350 1400 60  0001 C CNN
F 3 "" H 1350 1400 60  0001 C CNN
	1    1350 1400
	0    1    -1   0   
$EndComp
$Comp
L C C402
U 1 1 541B3BCF
P 1350 2000
F 0 "C402" V 1300 2100 50  0000 L CNN
F 1 "22pF" V 1300 1750 50  0000 L CNN
F 2 "SM0603" H 1350 2000 60  0001 C CNN
F 3 "" H 1350 2000 60  0001 C CNN
	1    1350 2000
	0    1    -1   0   
$EndComp
$Comp
L ABM8G X401
U 1 1 516D5EBA
P 1600 1700
F 0 "X401" H 1600 1850 60  0000 C CNN
F 1 "12MHz" H 1600 1550 60  0000 C CNN
F 2 "ABM8G" H 1600 1700 60  0001 C CNN
F 3 "" H 1600 1700 60  0001 C CNN
	1    1600 1700
	0    1    -1   0   
$EndComp
Text Label 2450 5700 0    60   ~ 0
SP_M0
Text Label 2450 5600 0    60   ~ 0
SP_M1
Text Label 5700 2950 0    60   ~ 0
DIR_M0
Text Label 2450 5800 0    60   ~ 0
DIR_M1
Text Label 5700 3550 0    60   ~ 0
SRV1
Text Label 5700 3450 0    60   ~ 0
SRV2
Text Label 13850 5850 0    60   ~ 0
SEN7
Text Label 13850 5750 0    60   ~ 0
SEN8
Text Label 13850 6050 0    60   ~ 0
SEN5
Text Label 13850 5950 0    60   ~ 0
SEN6
Text Label 600  9050 0    60   ~ 0
SEN1
Text Label 13850 5450 0    60   ~ 0
BUZ
Text Label 8850 7750 0    60   ~ 0
BUZ
Text Label 5750 4200 0    60   ~ 0
TIM1
Text Label 5750 3900 0    60   ~ 0
TIM2
Text Label 5700 3250 0    60   ~ 0
TIM3
Text Label 5700 3350 0    60   ~ 0
TIM4
Text Label 5700 2850 0    60   ~ 0
DIG5
Text Label 2450 4650 0    60   ~ 0
DIG6
Text Label 5700 3150 0    60   ~ 0
DIG4
Text Notes 10200 7650 0    60   ~ 0
102-1153-ND BUZZER
$Comp
L SPEAKER BUZ1
U 1 1 541B6DC4
P 10550 7150
F 0 "BUZ1" H 10450 7400 70  0000 C CNN
F 1 "SPEAKER" H 10450 6900 70  0000 C CNN
F 2 "Buzzers_Beepers:MagneticBuzzer_ProSignal_ABT-410-RC" H 10550 7150 60  0001 C CNN
F 3 "" H 10550 7150 60  0000 C CNN
	1    10550 7150
	1    0    0    1   
$EndComp
$Comp
L NPN_SOT-323 QB1
U 1 1 541B711D
P 9850 7750
F 0 "QB1" H 9450 8050 50  0000 L BNN
F 1 "FJX3904TF" H 9450 7950 50  0000 L BNN
F 2 "SOT323" H 9850 7900 50  0001 C CNN
F 3 "" H 9850 7750 60  0000 C CNN
	1    9850 7750
	1    0    0    -1  
$EndComp
$Comp
L DIODE DB1
U 1 1 541B7446
P 9950 7100
F 0 "DB1" H 9950 7200 40  0000 C CNN
F 1 "CDSU4148" H 9950 7000 40  0000 C CNN
F 2 "opendous:SM0603_Opendous_v2" H 9950 7100 60  0001 C CNN
F 3 "" H 9950 7100 60  0000 C CNN
	1    9950 7100
	0    -1   -1   0   
$EndComp
$Comp
L R RB1
U 1 1 541B85D1
P 9400 7750
F 0 "RB1" V 9480 7750 50  0000 C CNN
F 1 "470" V 9400 7750 50  0000 C CNN
F 2 "opendous:SM0603_Opendous_v2" H 9400 7750 60  0001 C CNN
F 3 "" H 9400 7750 60  0001 C CNN
	1    9400 7750
	0    1    1    0   
$EndComp
$Comp
L CONN_01X03 SEN1
U 1 1 541B8DE7
P 1100 9050
F 0 "SEN1" H 1100 9250 50  0000 C CNN
F 1 "CONN_01X03" V 1200 9050 50  0001 C CNN
F 2 "Sockets_MOLEX_KK-System:Socket_MOLEX-KK-RM2-54mm_Lock_3pin_straight" H 1100 9050 60  0001 C CNN
F 3 "" H 1100 9050 60  0000 C CNN
	1    1100 9050
	1    0    0    -1  
$EndComp
Text Notes 5650 9150 0    60   ~ 0
WM2012-ND\nWM4201-ND
Text Label 1250 9050 0    60   ~ 0
SEN2
$Comp
L CONN_01X03 SEN2
U 1 1 541B9B15
P 1750 9050
F 0 "SEN2" H 1750 9250 50  0000 C CNN
F 1 "CONN_01X03" V 1850 9050 50  0001 C CNN
F 2 "Sockets_MOLEX_KK-System:Socket_MOLEX-KK-RM2-54mm_Lock_3pin_straight" H 1750 9050 60  0001 C CNN
F 3 "" H 1750 9050 60  0000 C CNN
	1    1750 9050
	1    0    0    -1  
$EndComp
Text Label 1850 9050 0    60   ~ 0
SEN3
$Comp
L CONN_01X03 SEN3
U 1 1 541B9F04
P 2350 9050
F 0 "SEN3" H 2350 9250 50  0000 C CNN
F 1 "CONN_01X03" V 2450 9050 50  0001 C CNN
F 2 "Sockets_MOLEX_KK-System:Socket_MOLEX-KK-RM2-54mm_Lock_3pin_straight" H 2350 9050 60  0001 C CNN
F 3 "" H 2350 9050 60  0000 C CNN
	1    2350 9050
	1    0    0    -1  
$EndComp
Text Label 2500 9050 0    60   ~ 0
SEN4
$Comp
L CONN_01X03 SEN4
U 1 1 541B9F0C
P 3000 9050
F 0 "SEN4" H 3000 9250 50  0000 C CNN
F 1 "CONN_01X03" V 3100 9050 50  0001 C CNN
F 2 "Sockets_MOLEX_KK-System:Socket_MOLEX-KK-RM2-54mm_Lock_3pin_straight" H 3000 9050 60  0001 C CNN
F 3 "" H 3000 9050 60  0000 C CNN
	1    3000 9050
	1    0    0    -1  
$EndComp
Text Label 3100 9050 0    60   ~ 0
SEN5
$Comp
L CONN_01X03 SEN5
U 1 1 541BA1BE
P 3600 9050
F 0 "SEN5" H 3600 9250 50  0000 C CNN
F 1 "CONN_01X03" V 3700 9050 50  0001 C CNN
F 2 "Sockets_MOLEX_KK-System:Socket_MOLEX-KK-RM2-54mm_Lock_3pin_straight" H 3600 9050 60  0001 C CNN
F 3 "" H 3600 9050 60  0000 C CNN
	1    3600 9050
	1    0    0    -1  
$EndComp
Text Label 3750 9050 0    60   ~ 0
SEN6
$Comp
L CONN_01X03 SEN6
U 1 1 541BA1C6
P 4250 9050
F 0 "SEN6" H 4250 9250 50  0000 C CNN
F 1 "CONN_01X03" V 4350 9050 50  0001 C CNN
F 2 "Sockets_MOLEX_KK-System:Socket_MOLEX-KK-RM2-54mm_Lock_3pin_straight" H 4250 9050 60  0001 C CNN
F 3 "" H 4250 9050 60  0000 C CNN
	1    4250 9050
	1    0    0    -1  
$EndComp
Text Label 4350 9050 0    60   ~ 0
SEN7
$Comp
L CONN_01X03 SEN7
U 1 1 541BA1CE
P 4850 9050
F 0 "SEN7" H 4850 9250 50  0000 C CNN
F 1 "CONN_01X03" V 4950 9050 50  0001 C CNN
F 2 "Sockets_MOLEX_KK-System:Socket_MOLEX-KK-RM2-54mm_Lock_3pin_straight" H 4850 9050 60  0001 C CNN
F 3 "" H 4850 9050 60  0000 C CNN
	1    4850 9050
	1    0    0    -1  
$EndComp
Text Label 5000 9050 0    60   ~ 0
SEN8
$Comp
L CONN_01X03 SEN8
U 1 1 541BA1D6
P 5500 9050
F 0 "SEN8" H 5500 9250 50  0000 C CNN
F 1 "CONN_01X03" V 5600 9050 50  0001 C CNN
F 2 "Sockets_MOLEX_KK-System:Socket_MOLEX-KK-RM2-54mm_Lock_3pin_straight" H 5500 9050 60  0001 C CNN
F 3 "" H 5500 9050 60  0000 C CNN
	1    5500 9050
	1    0    0    -1  
$EndComp
$Comp
L VDD5V #PWR021
U 1 1 541E2FF5
P 9950 6750
F 0 "#PWR021" H 9950 6850 30  0001 C CNN
F 1 "VDD5V" H 9950 6850 30  0000 C CNN
F 2 "" H 9950 6750 60  0001 C CNN
F 3 "" H 9950 6750 60  0001 C CNN
	1    9950 6750
	1    0    0    -1  
$EndComp
$Comp
L GND #PWR022
U 1 1 541E32A5
P 9950 8100
F 0 "#PWR022" H 9950 8100 30  0001 C CNN
F 1 "GND" H 9950 8030 30  0001 C CNN
F 2 "" H 9950 8100 60  0001 C CNN
F 3 "" H 9950 8100 60  0001 C CNN
	1    9950 8100
	-1   0    0    -1  
$EndComp
$Comp
L GND #PWR023
U 1 1 541E5896
P 3300 9450
F 0 "#PWR023" H 3300 9450 30  0001 C CNN
F 1 "GND" H 3300 9380 30  0001 C CNN
F 2 "" H 3300 9450 60  0001 C CNN
F 3 "" H 3300 9450 60  0001 C CNN
	1    3300 9450
	1    0    0    -1  
$EndComp
$Sheet
S 8500 4350 1350 800 
U 541E213D
F0 "BEMF" 60
F1 "openservo.sch" 60
F2 "SMPLA" I L 8500 4500 60 
F3 "M0A" I R 9850 5000 60 
F4 "M0B" I R 9850 4900 60 
F5 "SMPLB" I L 8500 4600 60 
F6 "BEMF0" I L 8500 4900 60 
F7 "M1A" I R 9850 4500 60 
F8 "M1B" I R 9850 4600 60 
F9 "BEMF1" I L 8500 5000 60 
$EndSheet
Text Label 8200 5000 0    60   ~ 0
BEMF1
Text Label 8200 4900 0    60   ~ 0
BEMF0
Text Label 8200 4600 0    60   ~ 0
SMPLB
Text Label 8200 4500 0    60   ~ 0
SMPLA
Text Label 9900 4900 0    60   ~ 0
M0B
Text Label 9900 4600 0    60   ~ 0
M1B
Text Label 9900 5000 0    60   ~ 0
M0A
Text Label 9900 4500 0    60   ~ 0
M1A
$Comp
L C CS2
U 1 1 541FDB17
P 1500 8150
F 0 "CS2" H 1550 8250 50  0000 L CNN
F 1 "0.1uF" H 1550 8050 50  0000 L CNN
F 2 "opendous:SM0603_Opendous" H 1500 8150 60  0001 C CNN
F 3 "" H 1500 8150 60  0001 C CNN
	1    1500 8150
	1    0    0    -1  
$EndComp
Text Label 2450 5350 0    60   ~ 0
DIG3
Text Label 5700 3050 0    60   ~ 0
DIG2
Text Label 9250 2900 0    60   ~ 0
DIG5
Text Label 8450 3000 0    60   ~ 0
DIG6
Text Label 8450 2900 0    60   ~ 0
DIG4
Text Label 9250 2800 0    60   ~ 0
DIG3
Text Label 8450 2800 0    60   ~ 0
DIG2
Text Label 5750 3800 0    60   ~ 0
DIG1
Text Label 2500 4550 0    60   ~ 0
DIG7
Text Label 5750 1900 0    60   ~ 0
DIG8
Text Label 5750 2000 0    60   ~ 0
DIG9
Text Label 2500 6250 0    60   ~ 0
DIG10
Text Label 9300 3000 0    60   ~ 0
DIG7
Text Label 8450 3100 0    60   ~ 0
DIG8
Text Label 9300 3100 0    60   ~ 0
DIG9
Text Label 8450 3200 0    60   ~ 0
DIG10
$Comp
L CONN_02X11 CD1
U 1 1 5427DC35
P 8950 2800
F 0 "CD1" H 8950 3400 50  0001 C CNN
F 1 "CONN_02X11" V 8950 2800 50  0000 C CNN
F 2 "Socket_Strips:Socket_Strip_Straight_2x11" H 9000 2150 60  0001 C CNN
F 3 "" H 8950 1600 60  0000 C CNN
	1    8950 2800
	1    0    0    -1  
$EndComp
$Comp
L GND #PWR024
U 1 1 5427951A
P 9700 2300
F 0 "#PWR024" H 9700 2300 30  0001 C CNN
F 1 "GND" H 9700 2230 30  0001 C CNN
F 2 "" H 9700 2300 60  0001 C CNN
F 3 "" H 9700 2300 60  0001 C CNN
	1    9700 2300
	0    -1   1    0   
$EndComp
$Comp
L VDD5V #PWR025
U 1 1 54279C76
P 8300 2200
F 0 "#PWR025" H 8300 2300 30  0001 C CNN
F 1 "VDD5V" H 8300 2300 30  0000 C CNN
F 2 "" H 8300 2200 60  0001 C CNN
F 3 "" H 8300 2200 60  0001 C CNN
	1    8300 2200
	1    0    0    -1  
$EndComp
Text HLabel 8400 2400 0    60   BiDi ~ 0
TX
Text HLabel 9500 2400 2    60   BiDi ~ 0
RX
$Comp
L CONN_01X03 SRV1
U 1 1 55130217
P 10700 2500
F 0 "SRV1" H 10700 2700 50  0000 C CNN
F 1 "CONN_01X03" V 10800 2500 50  0001 C CNN
F 2 "Socket_Strips:Socket_Strip_Straight_1x03" H 10700 2500 60  0001 C CNN
F 3 "" H 10700 2500 60  0000 C CNN
	1    10700 2500
	1    0    0    -1  
$EndComp
$Comp
L CONN_01X03 SRV2
U 1 1 55130883
P 10700 2900
F 0 "SRV2" H 10700 3100 50  0000 C CNN
F 1 "CONN_01X03" V 10800 2900 50  0001 C CNN
F 2 "Socket_Strips:Socket_Strip_Straight_1x03" H 10700 2900 60  0001 C CNN
F 3 "" H 10700 2900 60  0000 C CNN
	1    10700 2900
	1    0    0    -1  
$EndComp
$Comp
L CONN_01X03 SRV3
U 1 1 551317D8
P 10700 3300
F 0 "SRV3" H 10700 3500 50  0000 C CNN
F 1 "CONN_01X03" V 10800 3300 50  0001 C CNN
F 2 "Socket_Strips:Socket_Strip_Straight_1x03" H 10700 3300 60  0001 C CNN
F 3 "" H 10700 3300 60  0000 C CNN
	1    10700 3300
	1    0    0    -1  
$EndComp
$Comp
L CONN_01X03 SRV4
U 1 1 55131823
P 10700 3750
F 0 "SRV4" H 10700 3950 50  0000 C CNN
F 1 "CONN_01X03" V 10800 3750 50  0001 C CNN
F 2 "Socket_Strips:Socket_Strip_Straight_1x03" H 10700 3750 60  0001 C CNN
F 3 "" H 10700 3750 60  0000 C CNN
	1    10700 3750
	1    0    0    -1  
$EndComp
$Comp
L GND #PWR026
U 1 1 55137841
P 10250 2600
F 0 "#PWR026" H 10250 2600 30  0001 C CNN
F 1 "GND" H 10250 2530 30  0001 C CNN
F 2 "" H 10250 2600 60  0001 C CNN
F 3 "" H 10250 2600 60  0001 C CNN
	1    10250 2600
	0    1    -1   0   
$EndComp
$Comp
L GND #PWR027
U 1 1 55137992
P 10250 3000
F 0 "#PWR027" H 10250 3000 30  0001 C CNN
F 1 "GND" H 10250 2930 30  0001 C CNN
F 2 "" H 10250 3000 60  0001 C CNN
F 3 "" H 10250 3000 60  0001 C CNN
	1    10250 3000
	0    1    -1   0   
$EndComp
$Comp
L GND #PWR028
U 1 1 551379CB
P 10250 3400
F 0 "#PWR028" H 10250 3400 30  0001 C CNN
F 1 "GND" H 10250 3330 30  0001 C CNN
F 2 "" H 10250 3400 60  0001 C CNN
F 3 "" H 10250 3400 60  0001 C CNN
	1    10250 3400
	0    1    -1   0   
$EndComp
$Comp
L GND #PWR029
U 1 1 55137AD6
P 10250 3850
F 0 "#PWR029" H 10250 3850 30  0001 C CNN
F 1 "GND" H 10250 3780 30  0001 C CNN
F 2 "" H 10250 3850 60  0001 C CNN
F 3 "" H 10250 3850 60  0001 C CNN
	1    10250 3850
	0    1    -1   0   
$EndComp
Text Label 10250 2500 0    60   ~ 0
VM
Text Label 10250 2900 0    60   ~ 0
VM
Text Label 10250 3300 0    60   ~ 0
VM
Text Label 10250 3750 0    60   ~ 0
VM
Text Label 10250 2400 0    60   ~ 0
SRV1
Text Label 10250 2800 0    60   ~ 0
SRV2
Text Label 10250 3650 0    60   ~ 0
TIM3
Text Label 10250 3200 0    60   ~ 0
TIM4
Text Label 8400 2500 0    60   ~ 0
TIM2
Text Label 9300 2500 0    60   ~ 0
TIM1
Text Label 9250 2700 0    60   ~ 0
DIG1
$Comp
L VDD5V #PWR030
U 1 1 55135807
P 8300 2600
F 0 "#PWR030" H 8300 2700 30  0001 C CNN
F 1 "VDD5V" H 8300 2700 30  0000 C CNN
F 2 "" H 8300 2600 60  0001 C CNN
F 3 "" H 8300 2600 60  0001 C CNN
	1    8300 2600
	1    0    0    -1  
$EndComp
$Comp
L GND #PWR031
U 1 1 55135F67
P 9700 2600
F 0 "#PWR031" H 9700 2600 30  0001 C CNN
F 1 "GND" H 9700 2530 30  0001 C CNN
F 2 "" H 9700 2600 60  0001 C CNN
F 3 "" H 9700 2600 60  0001 C CNN
	1    9700 2600
	0    -1   1    0   
$EndComp
Text Label 13850 5350 0    60   ~ 0
DIG0
Text Label 8450 2700 0    60   ~ 0
DIG0
$Comp
L GND #PWR032
U 1 1 5513BD72
P 9700 3200
F 0 "#PWR032" H 9700 3200 30  0001 C CNN
F 1 "GND" H 9700 3130 30  0001 C CNN
F 2 "" H 9700 3200 60  0001 C CNN
F 3 "" H 9700 3200 60  0001 C CNN
	1    9700 3200
	0    -1   1    0   
$EndComp
Text Notes 2400 7250 0    60   ~ 0
C19, C21 2.2uF para cortex M4\nC19. C21 = Ohms para cortex M3
$Comp
L GND #PWR033
U 1 1 55340B55
P 4300 7350
F 0 "#PWR033" H 4300 7350 30  0001 C CNN
F 1 "GND" H 4300 7280 30  0001 C CNN
F 2 "" H 4300 7350 60  0001 C CNN
F 3 "" H 4300 7350 60  0001 C CNN
	1    4300 7350
	1    0    0    -1  
$EndComp
$Comp
L GND #PWR034
U 1 1 55340B5B
P 4100 7350
F 0 "#PWR034" H 4100 7350 30  0001 C CNN
F 1 "GND" H 4100 7280 30  0001 C CNN
F 2 "" H 4100 7350 60  0001 C CNN
F 3 "" H 4100 7350 60  0001 C CNN
	1    4100 7350
	1    0    0    -1  
$EndComp
$Comp
L C CST2
U 1 1 55340B61
P 4300 7150
F 0 "CST2" H 4300 7250 50  0000 L CNN
F 1 "2.2uF" H 4350 7050 50  0000 L CNN
F 2 "SM0805" H 4300 7150 60  0001 C CNN
F 3 "" H 4300 7150 60  0001 C CNN
	1    4300 7150
	1    0    0    -1  
$EndComp
$Comp
L C CST1
U 1 1 55340B68
P 4100 7150
F 0 "CST1" H 4100 7250 50  0000 L CNN
F 1 "2.2uF" H 4150 7050 50  0000 L CNN
F 2 "SM0805" H 4100 7150 60  0001 C CNN
F 3 "" H 4100 7150 60  0001 C CNN
	1    4100 7150
	1    0    0    -1  
$EndComp
$Comp
L R RST2
U 1 1 55340B77
P 1950 6900
F 0 "RST2" V 2030 6900 50  0000 C CNN
F 1 "4.7k" V 1950 6900 50  0000 C CNN
F 2 "SM0603" H 1950 6900 60  0001 C CNN
F 3 "" H 1950 6900 60  0001 C CNN
	1    1950 6900
	-1   0    0    1   
$EndComp
$Comp
L R RST5
U 1 1 55340B7E
P 1800 6900
F 0 "RST5" V 1880 6900 50  0000 C CNN
F 1 "4.7k" V 1800 6900 50  0000 C CNN
F 2 "SM0603" H 1800 6900 60  0001 C CNN
F 3 "" H 1800 6900 60  0001 C CNN
	1    1800 6900
	-1   0    0    1   
$EndComp
Text Label 1300 7150 0    60   ~ 0
I2C1_SDA
Text Label 1300 7300 0    60   ~ 0
I2C1_SCL
$Comp
L GND #PWR035
U 1 1 55340BA0
P 5200 7100
F 0 "#PWR035" H 5200 7100 30  0001 C CNN
F 1 "GND" H 5200 7030 30  0001 C CNN
F 2 "" H 5200 7100 60  0001 C CNN
F 3 "" H 5200 7100 60  0001 C CNN
	1    5200 7100
	1    0    0    -1  
$EndComp
$Comp
L INDUCTOR LST2
U 1 1 55340BA6
P 4900 7000
F 0 "LST2" V 4850 7000 40  0000 C CNN
F 1 "2A 120 ohm" V 5000 7000 40  0000 C CNN
F 2 "SM0805" H 4900 7000 60  0001 C CNN
F 3 "" H 4900 7000 60  0001 C CNN
	1    4900 7000
	0    1    1    0   
$EndComp
Text HLabel 2400 2100 0    60   BiDi ~ 0
JNRST
Text HLabel 6000 5900 2    60   BiDi ~ 0
JTMS
Text HLabel 6000 5800 2    60   BiDi ~ 0
JTCK
Text HLabel 6000 6000 2    60   BiDi ~ 0
JTDO
Text HLabel 6000 5700 2    60   BiDi ~ 0
JTDI
Text Label 6000 6100 2    60   ~ 0
JTRST
Text Label 6000 6000 2    60   ~ 0
JTDO
Text Label 6000 5900 2    60   ~ 0
JTMS
Text Label 6000 5800 2    60   ~ 0
JTCK
Text Label 6000 5700 2    60   ~ 0
JTDI
$Comp
L STM32F105RC U401
U 1 1 55340BF1
P 4100 4500
F 0 "U401" H 3100 7850 60  0000 C CNN
F 1 "STM32F411RCT6" H 5000 2300 60  0000 C CNN
F 2 "lqfp64-08" H 3040 7910 60  0001 C CNN
F 3 "" H 4100 4500 60  0001 C CNN
	1    4100 4500
	1    0    0    -1  
$EndComp
$Comp
L GND #PWR036
U 1 1 55340BF8
P 3900 7100
F 0 "#PWR036" H 3900 7100 30  0001 C CNN
F 1 "GND" H 3900 7030 30  0001 C CNN
F 2 "" H 3900 7100 60  0001 C CNN
F 3 "" H 3900 7100 60  0001 C CNN
	1    3900 7100
	1    0    0    -1  
$EndComp
Text Label 4400 600  3    60   ~ 0
VDDAST
Text Label 2400 2100 0    60   ~ 0
JNRST
Text Label 2400 1500 0    60   ~ 0
BOOT0
Text Label 2400 1600 0    60   ~ 0
BOOT1
Text Label 1900 4450 0    60   ~ 0
I2C1_SDA
Text Label 1900 4350 0    60   ~ 0
I2C1_SCL
$Comp
L +3.3VP #PWR037
U 1 1 55348E6E
P 4050 800
F 0 "#PWR037" H 4100 830 20  0001 C CNN
F 1 "+3.3VP" H 4050 890 30  0000 C CNN
F 2 "" H 4050 800 60  0001 C CNN
F 3 "" H 4050 800 60  0001 C CNN
	1    4050 800 
	1    0    0    -1  
$EndComp
Text Label 4250 7950 0    60   ~ 0
VDDAST
$Comp
L INDUCTOR LST1
U 1 1 5534EAC6
P 3950 7950
F 0 "LST1" V 3900 7950 40  0000 C CNN
F 1 "HZ0805D152R-10 (1500 ohm)" V 3800 8100 40  0000 C CNN
F 2 "SM0805" H 3950 7950 60  0001 C CNN
F 3 "" H 3950 7950 60  0001 C CNN
	1    3950 7950
	0    1    -1   0   
$EndComp
$Comp
L +3.3VP #PWR038
U 1 1 5534F04B
P 3650 7800
F 0 "#PWR038" H 3700 7830 20  0001 C CNN
F 1 "+3.3VP" H 3650 7890 30  0000 C CNN
F 2 "" H 3650 7800 60  0001 C CNN
F 3 "" H 3650 7800 60  0001 C CNN
	1    3650 7800
	1    0    0    -1  
$EndComp
$Comp
L +3.3VP #PWR039
U 1 1 55350905
P 1950 6550
F 0 "#PWR039" H 2000 6580 20  0001 C CNN
F 1 "+3.3VP" H 1950 6640 30  0000 C CNN
F 2 "" H 1950 6550 60  0001 C CNN
F 3 "" H 1950 6550 60  0001 C CNN
	1    1950 6550
	1    0    0    -1  
$EndComp
Text Label 8250 3300 0    60   ~ 0
I2C1_SDA
Text Label 9250 3300 0    60   ~ 0
I2C1_SCL
Text Label 2400 2750 0    60   ~ 0
SEN1
Text Label 2400 2850 0    60   ~ 0
SEN2
Text Label 2400 2950 0    60   ~ 0
SEN3
Text Label 2400 3050 0    60   ~ 0
SEN4
Text Label 2400 2350 0    60   ~ 0
SEN5
Text Label 2400 2450 0    60   ~ 0
SEN6
Text Label 2400 2550 0    60   ~ 0
SEN7
Text Label 2400 2650 0    60   ~ 0
SEN8
$Comp
L R RST3
U 1 1 55363A5E
P 8150 7450
F 0 "RST3" V 8230 7450 50  0000 C CNN
F 1 "10k" V 8150 7450 50  0000 C CNN
F 2 "SM0603" H 8150 7450 60  0001 C CNN
F 3 "" H 8150 7450 60  0001 C CNN
	1    8150 7450
	-1   0    0    1   
$EndComp
Text Label 8550 7100 2    60   ~ 0
BOOT1
$Comp
L R RST4
U 1 1 55363A6C
P 8550 7450
F 0 "RST4" V 8630 7450 50  0000 C CNN
F 1 "10k" V 8550 7450 50  0000 C CNN
F 2 "SM0603" H 8550 7450 60  0001 C CNN
F 3 "" H 8550 7450 60  0001 C CNN
	1    8550 7450
	-1   0    0    1   
$EndComp
Text Label 8150 7100 2    60   ~ 0
BOOT0
$Comp
L GND #PWR040
U 1 1 55363A74
P 8150 7800
F 0 "#PWR040" H 8150 7800 30  0001 C CNN
F 1 "GND" H 8150 7730 30  0001 C CNN
F 2 "" H 8150 7800 60  0001 C CNN
F 3 "" H 8150 7800 60  0001 C CNN
	1    8150 7800
	1    0    0    -1  
$EndComp
$Comp
L +3.3VP #PWR041
U 1 1 5536434D
P 8550 7800
F 0 "#PWR041" H 8600 7830 20  0001 C CNN
F 1 "+3.3VP" H 8550 7890 30  0000 C CNN
F 2 "" H 8550 7800 60  0001 C CNN
F 3 "" H 8550 7800 60  0001 C CNN
	1    8550 7800
	-1   0    0    1   
$EndComp
Text HLabel 6000 6100 2    60   BiDi ~ 0
JTRST
$Comp
L GND #PWR042
U 1 1 55370C19
P 6700 1650
F 0 "#PWR042" H 6700 1650 30  0001 C CNN
F 1 "GND" H 6700 1580 30  0001 C CNN
F 2 "" H 6700 1650 60  0001 C CNN
F 3 "" H 6700 1650 60  0001 C CNN
	1    6700 1650
	1    0    0    -1  
$EndComp
Text Label 2500 5250 0    60   ~ 0
DIG0
Text Label 2400 3750 0    60   ~ 0
BEMF1
Text Label 2400 3850 0    60   ~ 0
BEMF0
Text Label 2400 3150 0    60   ~ 0
SMPLB
Text Label 2400 3250 0    60   ~ 0
SMPLA
Text Label 2400 3350 0    60   ~ 0
LED
Wire Wire Line
	13850 5650 14150 5650
Wire Wire Line
	13850 5950 14150 5950
Connection ~ 4600 7950
Connection ~ 4600 8350
Connection ~ 4950 8350
Connection ~ 4950 7950
Wire Wire Line
	4800 8350 4800 8450
Connection ~ 4800 8350
Wire Wire Line
	4600 8350 4950 8350
Connection ~ 2150 8350
Wire Wire Line
	1500 8350 3200 8350
Connection ~ 2700 8350
Wire Wire Line
	2700 8350 2700 8450
Connection ~ 2850 7950
Connection ~ 2850 8350
Connection ~ 2500 8350
Connection ~ 2500 7950
Wire Wire Line
	2700 7950 2700 7800
Connection ~ 2700 7950
Connection ~ 1850 1400
Wire Wire Line
	1850 1400 1850 1900
Wire Wire Line
	1850 1900 2700 1900
Connection ~ 1100 1700
Connection ~ 1150 1700
Wire Wire Line
	1100 1400 1100 2000
Connection ~ 1600 1400
Connection ~ 1600 2000
Wire Wire Line
	1150 1650 1200 1650
Wire Wire Line
	1150 1650 1150 1750
Wire Wire Line
	1150 1750 1200 1750
Wire Wire Line
	900  1700 1150 1700
Wire Wire Line
	900  1700 900  1650
Connection ~ 6700 1050
Wire Wire Line
	6700 1000 6700 1150
Wire Wire Line
	6700 1550 6700 1650
Wire Wire Line
	8150 1550 8150 1650
Wire Wire Line
	7750 1050 7750 1150
Wire Wire Line
	7000 1150 6900 1150
Wire Wire Line
	6900 1150 6900 1250
Wire Wire Line
	1200 3350 1050 3350
Wire Wire Line
	1050 3350 1050 3650
Wire Wire Line
	1050 3650 1150 3650
Wire Wire Line
	1800 3650 1650 3650
Wire Wire Line
	1600 3350 2700 3350
Wire Wire Line
	9050 1200 9200 1200
Wire Wire Line
	9200 1200 9200 1000
Wire Wire Line
	9250 1500 9100 1500
Wire Wire Line
	8600 1500 8500 1500
Wire Wire Line
	8500 1500 8500 1200
Wire Wire Line
	8500 1200 8650 1200
Wire Wire Line
	9200 1000 8750 1000
Wire Wire Line
	7750 1150 7650 1150
Wire Wire Line
	8150 900  8150 1150
Connection ~ 7750 1150
Connection ~ 7750 1050
Wire Wire Line
	7750 1550 7750 1650
Wire Wire Line
	7650 1050 8150 1050
Connection ~ 8150 1050
Wire Wire Line
	7000 1050 6700 1050
Wire Wire Line
	1500 7950 3200 7950
Connection ~ 2150 7950
Wire Wire Line
	13750 6250 14150 6250
Wire Wire Line
	13850 6050 14150 6050
Wire Wire Line
	2400 5700 2700 5700
Wire Wire Line
	5650 2950 5950 2950
Wire Wire Line
	2400 5600 2700 5600
Wire Wire Line
	13750 5550 14150 5550
Wire Wire Line
	8600 5600 8350 5600
Wire Wire Line
	8050 5700 8600 5700
Connection ~ 8350 5600
Wire Wire Line
	1150 8300 1150 8400
Wire Wire Line
	1150 7900 1150 7750
Wire Wire Line
	9950 6100 9950 6200
Wire Wire Line
	9900 6100 9950 6100
Wire Wire Line
	9900 6150 9950 6150
Connection ~ 9950 6150
Wire Wire Line
	7900 5800 8600 5800
Wire Wire Line
	7900 6000 8600 6000
Wire Wire Line
	7900 5900 8600 5900
Wire Wire Line
	7900 6100 8600 6100
Wire Wire Line
	8350 3650 8700 3650
Wire Wire Line
	9650 3650 9300 3650
Wire Wire Line
	8300 3800 8700 3800
Wire Wire Line
	8700 3950 8300 3950
Wire Wire Line
	9300 3800 9700 3800
Wire Wire Line
	9300 3950 9700 3950
Wire Wire Line
	9900 6000 10300 6000
Wire Wire Line
	9900 5800 10300 5800
Wire Wire Line
	9900 5900 10300 5900
Wire Wire Line
	10300 5700 9900 5700
Wire Wire Line
	10250 5600 9900 5600
Wire Wire Line
	850  8300 850  8400
Wire Wire Line
	850  7900 850  7750
Wire Wire Line
	1100 1400 1150 1400
Wire Wire Line
	1550 1400 1850 1400
Wire Wire Line
	1550 2000 2700 2000
Wire Wire Line
	1100 2000 1150 2000
Wire Wire Line
	2400 5800 2700 5800
Wire Wire Line
	5650 3550 5950 3550
Wire Wire Line
	5950 3450 5650 3450
Wire Wire Line
	13850 5750 14150 5750
Wire Wire Line
	13850 5850 14150 5850
Wire Wire Line
	900  9050 600  9050
Wire Wire Line
	13850 5450 14150 5450
Wire Wire Line
	8850 7750 9150 7750
Wire Wire Line
	8250 3300 8700 3300
Wire Wire Line
	9200 3300 9650 3300
Wire Wire Line
	5950 3350 5650 3350
Wire Wire Line
	5950 3250 5650 3250
Wire Wire Line
	6050 3900 5650 3900
Wire Wire Line
	6050 4200 5650 4200
Wire Wire Line
	5950 2850 5650 2850
Wire Wire Line
	2700 4650 2400 4650
Wire Wire Line
	5950 3150 5650 3150
Wire Wire Line
	10250 7050 10250 6800
Wire Wire Line
	10250 6800 9950 6800
Wire Wire Line
	9950 6750 9950 6900
Wire Wire Line
	9950 7300 9950 7550
Wire Wire Line
	10250 7250 10250 7400
Wire Wire Line
	10250 7400 9950 7400
Connection ~ 9950 7400
Wire Wire Line
	9650 7750 9750 7750
Wire Wire Line
	1550 9050 1250 9050
Wire Wire Line
	2150 9050 1850 9050
Wire Wire Line
	2800 9050 2500 9050
Wire Wire Line
	3400 9050 3100 9050
Wire Wire Line
	4050 9050 3750 9050
Wire Wire Line
	4650 9050 4350 9050
Wire Wire Line
	5300 9050 5000 9050
Wire Wire Line
	5300 8950 5250 8950
Wire Wire Line
	5250 8950 5250 8750
Wire Wire Line
	5250 8750 800  8750
Wire Wire Line
	4550 8750 4550 8950
Wire Wire Line
	4550 8950 4650 8950
Wire Wire Line
	3950 8750 3950 8950
Wire Wire Line
	3950 8950 4050 8950
Connection ~ 4550 8750
Wire Wire Line
	3300 8750 3300 8950
Wire Wire Line
	3300 8950 3400 8950
Connection ~ 3950 8750
Wire Wire Line
	2700 8750 2700 8950
Wire Wire Line
	2700 8950 2800 8950
Connection ~ 3300 8750
Wire Wire Line
	2050 8750 2050 8950
Wire Wire Line
	2050 8950 2150 8950
Connection ~ 2700 8750
Wire Wire Line
	1450 8750 1450 8950
Wire Wire Line
	1450 8950 1550 8950
Connection ~ 2050 8750
Wire Wire Line
	800  8750 800  8950
Wire Wire Line
	800  8950 900  8950
Connection ~ 1450 8750
Wire Wire Line
	9950 7950 9950 8100
Connection ~ 800  8750
Wire Wire Line
	900  9150 800  9150
Wire Wire Line
	800  9150 800  9350
Wire Wire Line
	800  9350 5250 9350
Wire Wire Line
	1450 9350 1450 9150
Wire Wire Line
	1450 9150 1550 9150
Wire Wire Line
	2050 9350 2050 9150
Wire Wire Line
	2050 9150 2150 9150
Connection ~ 1450 9350
Wire Wire Line
	2700 9350 2700 9150
Wire Wire Line
	2700 9150 2800 9150
Connection ~ 2050 9350
Wire Wire Line
	3300 9150 3300 9450
Wire Wire Line
	3300 9150 3400 9150
Connection ~ 2700 9350
Wire Wire Line
	3950 9350 3950 9150
Wire Wire Line
	3950 9150 4050 9150
Connection ~ 3300 9350
Wire Wire Line
	4550 9350 4550 9150
Wire Wire Line
	4550 9150 4650 9150
Connection ~ 3950 9350
Wire Wire Line
	5250 9350 5250 9150
Wire Wire Line
	5250 9150 5300 9150
Connection ~ 4550 9350
Wire Wire Line
	8500 4900 8100 4900
Wire Wire Line
	8500 5000 8100 5000
Wire Wire Line
	8500 4500 8100 4500
Wire Wire Line
	8500 4600 8100 4600
Wire Wire Line
	9850 4900 10250 4900
Wire Wire Line
	9850 4600 10250 4600
Wire Wire Line
	9850 5000 10250 5000
Wire Wire Line
	10250 4500 9850 4500
Connection ~ 1800 7950
Connection ~ 1800 8350
Wire Wire Line
	2700 5350 2400 5350
Wire Wire Line
	5950 3050 5650 3050
Wire Wire Line
	5950 3800 5650 3800
Wire Wire Line
	5950 1900 5650 1900
Wire Wire Line
	2700 4550 2400 4550
Wire Wire Line
	2700 6250 2400 6250
Wire Wire Line
	5950 2000 5650 2000
Wire Wire Line
	9500 2900 9200 2900
Wire Wire Line
	8700 3000 8400 3000
Wire Wire Line
	8700 2900 8400 2900
Wire Wire Line
	9500 2800 9200 2800
Wire Wire Line
	8700 2800 8400 2800
Wire Wire Line
	8700 3100 8400 3100
Wire Wire Line
	9500 3000 9200 3000
Wire Wire Line
	8700 3200 8400 3200
Wire Wire Line
	9500 3100 9200 3100
Wire Wire Line
	9200 2300 9700 2300
Wire Wire Line
	8700 2300 8300 2300
Wire Wire Line
	8300 2300 8300 2200
Wire Wire Line
	9200 2400 9500 2400
Wire Wire Line
	8700 2400 8400 2400
Connection ~ 9950 6800
Wire Wire Line
	10500 2600 10250 2600
Wire Wire Line
	10250 3000 10500 3000
Wire Wire Line
	10250 3400 10500 3400
Wire Wire Line
	10500 3850 10250 3850
Wire Wire Line
	10500 2500 10200 2500
Wire Wire Line
	10500 2900 10200 2900
Wire Wire Line
	10500 3300 10200 3300
Wire Wire Line
	10500 3750 10200 3750
Wire Wire Line
	10200 2400 10500 2400
Wire Wire Line
	10500 2800 10200 2800
Wire Wire Line
	10500 3650 10200 3650
Wire Wire Line
	10500 3200 10200 3200
Wire Wire Line
	8700 2500 8400 2500
Wire Wire Line
	9500 2500 9200 2500
Wire Wire Line
	8700 2700 8400 2700
Wire Wire Line
	8700 2600 8300 2600
Wire Wire Line
	9200 2600 9700 2600
Wire Wire Line
	14150 5350 13750 5350
Wire Wire Line
	9500 2700 9200 2700
Wire Wire Line
	9200 3200 9700 3200
Wire Wire Line
	4300 6950 4300 6900
Wire Wire Line
	4300 6900 4200 6900
Connection ~ 3900 7000
Wire Wire Line
	3900 7000 4000 7000
Wire Wire Line
	4000 7000 4000 6900
Wire Wire Line
	5900 4100 5650 4100
Wire Wire Line
	1800 6650 1950 6650
Wire Wire Line
	1950 7150 1950 7300
Wire Wire Line
	1950 7300 1250 7300
Wire Wire Line
	1800 7150 1250 7150
Wire Wire Line
	4600 7000 4400 7000
Connection ~ 4100 950 
Wire Wire Line
	3900 950  4200 950 
Wire Wire Line
	6000 6000 5650 6000
Wire Wire Line
	6000 5800 5650 5800
Wire Wire Line
	4600 850  4600 950 
Wire Wire Line
	2400 1500 2700 1500
Wire Wire Line
	2400 2100 2700 2100
Wire Wire Line
	4400 600  4400 950 
Wire Wire Line
	4400 7000 4400 6900
Wire Wire Line
	2400 1600 2700 1600
Wire Wire Line
	5650 5700 6000 5700
Wire Wire Line
	6000 5900 5650 5900
Wire Wire Line
	6000 6100 5650 6100
Wire Wire Line
	2700 4350 1900 4350
Wire Wire Line
	1900 4450 2700 4450
Connection ~ 4000 950 
Wire Wire Line
	4050 950  4050 800 
Connection ~ 4050 950 
Wire Wire Line
	5200 7100 5200 7000
Wire Wire Line
	1950 6650 1950 6550
Wire Wire Line
	5900 4000 5650 4000
Wire Wire Line
	3900 6900 3900 7100
Wire Wire Line
	4100 6900 4100 6950
Wire Wire Line
	4250 7950 4950 7950
Wire Wire Line
	3650 7950 3650 7800
Wire Wire Line
	2700 2750 2400 2750
Wire Wire Line
	2700 2850 2400 2850
Wire Wire Line
	2700 2950 2400 2950
Wire Wire Line
	2700 3050 2400 3050
Wire Wire Line
	2700 2350 2400 2350
Wire Wire Line
	2700 2450 2400 2450
Wire Wire Line
	2700 2550 2400 2550
Wire Wire Line
	2700 2650 2400 2650
Wire Wire Line
	8150 7200 8150 7100
Wire Wire Line
	8150 7100 7850 7100
Wire Wire Line
	8150 7800 8150 7700
Wire Wire Line
	8250 7100 8550 7100
Wire Wire Line
	8550 7100 8550 7200
Wire Wire Line
	8550 7700 8550 7800
Wire Wire Line
	2700 5250 2400 5250
Wire Wire Line
	2700 3850 2300 3850
Wire Wire Line
	2700 3750 2300 3750
Wire Wire Line
	2700 3250 2300 3250
Wire Wire Line
	2700 3150 2300 3150
Text Label 2400 4900 0    60   ~ 0
BUZ
Wire Wire Line
	2400 4900 2700 4900
Wire Wire Line
	8350 5600 8350 5550
$Comp
L GND #PWR?
U 1 1 55788B9B
P 8050 5700
F 0 "#PWR?" H 8050 5700 30  0001 C CNN
F 1 "GND" H 8050 5630 30  0001 C CNN
F 2 "" H 8050 5700 60  0001 C CNN
F 3 "" H 8050 5700 60  0001 C CNN
	1    8050 5700
	0    1    1    0   
$EndComp
$EndSCHEMATC
