EESchema Schematic File Version 2
LIBS:con-jack
LIBS:adm3101e
LIBS:microsd
LIBS:transistor-npn
LIBS:ipc-7351-transistor
LIBS:switch-misc
LIBS:power
LIBS:device
LIBS:transistors
LIBS:conn
LIBS:linear
LIBS:regul
LIBS:74xx
LIBS:cmos4000
LIBS:adc-dac
LIBS:memory
LIBS:xilinx
LIBS:special
LIBS:microcontrollers
LIBS:dsp
LIBS:microchip
LIBS:analog_switches
LIBS:motorola
LIBS:texas
LIBS:intel
LIBS:audio
LIBS:interface
LIBS:digital-audio
LIBS:philips
LIBS:display
LIBS:cypress
LIBS:siliconi
LIBS:opto
LIBS:atmel
LIBS:contrib
LIBS:valves
LIBS:micron_ddr_512Mb
LIBS:iMX23
LIBS:sdmmc
LIBS:usbconn
LIBS:fsusb20
LIBS:r_pack2
LIBS:pasives-connectors
LIBS:EEPROM
LIBS:PWR
LIBS:m25p32
LIBS:PROpendous-cache
LIBS:w_analog
LIBS:gl850g
LIBS:srf2012
LIBS:rclamp0502b
LIBS:mcp130
LIBS:ABM8G
LIBS:usb_a
LIBS:Reset
LIBS:stm32f100vxx
LIBS:lt1117cst
LIBS:zxmhc3f381n8
LIBS:fsusb43
LIBS:usb-mini
LIBS:atsam3n0aa-au
LIBS:drv8835
LIBS:stamp_mini_4_layers-cache
EELAYER 25 0
EELAYER END
$Descr User 12000 10000
encoding utf-8
Sheet 7 7
Title ""
Date "2 feb 2013"
Rev ""
Comp ""
Comment1 ""
Comment2 ""
Comment3 ""
Comment4 ""
$EndDescr
Wire Wire Line
	4400 7250 4400 7200
Wire Wire Line
	4400 7200 4300 7200
Connection ~ 4000 7300
Wire Wire Line
	4000 7300 4100 7300
Wire Wire Line
	4100 7300 4100 7200
Wire Wire Line
	5750 3750 6650 3750
Wire Wire Line
	6000 4400 5750 4400
Wire Wire Line
	1900 6950 2050 6950
Wire Wire Line
	2050 7450 2050 7600
Wire Wire Line
	2050 7600 1350 7600
Wire Wire Line
	1900 7450 1350 7450
Wire Wire Line
	8350 4150 9750 4150
Wire Wire Line
	1000 1950 1000 1700
Wire Wire Line
	1000 1950 1150 1950
Wire Wire Line
	6650 4200 5750 4200
Connection ~ 10850 4150
Wire Wire Line
	10700 4150 11250 4150
Wire Wire Line
	4700 7300 4500 7300
Wire Wire Line
	10850 4550 11250 4550
Connection ~ 9400 4150
Connection ~ 8350 4150
Connection ~ 4200 1250
Wire Wire Line
	4300 1250 4000 1250
Wire Wire Line
	6650 3850 5750 3850
Wire Wire Line
	6650 3650 5750 3650
Wire Wire Line
	6650 3550 5750 3550
Wire Wire Line
	5750 3350 6650 3350
Wire Wire Line
	6650 3150 5750 3150
Wire Wire Line
	2800 4050 950  4050
Wire Wire Line
	2800 3250 950  3250
Wire Wire Line
	2800 3050 950  3050
Wire Wire Line
	6100 6300 5750 6300
Wire Wire Line
	6100 6100 5750 6100
Wire Wire Line
	1400 2300 2800 2300
Wire Wire Line
	10750 6400 10750 6300
Connection ~ 10850 4550
Connection ~ 9750 4550
Connection ~ 9050 4550
Connection ~ 1550 2300
Connection ~ 1550 1700
Wire Wire Line
	1400 1700 1950 1700
Wire Wire Line
	4700 1150 4700 1250
Wire Wire Line
	1950 1700 1950 2200
Wire Wire Line
	1950 2200 2800 2200
Wire Wire Line
	950  3850 2800 3850
Wire Wire Line
	950  3650 2800 3650
Wire Wire Line
	950  3450 2800 3450
Wire Wire Line
	950  2850 2800 2850
Wire Wire Line
	2500 1800 2800 1800
Wire Wire Line
	1000 1700 900  1700
Wire Wire Line
	900  1700 900  2300
Wire Wire Line
	900  2300 1000 2300
Wire Wire Line
	900  1900 700  1900
Wire Wire Line
	700  1900 700  2050
Connection ~ 900  1900
Wire Wire Line
	2500 2400 2800 2400
Wire Wire Line
	4500 900  4500 1250
Wire Wire Line
	4500 7300 4500 7200
Wire Wire Line
	11050 4650 11050 4550
Connection ~ 11050 4550
Wire Wire Line
	9750 4150 9750 4000
Wire Wire Line
	2500 1900 2800 1900
Wire Wire Line
	950  2750 2800 2750
Wire Wire Line
	950  2950 2800 2950
Wire Wire Line
	950  3150 2800 3150
Wire Wire Line
	950  3350 2800 3350
Wire Wire Line
	950  3550 2800 3550
Wire Wire Line
	950  3750 2800 3750
Wire Wire Line
	950  3950 2800 3950
Wire Wire Line
	950  4150 2800 4150
Connection ~ 8700 4550
Connection ~ 8350 4550
Connection ~ 9400 4550
Wire Wire Line
	10750 6300 10450 6300
Wire Wire Line
	10750 7000 10750 6900
Wire Wire Line
	5750 6000 6100 6000
Wire Wire Line
	6100 6200 5750 6200
Wire Wire Line
	6100 6400 5750 6400
Wire Wire Line
	2800 2650 950  2650
Wire Wire Line
	6650 3250 5750 3250
Wire Wire Line
	6650 3450 5750 3450
Wire Wire Line
	2800 4650 950  4650
Wire Wire Line
	950  6550 2800 6550
Wire Wire Line
	950  6000 2800 6000
Wire Wire Line
	950  5550 2800 5550
Wire Wire Line
	950  5200 2800 5200
Wire Wire Line
	950  4950 2800 4950
Wire Wire Line
	950  4750 2800 4750
Wire Wire Line
	950  4850 2800 4850
Wire Wire Line
	950  5650 2800 5650
Wire Wire Line
	950  5900 2800 5900
Wire Wire Line
	2800 5300 950  5300
Wire Wire Line
	2800 6100 950  6100
Connection ~ 4100 1250
Wire Wire Line
	4150 1250 4150 1100
Connection ~ 4150 1250
Connection ~ 9050 4150
Connection ~ 8700 4150
Wire Wire Line
	5300 7400 5300 7300
Wire Wire Line
	10100 4150 9950 4150
Wire Wire Line
	9950 4150 9950 4000
Wire Wire Line
	11150 7000 11150 6900
Wire Wire Line
	10850 6300 11150 6300
Wire Wire Line
	11150 6300 11150 6400
Wire Wire Line
	8350 4550 9950 4550
Wire Wire Line
	9950 4550 9950 4650
Wire Wire Line
	6650 4100 5750 4100
Wire Wire Line
	6650 4500 5750 4500
Wire Wire Line
	6650 2200 5750 2200
Wire Wire Line
	6650 2300 5750 2300
Wire Wire Line
	1150 2050 1000 2050
Wire Wire Line
	1000 2050 1000 2300
Wire Wire Line
	2050 6950 2050 6850
Wire Wire Line
	6000 4300 5750 4300
Wire Wire Line
	4000 7200 4000 7400
Wire Wire Line
	4200 7200 4200 7250
Text HLabel 10450 6300 0    60   BiDi ~ 0
BOOT_MODE
Text Notes 2500 7550 0    60   ~ 0
C19, C21 2.2uF para cortex M4\nC19. C21 = Ohms para cortex M3
$Comp
L GND #PWR0152
U 1 1 4F3EDF04
P 4400 7650
F 0 "#PWR0152" H 4400 7650 30  0001 C CNN
F 1 "GND" H 4400 7580 30  0001 C CNN
F 2 "" H 4400 7650 60  0001 C CNN
F 3 "" H 4400 7650 60  0001 C CNN
	1    4400 7650
	1    0    0    -1  
$EndComp
$Comp
L GND #PWR0153
U 1 1 4F3EDF01
P 4200 7650
F 0 "#PWR0153" H 4200 7650 30  0001 C CNN
F 1 "GND" H 4200 7580 30  0001 C CNN
F 2 "" H 4200 7650 60  0001 C CNN
F 3 "" H 4200 7650 60  0001 C CNN
	1    4200 7650
	1    0    0    -1  
$EndComp
$Comp
L C C21
U 1 1 4F3EDEE6
P 4400 7450
F 0 "C21" H 4450 7550 50  0000 L CNN
F 1 "2.2uF" H 4450 7350 50  0000 L CNN
F 2 "SM0805" H 4400 7450 60  0001 C CNN
F 3 "" H 4400 7450 60  0001 C CNN
	1    4400 7450
	1    0    0    -1  
$EndComp
$Comp
L C C19
U 1 1 4F3EDEDE
P 4200 7450
F 0 "C19" H 4250 7550 50  0000 L CNN
F 1 "2.2uF" H 4250 7350 50  0000 L CNN
F 2 "SM0805" H 4200 7450 60  0001 C CNN
F 3 "" H 4200 7450 60  0001 C CNN
	1    4200 7450
	1    0    0    -1  
$EndComp
Text Label 5950 4500 0    60   ~ 0
C2M4
Text Label 5950 4200 0    60   ~ 0
C1M4
Text Label 5950 3850 0    60   ~ 0
C1M1
Text Label 5950 3750 0    60   ~ 0
C2M1
Text Label 5950 3650 0    60   ~ 0
C1M3
Text Label 5950 3550 0    60   ~ 0
C2M3
Text HLabel 6000 4400 2    60   BiDi ~ 0
STM_UART_TX
Text HLabel 6000 4300 2    60   BiDi ~ 0
STM_UART_RX
$Comp
L R R47
U 1 1 4F352DAA
P 2050 7200
F 0 "R47" V 2130 7200 50  0000 C CNN
F 1 "4.7k" V 2050 7200 50  0000 C CNN
F 2 "SM0603" H 2050 7200 60  0001 C CNN
F 3 "" H 2050 7200 60  0001 C CNN
	1    2050 7200
	-1   0    0    1   
$EndComp
$Comp
L R R26
U 1 1 4F352D8D
P 1900 7200
F 0 "R26" V 1980 7200 50  0000 C CNN
F 1 "4.7k" V 1900 7200 50  0000 C CNN
F 2 "SM0603" H 1900 7200 60  0001 C CNN
F 3 "" H 1900 7200 60  0001 C CNN
	1    1900 7200
	-1   0    0    1   
$EndComp
$Comp
L 3V3 #PWR0108
U 1 1 4F352D37
P 2050 6850
F 0 "#PWR0108" H 2050 6950 30  0001 C CNN
F 1 "3V3" H 2050 6960 30  0000 C CNN
F 2 "" H 2050 6850 60  0001 C CNN
F 3 "" H 2050 6850 60  0001 C CNN
	1    2050 6850
	1    0    0    -1  
$EndComp
$Comp
L R R46
U 1 1 4F352502
P 6350 6300
F 0 "R46" V 6400 6050 50  0000 C CNN
F 1 "150" V 6350 6300 50  0000 C CNN
F 2 "SM0603" H 6350 6300 60  0001 C CNN
F 3 "" H 6350 6300 60  0001 C CNN
	1    6350 6300
	0    -1   -1   0   
$EndComp
$Comp
L ABM8G X3
U 1 1 4F3524C7
P 1550 2000
F 0 "X3" H 1550 2150 60  0000 C CNN
F 1 "12MHz" H 1550 1850 60  0000 C CNN
F 2 "ABM8G" H 1550 2000 60  0001 C CNN
F 3 "" H 1550 2000 60  0001 C CNN
	1    1550 2000
	0    1    1    0   
$EndComp
Text Label 1400 7450 0    60   ~ 0
I2C1_SDA
Text Label 1400 7600 0    60   ~ 0
I2C1_SCL
Text HLabel 1350 7600 0    60   BiDi ~ 0
I2C1_SCL
Text HLabel 1350 7450 0    60   BiDi ~ 0
I2C1_SDA
Text Label 6000 2300 0    60   ~ 0
FP42
Text Label 6000 2200 0    60   ~ 0
FP41
Text Label 5950 4100 0    60   ~ 0
FP36
$Comp
L R R27
U 1 1 4E079478
P 10750 6650
F 0 "R27" V 10830 6650 50  0000 C CNN
F 1 "10k" V 10750 6650 50  0000 C CNN
F 2 "SM0603" H 10750 6650 60  0001 C CNN
F 3 "" H 10750 6650 60  0001 C CNN
	1    10750 6650
	-1   0    0    1   
$EndComp
$Comp
L GND #PWR0154
U 1 1 4E78C5F4
P 11150 7000
F 0 "#PWR0154" H 11150 7000 30  0001 C CNN
F 1 "GND" H 11150 6930 30  0001 C CNN
F 2 "" H 11150 7000 60  0001 C CNN
F 3 "" H 11150 7000 60  0001 C CNN
	1    11150 7000
	1    0    0    -1  
$EndComp
Text Label 11150 6300 2    60   ~ 0
BOOT1
$Comp
L R R34
U 1 1 4E78C5F1
P 11150 6650
F 0 "R34" V 11230 6650 50  0000 C CNN
F 1 "10k" V 11150 6650 50  0000 C CNN
F 2 "SM0603" H 11150 6650 60  0001 C CNN
F 3 "" H 11150 6650 60  0001 C CNN
	1    11150 6650
	-1   0    0    1   
$EndComp
$Comp
L 3V3 #PWR0118
U 1 1 4E78C319
P 9950 4000
F 0 "#PWR0118" H 9950 4100 30  0001 C CNN
F 1 "3V3" H 9950 4110 30  0000 C CNN
F 2 "" H 9950 4000 60  0001 C CNN
F 3 "" H 9950 4000 60  0001 C CNN
	1    9950 4000
	1    0    0    -1  
$EndComp
$Comp
L INDUCTOR L15
U 1 1 4E78C307
P 10400 4150
F 0 "L15" V 10350 4150 40  0000 C CNN
F 1 "2A 120 ohm" V 10500 4150 40  0000 C CNN
F 2 "SM0805" H 10400 4150 60  0001 C CNN
F 3 "" H 10400 4150 60  0001 C CNN
	1    10400 4150
	0    -1   -1   0   
$EndComp
$Comp
L GND #PWR0155
U 1 1 4E78C2ED
P 5300 7400
F 0 "#PWR0155" H 5300 7400 30  0001 C CNN
F 1 "GND" H 5300 7330 30  0001 C CNN
F 2 "" H 5300 7400 60  0001 C CNN
F 3 "" H 5300 7400 60  0001 C CNN
	1    5300 7400
	1    0    0    -1  
$EndComp
$Comp
L INDUCTOR L14
U 1 1 4E78C2C1
P 5000 7300
F 0 "L14" V 4950 7300 40  0000 C CNN
F 1 "2A 120 ohm" V 5100 7300 40  0000 C CNN
F 2 "SM0805" H 5000 7300 60  0001 C CNN
F 3 "" H 5000 7300 60  0001 C CNN
	1    5000 7300
	0    1    1    0   
$EndComp
Text HLabel 6100 6400 2    60   BiDi ~ 0
JNRST
Text HLabel 6100 6200 2    60   BiDi ~ 0
JTMS
Text HLabel 6100 6100 2    60   BiDi ~ 0
JTCK
Text HLabel 6600 6300 2    60   BiDi ~ 0
JTDO
Text HLabel 6100 6000 2    60   BiDi ~ 0
JTDI
$Comp
L 3V3 #PWR0120
U 1 1 4E78BA06
P 4150 1100
F 0 "#PWR0120" H 4150 1200 30  0001 C CNN
F 1 "3V3" H 4150 1210 30  0000 C CNN
F 2 "" H 4150 1100 60  0001 C CNN
F 3 "" H 4150 1100 60  0001 C CNN
	1    4150 1100
	1    0    0    -1  
$EndComp
$Comp
L CP1 C59
U 1 1 4E2DF30C
P 9750 4350
F 0 "C59" H 9800 4450 50  0000 L CNN
F 1 "10uF Tant." H 9800 4250 50  0000 L CNN
F 2 "SM1206" H 9750 4350 60  0001 C CNN
F 3 "" H 9750 4350 60  0001 C CNN
	1    9750 4350
	1    0    0    -1  
$EndComp
$Comp
L 3V3 #PWR0121
U 1 1 4E2A2E11
P 9750 4000
F 0 "#PWR0121" H 9750 4100 30  0001 C CNN
F 1 "3V3" H 9750 4110 30  0000 C CNN
F 2 "" H 9750 4000 60  0001 C CNN
F 3 "" H 9750 4000 60  0001 C CNN
	1    9750 4000
	1    0    0    -1  
$EndComp
$Comp
L 3V3 #PWR0123
U 1 1 4E2A2DF0
P 4700 1150
F 0 "#PWR0123" H 4700 1250 30  0001 C CNN
F 1 "3V3" H 4700 1260 30  0000 C CNN
F 2 "" H 4700 1150 60  0001 C CNN
F 3 "" H 4700 1150 60  0001 C CNN
	1    4700 1150
	1    0    0    -1  
$EndComp
Text HLabel 2500 2400 0    60   BiDi ~ 0
RESET
Text Label 1000 4650 0    60   ~ 0
FP24
Text Label 1000 4750 0    60   ~ 0
FP25
Text Label 1000 5200 0    60   ~ 0
FP28
Text Label 1000 5300 0    60   ~ 0
FP29
Text Label 1000 5550 0    60   ~ 0
FP30
Text Label 1000 5650 0    60   ~ 0
FP31
Text Label 1000 5900 0    60   ~ 0
FP32
Text Label 1000 6000 0    60   ~ 0
FP33
Text Label 1000 6100 0    60   ~ 0
FP34
Text Label 1000 6550 0    60   ~ 0
FP35
Text Label 5950 3450 0    60   ~ 0
FP19
Text Label 5950 3350 0    60   ~ 0
FP18
Text Label 5950 3250 0    60   ~ 0
FP17
Text Label 5950 3150 0    60   ~ 0
FP16
Text Label 1000 4150 0    60   ~ 0
FP15
Text Label 1000 4050 0    60   ~ 0
FP14
Text Label 1000 3950 0    60   ~ 0
FP13
Text Label 1000 3850 0    60   ~ 0
FP12
Text Label 1000 3750 0    60   ~ 0
FP11
Text Label 1000 3650 0    60   ~ 0
FP10
Text Label 1000 3550 0    60   ~ 0
FP9
Text Label 1000 3450 0    60   ~ 0
FP8
Text Label 1000 3350 0    60   ~ 0
FP7
Text Label 1000 3250 0    60   ~ 0
FP6
Text Label 1000 3150 0    60   ~ 0
FP5
Text Label 1000 3050 0    60   ~ 0
FP4
Text Label 1000 2950 0    60   ~ 0
FP3
Text Label 1000 2850 0    60   ~ 0
FP2
Text Label 1000 2750 0    60   ~ 0
FP1
Text Label 6100 6400 2    60   ~ 0
JTRST
Text Label 6100 6300 2    60   ~ 0
TDO
Text Label 6100 6200 2    60   ~ 0
JTMS
Text Label 6100 6100 2    60   ~ 0
JTCK
Text Label 6100 6000 2    60   ~ 0
JTDI
Text Label 2000 6100 0    60   ~ 0
SPI2_SCK
Text Label 2000 6000 0    60   ~ 0
SPI2_MISO
Text Label 1750 3150 0    60   ~ 0
DAC2
Text Label 1750 3050 0    60   ~ 0
DAC1
Text Label 1650 2950 0    60   ~ 0
TIM5_CH4
Text Label 1650 2850 0    60   ~ 0
TIM5_CH3
Text Label 2000 4950 0    60   ~ 0
C2M2
Text Label 2000 4850 0    60   ~ 0
C1M2
Text Label 1650 3550 0    60   ~ 0
TIM3_CH4
Text Label 1650 3450 0    60   ~ 0
TIM3_CH3
Text Label 1650 3350 0    60   ~ 0
TIM3_CH2
Text Label 1650 3250 0    60   ~ 0
TIM3_CH1
Text Label 1650 2750 0    60   ~ 0
TIM5_CH2
Text Label 1650 2650 0    60   ~ 0
TIM5_CH1
Text Label 2200 2950 0    60   ~ 0
USART2_RX
Text Label 2200 2850 0    60   ~ 0
USART2_TX
$Comp
L STM32F105RC U10
U 1 1 4E07C22E
P 4200 4800
F 0 "U10" H 3200 8150 60  0000 C CNN
F 1 "STM32F105RC" H 5100 2600 60  0000 C CNN
F 2 "TQFP_64" H 3140 8210 60  0001 C CNN
F 3 "" H 4200 4800 60  0001 C CNN
	1    4200 4800
	1    0    0    -1  
$EndComp
$Comp
L C C56
U 1 1 4E078720
P 9050 4350
F 0 "C56" H 9100 4450 50  0000 L CNN
F 1 "0.1uF" H 9100 4250 50  0000 L CNN
F 2 "SM0603" H 9050 4350 60  0001 C CNN
F 3 "" H 9050 4350 60  0001 C CNN
	1    9050 4350
	1    0    0    -1  
$EndComp
$Comp
L C C54
U 1 1 4E0786EA
P 8350 4350
F 0 "C54" H 8400 4450 50  0000 L CNN
F 1 ".1uF" H 8400 4250 50  0000 L CNN
F 2 "SM0603" H 8350 4350 60  0001 C CNN
F 3 "" H 8350 4350 60  0001 C CNN
	1    8350 4350
	1    0    0    -1  
$EndComp
$Comp
L GND #PWR0156
U 1 1 4E07869F
P 9950 4650
F 0 "#PWR0156" H 9950 4650 30  0001 C CNN
F 1 "GND" H 9950 4580 30  0001 C CNN
F 2 "" H 9950 4650 60  0001 C CNN
F 3 "" H 9950 4650 60  0001 C CNN
	1    9950 4650
	1    0    0    -1  
$EndComp
$Comp
L GND #PWR0157
U 1 1 4DCDB18D
P 4000 7400
F 0 "#PWR0157" H 4000 7400 30  0001 C CNN
F 1 "GND" H 4000 7330 30  0001 C CNN
F 2 "" H 4000 7400 60  0001 C CNN
F 3 "" H 4000 7400 60  0001 C CNN
	1    4000 7400
	1    0    0    -1  
$EndComp
$Comp
L C C55
U 1 1 4DCDB187
P 8700 4350
F 0 "C55" H 8750 4450 50  0000 L CNN
F 1 "0.1uF" H 8750 4250 50  0000 L CNN
F 2 "SM0603" H 8700 4350 60  0001 C CNN
F 3 "" H 8700 4350 60  0001 C CNN
	1    8700 4350
	1    0    0    -1  
$EndComp
$Comp
L C C58
U 1 1 4DCDB186
P 9400 4350
F 0 "C58" H 9450 4450 50  0000 L CNN
F 1 "0.1uF" H 9450 4250 50  0000 L CNN
F 2 "SM0603" H 9400 4350 60  0001 C CNN
F 3 "" H 9400 4350 60  0001 C CNN
	1    9400 4350
	1    0    0    -1  
$EndComp
$Comp
L C C72
U 1 1 4DCDB185
P 10850 4350
F 0 "C72" H 10900 4450 50  0000 L CNN
F 1 "0.1uF" H 10900 4250 50  0000 L CNN
F 2 "SM0603" H 10850 4350 60  0001 C CNN
F 3 "" H 10850 4350 60  0001 C CNN
	1    10850 4350
	1    0    0    -1  
$EndComp
$Comp
L C C73
U 1 1 4DCDB184
P 11250 4350
F 0 "C73" H 11300 4450 50  0000 L CNN
F 1 "1uF" H 11300 4250 50  0000 L CNN
F 2 "SM0805" H 11250 4350 60  0001 C CNN
F 3 "" H 11250 4350 60  0001 C CNN
	1    11250 4350
	1    0    0    -1  
$EndComp
$Comp
L GND #PWR0158
U 1 1 4DCDB183
P 11050 4650
F 0 "#PWR0158" H 11050 4650 30  0001 C CNN
F 1 "GND" H 11050 4580 30  0001 C CNN
F 2 "" H 11050 4650 60  0001 C CNN
F 3 "" H 11050 4650 60  0001 C CNN
	1    11050 4650
	1    0    0    -1  
$EndComp
Text Label 4500 900  3    60   ~ 0
VDDAST
Text Label 11200 4150 2    60   ~ 0
VDDAST
Text Label 2500 2400 0    60   ~ 0
NRST
$Comp
L GND #PWR0159
U 1 1 4DCDB180
P 700 2050
F 0 "#PWR0159" H 700 2050 30  0001 C CNN
F 1 "GND" H 700 1980 30  0001 C CNN
F 2 "" H 700 2050 60  0001 C CNN
F 3 "" H 700 2050 60  0001 C CNN
	1    700  2050
	-1   0    0    -1  
$EndComp
Text Label 2500 1800 0    60   ~ 0
BOOT0
Text Label 2500 1900 0    60   ~ 0
BOOT1
Text Label 10750 6300 2    60   ~ 0
BOOT0
$Comp
L GND #PWR0160
U 1 1 4DCDB17D
P 10750 7000
F 0 "#PWR0160" H 10750 7000 30  0001 C CNN
F 1 "GND" H 10750 6930 30  0001 C CNN
F 2 "" H 10750 7000 60  0001 C CNN
F 3 "" H 10750 7000 60  0001 C CNN
	1    10750 7000
	1    0    0    -1  
$EndComp
Text Label 1000 2650 0    60   ~ 0
FP0
Text Label 2000 5900 0    60   ~ 0
SPI2_MOSI
Text Label 2000 5550 0    60   ~ 0
USART3_TX
Text Label 2000 5650 0    60   ~ 0
USART3_RX
Text Label 2000 4750 0    60   ~ 0
I2C1_SDA
Text Label 2000 4650 0    60   ~ 0
I2C1_SCL
Text Label 2000 5200 0    60   ~ 0
I2C2_SCL
Text Label 2000 5300 0    60   ~ 0
I2C2_SDA
$Comp
L C C26
U 1 1 4DCDB175
P 1200 1700
F 0 "C26" H 1250 1800 50  0000 L CNN
F 1 "22pF" H 1250 1600 50  0000 L CNN
F 2 "SM0603" H 1200 1700 60  0001 C CNN
F 3 "" H 1200 1700 60  0001 C CNN
	1    1200 1700
	0    1    1    0   
$EndComp
$Comp
L C C28
U 1 1 4DCDB174
P 1200 2300
F 0 "C28" H 1250 2400 50  0000 L CNN
F 1 "22pF" H 1250 2200 50  0000 L CNN
F 2 "SM0603" H 1200 2300 60  0001 C CNN
F 3 "" H 1200 2300 60  0001 C CNN
	1    1200 2300
	0    1    1    0   
$EndComp
$EndSCHEMATC
