EESchema Schematic File Version 2
LIBS:con-jack
LIBS:adm3101e
LIBS:microsd
LIBS:transistor-npn
LIBS:ipc-7351-transistor
LIBS:switch-misc
LIBS:power
LIBS:device
LIBS:transistors
LIBS:conn
LIBS:linear
LIBS:regul
LIBS:74xx
LIBS:cmos4000
LIBS:adc-dac
LIBS:memory
LIBS:xilinx
LIBS:special
LIBS:microcontrollers
LIBS:dsp
LIBS:microchip
LIBS:analog_switches
LIBS:motorola
LIBS:texas
LIBS:intel
LIBS:audio
LIBS:interface
LIBS:digital-audio
LIBS:philips
LIBS:display
LIBS:cypress
LIBS:siliconi
LIBS:opto
LIBS:atmel
LIBS:contrib
LIBS:valves
LIBS:micron_ddr_512Mb
LIBS:iMX23
LIBS:sdmmc
LIBS:usbconn
LIBS:fsusb20
LIBS:r_pack2
LIBS:pasives-connectors
LIBS:EEPROM
LIBS:PWR
LIBS:m25p32
LIBS:PROpendous-cache
LIBS:w_analog
LIBS:gl850g
LIBS:srf2012
LIBS:rclamp0502b
LIBS:mcp130
LIBS:ABM8G
LIBS:usb_a
LIBS:Reset
LIBS:stm32f100vxx
LIBS:lt1117cst
LIBS:zxmhc3f381n8
LIBS:fsusb43
LIBS:usb-mini
LIBS:atsam3n0aa-au
LIBS:drv8835
LIBS:ftdichip
LIBS:stm32f4_lqfp100
LIBS:cstcr6m00g53z
LIBS:stamp_mini_4_layers-cache
EELAYER 25 0
EELAYER END
$Descr User 12000 10000
encoding utf-8
Sheet 3 3
Title ""
Date "9 may 2013"
Rev ""
Comp ""
Comment1 ""
Comment2 ""
Comment3 ""
Comment4 ""
$EndDescr
$Comp
L +3.3VP #PWR024
U 1 1 516D62A0
P 9400 7300
F 0 "#PWR024" H 9450 7330 20  0001 C CNN
F 1 "+3.3VP" H 9400 7390 30  0000 C CNN
F 2 "" H 9400 7300 60  0001 C CNN
F 3 "" H 9400 7300 60  0001 C CNN
	1    9400 7300
	1    0    0    -1  
$EndComp
$Comp
L +3.3VP #PWR025
U 1 1 516D629C
P 10000 7400
F 0 "#PWR025" H 10050 7430 20  0001 C CNN
F 1 "+3.3VP" H 10000 7490 30  0000 C CNN
F 2 "" H 10000 7400 60  0001 C CNN
F 3 "" H 10000 7400 60  0001 C CNN
	1    10000 7400
	1    0    0    -1  
$EndComp
$Comp
L +3.3VP #PWR026
U 1 1 516D625C
P 2700 7800
F 0 "#PWR026" H 2750 7830 20  0001 C CNN
F 1 "+3.3VP" H 2700 7890 30  0000 C CNN
F 2 "" H 2700 7800 60  0001 C CNN
F 3 "" H 2700 7800 60  0001 C CNN
	1    2700 7800
	1    0    0    -1  
$EndComp
$Comp
L C C401
U 1 1 516D60B5
P 1800 8150
F 0 "C401" H 1850 8250 50  0000 L CNN
F 1 "0.1uF" H 1850 8050 50  0000 L CNN
F 2 "SM0603" H 1800 8150 60  0001 C CNN
F 3 "" H 1800 8150 60  0001 C CNN
	1    1800 8150
	1    0    0    -1  
$EndComp
$Comp
L GND #PWR027
U 1 1 516D6095
P 2700 8450
F 0 "#PWR027" H 2700 8450 30  0001 C CNN
F 1 "GND" H 2700 8380 30  0001 C CNN
F 2 "" H 2700 8450 60  0001 C CNN
F 3 "" H 2700 8450 60  0001 C CNN
	1    2700 8450
	1    0    0    -1  
$EndComp
$Comp
L C C407
U 1 1 516D6094
P 3200 8150
F 0 "C407" H 3250 8250 50  0000 L CNN
F 1 "4.7uF" H 3250 8050 50  0000 L CNN
F 2 "SM1206" H 3200 8150 60  0001 C CNN
F 3 "" H 3200 8150 60  0001 C CNN
	1    3200 8150
	1    0    0    -1  
$EndComp
$Comp
L C C406
U 1 1 516D6093
P 2850 8150
F 0 "C406" H 2900 8250 50  0000 L CNN
F 1 "1uF" H 2900 8050 50  0000 L CNN
F 2 "SM0603" H 2850 8150 60  0001 C CNN
F 3 "" H 2850 8150 60  0001 C CNN
	1    2850 8150
	1    0    0    -1  
$EndComp
$Comp
L C C405
U 1 1 516D6092
P 2500 8150
F 0 "C405" H 2550 8250 50  0000 L CNN
F 1 "0.1uF" H 2550 8050 50  0000 L CNN
F 2 "SM0603" H 2500 8150 60  0001 C CNN
F 3 "" H 2500 8150 60  0001 C CNN
	1    2500 8150
	1    0    0    -1  
$EndComp
$Comp
L C C404
U 1 1 516D6091
P 2150 8150
F 0 "C404" H 2200 8250 50  0000 L CNN
F 1 "0.1uF" H 2200 8050 50  0000 L CNN
F 2 "SM0603" H 2150 8150 60  0001 C CNN
F 3 "" H 2150 8150 60  0001 C CNN
	1    2150 8150
	1    0    0    -1  
$EndComp
$Comp
L VDD5V #PWR028
U 1 1 4E7B5061
P 7950 7400
F 0 "#PWR028" H 7950 7500 30  0001 C CNN
F 1 "VDD5V" H 7950 7500 30  0000 C CNN
F 2 "" H 7950 7400 60  0001 C CNN
F 3 "" H 7950 7400 60  0001 C CNN
	1    7950 7400
	1    0    0    -1  
$EndComp
$Comp
L GND #PWR029
U 1 1 4E7B4E89
P 7950 8050
F 0 "#PWR029" H 7950 8050 30  0001 C CNN
F 1 "GND" H 7950 7980 30  0001 C CNN
F 2 "" H 7950 8050 60  0001 C CNN
F 3 "" H 7950 8050 60  0001 C CNN
	1    7950 8050
	1    0    0    -1  
$EndComp
$Comp
L GND #PWR030
U 1 1 4E7B4E84
P 9400 8050
F 0 "#PWR030" H 9400 8050 30  0001 C CNN
F 1 "GND" H 9400 7980 30  0001 C CNN
F 2 "" H 9400 8050 60  0001 C CNN
F 3 "" H 9400 8050 60  0001 C CNN
	1    9400 8050
	1    0    0    -1  
$EndComp
$Comp
L C C76
U 1 1 4E7B4A85
P 9400 7750
F 0 "C76" H 9450 7850 50  0000 L CNN
F 1 "33uF" H 9450 7650 50  0000 L CNN
F 2 "SM1206" H 9400 7750 60  0001 C CNN
F 3 "" H 9400 7750 60  0001 C CNN
	1    9400 7750
	1    0    0    -1  
$EndComp
$Comp
L C C74
U 1 1 4E7B4A81
P 7950 7750
F 0 "C74" H 8000 7850 50  0000 L CNN
F 1 "33uF" H 8000 7650 50  0000 L CNN
F 2 "SM1206" H 7950 7750 60  0001 C CNN
F 3 "" H 7950 7750 60  0001 C CNN
	1    7950 7750
	1    0    0    -1  
$EndComp
$Comp
L GND #PWR031
U 1 1 4E7B44BE
P 9000 8050
F 0 "#PWR031" H 9000 8050 30  0001 C CNN
F 1 "GND" H 9000 7980 30  0001 C CNN
F 2 "" H 9000 8050 60  0001 C CNN
F 3 "" H 9000 8050 60  0001 C CNN
	1    9000 8050
	1    0    0    -1  
$EndComp
$Comp
L GND #PWR032
U 1 1 4E7B44A2
P 8150 7650
F 0 "#PWR032" H 8150 7650 30  0001 C CNN
F 1 "GND" H 8150 7580 30  0001 C CNN
F 2 "" H 8150 7650 60  0001 C CNN
F 3 "" H 8150 7650 60  0001 C CNN
	1    8150 7650
	1    0    0    -1  
$EndComp
$Comp
L LT1117CST U11
U 1 1 4E7B41E9
P 8600 7650
F 0 "U11" H 8450 7950 60  0000 C CNN
F 1 "LT1117CST-3.3" H 8600 7650 40  0000 C CNN
F 2 "LT1117" H 8600 7650 60  0001 C CNN
F 3 "" H 8600 7650 60  0001 C CNN
	1    8600 7650
	1    0    0    -1  
$EndComp
$Comp
L C C75
U 1 1 4E7B41E8
P 9000 7750
F 0 "C75" H 9050 7850 50  0000 L CNN
F 1 "100n" H 9050 7650 50  0000 L CNN
F 2 "SM0603" H 9000 7750 60  0001 C CNN
F 3 "" H 9000 7750 60  0001 C CNN
	1    9000 7750
	1    0    0    -1  
$EndComp
$Comp
L R R33
U 1 1 4E188E50
P 11000 7900
F 0 "R33" V 11080 7900 50  0000 C CNN
F 1 "1k" V 11000 7900 50  0000 C CNN
F 2 "SM0603" H 11000 7900 60  0001 C CNN
F 3 "" H 11000 7900 60  0001 C CNN
	1    11000 7900
	0    1    1    0   
$EndComp
$Comp
L LED D9
U 1 1 4E188E4F
P 11000 7600
F 0 "D9" H 11000 7700 50  0000 C CNN
F 1 "LED" H 11000 7500 50  0000 C CNN
F 2 "SM0603" H 11000 7600 60  0001 C CNN
F 3 "" H 11000 7600 60  0001 C CNN
	1    11000 7600
	-1   0    0    1   
$EndComp
$Comp
L GND #PWR033
U 1 1 4E188E4E
P 11400 7900
F 0 "#PWR033" H 11400 7900 30  0001 C CNN
F 1 "GND" H 11400 7830 30  0001 C CNN
F 2 "" H 11400 7900 60  0001 C CNN
F 3 "" H 11400 7900 60  0001 C CNN
	1    11400 7900
	0    -1   1    0   
$EndComp
Text Label 10750 7400 0    60   ~ 0
LED
$Comp
L GND #PWR034
U 1 1 4E186DEB
P 10500 7900
F 0 "#PWR034" H 10500 7900 30  0001 C CNN
F 1 "GND" H 10500 7830 30  0001 C CNN
F 2 "" H 10500 7900 60  0001 C CNN
F 3 "" H 10500 7900 60  0001 C CNN
	1    10500 7900
	0    -1   1    0   
$EndComp
$Comp
L LED D8
U 1 1 4DCDB178
P 10100 7600
F 0 "D8" H 10100 7700 50  0000 C CNN
F 1 "LED" H 10100 7500 50  0000 C CNN
F 2 "SM0603" H 10100 7600 60  0001 C CNN
F 3 "" H 10100 7600 60  0001 C CNN
	1    10100 7600
	-1   0    0    1   
$EndComp
$Comp
L R R5
U 1 1 4DCDB177
P 10100 7900
F 0 "R5" V 10180 7900 50  0000 C CNN
F 1 "1k" V 10100 7900 50  0000 C CNN
F 2 "SM0603" H 10100 7900 60  0001 C CNN
F 3 "" H 10100 7900 60  0001 C CNN
	1    10100 7900
	0    1    1    0   
$EndComp
Text Notes 10450 7150 0    60   ~ 0
LEDS
$Comp
L DRV8835 UHB1
U 1 1 5344D7DB
P 10200 1100
F 0 "UHB1" H 10000 1750 60  0000 C CNN
F 1 "DRV8835" H 10150 1650 60  0000 C CNN
F 2 "drv8835" H 10200 1100 60  0001 C CNN
F 3 "" H 10200 1100 60  0000 C CNN
	1    10200 1100
	-1   0    0    -1  
$EndComp
$Comp
L +3.3VP #PWR035
U 1 1 5344E1D7
P 9400 650
F 0 "#PWR035" H 9450 680 20  0001 C CNN
F 1 "+3.3VP" H 9400 740 30  0000 C CNN
F 2 "" H 9400 650 60  0001 C CNN
F 3 "" H 9400 650 60  0001 C CNN
	1    9400 650 
	1    0    0    -1  
$EndComp
$Comp
L C CHB1
U 1 1 5344E995
P 1150 8100
F 0 "CHB1" H 1200 8200 50  0000 L CNN
F 1 "0.1uF" H 1200 8000 50  0000 L CNN
F 2 "SM0603" H 1150 8100 60  0001 C CNN
F 3 "" H 1150 8100 60  0001 C CNN
	1    1150 8100
	1    0    0    -1  
$EndComp
$Comp
L GND #PWR036
U 1 1 5344E9A6
P 1150 8400
F 0 "#PWR036" H 1150 8400 30  0001 C CNN
F 1 "GND" H 1150 8330 30  0001 C CNN
F 2 "" H 1150 8400 60  0001 C CNN
F 3 "" H 1150 8400 60  0001 C CNN
	1    1150 8400
	1    0    0    -1  
$EndComp
$Comp
L +3.3VP #PWR037
U 1 1 5344E9B7
P 1150 7750
F 0 "#PWR037" H 1200 7780 20  0001 C CNN
F 1 "+3.3VP" H 1150 7840 30  0000 C CNN
F 2 "" H 1150 7750 60  0001 C CNN
F 3 "" H 1150 7750 60  0001 C CNN
	1    1150 7750
	1    0    0    -1  
$EndComp
$Comp
L GND #PWR038
U 1 1 5344F399
P 11000 1300
F 0 "#PWR038" H 11000 1300 30  0001 C CNN
F 1 "GND" H 11000 1230 30  0001 C CNN
F 2 "" H 11000 1300 60  0001 C CNN
F 3 "" H 11000 1300 60  0001 C CNN
	1    11000 1300
	1    0    0    -1  
$EndComp
Text Label 6150 4200 0    60   ~ 0
DIR_M0
Text Label 6150 4000 0    60   ~ 0
DIR_M1
Text Label 6150 4100 0    60   ~ 0
SP_M0
Text Label 6150 3900 0    60   ~ 0
SP_M1
$Comp
L JUMPER JP4
U 1 1 53453E8C
P 10300 1550
F 0 "JP4" H 9900 1600 60  0000 C CNN
F 1 "J" H 10600 1600 40  0000 C CNN
F 2 "Sockets_MOLEX_KK-System:Socket_MOLEX-KK-RM2-54mm_Lock_2pin_straight" H 10300 1550 60  0001 C CNN
F 3 "" H 10300 1550 60  0001 C CNN
	1    10300 1550
	1    0    0    -1  
$EndComp
$Comp
L GND #PWR039
U 1 1 53453E92
P 9650 1550
F 0 "#PWR039" H 9650 1550 30  0001 C CNN
F 1 "GND" H 9650 1480 30  0001 C CNN
F 2 "" H 9650 1550 60  0001 C CNN
F 3 "" H 9650 1550 60  0001 C CNN
	1    9650 1550
	0    1    1    0   
$EndComp
$Comp
L JUMPER JM0
U 1 1 53453E99
P 10300 1700
F 0 "JM0" H 9900 1750 60  0000 C CNN
F 1 "J" H 10600 1750 40  0000 C CNN
F 2 "Sockets_MOLEX_KK-System:Socket_MOLEX-KK-RM2-54mm_Lock_2pin_straight" H 10300 1700 60  0001 C CNN
F 3 "" H 10300 1700 60  0001 C CNN
	1    10300 1700
	1    0    0    -1  
$EndComp
$Comp
L JUMPER JM1
U 1 1 53453E9F
P 10300 1850
F 0 "JM1" H 9900 1900 60  0000 C CNN
F 1 "J" H 10600 1900 40  0000 C CNN
F 2 "Sockets_MOLEX_KK-System:Socket_MOLEX-KK-RM2-54mm_Lock_2pin_straight" H 10300 1850 60  0001 C CNN
F 3 "" H 10300 1850 60  0001 C CNN
	1    10300 1850
	1    0    0    -1  
$EndComp
Text Label 10700 1550 0    60   ~ 0
VM
Text Label 10700 1700 0    60   ~ 0
M0B
Text Label 9650 1700 0    60   ~ 0
M0A
Text Label 9650 1850 0    60   ~ 0
M1A
Text Label 10700 1850 0    60   ~ 0
M1B
Text Label 11000 1100 0    60   ~ 0
M0B
Text Label 11000 900  0    60   ~ 0
M1B
Text Label 11000 1000 0    60   ~ 0
M0A
Text Label 11000 800  0    60   ~ 0
M1A
Text Label 11050 700  0    60   ~ 0
VM
$Comp
L C CHB2
U 1 1 53459780
P 850 8100
F 0 "CHB2" H 900 8200 50  0000 L CNN
F 1 "0.1uF" H 900 8000 50  0000 L CNN
F 2 "SM0603" H 850 8100 60  0001 C CNN
F 3 "" H 850 8100 60  0001 C CNN
	1    850  8100
	1    0    0    -1  
$EndComp
$Comp
L GND #PWR040
U 1 1 53459787
P 850 8400
F 0 "#PWR040" H 850 8400 30  0001 C CNN
F 1 "GND" H 850 8330 30  0001 C CNN
F 2 "" H 850 8400 60  0001 C CNN
F 3 "" H 850 8400 60  0001 C CNN
	1    850  8400
	1    0    0    -1  
$EndComp
Text Label 850  7900 1    60   ~ 0
VM
Text Label 600  9050 0    60   ~ 0
SEN5
$Comp
L CONN_01X03 SEN5
U 1 1 541B8DE7
P 1100 9050
F 0 "SEN5" H 1100 9250 50  0000 C CNN
F 1 "CONN_01X03" V 1200 9050 50  0001 C CNN
F 2 "Sockets_MOLEX_KK-System:Socket_MOLEX-KK-RM2-54mm_Lock_3pin_straight" H 1100 9050 60  0001 C CNN
F 3 "" H 1100 9050 60  0000 C CNN
	1    1100 9050
	1    0    0    -1  
$EndComp
Text Notes 5650 9150 0    60   ~ 0
WM2012-ND\nWM4201-ND
Text Label 1250 9050 0    60   ~ 0
SEN6
$Comp
L CONN_01X03 SEN6
U 1 1 541B9B15
P 1750 9050
F 0 "SEN6" H 1750 9250 50  0000 C CNN
F 1 "CONN_01X03" V 1850 9050 50  0001 C CNN
F 2 "Sockets_MOLEX_KK-System:Socket_MOLEX-KK-RM2-54mm_Lock_3pin_straight" H 1750 9050 60  0001 C CNN
F 3 "" H 1750 9050 60  0000 C CNN
	1    1750 9050
	1    0    0    -1  
$EndComp
Text Label 1850 9050 0    60   ~ 0
SEN7
$Comp
L CONN_01X03 SEN7
U 1 1 541B9F04
P 2350 9050
F 0 "SEN7" H 2350 9250 50  0000 C CNN
F 1 "CONN_01X03" V 2450 9050 50  0001 C CNN
F 2 "Sockets_MOLEX_KK-System:Socket_MOLEX-KK-RM2-54mm_Lock_3pin_straight" H 2350 9050 60  0001 C CNN
F 3 "" H 2350 9050 60  0000 C CNN
	1    2350 9050
	1    0    0    -1  
$EndComp
Text Label 2500 9050 0    60   ~ 0
SEN8
$Comp
L CONN_01X03 SEN8
U 1 1 541B9F0C
P 3000 9050
F 0 "SEN8" H 3000 9250 50  0000 C CNN
F 1 "CONN_01X03" V 3100 9050 50  0001 C CNN
F 2 "Sockets_MOLEX_KK-System:Socket_MOLEX-KK-RM2-54mm_Lock_3pin_straight" H 3000 9050 60  0001 C CNN
F 3 "" H 3000 9050 60  0000 C CNN
	1    3000 9050
	1    0    0    -1  
$EndComp
Text Label 3100 9050 0    60   ~ 0
SEN1
$Comp
L CONN_01X03 SEN1
U 1 1 541BA1BE
P 3600 9050
F 0 "SEN1" H 3600 9250 50  0000 C CNN
F 1 "CONN_01X03" V 3700 9050 50  0001 C CNN
F 2 "Sockets_MOLEX_KK-System:Socket_MOLEX-KK-RM2-54mm_Lock_3pin_straight" H 3600 9050 60  0001 C CNN
F 3 "" H 3600 9050 60  0000 C CNN
	1    3600 9050
	1    0    0    -1  
$EndComp
Text Label 3750 9050 0    60   ~ 0
SEN2
$Comp
L CONN_01X03 SEN2
U 1 1 541BA1C6
P 4250 9050
F 0 "SEN2" H 4250 9250 50  0000 C CNN
F 1 "CONN_01X03" V 4350 9050 50  0001 C CNN
F 2 "Sockets_MOLEX_KK-System:Socket_MOLEX-KK-RM2-54mm_Lock_3pin_straight" H 4250 9050 60  0001 C CNN
F 3 "" H 4250 9050 60  0000 C CNN
	1    4250 9050
	1    0    0    -1  
$EndComp
Text Label 4350 9050 0    60   ~ 0
SEN3
$Comp
L CONN_01X03 SEN3
U 1 1 541BA1CE
P 4850 9050
F 0 "SEN3" H 4850 9250 50  0000 C CNN
F 1 "CONN_01X03" V 4950 9050 50  0001 C CNN
F 2 "Sockets_MOLEX_KK-System:Socket_MOLEX-KK-RM2-54mm_Lock_3pin_straight" H 4850 9050 60  0001 C CNN
F 3 "" H 4850 9050 60  0000 C CNN
	1    4850 9050
	1    0    0    -1  
$EndComp
Text Label 5000 9050 0    60   ~ 0
SEN4
$Comp
L CONN_01X03 SEN4
U 1 1 541BA1D6
P 5500 9050
F 0 "SEN4" H 5500 9250 50  0000 C CNN
F 1 "CONN_01X03" V 5600 9050 50  0001 C CNN
F 2 "Sockets_MOLEX_KK-System:Socket_MOLEX-KK-RM2-54mm_Lock_3pin_straight" H 5500 9050 60  0001 C CNN
F 3 "" H 5500 9050 60  0000 C CNN
	1    5500 9050
	1    0    0    -1  
$EndComp
$Comp
L GND #PWR041
U 1 1 541E5896
P 3300 9450
F 0 "#PWR041" H 3300 9450 30  0001 C CNN
F 1 "GND" H 3300 9380 30  0001 C CNN
F 2 "" H 3300 9450 60  0001 C CNN
F 3 "" H 3300 9450 60  0001 C CNN
	1    3300 9450
	1    0    0    -1  
$EndComp
$Comp
L C CS2
U 1 1 541FDB17
P 1500 8150
F 0 "CS2" H 1550 8250 50  0000 L CNN
F 1 "0.1uF" H 1550 8050 50  0000 L CNN
F 2 "opendous:SM0603_Opendous" H 1500 8150 60  0001 C CNN
F 3 "" H 1500 8150 60  0001 C CNN
	1    1500 8150
	1    0    0    -1  
$EndComp
$Comp
L +3.3VP #PWR042
U 1 1 543CA989
P 800 8750
F 0 "#PWR042" H 850 8780 20  0001 C CNN
F 1 "+3.3VP" H 800 8840 30  0000 C CNN
F 2 "" H 800 8750 60  0001 C CNN
F 3 "" H 800 8750 60  0001 C CNN
	1    800  8750
	1    0    0    -1  
$EndComp
Text Label 5650 1400 0    60   ~ 0
VREF
Text Label 4500 800  0    60   ~ 0
VDDAST
$Comp
L 3V3 #PWR043
U 1 1 5455498E
P 6300 1700
F 0 "#PWR043" H 6300 1800 30  0001 C CNN
F 1 "3V3" H 6300 1810 30  0000 C CNN
F 2 "" H 6300 1700 60  0001 C CNN
F 3 "" H 6300 1700 60  0001 C CNN
	1    6300 1700
	1    0    0    -1  
$EndComp
$Comp
L GND #PWR044
U 1 1 54554994
P 4050 6800
F 0 "#PWR044" H 4050 6800 30  0001 C CNN
F 1 "GND" H 4050 6730 30  0001 C CNN
F 2 "" H 4050 6800 60  0001 C CNN
F 3 "" H 4050 6800 60  0001 C CNN
	1    4050 6800
	1    0    0    -1  
$EndComp
Text HLabel 2250 4100 0    60   BiDi ~ 0
STM_UART_TX
Text HLabel 2250 4200 0    60   BiDi ~ 0
STM_UART_RX
$Comp
L ABM8G XST1
U 1 1 545549A3
P 6750 1650
F 0 "XST1" H 6750 1800 60  0000 C CNN
F 1 "12MHz" H 6750 1500 60  0000 C CNN
F 2 "abm8g:ABM8G" H 6750 1650 60  0001 C CNN
F 3 "" H 6750 1650 60  0001 C CNN
	1    6750 1650
	0    -1   -1   0   
$EndComp
$Comp
L GND #PWR045
U 1 1 545549AB
P 5050 6750
F 0 "#PWR045" H 5050 6750 30  0001 C CNN
F 1 "GND" H 5050 6680 30  0001 C CNN
F 2 "" H 5050 6750 60  0001 C CNN
F 3 "" H 5050 6750 60  0001 C CNN
	1    5050 6750
	1    0    0    -1  
$EndComp
$Comp
L INDUCTOR LST1
U 1 1 545549B1
P 4750 6650
F 0 "LST1" V 4700 6650 40  0000 C CNN
F 1 "2A 120 ohm" V 4850 6650 40  0000 C CNN
F 2 "SM0805" H 4750 6650 60  0001 C CNN
F 3 "" H 4750 6650 60  0001 C CNN
	1    4750 6650
	0    1    1    0   
$EndComp
Text HLabel 2250 3900 0    60   BiDi ~ 0
JNRST
Text HLabel 2250 3100 0    60   BiDi ~ 0
JTMS
Text HLabel 2250 3200 0    60   BiDi ~ 0
JTCK
Text HLabel 2250 3800 0    60   BiDi ~ 0
JTDO
Text HLabel 2250 3300 0    60   BiDi ~ 0
JTDI
$Comp
L 3V3 #PWR046
U 1 1 545549BD
P 4050 800
F 0 "#PWR046" H 4050 900 30  0001 C CNN
F 1 "3V3" H 4050 910 30  0000 C CNN
F 2 "" H 4050 800 60  0001 C CNN
F 3 "" H 4050 800 60  0001 C CNN
	1    4050 800 
	1    0    0    -1  
$EndComp
Text HLabel 2300 1600 0    60   BiDi ~ 0
RESET
Text Label 800  2500 0    60   ~ 0
SEN8
Text Label 800  2400 0    60   ~ 0
SEN7
Text Label 800  2300 0    60   ~ 0
SEN6
Text Label 800  2200 0    60   ~ 0
SEN5
Text Label 800  2100 0    60   ~ 0
SEN4
Text Label 800  2000 0    60   ~ 0
SEN3
Text Label 800  1900 0    60   ~ 0
SEN2
Text Label 2504 3900 2    60   ~ 0
JTRST
Text Label 2418 3800 2    60   ~ 0
TDO
Text Label 2468 3100 2    60   ~ 0
JTMS
Text Label 2462 3200 2    60   ~ 0
JTCK
Text Label 2450 3300 2    60   ~ 0
JTDI
Text Label 2300 1600 0    60   ~ 0
NRST
$Comp
L GND #PWR047
U 1 1 545549EE
P 7600 1900
F 0 "#PWR047" H 7600 1900 30  0001 C CNN
F 1 "GND" H 7600 1830 30  0001 C CNN
F 2 "" H 7600 1900 60  0001 C CNN
F 3 "" H 7600 1900 60  0001 C CNN
	1    7600 1900
	-1   0    0    -1  
$EndComp
Text Label 2300 1400 0    60   ~ 0
BOOT0
Text Label 2200 3700 0    60   ~ 0
BOOT1
Text Label 800  1800 0    60   ~ 0
SEN1
$Comp
L C CXST2
U 1 1 545549FE
P 7100 1950
F 0 "CXST2" H 7150 2050 50  0000 L CNN
F 1 "22pF" H 7150 1850 50  0000 L CNN
F 2 "opendous:SM0603_Opendous" H 7100 1950 60  0001 C CNN
F 3 "" H 7100 1950 60  0001 C CNN
	1    7100 1950
	0    -1   -1   0   
$EndComp
$Comp
L C CXST1
U 1 1 54554A05
P 7100 1350
F 0 "CXST1" H 7150 1450 50  0000 L CNN
F 1 "22pF" H 7150 1250 50  0000 L CNN
F 2 "opendous:SM0603_Opendous" H 7100 1350 60  0001 C CNN
F 3 "" H 7100 1350 60  0001 C CNN
	1    7100 1350
	0    -1   -1   0   
$EndComp
$Comp
L STM32F4_LQFP100 UST1
U 1 1 54554A0C
P 4200 3600
F 0 "UST1" H 2950 6000 70  0000 C CNB
F 1 "STM32F4_LQFP100" H 5000 800 70  0000 C CNN
F 2 "Housings_QFP:TQFP-100_14x14mm_Pitch0.5mm" H 4200 3600 60  0001 C CNN
F 3 "" H 4200 3600 60  0001 C CNN
	1    4200 3600
	1    0    0    -1  
$EndComp
$Comp
L 3V3 #PWR048
U 1 1 54556556
P 4100 7800
F 0 "#PWR048" H 4100 7900 30  0001 C CNN
F 1 "3V3" H 4100 7910 30  0000 C CNN
F 2 "" H 4100 7800 60  0001 C CNN
F 3 "" H 4100 7800 60  0001 C CNN
	1    4100 7800
	1    0    0    -1  
$EndComp
$Comp
L INDUCTOR LST2
U 1 1 5455655C
P 4400 8000
F 0 "LST2" V 4350 8000 40  0000 C CNN
F 1 "2A 120 ohm" V 4500 8000 40  0000 C CNN
F 2 "SM0805" H 4400 8000 60  0001 C CNN
F 3 "" H 4400 8000 60  0001 C CNN
	1    4400 8000
	0    -1   -1   0   
$EndComp
$Comp
L C CST3
U 1 1 54556563
P 4850 8200
F 0 "CST3" H 4900 8300 50  0000 L CNN
F 1 "0.1uF" H 4900 8100 50  0000 L CNN
F 2 "opendous:SM0603_Opendous" H 4850 8200 60  0001 C CNN
F 3 "" H 4850 8200 60  0001 C CNN
	1    4850 8200
	1    0    0    -1  
$EndComp
$Comp
L C CST4
U 1 1 5455656A
P 5250 8200
F 0 "CST4" H 5300 8300 50  0000 L CNN
F 1 "1uF" H 5300 8100 50  0000 L CNN
F 2 "SM0805" H 5250 8200 60  0001 C CNN
F 3 "" H 5250 8200 60  0001 C CNN
	1    5250 8200
	1    0    0    -1  
$EndComp
$Comp
L GND #PWR049
U 1 1 54556571
P 5050 8500
F 0 "#PWR049" H 5050 8500 30  0001 C CNN
F 1 "GND" H 5050 8430 30  0001 C CNN
F 2 "" H 5050 8500 60  0001 C CNN
F 3 "" H 5050 8500 60  0001 C CNN
	1    5050 8500
	1    0    0    -1  
$EndComp
Text Label 5200 8000 2    60   ~ 0
VDDAST
$Comp
L C CST5
U 1 1 5455687A
P 6200 1100
F 0 "CST5" H 6250 1200 50  0000 L CNN
F 1 "2.2uF" H 6250 1000 50  0000 L CNN
F 2 "SMD_Packages:SMD-0603" H 6200 1100 60  0001 C CNN
F 3 "" H 6200 1100 60  0001 C CNN
	1    6200 1100
	1    0    0    -1  
$EndComp
$Comp
L R RST5
U 1 1 54557AA2
P 8750 1000
F 0 "RST5" V 8830 1000 50  0000 C CNN
F 1 "4.7k" V 8750 1000 50  0000 C CNN
F 2 "opendous:SM0603_Opendous" H 8750 1000 60  0001 C CNN
F 3 "" H 8750 1000 60  0001 C CNN
	1    8750 1000
	-1   0    0    1   
$EndComp
$Comp
L R RST4
U 1 1 54557AA9
P 8600 1000
F 0 "RST4" V 8680 1000 50  0000 C CNN
F 1 "4.7k" V 8600 1000 50  0000 C CNN
F 2 "opendous:SM0603_Opendous" H 8600 1000 60  0001 C CNN
F 3 "" H 8600 1000 60  0001 C CNN
	1    8600 1000
	-1   0    0    1   
$EndComp
$Comp
L 3V3 #PWR050
U 1 1 54557AB0
P 8750 650
F 0 "#PWR050" H 8750 750 30  0001 C CNN
F 1 "3V3" H 8750 760 30  0000 C CNN
F 2 "" H 8750 650 60  0001 C CNN
F 3 "" H 8750 650 60  0001 C CNN
	1    8750 650 
	1    0    0    -1  
$EndComp
Text Label 8100 1250 0    60   ~ 0
I2C1_SDA
Text Label 8100 1400 0    60   ~ 0
I2C1_SCL
$Comp
L R RST2
U 1 1 54557ABA
P 10600 3050
F 0 "RST2" V 10680 3050 50  0000 C CNN
F 1 "10k" V 10600 3050 50  0000 C CNN
F 2 "opendous:SM0603_Opendous" H 10600 3050 60  0001 C CNN
F 3 "" H 10600 3050 60  0001 C CNN
	1    10600 3050
	-1   0    0    1   
$EndComp
Text Label 11000 2700 2    60   ~ 0
BOOT1
$Comp
L R RST3
U 1 1 54557AC8
P 11000 3050
F 0 "RST3" V 11080 3050 50  0000 C CNN
F 1 "10k" V 11000 3050 50  0000 C CNN
F 2 "opendous:SM0603_Opendous" H 11000 3050 60  0001 C CNN
F 3 "" H 11000 3050 60  0001 C CNN
	1    11000 3050
	-1   0    0    1   
$EndComp
Text Label 10600 2700 2    60   ~ 0
BOOT0
$Comp
L GND #PWR051
U 1 1 54557AD0
P 10600 3400
F 0 "#PWR051" H 10600 3400 30  0001 C CNN
F 1 "GND" H 10600 3330 30  0001 C CNN
F 2 "" H 10600 3400 60  0001 C CNN
F 3 "" H 10600 3400 60  0001 C CNN
	1    10600 3400
	1    0    0    -1  
$EndComp
$Comp
L 3V3 #PWR052
U 1 1 54560F39
P 9250 7300
F 0 "#PWR052" H 9250 7400 30  0001 C CNN
F 1 "3V3" H 9250 7410 30  0000 C CNN
F 2 "" H 9250 7300 60  0001 C CNN
F 3 "" H 9250 7300 60  0001 C CNN
	1    9250 7300
	1    0    0    -1  
$EndComp
$Comp
L C CST6
U 1 1 5456EF09
P 6000 1100
F 0 "CST6" H 5750 1000 50  0000 L CNN
F 1 "2.2uF" H 5750 1200 50  0000 L CNN
F 2 "SMD_Packages:SMD-0603" H 6000 1100 60  0001 C CNN
F 3 "" H 6000 1100 60  0001 C CNN
	1    6000 1100
	1    0    0    -1  
$EndComp
$Comp
L GND #PWR053
U 1 1 5456F442
P 6450 900
F 0 "#PWR053" H 6450 900 30  0001 C CNN
F 1 "GND" H 6450 830 30  0001 C CNN
F 2 "" H 6450 900 60  0001 C CNN
F 3 "" H 6450 900 60  0001 C CNN
	1    6450 900 
	-1   0    0    -1  
$EndComp
$Comp
L CRYSTAL XRTC1
U 1 1 54570CDE
P 7100 5600
F 0 "XRTC1" H 7100 5750 60  0000 C CNN
F 1 "CRYSTAL" H 7100 5450 60  0000 C CNN
F 2 "resonator:txc_32k" H 7100 5600 60  0001 C CNN
F 3 "" H 7100 5600 60  0000 C CNN
	1    7100 5600
	0    1    1    0   
$EndComp
$Comp
L C CRT1
U 1 1 54571FAF
P 7500 5900
F 0 "CRT1" H 7550 6000 50  0000 L CNN
F 1 "0.1uF" H 7550 5800 50  0000 L CNN
F 2 "opendous:SM0603_Opendous" H 7500 5900 60  0001 C CNN
F 3 "" H 7500 5900 60  0001 C CNN
	1    7500 5900
	0    1    1    0   
$EndComp
$Comp
L C CRT2
U 1 1 545722BF
P 7500 5300
F 0 "CRT2" H 7550 5400 50  0000 L CNN
F 1 "0.1uF" H 7550 5200 50  0000 L CNN
F 2 "opendous:SM0603_Opendous" H 7500 5300 60  0001 C CNN
F 3 "" H 7500 5300 60  0001 C CNN
	1    7500 5300
	0    1    1    0   
$EndComp
$Comp
L GND #PWR054
U 1 1 54573CB9
P 8100 5650
F 0 "#PWR054" H 8100 5650 30  0001 C CNN
F 1 "GND" H 8100 5580 30  0001 C CNN
F 2 "" H 8100 5650 60  0001 C CNN
F 3 "" H 8100 5650 60  0001 C CNN
	1    8100 5650
	1    0    0    -1  
$EndComp
Text Notes 7000 5100 0    60   ~ 0
887-1504-1-ND
$Comp
L SW_PUSH SW_RST1
U 1 1 5457743F
P 9200 3050
F 0 "SW_RST1" H 9200 3200 50  0000 C CNN
F 1 "SW_PUSH" H 9200 2970 50  0000 C CNN
F 2 "Discret:SW_PUSH_SMALL" H 9200 3050 60  0001 C CNN
F 3 "" H 9200 3050 60  0000 C CNN
	1    9200 3050
	0    1    1    0   
$EndComp
Text Notes 9050 3400 1    60   ~ 0
450-1650-ND
$Comp
L R RST6
U 1 1 54563471
P 9800 2500
F 0 "RST6" V 9880 2500 50  0000 C CNN
F 1 "10k" V 9800 2500 50  0000 C CNN
F 2 "opendous:SM0603_Opendous" H 9800 2500 60  0001 C CNN
F 3 "" H 9800 2500 60  0001 C CNN
	1    9800 2500
	-1   0    0    1   
$EndComp
$Comp
L C CST7
U 1 1 54563864
P 9800 3050
F 0 "CST7" H 9850 3150 50  0000 L CNN
F 1 "0.1uF" H 9850 2950 50  0000 L CNN
F 2 "opendous:SM0603_Opendous" H 9800 3050 60  0001 C CNN
F 3 "" H 9800 3050 60  0001 C CNN
	1    9800 3050
	1    0    0    -1  
$EndComp
$Comp
L GND #PWR055
U 1 1 545650B0
P 9500 3500
F 0 "#PWR055" H 9500 3500 30  0001 C CNN
F 1 "GND" H 9500 3430 30  0001 C CNN
F 2 "" H 9500 3500 60  0001 C CNN
F 3 "" H 9500 3500 60  0001 C CNN
	1    9500 3500
	1    0    0    -1  
$EndComp
$Comp
L 3V3 #PWR056
U 1 1 545655B0
P 9800 2150
F 0 "#PWR056" H 9800 2250 30  0001 C CNN
F 1 "3V3" H 9800 2260 30  0000 C CNN
F 2 "" H 9800 2150 60  0001 C CNN
F 3 "" H 9800 2150 60  0001 C CNN
	1    9800 2150
	1    0    0    -1  
$EndComp
$Comp
L 3V3 #PWR057
U 1 1 5456BBE6
P 11000 3400
F 0 "#PWR057" H 11000 3500 30  0001 C CNN
F 1 "3V3" H 11000 3510 30  0000 C CNN
F 2 "" H 11000 3400 60  0001 C CNN
F 3 "" H 11000 3400 60  0001 C CNN
	1    11000 3400
	-1   0    0    1   
$EndComp
Text Label 9300 900  0    60   ~ 0
DIR_M0
Text Label 9300 1100 0    60   ~ 0
DIR_M1
Text Label 9300 1000 0    60   ~ 0
SP_M0
Text Label 9300 1200 0    60   ~ 0
SP_M1
$Comp
L CONN_02X18 CD1
U 1 1 54572B84
P 10350 4950
F 0 "CD1" H 10350 5900 50  0000 C CNN
F 1 "CONN_02X18" V 10350 4950 50  0000 C CNN
F 2 "Socket_Strips:Socket_Strip_Straight_2x18" H 10350 3900 60  0001 C CNN
F 3 "" H 10350 3900 60  0000 C CNN
	1    10350 4950
	1    0    0    -1  
$EndComp
Text Label 5700 3450 0    60   ~ 0
IO2
Text Label 5700 3350 0    60   ~ 0
IO3
Text Label 5700 3250 0    60   ~ 0
IO4
Text Label 5700 3150 0    60   ~ 0
IO5
Text Label 5700 3050 0    60   ~ 0
IO6
Text Label 9800 5800 0    60   ~ 0
IO6
Text Label 9800 5700 0    60   ~ 0
IO4
Text Label 10700 5700 0    60   ~ 0
IO3
Text Label 9800 5600 0    60   ~ 0
IO2
Text Label 10700 5600 0    60   ~ 0
IO1
Text Label 10700 5800 0    60   ~ 0
IO5
Text Label 9800 5500 0    60   ~ 0
IO0
Text Label 2200 6000 0    60   ~ 0
SDIO_D0
Text Label 5650 5900 0    60   ~ 0
SDIO_CK
Text Label 5650 5200 0    60   ~ 0
SDIO_CMD
Text Label 5650 6000 0    60   ~ 0
SDIO_D3
Text Label 5650 6100 0    60   ~ 0
SDIO_D2
Text Label 2200 6100 0    60   ~ 0
SDIO_D1
Text Label 5700 3650 0    60   ~ 0
IO0
Text Label 5700 3550 0    60   ~ 0
IO1
Text Label 2300 4400 0    60   ~ 0
IO7
Text Label 2300 4300 0    60   ~ 0
IO8
Text Label 2300 4000 0    60   ~ 0
IO9
Text Label 5700 4700 0    60   ~ 0
IO10
Text Label 5700 4800 0    60   ~ 0
IO11
Text Label 5700 4900 0    60   ~ 0
IO12
Text Label 5700 5000 0    60   ~ 0
IO13
Text Label 5700 5100 0    60   ~ 0
IO14
Text Label 5700 5300 0    60   ~ 0
IO15
Text Label 5700 5400 0    60   ~ 0
IO16
Text Label 2300 3000 0    60   ~ 0
IO17
Text Label 2300 2900 0    60   ~ 0
IO18
Text Label 10700 5500 0    60   ~ 0
IO7
Text Label 9800 5400 0    60   ~ 0
IO8
Text Label 10700 5400 0    60   ~ 0
IO9
Text Label 9800 5300 0    60   ~ 0
IO10
Text Label 10700 5300 0    60   ~ 0
IO11
Text Label 9800 5200 0    60   ~ 0
IO12
Text Label 10700 5200 0    60   ~ 0
IO13
Text Label 9800 5100 0    60   ~ 0
IO14
Text Label 9800 5000 0    60   ~ 0
IO15
Text Label 10700 5000 0    60   ~ 0
IO16
Text Label 10650 5100 0    60   ~ 0
SDIO_CMD
Text Label 9750 4900 0    60   ~ 0
SDIO_CK
Text Label 10650 4900 0    60   ~ 0
SDIO_D3
Text Label 9750 4800 0    60   ~ 0
SDIO_D2
Text Label 2300 2800 0    60   ~ 0
IO19
Text Label 2300 2700 0    60   ~ 0
IO20
Text Label 2300 2600 0    60   ~ 0
IO21
Text Label 2300 5900 0    60   ~ 0
IO22
Text Label 2300 5800 0    60   ~ 0
IO23
Text Label 2300 5000 0    60   ~ 0
IO24
Text Label 2300 4900 0    60   ~ 0
IO25
Text Label 2300 4800 0    60   ~ 0
IO26
Text Label 2300 4700 0    60   ~ 0
IO27
Text Label 2300 4600 0    60   ~ 0
IO28
Text Label 2300 4500 0    60   ~ 0
IO29
Text Label 5700 2150 0    60   ~ 0
IO30
Text Label 5700 2250 0    60   ~ 0
IO31
Text Label 5700 2350 0    60   ~ 0
IO32
Text Label 10700 4800 0    60   ~ 0
IO17
Text Label 9800 4700 0    60   ~ 0
IO18
Text Label 10700 4700 0    60   ~ 0
IO19
Text Label 9800 4600 0    60   ~ 0
IO20
Text Label 10700 4600 0    60   ~ 0
IO21
Text Label 9800 4400 0    60   ~ 0
IO22
Text Label 10700 4400 0    60   ~ 0
IO23
Text Label 9800 4300 0    60   ~ 0
IO24
Text Label 10700 4300 0    60   ~ 0
IO25
Text Label 9800 4200 0    60   ~ 0
IO26
Text Label 7800 4350 0    60   ~ 0
IO28
Text Label 7800 4450 0    60   ~ 0
IO29
Text Label 7800 4550 0    60   ~ 0
IO31
Text Label 7800 4650 0    60   ~ 0
IO32
Text Label 10600 4500 0    60   ~ 0
SDIO_D0
Text Label 9700 4500 0    60   ~ 0
SDIO_D1
$Comp
L 3V3 #PWR058
U 1 1 545883AE
P 9900 4100
F 0 "#PWR058" H 9900 4200 30  0001 C CNN
F 1 "3V3" H 9900 4210 30  0000 C CNN
F 2 "" H 9900 4100 60  0001 C CNN
F 3 "" H 9900 4100 60  0001 C CNN
	1    9900 4100
	1    0    0    -1  
$EndComp
$Comp
L VDD5V #PWR059
U 1 1 54588A58
P 10750 4100
F 0 "#PWR059" H 10750 4200 30  0001 C CNN
F 1 "VDD5V" H 10750 4200 30  0000 C CNN
F 2 "" H 10750 4100 60  0001 C CNN
F 3 "" H 10750 4100 60  0001 C CNN
	1    10750 4100
	1    0    0    -1  
$EndComp
$Comp
L GND #PWR060
U 1 1 5458907A
P 11000 4200
F 0 "#PWR060" H 11000 4200 30  0001 C CNN
F 1 "GND" H 11000 4130 30  0001 C CNN
F 2 "" H 11000 4200 60  0001 C CNN
F 3 "" H 11000 4200 60  0001 C CNN
	1    11000 4200
	0    -1   -1   0   
$EndComp
$Comp
L CONN_02X05 CD2
U 1 1 54589B4D
P 8800 4550
F 0 "CD2" H 8800 4850 50  0000 C CNN
F 1 "CONN_02X05" H 8800 4250 50  0000 C CNN
F 2 "Socket_Strips:Socket_Strip_Straight_2x05" H 8800 3350 60  0000 C CNN
F 3 "" H 8800 3350 60  0000 C CNN
	1    8800 4550
	1    0    0    -1  
$EndComp
$Comp
L GND #PWR061
U 1 1 5458BA6B
P 8500 4900
F 0 "#PWR061" H 8500 4900 30  0001 C CNN
F 1 "GND" H 8500 4830 30  0001 C CNN
F 2 "" H 8500 4900 60  0001 C CNN
F 3 "" H 8500 4900 60  0001 C CNN
	1    8500 4900
	1    0    0    -1  
$EndComp
Text Label 5650 5800 0    60   ~ 0
LED
$Comp
L C CS1
U 1 1 54575129
P 3550 8150
F 0 "CS1" H 3600 8250 50  0000 L CNN
F 1 "0.1uF" H 3600 8050 50  0000 L CNN
F 2 "opendous:SM0603_Opendous" H 3550 8150 60  0001 C CNN
F 3 "" H 3550 8150 60  0001 C CNN
	1    3550 8150
	1    0    0    -1  
$EndComp
Text Label 9350 2750 0    60   ~ 0
NRST
Text Label 9300 5400 0    60   ~ 0
I2C1_SCL
Text Label 11000 5500 0    60   ~ 0
I2C1_SDA
$Comp
L GND #PWR062
U 1 1 5529E404
P 1900 1500
F 0 "#PWR062" H 1900 1500 30  0001 C CNN
F 1 "GND" H 1900 1430 30  0001 C CNN
F 2 "" H 1900 1500 60  0001 C CNN
F 3 "" H 1900 1500 60  0001 C CNN
	1    1900 1500
	0    1    1    0   
$EndComp
Connection ~ 2150 8350
Wire Wire Line
	1500 8350 3550 8350
Connection ~ 2700 8350
Wire Wire Line
	2700 8350 2700 8450
Connection ~ 2850 7950
Connection ~ 2850 8350
Connection ~ 2500 8350
Connection ~ 2500 7950
Wire Wire Line
	2700 7950 2700 7800
Connection ~ 2700 7950
Connection ~ 7950 7450
Wire Wire Line
	7950 7400 7950 7550
Wire Wire Line
	7950 7950 7950 8050
Wire Wire Line
	9400 7950 9400 8050
Wire Wire Line
	9000 7450 9000 7550
Wire Wire Line
	8250 7550 8150 7550
Wire Wire Line
	8150 7550 8150 7650
Wire Wire Line
	10800 7600 10650 7600
Wire Wire Line
	10650 7600 10650 7900
Wire Wire Line
	10650 7900 10750 7900
Wire Wire Line
	11400 7900 11250 7900
Wire Wire Line
	10750 7400 11350 7400
Wire Wire Line
	11350 7400 11350 7600
Wire Wire Line
	11350 7600 11200 7600
Wire Wire Line
	10300 7600 10450 7600
Wire Wire Line
	10450 7600 10450 7400
Wire Wire Line
	10500 7900 10350 7900
Wire Wire Line
	9850 7900 9750 7900
Wire Wire Line
	9750 7900 9750 7600
Wire Wire Line
	9750 7600 9900 7600
Wire Wire Line
	10450 7400 10000 7400
Wire Wire Line
	9000 7550 8900 7550
Wire Wire Line
	9400 7300 9400 7550
Connection ~ 9000 7550
Connection ~ 9000 7450
Wire Wire Line
	9000 7950 9000 8050
Wire Wire Line
	8900 7450 9400 7450
Connection ~ 9400 7450
Wire Wire Line
	8250 7450 7950 7450
Wire Wire Line
	1500 7950 3550 7950
Connection ~ 2150 7950
Wire Wire Line
	9650 700  9400 700 
Wire Wire Line
	9400 650  9400 800 
Wire Wire Line
	9400 800  9650 800 
Connection ~ 9400 700 
Wire Wire Line
	1150 8300 1150 8400
Wire Wire Line
	1150 7900 1150 7750
Wire Wire Line
	11000 1200 11000 1300
Wire Wire Line
	10950 1200 11000 1200
Wire Wire Line
	10950 1250 11000 1250
Connection ~ 11000 1250
Wire Wire Line
	9650 1550 10000 1550
Wire Wire Line
	10950 1550 10600 1550
Wire Wire Line
	9600 1700 10000 1700
Wire Wire Line
	10000 1850 9600 1850
Wire Wire Line
	10600 1700 11000 1700
Wire Wire Line
	10600 1850 11000 1850
Wire Wire Line
	10950 1100 11350 1100
Wire Wire Line
	10950 900  11350 900 
Wire Wire Line
	10950 1000 11350 1000
Wire Wire Line
	11350 800  10950 800 
Wire Wire Line
	11300 700  10950 700 
Wire Wire Line
	850  8300 850  8400
Wire Wire Line
	850  7900 850  7750
Wire Wire Line
	900  9050 600  9050
Wire Wire Line
	1550 9050 1250 9050
Wire Wire Line
	2150 9050 1850 9050
Wire Wire Line
	2800 9050 2500 9050
Wire Wire Line
	3400 9050 3100 9050
Wire Wire Line
	4050 9050 3750 9050
Wire Wire Line
	4650 9050 4350 9050
Wire Wire Line
	5300 9050 5000 9050
Wire Wire Line
	5300 8950 5250 8950
Wire Wire Line
	5250 8950 5250 8750
Wire Wire Line
	5250 8750 800  8750
Wire Wire Line
	4550 8750 4550 8950
Wire Wire Line
	4550 8950 4650 8950
Wire Wire Line
	3950 8750 3950 8950
Wire Wire Line
	3950 8950 4050 8950
Connection ~ 4550 8750
Wire Wire Line
	3300 8750 3300 8950
Wire Wire Line
	3300 8950 3400 8950
Connection ~ 3950 8750
Wire Wire Line
	2700 8750 2700 8950
Wire Wire Line
	2700 8950 2800 8950
Connection ~ 3300 8750
Wire Wire Line
	2050 8750 2050 8950
Wire Wire Line
	2050 8950 2150 8950
Connection ~ 2700 8750
Wire Wire Line
	1450 8750 1450 8950
Wire Wire Line
	1450 8950 1550 8950
Connection ~ 2050 8750
Wire Wire Line
	800  8750 800  8950
Wire Wire Line
	800  8950 900  8950
Connection ~ 1450 8750
Connection ~ 800  8750
Wire Wire Line
	900  9150 800  9150
Wire Wire Line
	800  9150 800  9350
Wire Wire Line
	800  9350 5250 9350
Wire Wire Line
	1450 9350 1450 9150
Wire Wire Line
	1450 9150 1550 9150
Wire Wire Line
	2050 9350 2050 9150
Wire Wire Line
	2050 9150 2150 9150
Connection ~ 1450 9350
Wire Wire Line
	2700 9350 2700 9150
Wire Wire Line
	2700 9150 2800 9150
Connection ~ 2050 9350
Wire Wire Line
	3300 9150 3300 9450
Wire Wire Line
	3300 9150 3400 9150
Connection ~ 2700 9350
Wire Wire Line
	3950 9350 3950 9150
Wire Wire Line
	3950 9150 4050 9150
Connection ~ 3300 9350
Wire Wire Line
	4550 9350 4550 9150
Wire Wire Line
	4550 9150 4650 9150
Connection ~ 3950 9350
Wire Wire Line
	5250 9350 5250 9150
Wire Wire Line
	5250 9150 5300 9150
Connection ~ 4550 9350
Connection ~ 1800 7950
Connection ~ 1800 8350
Wire Wire Line
	5600 4200 6500 4200
Wire Wire Line
	5600 4100 6500 4100
Wire Wire Line
	5600 4000 6500 4000
Wire Wire Line
	5600 3900 6500 3900
Wire Wire Line
	5600 5600 6800 5600
Wire Wire Line
	5600 5700 6800 5700
Connection ~ 4050 6700
Wire Wire Line
	4050 6550 4050 6800
Wire Wire Line
	2600 3700 2200 3700
Wire Wire Line
	6000 1500 5600 1500
Wire Wire Line
	5600 1950 6900 1950
Wire Wire Line
	6500 1350 6900 1350
Wire Wire Line
	6500 1350 6500 1850
Connection ~ 4050 900 
Wire Wire Line
	4050 900  4050 800 
Connection ~ 4200 900 
Wire Wire Line
	4200 900  4200 950 
Connection ~ 4100 900 
Wire Wire Line
	4100 900  4100 950 
Connection ~ 4000 900 
Wire Wire Line
	4000 900  4000 950 
Connection ~ 3900 900 
Wire Wire Line
	3900 950  3900 900 
Wire Wire Line
	3800 900  3800 950 
Wire Wire Line
	3800 900  4300 900 
Wire Wire Line
	4300 900  4300 950 
Wire Wire Line
	2250 4200 2600 4200
Wire Wire Line
	7300 1600 7300 1350
Wire Wire Line
	7300 1600 7150 1600
Wire Wire Line
	5050 6650 5050 6750
Wire Wire Line
	2600 1800 750  1800
Wire Wire Line
	2250 3900 2600 3900
Wire Wire Line
	2250 3100 2600 3100
Wire Wire Line
	2600 3300 2250 3300
Wire Wire Line
	750  2500 2600 2500
Wire Wire Line
	750  2300 2600 2300
Wire Wire Line
	750  2100 2600 2100
Wire Wire Line
	750  1900 2600 1900
Wire Wire Line
	4250 6550 4250 6650
Wire Wire Line
	2300 1600 2600 1600
Connection ~ 7400 1750
Wire Wire Line
	7600 1900 7600 1750
Wire Wire Line
	7600 1750 7400 1750
Wire Wire Line
	7300 1350 7400 1350
Wire Wire Line
	7400 1350 7400 1950
Wire Wire Line
	7400 1950 7300 1950
Wire Wire Line
	2300 1400 2600 1400
Wire Wire Line
	750  2000 2600 2000
Wire Wire Line
	4500 800  4500 950 
Connection ~ 6750 1950
Connection ~ 6750 1350
Wire Wire Line
	2250 3200 2600 3200
Wire Wire Line
	2250 3800 2600 3800
Wire Wire Line
	2600 2200 750  2200
Wire Wire Line
	2600 2400 750  2400
Wire Wire Line
	4250 6650 4450 6650
Wire Wire Line
	7150 1700 7300 1700
Wire Wire Line
	7300 1700 7300 1950
Wire Wire Line
	2250 4100 2600 4100
Wire Wire Line
	6500 1850 5600 1850
Wire Wire Line
	5600 1400 5900 1400
Wire Wire Line
	5600 1600 6200 1600
Wire Wire Line
	6300 1700 5600 1700
Wire Wire Line
	4150 6700 4150 6550
Wire Wire Line
	3950 6700 4150 6700
Wire Wire Line
	3950 6700 3950 6550
Wire Wire Line
	1900 1500 2600 1500
Wire Wire Line
	4100 8000 4100 7800
Connection ~ 5050 8400
Wire Wire Line
	5050 8500 5050 8400
Connection ~ 4850 8400
Wire Wire Line
	4850 8400 5250 8400
Wire Wire Line
	4700 8000 5250 8000
Connection ~ 4850 8000
Wire Wire Line
	8750 650  8750 750 
Wire Wire Line
	11000 2800 11000 2700
Wire Wire Line
	11000 2700 10700 2700
Wire Wire Line
	10600 3400 10600 3300
Wire Wire Line
	10300 2700 10600 2700
Wire Wire Line
	10600 2700 10600 2800
Wire Wire Line
	8600 1250 8050 1250
Wire Wire Line
	8050 1400 8750 1400
Wire Wire Line
	8750 1400 8750 1250
Wire Wire Line
	8750 750  8600 750 
Wire Wire Line
	9250 7300 9250 7450
Connection ~ 9250 7450
Wire Wire Line
	6200 1600 6200 1300
Wire Wire Line
	6000 1300 6000 1500
Wire Wire Line
	6000 800  6450 800 
Wire Wire Line
	6450 800  6450 900 
Wire Wire Line
	6200 900  6200 800 
Connection ~ 6200 800 
Wire Wire Line
	6000 900  6000 800 
Wire Wire Line
	6800 5600 6800 5300
Wire Wire Line
	6800 5300 7300 5300
Wire Wire Line
	6800 5700 6800 5900
Wire Wire Line
	6800 5900 7300 5900
Wire Wire Line
	7700 5300 7800 5300
Wire Wire Line
	7800 5300 7800 5900
Wire Wire Line
	7800 5900 7700 5900
Connection ~ 7100 5300
Connection ~ 7100 5900
Wire Wire Line
	7800 5550 8100 5550
Wire Wire Line
	8100 5550 8100 5650
Connection ~ 7800 5550
Wire Wire Line
	9800 2750 9800 2850
Wire Wire Line
	9200 2750 9800 2750
Wire Wire Line
	9800 3400 9800 3250
Wire Wire Line
	9200 3400 9800 3400
Wire Wire Line
	9200 3400 9200 3350
Wire Wire Line
	9500 3400 9500 3500
Connection ~ 9500 3400
Wire Wire Line
	9800 2150 9800 2250
Wire Wire Line
	11000 3300 11000 3400
Wire Wire Line
	9250 1200 9650 1200
Wire Wire Line
	9250 1100 9650 1100
Wire Wire Line
	9250 1000 9650 1000
Wire Wire Line
	9250 900  9650 900 
Wire Wire Line
	6000 3450 5600 3450
Wire Wire Line
	6000 3250 5600 3250
Wire Wire Line
	6000 3350 5600 3350
Wire Wire Line
	6000 3150 5600 3150
Wire Wire Line
	6000 5200 5600 5200
Wire Wire Line
	6000 6000 5600 6000
Wire Wire Line
	6000 6100 5600 6100
Wire Wire Line
	6000 5800 5600 5800
Wire Wire Line
	6000 5900 5600 5900
Wire Wire Line
	6000 3050 5600 3050
Wire Wire Line
	11000 5800 10600 5800
Wire Wire Line
	10100 5700 9700 5700
Wire Wire Line
	10100 5800 9700 5800
Wire Wire Line
	10100 5600 9700 5600
Wire Wire Line
	11000 5700 10600 5700
Wire Wire Line
	11000 5600 10600 5600
Wire Wire Line
	10100 5500 9700 5500
Wire Wire Line
	2600 6000 2200 6000
Wire Wire Line
	2600 6100 2200 6100
Wire Wire Line
	6000 3650 5600 3650
Wire Wire Line
	6000 3550 5600 3550
Wire Wire Line
	2600 4300 2200 4300
Wire Wire Line
	2600 4400 2200 4400
Wire Wire Line
	2600 4000 2200 4000
Wire Wire Line
	6000 4800 5600 4800
Wire Wire Line
	6000 4700 5600 4700
Wire Wire Line
	6000 4900 5600 4900
Wire Wire Line
	6000 5100 5600 5100
Wire Wire Line
	6000 5000 5600 5000
Wire Wire Line
	6000 5300 5600 5300
Wire Wire Line
	2600 3000 2200 3000
Wire Wire Line
	6000 5400 5600 5400
Wire Wire Line
	2600 2900 2200 2900
Wire Wire Line
	9300 5400 10100 5400
Wire Wire Line
	10600 5500 11400 5500
Wire Wire Line
	11000 5400 10600 5400
Wire Wire Line
	11000 5300 10600 5300
Wire Wire Line
	10100 5300 9700 5300
Wire Wire Line
	10100 5200 9700 5200
Wire Wire Line
	10100 5100 9700 5100
Wire Wire Line
	11000 5200 10600 5200
Wire Wire Line
	10100 5000 9700 5000
Wire Wire Line
	11000 5000 10600 5000
Wire Wire Line
	11000 5100 10600 5100
Wire Wire Line
	11000 4900 10600 4900
Wire Wire Line
	10100 4800 9700 4800
Wire Wire Line
	10100 4900 9700 4900
Wire Wire Line
	2600 2800 2200 2800
Wire Wire Line
	2600 2700 2200 2700
Wire Wire Line
	2600 2600 2200 2600
Wire Wire Line
	2600 5900 2200 5900
Wire Wire Line
	2600 5800 2200 5800
Wire Wire Line
	2600 5000 2200 5000
Wire Wire Line
	2600 4900 2200 4900
Wire Wire Line
	2600 4800 2200 4800
Wire Wire Line
	2600 4700 2200 4700
Wire Wire Line
	2600 4600 2200 4600
Wire Wire Line
	2600 4500 2200 4500
Wire Wire Line
	6000 2150 5600 2150
Wire Wire Line
	6000 2250 5600 2250
Wire Wire Line
	6000 2350 5600 2350
Wire Wire Line
	11000 4800 10600 4800
Wire Wire Line
	10100 4700 9700 4700
Wire Wire Line
	11000 4700 10600 4700
Wire Wire Line
	10100 4600 9700 4600
Wire Wire Line
	11000 4600 10600 4600
Wire Wire Line
	10100 4400 9700 4400
Wire Wire Line
	11000 4400 10600 4400
Wire Wire Line
	10100 4300 9700 4300
Wire Wire Line
	11000 4300 10600 4300
Wire Wire Line
	10100 4200 9700 4200
Wire Wire Line
	8000 4350 7800 4350
Wire Wire Line
	8000 4450 7800 4450
Wire Wire Line
	8000 4550 7800 4550
Wire Wire Line
	8000 4650 7800 4650
Wire Wire Line
	11000 4500 10600 4500
Wire Wire Line
	10100 4500 9700 4500
Wire Wire Line
	10100 4100 9900 4100
Wire Wire Line
	10600 4100 10750 4100
Wire Wire Line
	10600 4200 11000 4200
Connection ~ 3200 7950
Connection ~ 3200 8350
$Comp
L CONN_01X05 CD2_2
U 1 1 5565D4D7
P 8200 4550
F 0 "CD2_2" H 8200 4850 50  0000 C CNN
F 1 "CONN_01X05" V 8300 4550 50  0000 C CNN
F 2 "Socket_Strips:Socket_Strip_Straight_1x05" H 8200 4550 60  0001 C CNN
F 3 "" H 8200 4550 60  0000 C CNN
	1    8200 4550
	1    0    0    -1  
$EndComp
Text Label 5700 2450 0    60   ~ 0
IO33
Wire Wire Line
	6000 2450 5600 2450
Text Label 7800 4750 0    60   ~ 0
IO33
Wire Wire Line
	8000 4750 7800 4750
Wire Wire Line
	8500 4750 8550 4750
Wire Wire Line
	8500 4350 8500 4900
Wire Wire Line
	8500 4650 8550 4650
Wire Wire Line
	8500 4550 8550 4550
Connection ~ 8500 4650
Wire Wire Line
	8500 4450 8550 4450
Connection ~ 8500 4550
Wire Wire Line
	8500 4350 8550 4350
Connection ~ 8500 4450
Wire Wire Line
	9050 4350 9100 4350
Wire Wire Line
	9100 4350 9100 4950
Wire Wire Line
	9100 4450 9050 4450
Wire Wire Line
	9100 4550 9050 4550
Connection ~ 9100 4450
Wire Wire Line
	9100 4650 9050 4650
Connection ~ 9100 4550
Wire Wire Line
	9100 4750 9050 4750
Connection ~ 9100 4650
Connection ~ 8500 4750
Text Label 9100 4950 0    60   ~ 0
VM
Wire Wire Line
	9100 4950 9200 4950
Connection ~ 9100 4750
$Comp
L R RA1
U 1 1 55660488
P 850 2800
F 0 "RA1" V 930 2800 50  0000 C CNN
F 1 "100k" V 850 2800 50  0000 C CNN
F 2 "Resistors_SMD:R_0603" H 850 2800 60  0001 C CNN
F 3 "" H 850 2800 60  0001 C CNN
	1    850  2800
	-1   0    0    1   
$EndComp
$Comp
L R RA2
U 1 1 55660A61
P 1000 2800
F 0 "RA2" V 1080 2800 50  0000 C CNN
F 1 "100k" V 1000 2800 50  0000 C CNN
F 2 "Resistors_SMD:R_0603" H 1000 2800 60  0001 C CNN
F 3 "" H 1000 2800 60  0001 C CNN
	1    1000 2800
	-1   0    0    1   
$EndComp
$Comp
L R RA3
U 1 1 55660AB1
P 1150 2800
F 0 "RA3" V 1230 2800 50  0000 C CNN
F 1 "100k" V 1150 2800 50  0000 C CNN
F 2 "Resistors_SMD:R_0603" H 1150 2800 60  0001 C CNN
F 3 "" H 1150 2800 60  0001 C CNN
	1    1150 2800
	-1   0    0    1   
$EndComp
$Comp
L R RA4
U 1 1 55660AFE
P 1300 2800
F 0 "RA4" V 1380 2800 50  0000 C CNN
F 1 "100k" V 1300 2800 50  0000 C CNN
F 2 "Resistors_SMD:R_0603" H 1300 2800 60  0001 C CNN
F 3 "" H 1300 2800 60  0001 C CNN
	1    1300 2800
	-1   0    0    1   
$EndComp
$Comp
L R RA5
U 1 1 55660B50
P 1450 2800
F 0 "RA5" V 1530 2800 50  0000 C CNN
F 1 "100k" V 1450 2800 50  0000 C CNN
F 2 "Resistors_SMD:R_0603" H 1450 2800 60  0001 C CNN
F 3 "" H 1450 2800 60  0001 C CNN
	1    1450 2800
	-1   0    0    1   
$EndComp
$Comp
L R RA6
U 1 1 55660BA7
P 1600 2800
F 0 "RA6" V 1680 2800 50  0000 C CNN
F 1 "100k" V 1600 2800 50  0000 C CNN
F 2 "Resistors_SMD:R_0603" H 1600 2800 60  0001 C CNN
F 3 "" H 1600 2800 60  0001 C CNN
	1    1600 2800
	-1   0    0    1   
$EndComp
$Comp
L R RA7
U 1 1 55660C05
P 1750 2800
F 0 "RA7" V 1830 2800 50  0000 C CNN
F 1 "100k" V 1750 2800 50  0000 C CNN
F 2 "Resistors_SMD:R_0603" H 1750 2800 60  0001 C CNN
F 3 "" H 1750 2800 60  0001 C CNN
	1    1750 2800
	-1   0    0    1   
$EndComp
$Comp
L R RA8
U 1 1 55660C68
P 1900 2800
F 0 "RA8" V 1980 2800 50  0000 C CNN
F 1 "100k" V 1900 2800 50  0000 C CNN
F 2 "Resistors_SMD:R_0603" H 1900 2800 60  0001 C CNN
F 3 "" H 1900 2800 60  0001 C CNN
	1    1900 2800
	-1   0    0    1   
$EndComp
Wire Wire Line
	850  2550 850  2500
Connection ~ 850  2500
Wire Wire Line
	1000 2550 1000 2400
Connection ~ 1000 2400
Wire Wire Line
	1150 2550 1150 2300
Connection ~ 1150 2300
Wire Wire Line
	1300 2550 1300 2200
Connection ~ 1300 2200
Wire Wire Line
	1450 2550 1450 2100
Connection ~ 1450 2100
Wire Wire Line
	1600 2550 1600 2000
Connection ~ 1600 2000
Wire Wire Line
	1750 2550 1750 1900
Connection ~ 1750 1900
Wire Wire Line
	1900 2550 1900 1800
Connection ~ 1900 1800
Wire Wire Line
	850  3050 1900 3050
Connection ~ 1750 3050
Connection ~ 1600 3050
Connection ~ 1450 3050
Connection ~ 1300 3050
Connection ~ 1150 3050
Connection ~ 1000 3050
$Comp
L GND #PWR063
U 1 1 556636B2
P 850 3150
F 0 "#PWR063" H 850 3150 30  0001 C CNN
F 1 "GND" H 850 3080 30  0001 C CNN
F 2 "" H 850 3150 60  0001 C CNN
F 3 "" H 850 3150 60  0001 C CNN
	1    850  3150
	1    0    0    -1  
$EndComp
Wire Wire Line
	850  3050 850  3150
Connection ~ 850  3050
$EndSCHEMATC
