#VRML V2.0 utf8

NavigationInfo {
  type  [ "EXAMINE", "ANY" ]
}
DEF VP1 Viewpoint {
  position 0 0 1.150892
  orientation 0 0 1 0
  fieldOfView 0.785398
  description "Front"
}
DEF VP2 Viewpoint {
  position 0.945 0 0.205892
  orientation 0 1 0 1.570796
  fieldOfView 0.785398
  description "Right"
}
DEF VP3 Viewpoint {
  position 0 0 -0.739108
  orientation 0 1 0 3.141592
  fieldOfView 0.785398
  description "Back"
}
DEF VP4 Viewpoint {
  position -0.945 0 0.205892
  orientation 0 1 0 -1.570796
  fieldOfView 0.785398
  description "Left"
}
DEF VP5 Viewpoint {
  position 0 0.945 0.205892
  orientation 1 0 0 -1.570796
  fieldOfView 0.785398
  description "Top"
}
DEF VP6 Viewpoint {
  position 0 -0.945 0.205892
  orientation 1 0 0 1.570796
  fieldOfView 0.785398
  description "Bottom"
}
Transform {
  children [
    DEF cube13 Shape {
      appearance Appearance {
        material Material {
          ambientIntensity 1.0
          diffuseColor 1.0 1.0 1.0
          specularColor 1.0 1.0 1.0
          emissiveColor 0 0 0
          shininess 1.0
          transparency 0
        }
        texture NULL
        textureTransform NULL
      }
      geometry IndexedFaceSet {
        color NULL
        coord Coordinate {
          point [
            -0.315 -0.142357 0.38705,
            -0.315 0.142357 0.38705,
            0.315 0.142357 0.38705,
            0.315 -0.142357 0.38705,
            -0.315 -0.142357 0.024734,
            -0.315 0.142357 0.024734,
            0.315 0.142357 0.024734,
            0.315 -0.142357 0.024734,
            -0.187623 -0.142357 0.38705,
            0.187818 -0.142357 0.38705,
            -0.187623 0.142357 0.38705,
            0.187818 0.142357 0.38705,
            -0.187623 -0.142357 0.024734,
            0.187818 -0.142357 0.024734,
            -0.187623 0.142357 0.024734,
            0.187818 0.142357 0.024734,
            -0.315 -0.145196 0.390335,
            -0.315 0.145196 0.390335,
            -0.315 -0.145196 0.021449,
            -0.315 0.145196 0.021449,
            -0.187623 -0.145196 0.390335,
            -0.187623 0.145196 0.390335,
            -0.187623 -0.145196 0.021449,
            -0.187623 0.145196 0.021449,
            0.315 0.145196 0.390335,
            0.315 -0.145196 0.390335,
            0.315 0.145196 0.021449,
            0.315 -0.145196 0.021449,
            0.187818 -0.145196 0.390335,
            0.187818 0.145196 0.390335,
            0.187818 -0.145196 0.021449,
            0.187818 0.145196 0.021449,
          ]
        }
        normal Normal {
          vector [
            -1.0 0 0,
            1.0 0 0,
          ]
        }
        colorIndex [ ]
        coordIndex [
          0, 1, 5, -1,
          5, 4, 0, -1,
          0, 4, 18, -1,
          18, 16, 0, -1,
          0, 16, 17, -1,
          17, 1, 0, -1,
          1, 17, 19, -1,
          19, 5, 1, -1,
          2, 3, 7, -1,
          7, 6, 2, -1,
          2, 6, 26, -1,
          26, 24, 2, -1,
          2, 24, 25, -1,
          25, 3, 2, -1,
          3, 25, 27, -1,
          27, 7, 3, -1,
          4, 5, 19, -1,
          19, 18, 4, -1,
          6, 7, 27, -1,
          27, 26, 6, -1,
          8, 10, 21, -1,
          21, 20, 8, -1,
          8, 20, 22, -1,
          22, 12, 8, -1,
          9, 13, 30, -1,
          30, 28, 9, -1,
          9, 28, 29, -1,
          29, 11, 9, -1,
          10, 14, 23, -1,
          23, 21, 10, -1,
          11, 29, 31, -1,
          31, 15, 11, -1,
          12, 22, 23, -1,
          23, 14, 12, -1,
          13, 15, 31, -1,
          31, 30, 13, -1,
        ]
        creaseAngle 1.5708
        solid TRUE
        normalIndex [
          0, 0, 0, -1,
          0, 0, 0, -1,
          0, 0, 0, -1,
          0, 0, 0, -1,
          0, 0, 0, -1,
          0, 0, 0, -1,
          0, 0, 0, -1,
          0, 0, 0, -1,
          1, 1, 1, -1,
          1, 1, 1, -1,
          1, 1, 1, -1,
          1, 1, 1, -1,
          1, 1, 1, -1,
          1, 1, 1, -1,
          1, 1, 1, -1,
          1, 1, 1, -1,
          0, 0, 0, -1,
          0, 0, 0, -1,
          1, 1, 1, -1,
          1, 1, 1, -1,
          1, 1, 1, -1,
          1, 1, 1, -1,
          1, 1, 1, -1,
          1, 1, 1, -1,
          0, 0, 0, -1,
          0, 0, 0, -1,
          0, 0, 0, -1,
          0, 0, 0, -1,
          1, 1, 1, -1,
          1, 1, 1, -1,
          0, 0, 0, -1,
          0, 0, 0, -1,
          1, 1, 1, -1,
          1, 1, 1, -1,
          0, 0, 0, -1,
          0, 0, 0, -1,
        ]
        normalPerVertex TRUE
      }
    }
    DEF cube13_1 Shape {
      appearance Appearance {
        material Material {
          ambientIntensity 1.0
          diffuseColor 0.8133 0.758 0.5693
          specularColor 1.0 1.0 1.0
          emissiveColor 0 0 0
          shininess 1.0
          transparency 0
        }
        texture NULL
        textureTransform NULL
      }
      geometry IndexedFaceSet {
        color NULL
        coord Coordinate {
          point [
            -0.187623 -0.142357 0.38705,
            0.187818 -0.142357 0.38705,
            -0.187623 0.142357 0.38705,
            0.187818 0.142357 0.38705,
            -0.187623 -0.142357 0.024734,
            0.187818 -0.142357 0.024734,
            -0.187623 0.142357 0.024734,
            0.187818 0.142357 0.024734,
          ]
        }
        normal Normal {
          vector [
            0 0 1.0,
            0 -1.0 0,
            0 1.0 0,
            0 0 -1.0,
          ]
        }
        colorIndex [ ]
        coordIndex [
          0, 1, 3, -1,
          3, 2, 0, -1,
          0, 4, 5, -1,
          5, 1, 0, -1,
          2, 3, 7, -1,
          7, 6, 2, -1,
          4, 6, 7, -1,
          7, 5, 4, -1,
        ]
        creaseAngle 1.5708
        solid TRUE
        normalIndex [
          0, 0, 0, -1,
          0, 0, 0, -1,
          1, 1, 1, -1,
          1, 1, 1, -1,
          2, 2, 2, -1,
          2, 2, 2, -1,
          3, 3, 3, -1,
          3, 3, 3, -1,
        ]
        normalPerVertex TRUE
      }
    }
    DEF cube13_2 Shape {
      appearance Appearance {
        material Material {
          ambientIntensity 1.0
          diffuseColor 0.72 0.72 0.72
          specularColor 1.0 1.0 1.0
          emissiveColor 0 0 0
          shininess 1.0
          transparency 0
        }
        texture NULL
        textureTransform NULL
      }
      geometry IndexedFaceSet {
        color NULL
        coord Coordinate {
          point [
            -0.315 -0.145196 0.390335,
            -0.315 0.145196 0.390335,
            -0.315 -0.145196 0.021449,
            -0.315 0.145196 0.021449,
            -0.187623 -0.145196 0.390335,
            -0.187623 0.145196 0.390335,
            -0.187623 -0.145196 0.021449,
            -0.187623 0.145196 0.021449,
            0.315 0.145196 0.390335,
            0.315 -0.145196 0.390335,
            0.315 0.145196 0.021449,
            0.315 -0.145196 0.021449,
            0.187818 -0.145196 0.390335,
            0.187818 0.145196 0.390335,
            0.187818 -0.145196 0.021449,
            0.187818 0.145196 0.021449,
            -0.195139 -0.15 0.023751,
            -0.195139 -0.15 0.388033,
            -0.307484 -0.15 0.388033,
            -0.307484 -0.15 0.023751,
            0.307484 0.143206 0.015892,
            0.307484 -0.143206 0.015892,
            0.195334 -0.143206 0.015892,
            0.195334 0.143206 0.015892,
            0.195334 -0.15 0.388033,
            0.195334 -0.15 0.023751,
            0.307484 -0.15 0.023751,
            0.307484 -0.15 0.388033,
            -0.195139 0.143206 0.015892,
            -0.195139 -0.143206 0.015892,
            -0.307484 -0.143206 0.015892,
            -0.307484 0.143206 0.015892,
            -0.195139 -0.143206 0.395892,
            -0.195139 0.143206 0.395892,
            -0.307484 0.143206 0.395892,
            -0.307484 -0.143206 0.395892,
            0.307484 0.15 0.388033,
            0.307484 0.15 0.023751,
            0.195334 0.15 0.023751,
            0.195334 0.15 0.388033,
            -0.307484 0.15 0.023751,
            -0.307484 0.15 0.388033,
            -0.195139 0.15 0.388033,
            -0.195139 0.15 0.023751,
            0.307484 -0.143206 0.395892,
            0.307484 0.143206 0.395892,
            0.195334 0.143206 0.395892,
            0.195334 -0.143206 0.395892,
          ]
        }
        normal Normal {
          vector [
            -0.5945 0 0.8041,
            -0.5945 0 -0.8041,
            -0.5945 0 0.8041,
            -0.5945 0 -0.8041,
            -0.5385 -0.8426 0,
            -0.5385 0.8426 0,
            -0.5385 -0.8426 0,
            -0.5385 0.8426 0,
            -0.2725 -0.7279 0.6292,
            -0.2725 0.7279 0.6292,
            -0.2725 -0.7279 -0.6292,
            -0.2725 0.7279 -0.6292,
            -0.2725 -0.7279 0.6292,
            -0.2725 0.7279 0.6292,
            -0.2725 -0.7279 -0.6292,
            -0.2725 0.7279 -0.6292,
            -0.1078 -0.7521 0.6501,
            -0.1078 0.7521 0.6501,
            -0.1078 -0.7521 -0.6501,
            -0.1078 0.7521 -0.6501,
            -0.1078 -0.7521 0.6501,
            -0.1078 0.7521 0.6501,
            -0.1078 -0.7521 -0.6501,
            -0.1078 0.7521 -0.6501,
            -0.1041 -0.7524 0.6504,
            -0.1041 0.7524 0.6504,
            -0.1041 -0.7524 -0.6504,
            -0.1041 0.7524 -0.6504,
            -0.1041 -0.7524 0.6504,
            -0.1041 0.7524 0.6504,
            -0.1041 -0.7524 -0.6504,
            -0.1041 0.7524 -0.6504,
            0 0 1.0,
            0 -1.0 0,
            0 1.0 0,
            0 0 -1.0,
            0.1041 -0.7524 -0.6504,
            0.1041 0.7524 -0.6504,
            0.1041 -0.7524 0.6504,
            0.1041 0.7524 0.6504,
            0.1041 -0.7524 -0.6504,
            0.1041 0.7524 -0.6504,
            0.1041 -0.7524 0.6504,
            0.1041 0.7524 0.6504,
            0.1078 -0.7521 -0.6501,
            0.1078 0.7521 -0.6501,
            0.1078 -0.7521 0.6501,
            0.1078 0.7521 0.6501,
            0.1078 -0.7521 -0.6501,
            0.1078 0.7521 -0.6501,
            0.1078 -0.7521 0.6501,
            0.1078 0.7521 0.6501,
            0.2725 -0.7279 -0.6292,
            0.2725 0.7279 -0.6292,
            0.2725 -0.7279 0.6292,
            0.2725 0.7279 0.6292,
            0.2725 -0.7279 -0.6292,
            0.2725 0.7279 -0.6292,
            0.2725 -0.7279 0.6292,
            0.2725 0.7279 0.6292,
            0.5385 -0.8426 0,
            0.5385 0.8426 0,
            0.5385 -0.8426 0,
            0.5385 0.8426 0,
            0.5945 0 -0.8041,
            0.5945 0 0.8041,
            0.5945 0 -0.8041,
            0.5945 0 0.8041,
          ]
        }
        colorIndex [ ]
        coordIndex [
          0, 2, 19, -1,
          19, 18, 0, -1,
          0, 18, 35, -1,
          0, 35, 34, -1,
          34, 1, 0, -1,
          1, 34, 41, -1,
          1, 41, 40, -1,
          40, 3, 1, -1,
          2, 3, 31, -1,
          31, 30, 2, -1,
          2, 30, 19, -1,
          3, 40, 31, -1,
          4, 5, 33, -1,
          33, 32, 4, -1,
          4, 17, 16, -1,
          16, 6, 4, -1,
          4, 32, 17, -1,
          5, 7, 43, -1,
          43, 42, 5, -1,
          5, 42, 33, -1,
          6, 16, 29, -1,
          6, 29, 28, -1,
          28, 7, 6, -1,
          7, 28, 43, -1,
          8, 10, 37, -1,
          37, 36, 8, -1,
          8, 36, 45, -1,
          8, 45, 44, -1,
          44, 9, 8, -1,
          9, 27, 26, -1,
          26, 11, 9, -1,
          9, 44, 27, -1,
          10, 11, 21, -1,
          21, 20, 10, -1,
          10, 20, 37, -1,
          11, 26, 21, -1,
          12, 14, 25, -1,
          25, 24, 12, -1,
          12, 24, 47, -1,
          12, 47, 46, -1,
          46, 13, 12, -1,
          13, 39, 38, -1,
          38, 15, 13, -1,
          13, 46, 39, -1,
          14, 15, 23, -1,
          23, 22, 14, -1,
          14, 22, 25, -1,
          15, 38, 23, -1,
          16, 17, 18, -1,
          18, 19, 16, -1,
          16, 19, 30, -1,
          30, 29, 16, -1,
          17, 32, 35, -1,
          35, 18, 17, -1,
          20, 21, 22, -1,
          22, 23, 20, -1,
          20, 23, 38, -1,
          38, 37, 20, -1,
          21, 26, 25, -1,
          25, 22, 21, -1,
          24, 25, 26, -1,
          26, 27, 24, -1,
          24, 27, 44, -1,
          44, 47, 24, -1,
          28, 29, 30, -1,
          30, 31, 28, -1,
          28, 31, 40, -1,
          40, 43, 28, -1,
          32, 33, 34, -1,
          34, 35, 32, -1,
          33, 42, 41, -1,
          41, 34, 33, -1,
          36, 37, 38, -1,
          38, 39, 36, -1,
          36, 39, 46, -1,
          46, 45, 36, -1,
          40, 41, 42, -1,
          42, 43, 40, -1,
          44, 45, 46, -1,
          46, 47, 44, -1,
        ]
        creaseAngle 1.5708
        solid TRUE
        normalIndex [
          4, 4, 4, -1,
          4, 4, 4, -1,
          8, 16, 24, -1,
          0, 0, 0, -1,
          0, 0, 0, -1,
          9, 25, 17, -1,
          5, 5, 5, -1,
          5, 5, 5, -1,
          1, 1, 1, -1,
          1, 1, 1, -1,
          10, 26, 18, -1,
          11, 19, 27, -1,
          65, 65, 65, -1,
          65, 65, 65, -1,
          60, 60, 60, -1,
          60, 60, 60, -1,
          54, 38, 46, -1,
          61, 61, 61, -1,
          61, 61, 61, -1,
          55, 47, 39, -1,
          52, 44, 36, -1,
          64, 64, 64, -1,
          64, 64, 64, -1,
          53, 37, 45, -1,
          63, 63, 63, -1,
          63, 63, 63, -1,
          59, 51, 43, -1,
          67, 67, 67, -1,
          67, 67, 67, -1,
          62, 62, 62, -1,
          62, 62, 62, -1,
          58, 42, 50, -1,
          66, 66, 66, -1,
          66, 66, 66, -1,
          57, 41, 49, -1,
          56, 48, 40, -1,
          6, 6, 6, -1,
          6, 6, 6, -1,
          12, 20, 28, -1,
          2, 2, 2, -1,
          2, 2, 2, -1,
          7, 7, 7, -1,
          7, 7, 7, -1,
          13, 29, 21, -1,
          3, 3, 3, -1,
          3, 3, 3, -1,
          14, 30, 22, -1,
          15, 23, 31, -1,
          33, 33, 33, -1,
          33, 33, 33, -1,
          44, 18, 26, -1,
          26, 36, 44, -1,
          46, 38, 24, -1,
          24, 16, 46, -1,
          35, 35, 35, -1,
          35, 35, 35, -1,
          41, 31, 23, -1,
          23, 49, 41, -1,
          40, 48, 22, -1,
          22, 30, 40, -1,
          33, 33, 33, -1,
          33, 33, 33, -1,
          20, 50, 42, -1,
          42, 28, 20, -1,
          35, 35, 35, -1,
          35, 35, 35, -1,
          37, 27, 19, -1,
          19, 45, 37, -1,
          32, 32, 32, -1,
          32, 32, 32, -1,
          39, 47, 17, -1,
          17, 25, 39, -1,
          34, 34, 34, -1,
          34, 34, 34, -1,
          51, 21, 29, -1,
          29, 43, 51, -1,
          34, 34, 34, -1,
          34, 34, 34, -1,
          32, 32, 32, -1,
          32, 32, 32, -1,
        ]
        normalPerVertex TRUE
      }
    }
  ]
}
